<svg id="map" xmlns="http://www.w3.org/2000/svg" width="1918" height="1042" viewBox="0 0 1918 1042">
  <defs>
    <style>
      .cls-1 {
        fill: #7a797a;
      }

      .cls-2 {
        fill: #c0539f;
      }

      .cls-3 {
        fill: #949393;
      }

      .cls-4 {
        fill: #ff2939;
      }

      .cls-5 {
        opacity: 0.2;
      }

      .cls-6, .cls-9 {
        fill: none;
        stroke-miterlimit: 10;
      }

      .cls-6 {
        stroke: #3f3f3f;
        stroke-width: 2px;
      }

      .cls-7 {
        fill: #fff;
      }

      .cls-8 {
        fill: #454546;
      }

      .cls-9 {
        stroke: #fff;
        stroke-linecap: round;
        stroke-width: 1.45px;
      }
    </style>
  </defs>
  <title>ARI_1FW</title>
  <g id="ground">
    <polygon class="cls-1" points="252 0 252 682 181 682 180 744 46 744 46 730 0 730 0 888 16 902 174 902 214 908 216 896 242 900 242 1030 860 1030 962 1042 962 1030 1064 1036 1266 1036 1382 1020 1382 1034 1484 1022 1484 1038 1578 1028 1770 1028 1770 892 1792 892 1804 878 1798 858 1918 832 1918 740 1886 740 1886 750 1831 750 1830 676 1758 676 1758 0 960 0 960 48 848 50 846 0 252 0"/>
  </g>
  <g id="footprint">
    <g id="programming">
      <polyline class="cls-2" points="242 900 398 922 398 840 242 840 242 900 242 900"/>
      <polygon class="cls-2" points="850 0 850 738 252 738 252 143 440 143 440 0 850 0"/>
      <rect class="cls-2" x="252" width="182" height="136"/>
      <rect class="cls-2" x="1424" width="334" height="142"/>
      <rect class="cls-2" x="1430" y="568" width="328" height="172"/>
      <rect class="cls-2" x="994" y="568" width="222" height="172"/>
      <rect class="cls-2" x="1224" y="568" width="200" height="172"/>
      <rect class="cls-2" x="994" y="178" width="764" height="380"/>
      <rect class="cls-2" x="996" width="420" height="142"/>
    </g>
    <g id="restrooms">
      <polygon class="cls-3" points="0 730 0 888 16 902 174 902 174 742 46 742 46 730 0 730"/>
      <polygon class="cls-3" points="1770 842 1770 1028 1578 1028 1578 1020 1560 876 1588 876 1588 868 1604 868 1604 858 1668 858 1668 880 1714 880 1714 844 1770 842"/>
    </g>
    <g id="building">
      <polygon class="cls-3" points="242 1030 242 900 548 942 548 920 584 920 584 930 612 930 612 920 660 920 660 930 688 930 688 938 720 938 720 930 766 930 766 920 790 920 790 930 824 930 824 918 946 918 946 928 966 928 966 918 988 918 988 928 1020 928 1020 920 1046 920 1046 926 1068 926 1068 918 1092 918 1092 928 1128 928 1128 922 1158 922 1158 940 1190 940 1190 922 1210 922 1210 932 1220 932 1220 924 1250 924 1250 916 1318 910 1320 918 1350 914 1348 906 1368 902 1368 894 1390 894 1390 902 1422 898 1422 886 1446 884 1446 896 1560 876 1578 1028 1484 1038 1484 1022 1384 1034 1382 1020 1266 1036 1064 1036 962 1030 962 1042 860 1031 242 1030"/>
    </g>
  </g>
  <g id="points">
    <rect id="ARI_194" class="cls-4" x="408" y="840" width="68" height="66"/>
    <polyline id="ARI_590" class="cls-4" points="242 900 398 922 398 840 242 840 242 900 242 900"/>
    <polygon id="ARI_592" class="cls-4" points="850 0 850 738 252 738 252 144 440 144 440 0 850 0"/>
    <rect id="ARI_598" class="cls-4" x="252" width="182" height="136"/>
    <rect id="ARI_599" class="cls-4" x="1424" width="334" height="142"/>
    <rect id="ARI_600" class="cls-4" x="996" width="420" height="142"/>
    <rect id="ARI_602" class="cls-4" x="1430" y="568" width="328" height="172"/>
    <rect id="ARI_603" class="cls-4" x="1224" y="568" width="200" height="172"/>
    <rect id="ARI_604" class="cls-4" x="994" y="568" width="222" height="172"/>
    <rect id="ARI_601" class="cls-4" x="994" y="178" width="764" height="380"/>
    <rect id="ARI_426" class="cls-4" x="180.21" y="686.11" width="66" height="66"/>
  </g>
  <g id="bounds" class="cls-5">
    <rect id="_ARI_194" class="cls-4" x="408" y="840" width="68" height="66"/>
    <rect id="_ARI_590" class="cls-4" x="242" y="840" width="156" height="82"/>
    <rect id="_ARI_592" class="cls-4" x="252" width="598" height="738"/>
    <rect id="_ARI_598" class="cls-4" x="252" width="182" height="136"/>
    <rect id="_ARI_599" class="cls-4" x="1424" width="334" height="142"/>
    <rect id="_ARI_600" class="cls-4" x="996" width="420" height="142"/>
    <rect id="_ARI_602" class="cls-4" x="1430" y="568" width="328" height="172"/>
    <rect id="_ARI_603" class="cls-4" x="1224" y="568" width="200" height="172"/>
    <rect id="_ARI_604" class="cls-4" x="994" y="568" width="222" height="172"/>
    <rect id="_ARI_601" class="cls-4" x="994" y="178" width="764" height="380"/>
    <rect id="_ARI_426" class="cls-4" x="180.21" y="686.11" width="66" height="66"/>
  </g>
  <g id="paths">
    <g id="ARI_426-2" data-name="ARI_426">
      <polyline id="ARI_426-ARI_590" class="cls-6" points="322 838 322 809.5 220.5 809.5 220.5 754"/>
      <polyline id="ARI_426-ARI_604" class="cls-6" points="992 650 930 650 930 762 226 762 226 750"/>
      <polyline id="ARI_426-ARI_599" class="cls-6" points="1510 142 1510 160 916 160 916 762 210 762 210 750"/>
      <polyline id="ARI_426-ARI_600" class="cls-6" points="1096 142 1096 160 916 160 916 762 210 762 210 750"/>
      <polyline id="ARI_426-ARI_601" class="cls-6" points="992 362 922 362 922 762 216 762 216 750"/>
      <polyline id="ARI_426-ARI_602" class="cls-6" points="1712 738 1712 770 214 770 214 754"/>
      <polyline id="ARI_426-ARI_603" class="cls-6" points="1392 738 1392 770 214 770 214 754"/>
      <polyline id="ARI_426-ARI_592" class="cls-6" points="592 738 592 782 218 782 218 754"/>
      <polyline id="ARI_426-ARI_598" class="cls-6" points="432 64 556 64 556 782 214 782 214 756"/>
      <polyline id="ARI_426-ARI_194" class="cls-6" points="450 838 450 782 218 782 218 754"/>
    </g>
    <g id="ARI_194-2" data-name="ARI_194">
      <polyline id="ARI_194-ARI_590" class="cls-6" points="322 838 322 809.5 451 809.5 451 834"/>
      <polyline id="ARI_194-ARI_604" class="cls-6" points="992 650 930 650 930 762 438 762 438 834"/>
      <polyline id="ARI_194-ARI_599" class="cls-6" points="1510 142 1510 160 916 160 916 762 446 762 446 834"/>
      <polyline id="ARI_194-ARI_600" class="cls-6" points="1096 142 1096 160 916 160 916 762 442 762 442 850"/>
      <polyline id="ARI_194-ARI_601" class="cls-6" points="992 362 922 362 922 762 442 762 442 834"/>
      <polyline id="ARI_194-ARI_602" class="cls-6" points="1712 738 1712 770 438 770 438 850"/>
      <polyline id="ARI_194-ARI_603" class="cls-6" points="1392 738 1392 770 436 770 436 850"/>
      <polyline id="ARI_194-ARI_592" class="cls-6" points="592 738 592 782 432 782 432 850"/>
      <polyline id="ARI_194-ARI_598" class="cls-6" points="432 64 556 64 556 782 444 782 444 850"/>
      <polyline id="ARI_194-ARI_426" class="cls-6" points="214 754 214 809.5 451 809.5 451 834"/>
    </g>
  </g>
  <g id="icons">
    <g>
      <g>
        <rect x="404.98" y="836.59" width="73.02" height="73.02"/>
        <path class="cls-7" d="M517.11,1311.48v67.23H449.88v-67.23h67.23m2.89-2.89H447v73h73v-73Z" transform="translate(-42 -472)"/>
      </g>
      <g>
        <path class="cls-7" d="M505.11,1348.63c-1.69-.05-3.37,0-5.06,0a1.51,1.51,0,0,1-1.2-.49l-6.79-6.64q0-4.59,0-9.18c0-2.3-.92-3.58-2.57-3.6-.75,0-1.5,0-2.25,0-1.46.06-2.38,1.36-2.39,3.36,0,.75-.07,1.53-.08,2.29q-5.55-5.41-11.09-10.84a1.64,1.64,0,0,0-1.26-.5c-3.47,0-6.93,0-10.39,0a6.55,6.55,0,0,0-2.18,12.65,8.33,8.33,0,0,0,2.53.47c1.59.08,3.19,0,4.78,0a1.73,1.73,0,0,1,1.07.43q12.61,12.27,25.2,24.59a1.74,1.74,0,0,0,1.37.56c1.67,0,3.33,0,5,0v-.11a54.56,54.56,0,0,0,6,0,6.41,6.41,0,0,0,5.52-7A6.52,6.52,0,0,0,505.11,1348.63Z" transform="translate(-42 -472)"/>
        <path class="cls-7" d="M488.44,1321.82a2.9,2.9,0,0,0,0,5.79,2.9,2.9,0,1,0,0-5.79Z" transform="translate(-42 -472)"/>
        <path class="cls-7" d="M484.11,1370.16a.63.63,0,0,1-.46-.19l-27.44-26.17a.67.67,0,0,1,0-1,.68.68,0,0,1,.95,0L484.58,1369a.69.69,0,0,1,0,1A.67.67,0,0,1,484.11,1370.16Z" transform="translate(-42 -472)"/>
        <path class="cls-7" d="M456.62,1349.89a.68.68,0,0,1-.68-.65l-.17-6.11a.68.68,0,0,1,.66-.69l6.11-.17a.69.69,0,0,1,.69.65.68.68,0,0,1-.66.69l-5.43.15.15,5.44a.68.68,0,0,1-.66.69Z" transform="translate(-42 -472)"/>
        <path class="cls-7" d="M478.2,1370.57a.67.67,0,1,1,0-1.34l5.44-.16-.16-5.43a.68.68,0,0,1,.66-.69h0a.67.67,0,0,1,.68.65l.17,6.11a.68.68,0,0,1-.66.69l-6.11.17Z" transform="translate(-42 -472)"/>
      </g>
    </g>
    <g>
      <g>
        <rect x="1192.98" y="836.59" width="73.02" height="73.02"/>
        <path class="cls-7" d="M1305.11,1311.48v67.23h-67.23v-67.23h67.23m2.89-2.89h-73v73h73v-73Z" transform="translate(-42 -472)"/>
      </g>
      <g>
        <path class="cls-7" d="M1293.11,1348.63c-1.69-.05-3.37,0-5.06,0a1.51,1.51,0,0,1-1.2-.49l-6.79-6.64q0-4.59,0-9.18c0-2.3-.92-3.58-2.57-3.6-.75,0-1.5,0-2.25,0-1.46.06-2.38,1.36-2.39,3.36,0,.75-.07,1.53-.08,2.29q-5.55-5.41-11.09-10.84a1.64,1.64,0,0,0-1.26-.5c-3.47,0-6.93,0-10.39,0a6.55,6.55,0,0,0-2.18,12.65,8.33,8.33,0,0,0,2.53.47c1.59.08,3.19,0,4.78,0a1.73,1.73,0,0,1,1.07.43q12.62,12.27,25.2,24.59a1.74,1.74,0,0,0,1.37.56c1.67,0,3.33,0,5,0v-.11a54.56,54.56,0,0,0,6,0,6.41,6.41,0,0,0,5.52-7A6.52,6.52,0,0,0,1293.11,1348.63Z" transform="translate(-42 -472)"/>
        <path class="cls-7" d="M1276.44,1321.82a2.9,2.9,0,0,0,0,5.79,2.9,2.9,0,1,0,0-5.79Z" transform="translate(-42 -472)"/>
        <path class="cls-7" d="M1272.11,1370.16a.63.63,0,0,1-.46-.19l-27.44-26.17a.67.67,0,0,1,0-1,.68.68,0,0,1,1,0l27.44,26.17a.69.69,0,0,1,0,1A.67.67,0,0,1,1272.11,1370.16Z" transform="translate(-42 -472)"/>
        <path class="cls-7" d="M1244.62,1349.89a.68.68,0,0,1-.68-.65l-.17-6.11a.68.68,0,0,1,.66-.69l6.11-.17a.69.69,0,0,1,.69.65.68.68,0,0,1-.66.69l-5.43.15.15,5.44a.68.68,0,0,1-.66.69Z" transform="translate(-42 -472)"/>
        <path class="cls-7" d="M1266.2,1370.57a.67.67,0,1,1,0-1.34l5.44-.16-.16-5.43a.68.68,0,0,1,.66-.69h0a.67.67,0,0,1,.68.65l.17,6.11a.68.68,0,0,1-.66.69l-6.11.17Z" transform="translate(-42 -472)"/>
      </g>
    </g>
    <g>
      <g>
        <rect x="1642.45" y="911.26" width="73.02" height="73.02"/>
        <path class="cls-7" d="M1754.57,1386.15v67.23h-67.23v-67.23h67.23m2.89-2.89h-73v73h73v-73Z" transform="translate(-42 -472)"/>
      </g>
      <g>
        <g>
          <g>
            <path class="cls-7" d="M1702,1405.35a3.61,3.61,0,1,0-3.61-3.61A3.61,3.61,0,0,0,1702,1405.35Z" transform="translate(-42 -472)"/>
            <path class="cls-8" d="M1702,1401.74" transform="translate(-42 -472)"/>
          </g>
          <path class="cls-7" d="M1698.09,1406.15a4.63,4.63,0,0,0-4.61,4.68v11.09a1.58,1.58,0,1,0,3.15,0v-10.14h.75v27.76a2.1,2.1,0,1,0,4.2,0v-16.11h.72v16.11a2.12,2.12,0,1,0,4.23,0v-27.76h.73v10.14a1.57,1.57,0,1,0,3.13,0v-11a4.7,4.7,0,0,0-4.67-4.75Z" transform="translate(-42 -472)"/>
        </g>
        <g>
          <g>
            <path class="cls-7" d="M1738.47,1405.21a3.54,3.54,0,1,0-3.54-3.54A3.55,3.55,0,0,0,1738.47,1405.21Z" transform="translate(-42 -472)"/>
            <path class="cls-8" d="M1738.47,1401.67" transform="translate(-42 -472)"/>
          </g>
          <path class="cls-7" d="M1738,1427.66v12.25a1.67,1.67,0,1,1-3.34,0v-12.17h-4.48l4.79-16.62h-.74l-2.79,9.38a1.51,1.51,0,1,1-2.83-1l3.09-10.18a4.68,4.68,0,0,1,4.35-3.22h4.87a4.81,4.81,0,0,1,4.37,3.22l3.1,10.17c.62,2.19-2.17,3.1-2.83,1l-2.79-9.34h-.8l4.83,16.62h-4.49v12.19a1.66,1.66,0,0,1-3.32,0v-12.27Z" transform="translate(-42 -472)"/>
        </g>
        <line class="cls-9" x1="1678.19" y1="970.06" x2="1678.19" y2="926.13"/>
      </g>
    </g>
    <g>
      <g>
        <rect x="657.98" y="780.09" width="72.91" height="72.91"/>
        <path class="cls-7" d="M770,1255v67.14H702.87V1255H770m2.89-2.88H700V1325H772.9v-72.91Z" transform="translate(-42 -472)"/>
      </g>
      <path class="cls-7" d="M728.14,1310.66H712.77a3,3,0,0,1,0-5.93h9.45v-14.25h12.19V1277H746v-10.54h14.16a3,3,0,1,1,0,5.92h-8.24v10.54H740.34v13.52h-12.2Z" transform="translate(-42 -472)"/>
    </g>
    <g>
      <g>
        <rect x="47.44" y="781.46" width="73.02" height="73.02"/>
        <path class="cls-7" d="M159.57,1256.36v67.23H92.33v-67.23h67.24m2.89-2.9h-73v73h73v-73Z" transform="translate(-42 -472)"/>
      </g>
      <g>
        <g>
          <g>
            <path class="cls-7" d="M107,1275.56a3.62,3.62,0,1,0-3.61-3.62A3.61,3.61,0,0,0,107,1275.56Z" transform="translate(-42 -472)"/>
            <path class="cls-8" d="M107,1271.94" transform="translate(-42 -472)"/>
          </g>
          <path class="cls-7" d="M103.09,1276.35a4.64,4.64,0,0,0-4.62,4.69v11.09a1.58,1.58,0,1,0,3.16,0V1282h.75v27.76a2.1,2.1,0,1,0,4.2,0v-16.12h.72v16.12a2.11,2.11,0,1,0,4.22,0V1282h.73v10.14a1.57,1.57,0,1,0,3.14,0v-11a4.71,4.71,0,0,0-4.67-4.75Z" transform="translate(-42 -472)"/>
        </g>
        <g>
          <g>
            <path class="cls-7" d="M143.47,1275.41a3.54,3.54,0,1,0-3.54-3.54A3.53,3.53,0,0,0,143.47,1275.41Z" transform="translate(-42 -472)"/>
            <path class="cls-8" d="M143.47,1271.87" transform="translate(-42 -472)"/>
          </g>
          <path class="cls-7" d="M142.94,1297.86v12.26a1.67,1.67,0,1,1-3.33,0V1298h-4.49l4.8-16.62h-.75l-2.78,9.37a1.51,1.51,0,1,1-2.83-1l3.09-10.19a4.67,4.67,0,0,1,4.34-3.22h4.87a4.84,4.84,0,0,1,4.38,3.22l3.1,10.18c.61,2.19-2.17,3.09-2.83,1l-2.79-9.34h-.81l4.83,16.62h-4.48v12.19a1.67,1.67,0,0,1-3.33,0v-12.28Z" transform="translate(-42 -472)"/>
        </g>
        <line class="cls-9" x1="83.19" y1="840.27" x2="83.19" y2="796.33"/>
      </g>
    </g>
    <g>
      <g>
        <rect x="178.51" y="680.41" width="73.02" height="73.02"/>
        <path class="cls-7" d="M290.63,1155.3v67.24H223.4V1155.3h67.23m2.9-2.89h-73v73h73v-73Z" transform="translate(-42 -472)"/>
      </g>
      <g>
        <g>
          <path class="cls-7" d="M274.54,1183v7.87a5.21,5.21,0,0,1-.09.59,1,1,0,0,1-.86.72,4.43,4.43,0,0,1-.64,0v-8a1.94,1.94,0,0,0,0-.34.6.6,0,0,0-.6-.53.59.59,0,0,0-.58.57v17.36a2.83,2.83,0,0,1-.15.81,1,1,0,0,1-1.14.54,1,1,0,0,1-.83-.92,2.81,2.81,0,0,1,0-.3V1193a1.62,1.62,0,0,0,0-.31.61.61,0,0,0-.57-.5.59.59,0,0,0-.58.5,1.09,1.09,0,0,0,0,.31v8.54a1.05,1.05,0,0,1-1.19,1.11,1.08,1.08,0,0,1-.91-1,1.22,1.22,0,0,1,0-.27c0-5.72,0-11.45,0-17.16,0-.12,0-.26,0-.38a.61.61,0,0,0-.65-.48.62.62,0,0,0-.54.6v8.19a1.14,1.14,0,0,1-1.53-1.15c0-2.67,0-5.36,0-8a2.72,2.72,0,0,1,2.85-2.83h5.25A2.74,2.74,0,0,1,274.54,1183Z" transform="translate(-42 -472)"/>
          <path class="cls-7" d="M258.67,1190.27q-.94-4-1.92-8a2.71,2.71,0,0,0-2.79-2.19h-3a2.71,2.71,0,0,0-2.82,2.19c-.66,2.68-1.31,5.38-1.95,8.08a1,1,0,0,0,.57,1.22,4.36,4.36,0,0,0,.72.22c.36-1.5.7-3,1.05-4.41q.42-1.8.87-3.6a.59.59,0,0,1,.45-.49c.48-.09.81.3.69.81-.74,3.06-1.46,6.1-2.18,9.16-.13.51-.25,1-.37,1.59h1.77v6.56a1.12,1.12,0,0,0,.54,1,.94.94,0,0,0,1,0,1,1,0,0,0,.54-.93v-5.87a1,1,0,0,1,0-.3.52.52,0,0,1,.54-.48.59.59,0,0,1,.58.5,2.17,2.17,0,0,1,0,.36v5.76a1,1,0,0,0,.67,1,1,1,0,0,0,1.44-1v-6.66h1.76a.59.59,0,0,1,0-.17c-.51-2.19-1-4.36-1.54-6.55-.32-1.38-.65-2.75-1-4.13a.54.54,0,0,1,.45-.7.55.55,0,0,1,.67.42.37.37,0,0,1,0,.15c.51,2.11,1,4.24,1.5,6.36.12.52.26,1,.38,1.59a2.16,2.16,0,0,1,.45-.12A1.08,1.08,0,0,0,258.67,1190.27Z" transform="translate(-42 -472)"/>
          <path class="cls-7" d="M257.82,1191.71a2.16,2.16,0,0,0-.45.12c-.12-.54-.26-1.07-.38-1.59-.49-2.12-1-4.25-1.5-6.36a.37.37,0,0,0,0-.15.55.55,0,0,0-.67-.42.54.54,0,0,0-.45.7c.31,1.38.64,2.75,1,4.13.51,2.19,1,4.36,1.54,6.55a.59.59,0,0,0,0,.17H255.1v6.66a1,1,0,0,1-1.44,1,1,1,0,0,1-.67-1v-5.76a2.17,2.17,0,0,0,0-.36.59.59,0,0,0-.58-.5.52.52,0,0,0-.54.48,1,1,0,0,0,0,.3v5.87a1,1,0,0,1-.54.93.94.94,0,0,1-1,0,1.12,1.12,0,0,1-.54-1v-6.56H248c.12-.55.24-1.08.37-1.59.72-3.06,1.44-6.1,2.18-9.16.12-.51-.21-.9-.69-.81a.59.59,0,0,0-.45.49q-.45,1.8-.87,3.6c-.35,1.46-.69,2.91-1.05,4.41a4.36,4.36,0,0,1-.72-.22,1,1,0,0,1-.57-1.22c.64-2.7,1.29-5.4,1.95-8.08a2.71,2.71,0,0,1,2.82-2.19h3a2.71,2.71,0,0,1,2.79,2.19q1,4,1.92,8A1.08,1.08,0,0,1,257.82,1191.71Z" transform="translate(-42 -472)"/>
          <path class="cls-7" d="M254.31,1177a1.92,1.92,0,0,1-1.88,1.86,1.87,1.87,0,0,1,0-3.74A1.91,1.91,0,0,1,254.31,1177Z" transform="translate(-42 -472)"/>
          <path class="cls-7" d="M270.94,1176.92a1.91,1.91,0,0,1-1.85,1.89,1.88,1.88,0,0,1-1.9-1.91,1.81,1.81,0,0,1,1.86-1.83A1.89,1.89,0,0,1,270.94,1176.92Z" transform="translate(-42 -472)"/>
          <path class="cls-7" d="M241.47,1183v7.87a5.21,5.21,0,0,1-.09.59,1,1,0,0,1-.86.72,4.43,4.43,0,0,1-.64,0v-8a1.94,1.94,0,0,0,0-.34.6.6,0,0,0-.6-.53.59.59,0,0,0-.58.57v17.36a2.83,2.83,0,0,1-.15.81,1,1,0,0,1-1.14.54,1,1,0,0,1-.83-.92,2.81,2.81,0,0,1,0-.3V1193a1.62,1.62,0,0,0,0-.31.61.61,0,0,0-.57-.5.59.59,0,0,0-.58.5,1.09,1.09,0,0,0,0,.31v8.54a1.05,1.05,0,0,1-1.19,1.11,1.08,1.08,0,0,1-.91-1,1.22,1.22,0,0,1,0-.27c0-5.72,0-11.45,0-17.16,0-.12,0-.26,0-.38a.61.61,0,0,0-.65-.48.62.62,0,0,0-.54.6v8.19a1.14,1.14,0,0,1-1.53-1.15c0-2.67,0-5.36,0-8a2.72,2.72,0,0,1,2.85-2.83h5.25A2.74,2.74,0,0,1,241.47,1183Z" transform="translate(-42 -472)"/>
          <path class="cls-7" d="M237.87,1176.92a1.91,1.91,0,0,1-1.85,1.89,1.88,1.88,0,0,1-1.9-1.91,1.81,1.81,0,0,1,1.86-1.83A1.89,1.89,0,0,1,237.87,1176.92Z" transform="translate(-42 -472)"/>
        </g>
        <path class="cls-7" d="M279.64,1177.41v23l-1.64-1.64a.61.61,0,1,0-.86.86l3.11,3.11,3.11-3.11a.62.62,0,0,0,0-.86.6.6,0,0,0-.86,0l-1.64,1.64v-23h0l1.64,1.53a.6.6,0,0,0,.86,0,.61.61,0,0,0,0-.85l-3.11-3.11-3.11,3.11a.59.59,0,0,0,0,.85.6.6,0,0,0,.86,0" transform="translate(-42 -472)"/>
      </g>
    </g>
  </g>
  <g id="labels">
    <g>
      <path class="cls-7" d="M1495.25,553.08V526.75h9.46a9.31,9.31,0,0,1,6.14,1.93,6.27,6.27,0,0,1,2.34,5.06,6,6,0,0,1-.9,3.32,5.71,5.71,0,0,1-2.64,2.15,7,7,0,0,1,3.71,2.37,6.46,6.46,0,0,1,1.27,4,6.6,6.6,0,0,1-2.54,5.44,10.75,10.75,0,0,1-6.84,2Zm5.4-22.27v6.92h3.3q3.69,0,3.69-3.42t-3.38-3.5Zm0,10.79V549h4.48q3.88,0,3.88-3.64t-4.14-3.77Z" transform="translate(-42 -472)"/>
      <path class="cls-7" d="M1519.27,553.08V526.75h10.14a9.33,9.33,0,0,1,6.5,2.16,7.55,7.55,0,0,1,2.4,5.89,7.08,7.08,0,0,1-1.26,4.11,8.3,8.3,0,0,1-3.53,2.84l6.53,11.33h-5.89l-5.7-10.22h-3.72v10.22Zm5.47-14.17h4c2.66,0,4-1.35,4-4s-1.3-4-3.91-4h-4Z" transform="translate(-42 -472)"/>
      <path class="cls-7" d="M1543.62,553.08V526.75h5.71v26.33Z" transform="translate(-42 -472)"/>
      <path class="cls-7" d="M1560.69,541.57a11.29,11.29,0,0,1-4.87-3.06,7.62,7.62,0,0,1,1.16-10.28,11,11,0,0,1,7.09-2.13,20.36,20.36,0,0,1,7.3,1.37v4.33a23.29,23.29,0,0,0-6.85-1.14c-3,0-4.48,1-4.48,2.89a2.2,2.2,0,0,0,.78,1.74,9.59,9.59,0,0,0,2.91,1.45l2.81,1a12.14,12.14,0,0,1,5,3,6.61,6.61,0,0,1,1.5,4.5,7.46,7.46,0,0,1-2.81,6.17,11.94,11.94,0,0,1-7.71,2.27,23.62,23.62,0,0,1-4.26-.4,16.3,16.3,0,0,1-3.65-1.09v-4.33a31.61,31.61,0,0,0,4.07.91,25.12,25.12,0,0,0,3.91.35,6.21,6.21,0,0,0,3.46-.82,2.67,2.67,0,0,0,1.22-2.34,2.43,2.43,0,0,0-.74-1.86,9.92,9.92,0,0,0-3-1.52Z" transform="translate(-42 -472)"/>
      <path class="cls-7" d="M1583.22,553.08V531.3h-8v-4.55h21.74v4.55h-8v21.78Z" transform="translate(-42 -472)"/>
      <path class="cls-7" d="M1600.43,553.08V526.75h5.7v21.77h11.56v4.56Z" transform="translate(-42 -472)"/>
      <path class="cls-7" d="M1621.07,553.08V526.75h17.33v4.4h-11.63v6.23h9.46v4.41h-9.46v6.88h11.63v4.41Z" transform="translate(-42 -472)"/>
      <path class="cls-7" d="M1661.42,552.4a19.21,19.21,0,0,1-6.88,1.17q-6.42,0-9.72-3.44T1641.51,540q0-6.57,3.46-10.18t9.73-3.61a19,19,0,0,1,6.34,1.06v4.49a27.22,27.22,0,0,0-5.66-.76q-3.95,0-5.91,2.09t-2,6.38v.88q0,4.25,1.9,6.32c1.26,1.38,3.2,2.08,5.81,2.08a31.38,31.38,0,0,0,6.19-.88Z" transform="translate(-42 -472)"/>
      <path class="cls-7" d="M1663.74,539.89a16.62,16.62,0,0,1,1.5-7.29,10.88,10.88,0,0,1,4.41-4.81,15,15,0,0,1,13.74-.06,11.09,11.09,0,0,1,4.46,4.73,16.23,16.23,0,0,1,1.58,7.43,16.66,16.66,0,0,1-1.5,7.3,10.91,10.91,0,0,1-4.41,4.82,13.34,13.34,0,0,1-6.93,1.72,13.62,13.62,0,0,1-6.81-1.64,11,11,0,0,1-4.46-4.75A16.35,16.35,0,0,1,1663.74,539.89Zm5.85,0q0,4.49,1.79,6.84a6.92,6.92,0,0,0,10.41,0q1.79-2.36,1.79-6.84t-1.79-6.82a7,7,0,0,0-10.41,0Q1669.6,535.41,1669.59,539.89Z" transform="translate(-42 -472)"/>
      <path class="cls-7" d="M1699.77,534.8v18.28h-5V526.75h6.08l10.71,18.42V526.75h5v26.33h-6.08Z" transform="translate(-42 -472)"/>
      <path class="cls-7" d="M1722.64,553.08V526.75H1740v4.4h-11.63v6.23h9.46v4.41h-9.46v6.88H1740v4.41Z" transform="translate(-42 -472)"/>
      <path class="cls-7" d="M1754.29,529.14a15,15,0,0,1,4.17-2.34,13.62,13.62,0,0,1,4.5-.7,8.23,8.23,0,0,1,5.79,2,6.9,6.9,0,0,1,2.19,5.32,9,9,0,0,1-1.1,4.11,24.21,24.21,0,0,1-3.5,4.8,88.7,88.7,0,0,1-6.42,6.33H1772v4.41h-18.39V549q4.86-4.9,7.28-7.66a28.09,28.09,0,0,0,3.34-4.43,6.4,6.4,0,0,0,.93-3.08,3,3,0,0,0-.87-2.26,3.33,3.33,0,0,0-2.36-.81,10.2,10.2,0,0,0-3.65.76,18.69,18.69,0,0,0-4,2.16Z" transform="translate(-42 -472)"/>
    </g>
    <g>
      <path class="cls-7" d="M1118.25,553.08V526.75h9.46a9.31,9.31,0,0,1,6.14,1.93,6.27,6.27,0,0,1,2.34,5.06,6,6,0,0,1-.9,3.32,5.71,5.71,0,0,1-2.64,2.15,7,7,0,0,1,3.71,2.37,6.46,6.46,0,0,1,1.27,4,6.6,6.6,0,0,1-2.54,5.44,10.75,10.75,0,0,1-6.84,2Zm5.4-22.27v6.92h3.3q3.69,0,3.69-3.42t-3.38-3.5Zm0,10.79V549h4.48q3.88,0,3.88-3.64t-4.14-3.77Z" transform="translate(-42 -472)"/>
      <path class="cls-7" d="M1142.27,553.08V526.75h10.14a9.33,9.33,0,0,1,6.5,2.16,7.55,7.55,0,0,1,2.4,5.89,7.08,7.08,0,0,1-1.26,4.11,8.3,8.3,0,0,1-3.53,2.84l6.53,11.33h-5.89l-5.7-10.22h-3.72v10.22Zm5.47-14.17h4c2.66,0,4-1.35,4-4s-1.3-4-3.91-4h-4Z" transform="translate(-42 -472)"/>
      <path class="cls-7" d="M1166.62,553.08V526.75h5.71v26.33Z" transform="translate(-42 -472)"/>
      <path class="cls-7" d="M1183.69,541.57a11.29,11.29,0,0,1-4.87-3.06,7.62,7.62,0,0,1,1.16-10.28,11,11,0,0,1,7.09-2.13,20.36,20.36,0,0,1,7.3,1.37v4.33a23.29,23.29,0,0,0-6.85-1.14c-3,0-4.48,1-4.48,2.89a2.2,2.2,0,0,0,.78,1.74,9.59,9.59,0,0,0,2.91,1.45l2.81,1a12.14,12.14,0,0,1,5,3,6.61,6.61,0,0,1,1.5,4.5,7.46,7.46,0,0,1-2.81,6.17,11.94,11.94,0,0,1-7.71,2.27,23.62,23.62,0,0,1-4.26-.4,16.3,16.3,0,0,1-3.65-1.09v-4.33a31.61,31.61,0,0,0,4.07.91,25.12,25.12,0,0,0,3.91.35,6.21,6.21,0,0,0,3.46-.82,2.67,2.67,0,0,0,1.22-2.34,2.43,2.43,0,0,0-.74-1.86,9.92,9.92,0,0,0-3-1.52Z" transform="translate(-42 -472)"/>
      <path class="cls-7" d="M1206.22,553.08V531.3h-8v-4.55h21.74v4.55h-8v21.78Z" transform="translate(-42 -472)"/>
      <path class="cls-7" d="M1223.43,553.08V526.75h5.7v21.77h11.56v4.56Z" transform="translate(-42 -472)"/>
      <path class="cls-7" d="M1244.07,553.08V526.75h17.33v4.4h-11.63v6.23h9.46v4.41h-9.46v6.88h11.63v4.41Z" transform="translate(-42 -472)"/>
      <path class="cls-7" d="M1284.42,552.4a19.21,19.21,0,0,1-6.88,1.17q-6.42,0-9.72-3.44T1264.51,540q0-6.57,3.46-10.18t9.73-3.61a19,19,0,0,1,6.34,1.06v4.49a27.22,27.22,0,0,0-5.66-.76q-3.95,0-5.91,2.09t-2,6.38v.88q0,4.25,1.9,6.32c1.26,1.38,3.2,2.08,5.81,2.08a31.38,31.38,0,0,0,6.19-.88Z" transform="translate(-42 -472)"/>
      <path class="cls-7" d="M1286.74,539.89a16.62,16.62,0,0,1,1.5-7.29,10.88,10.88,0,0,1,4.41-4.81,15,15,0,0,1,13.74-.06,11.09,11.09,0,0,1,4.46,4.73,16.23,16.23,0,0,1,1.58,7.43,16.66,16.66,0,0,1-1.5,7.3,10.91,10.91,0,0,1-4.41,4.82,13.34,13.34,0,0,1-6.93,1.72,13.62,13.62,0,0,1-6.81-1.64,11,11,0,0,1-4.46-4.75A16.35,16.35,0,0,1,1286.74,539.89Zm5.85,0q0,4.49,1.79,6.84a6.92,6.92,0,0,0,10.41,0q1.79-2.36,1.79-6.84t-1.79-6.82a7,7,0,0,0-10.41,0Q1292.6,535.41,1292.59,539.89Z" transform="translate(-42 -472)"/>
      <path class="cls-7" d="M1322.77,534.8v18.28h-5V526.75h6.08l10.71,18.42V526.75h5v26.33h-6.08Z" transform="translate(-42 -472)"/>
      <path class="cls-7" d="M1345.64,553.08V526.75H1363v4.4h-11.63v6.23h9.46v4.41h-9.46v6.88H1363v4.41Z" transform="translate(-42 -472)"/>
      <path class="cls-7" d="M1387.63,553.08v-5.21h-12.27v-4.06l11.93-17.06h5.17v16.87h3.34v4.25h-3.34v5.21Zm0-9.46V533.51l-7.07,10.11Z" transform="translate(-42 -472)"/>
    </g>
    <g>
      <path class="cls-7" d="M1307.71,843.4a19.28,19.28,0,0,1-6.88,1.17q-6.42,0-9.73-3.44T1287.79,831q0-6.57,3.46-10.18t9.73-3.61a19.1,19.1,0,0,1,6.35,1.06v4.49a27.39,27.39,0,0,0-5.67-.76q-3.95,0-5.9,2.09t-2,6.38v.88q0,4.25,1.9,6.32c1.26,1.38,3.2,2.08,5.81,2.08a31.46,31.46,0,0,0,6.2-.88Z" transform="translate(-42 -472)"/>
      <path class="cls-7" d="M1310,830.89a16.48,16.48,0,0,1,1.51-7.29,10.92,10.92,0,0,1,4.4-4.81,15,15,0,0,1,13.74-.06,11,11,0,0,1,4.46,4.73,16.11,16.11,0,0,1,1.58,7.43,16.66,16.66,0,0,1-1.5,7.3,10.91,10.91,0,0,1-4.41,4.82,13.32,13.32,0,0,1-6.93,1.72,13.56,13.56,0,0,1-6.8-1.64,11,11,0,0,1-4.47-4.75A16.35,16.35,0,0,1,1310,830.89Zm5.86,0q0,4.49,1.78,6.84a6.92,6.92,0,0,0,10.41,0q1.79-2.36,1.79-6.84t-1.79-6.82a7,7,0,0,0-10.41,0Q1315.88,826.41,1315.88,830.89Z" transform="translate(-42 -472)"/>
      <path class="cls-7" d="M1346.05,825.8v18.28h-5V817.75h6.08l10.72,18.42V817.75h5v26.33h-6.08Z" transform="translate(-42 -472)"/>
      <path class="cls-7" d="M1374.36,844.08V822.3h-8v-4.55h21.74v4.55h-8v21.78Z" transform="translate(-42 -472)"/>
      <path class="cls-7" d="M1391.57,844.08V817.75h17.33v4.4h-11.63v6.23h9.46v4.41h-9.46v6.88h11.63v4.41Z" transform="translate(-42 -472)"/>
      <path class="cls-7" d="M1418.55,825.8v18.28h-5V817.75h6.08l10.71,18.42V817.75h5v26.33h-6.08Z" transform="translate(-42 -472)"/>
      <path class="cls-7" d="M1446.86,844.08V822.3h-8v-4.55h21.74v4.55h-8v21.78Z" transform="translate(-42 -472)"/>
      <path class="cls-7" d="M1490.22,844.08V832.87h-10.49v11.21H1474V817.75h5.7v10.71h10.49V817.75h5.7v26.33Z" transform="translate(-42 -472)"/>
      <path class="cls-7" d="M1517.88,817.75h5.7v16.68q0,4.91-2.83,7.6t-8,2.7c-3.47,0-6.15-.9-8-2.68s-2.83-4.34-2.83-7.66V817.75h5.69v16.91a5.59,5.59,0,0,0,1.34,4,6,6,0,0,0,7.67,0,5.59,5.59,0,0,0,1.33-4Z" transform="translate(-42 -472)"/>
      <path class="cls-7" d="M1529.51,844.08V817.75H1539a9.33,9.33,0,0,1,6.14,1.93,6.27,6.27,0,0,1,2.34,5.06,6,6,0,0,1-.9,3.32,5.71,5.71,0,0,1-2.64,2.15,7.05,7.05,0,0,1,3.71,2.37,7.08,7.08,0,0,1-1.28,9.49,10.71,10.71,0,0,1-6.84,2Zm5.4-22.27v6.92h3.3q3.69,0,3.69-3.42t-3.38-3.5Zm0,10.79V840h4.48c2.58,0,3.88-1.21,3.88-3.64s-1.39-3.77-4.15-3.77Z" transform="translate(-42 -472)"/>
      <path class="cls-7" d="M1331,872.88V856.25h6a5.88,5.88,0,0,1,3.87,1.22,3.94,3.94,0,0,1,1.48,3.19,3.83,3.83,0,0,1-.56,2.1,3.67,3.67,0,0,1-1.67,1.36,4.42,4.42,0,0,1,2.34,1.5,4.08,4.08,0,0,1,.8,2.55,4.13,4.13,0,0,1-1.61,3.44,6.75,6.75,0,0,1-4.32,1.27Zm3.41-14.07v4.37h2.09c1.55,0,2.33-.72,2.33-2.16a1.93,1.93,0,0,0-2.14-2.21Zm0,6.82v4.68h2.83c1.63,0,2.45-.77,2.45-2.3s-.87-2.38-2.62-2.38Z" transform="translate(-42 -472)"/>
      <path class="cls-7" d="M1346.17,872.88V856.25h6.41a5.86,5.86,0,0,1,4.1,1.37,4.74,4.74,0,0,1,1.51,3.71,4.48,4.48,0,0,1-.79,2.6,5.29,5.29,0,0,1-2.23,1.8l4.13,7.15h-3.72l-3.6-6.46h-2.36v6.46Zm3.45-9h2.5a2.24,2.24,0,0,0,2.52-2.55,2.19,2.19,0,0,0-2.47-2.49h-2.55Z" transform="translate(-42 -472)"/>
      <path class="cls-7" d="M1361.55,872.88V856.25h3.6v16.63Z" transform="translate(-42 -472)"/>
      <path class="cls-7" d="M1372.33,865.61a7,7,0,0,1-3.07-1.94,4.35,4.35,0,0,1-.94-2.89,4.4,4.4,0,0,1,1.67-3.6,6.94,6.94,0,0,1,4.47-1.34,12.9,12.9,0,0,1,4.61.86v2.74a14.67,14.67,0,0,0-4.32-.72c-1.88,0-2.83.61-2.83,1.82a1.41,1.41,0,0,0,.49,1.11,6.28,6.28,0,0,0,1.84.91l1.78.65a7.7,7.7,0,0,1,3.18,1.91,4.16,4.16,0,0,1,.94,2.84,4.74,4.74,0,0,1-1.77,3.9,7.6,7.6,0,0,1-4.88,1.43,15.19,15.19,0,0,1-2.68-.25,10.22,10.22,0,0,1-2.31-.69v-2.73a20.69,20.69,0,0,0,2.57.57,16.57,16.57,0,0,0,2.47.22,3.88,3.88,0,0,0,2.19-.52,1.67,1.67,0,0,0,.76-1.47,1.53,1.53,0,0,0-.46-1.18,6.23,6.23,0,0,0-1.89-1Z" transform="translate(-42 -472)"/>
      <path class="cls-7" d="M1386.56,872.88V859.13h-5.06v-2.88h13.72v2.88h-5.06v13.75Z" transform="translate(-42 -472)"/>
      <path class="cls-7" d="M1397.43,872.88V856.25h3.6V870h7.3v2.88Z" transform="translate(-42 -472)"/>
      <path class="cls-7" d="M1410.46,872.88V856.25h11V859h-7.35V863h6v2.78h-6v4.34h7.35v2.79Z" transform="translate(-42 -472)"/>
      <path class="cls-7" d="M1436,872.45a12.16,12.16,0,0,1-4.34.74c-2.71,0-4.75-.72-6.15-2.17s-2.08-3.57-2.08-6.37a8.94,8.94,0,0,1,2.18-6.44,8.15,8.15,0,0,1,6.15-2.28,11.83,11.83,0,0,1,4,.68v2.83a17.35,17.35,0,0,0-3.57-.48,4.9,4.9,0,0,0-3.74,1.32,5.73,5.73,0,0,0-1.23,4v.55a5.74,5.74,0,0,0,1.2,4,4.75,4.75,0,0,0,3.67,1.31,20.2,20.2,0,0,0,3.91-.55Z" transform="translate(-42 -472)"/>
      <path class="cls-7" d="M1437.42,864.55a10.4,10.4,0,0,1,.95-4.61,6.81,6.81,0,0,1,2.78-3,9.47,9.47,0,0,1,8.67,0,6.92,6.92,0,0,1,2.82,3,10.15,10.15,0,0,1,1,4.69,10.54,10.54,0,0,1-1,4.61,7,7,0,0,1-2.78,3.05,9.42,9.42,0,0,1-8.68,0,7,7,0,0,1-2.82-3A10.32,10.32,0,0,1,1437.42,864.55Zm3.69,0a7.06,7.06,0,0,0,1.13,4.32,4.38,4.38,0,0,0,6.58,0,8.87,8.87,0,0,0,0-8.63,4.42,4.42,0,0,0-6.58,0A7,7,0,0,0,1441.11,864.55Z" transform="translate(-42 -472)"/>
      <path class="cls-7" d="M1460.17,861.33v11.55H1457V856.25h3.84l6.77,11.64V856.25h3.17v16.63h-3.84Z" transform="translate(-42 -472)"/>
      <path class="cls-7" d="M1474.62,872.88V856.25h10.94V859h-7.34V863h6v2.78h-6v4.34h7.34v2.79Z" transform="translate(-42 -472)"/>
      <path class="cls-7" d="M1501.38,858.58a3.49,3.49,0,0,0-2.94,1.22,6.94,6.94,0,0,0-1.12,3.91,8,8,0,0,1,3.77-1,4.93,4.93,0,0,1,3.6,1.34,4.66,4.66,0,0,1,1.37,3.51,5.72,5.72,0,0,1-.75,2.94,5.17,5.17,0,0,1-2.12,2,6.78,6.78,0,0,1-3.23.73,5.38,5.38,0,0,1-4.58-2q-1.55-2-1.54-6a13.5,13.5,0,0,1,.83-5,6.89,6.89,0,0,1,2.42-3.23,6.46,6.46,0,0,1,3.85-1.13,10.07,10.07,0,0,1,2.16.24,7.5,7.5,0,0,1,1.88.65v2.49a9.8,9.8,0,0,0-1.74-.47A10.7,10.7,0,0,0,1501.38,858.58Zm-1.44,6.76a6.74,6.74,0,0,0-2.6.6,7.46,7.46,0,0,0,.7,3.48,2.22,2.22,0,0,0,2.06,1.08c1.64,0,2.45-.87,2.45-2.61a2.52,2.52,0,0,0-.67-1.89A2.67,2.67,0,0,0,1499.94,865.34Z" transform="translate(-42 -472)"/>
    </g>
    <g>
      <path class="cls-7" d="M1549,1131.72v-16.63h6a5.88,5.88,0,0,1,3.87,1.22,3.94,3.94,0,0,1,1.48,3.19,3.83,3.83,0,0,1-.56,2.1,3.67,3.67,0,0,1-1.67,1.36,4.42,4.42,0,0,1,2.34,1.5,4.47,4.47,0,0,1-.81,6,6.75,6.75,0,0,1-4.32,1.27Zm3.41-14.06V1122h2.09c1.55,0,2.33-.72,2.33-2.16a1.92,1.92,0,0,0-2.14-2.2Zm0,6.81v4.68h2.83c1.63,0,2.45-.77,2.45-2.3s-.87-2.38-2.62-2.38Z" transform="translate(-42 -472)"/>
      <path class="cls-7" d="M1564.17,1131.72v-16.63h6.41a5.86,5.86,0,0,1,4.1,1.37,4.75,4.75,0,0,1,1.51,3.72,4.45,4.45,0,0,1-.79,2.59,5.22,5.22,0,0,1-2.23,1.8l4.13,7.15h-3.72l-3.6-6.46h-2.36v6.46Zm3.45-9h2.5a2.24,2.24,0,0,0,2.52-2.55,2.19,2.19,0,0,0-2.47-2.49h-2.55Z" transform="translate(-42 -472)"/>
      <path class="cls-7" d="M1579.55,1131.72v-16.63h3.6v16.63Z" transform="translate(-42 -472)"/>
      <path class="cls-7" d="M1590.33,1124.45a7,7,0,0,1-3.07-1.93,4.81,4.81,0,0,1,.73-6.5,6.94,6.94,0,0,1,4.47-1.34,12.9,12.9,0,0,1,4.61.86v2.74a14.67,14.67,0,0,0-4.32-.72c-1.88,0-2.83.61-2.83,1.82a1.41,1.41,0,0,0,.49,1.11,6,6,0,0,0,1.84.91l1.78.65a7.7,7.7,0,0,1,3.18,1.91,4.16,4.16,0,0,1,.94,2.84,4.74,4.74,0,0,1-1.77,3.9,7.6,7.6,0,0,1-4.88,1.43,15.19,15.19,0,0,1-2.68-.25,10.22,10.22,0,0,1-2.31-.69v-2.73a19,19,0,0,0,2.57.57,15.33,15.33,0,0,0,2.47.22,3.88,3.88,0,0,0,2.19-.52,1.66,1.66,0,0,0,.76-1.47,1.53,1.53,0,0,0-.46-1.18,6.23,6.23,0,0,0-1.89-1Z" transform="translate(-42 -472)"/>
      <path class="cls-7" d="M1604.56,1131.72V1118h-5.06v-2.88h13.72V1118h-5.06v13.75Z" transform="translate(-42 -472)"/>
      <path class="cls-7" d="M1615.43,1131.72v-16.63h3.6v13.75h7.3v2.88Z" transform="translate(-42 -472)"/>
      <path class="cls-7" d="M1628.46,1131.72v-16.63h11v2.78h-7.35v3.94h6v2.78h-6v4.35h7.35v2.78Z" transform="translate(-42 -472)"/>
      <path class="cls-7" d="M1654,1131.29a12.16,12.16,0,0,1-4.34.74c-2.71,0-4.75-.72-6.15-2.17s-2.08-3.57-2.08-6.37a8.9,8.9,0,0,1,2.18-6.43,8.11,8.11,0,0,1,6.15-2.28,11.83,11.83,0,0,1,4,.67v2.83a17.35,17.35,0,0,0-3.57-.48,4.9,4.9,0,0,0-3.74,1.32,5.73,5.73,0,0,0-1.23,4v.55a5.74,5.74,0,0,0,1.2,4A4.75,4.75,0,0,0,1650,1129a20.2,20.2,0,0,0,3.91-.55Z" transform="translate(-42 -472)"/>
      <path class="cls-7" d="M1655.42,1123.39a10.43,10.43,0,0,1,.95-4.61,6.81,6.81,0,0,1,2.78-3,9.47,9.47,0,0,1,8.67,0,7,7,0,0,1,2.82,3,10.15,10.15,0,0,1,1,4.69,10.54,10.54,0,0,1-1,4.61,7,7,0,0,1-2.78,3,8.52,8.52,0,0,1-4.38,1.08,8.69,8.69,0,0,1-4.3-1,7.06,7.06,0,0,1-2.82-3A10.39,10.39,0,0,1,1655.42,1123.39Zm3.69,0a7.06,7.06,0,0,0,1.13,4.32,4.38,4.38,0,0,0,6.58,0,8.87,8.87,0,0,0,0-8.63,4.42,4.42,0,0,0-6.58,0A7,7,0,0,0,1659.11,1123.39Z" transform="translate(-42 -472)"/>
      <path class="cls-7" d="M1678.17,1120.18v11.54H1675v-16.63h3.84l6.77,11.64v-11.64h3.17v16.63h-3.84Z" transform="translate(-42 -472)"/>
      <path class="cls-7" d="M1692.62,1131.72v-16.63h10.94v2.78h-7.34v3.94h6v2.78h-6v4.35h7.34v2.78Z" transform="translate(-42 -472)"/>
      <path class="cls-7" d="M1713.88,1131.72l6.24-13.85h-8.33v-2.78h11.88v2.61l-6,14Z" transform="translate(-42 -472)"/>
    </g>
    <g>
      <path class="cls-7" d="M1277,1131.72v-16.63h6a5.83,5.83,0,0,1,3.87,1.22,3.94,3.94,0,0,1,1.48,3.19,3.83,3.83,0,0,1-.56,2.1,3.67,3.67,0,0,1-1.67,1.36,4.42,4.42,0,0,1,2.34,1.5,4.08,4.08,0,0,1,.8,2.55,4.13,4.13,0,0,1-1.61,3.44,6.81,6.81,0,0,1-4.32,1.27Zm3.41-14.07V1122h2.09c1.55,0,2.33-.72,2.33-2.16a1.93,1.93,0,0,0-2.14-2.21Zm0,6.82v4.68h2.83c1.63,0,2.45-.77,2.45-2.3s-.87-2.38-2.62-2.38Z" transform="translate(-42 -472)"/>
      <path class="cls-7" d="M1292.17,1131.72v-16.63h6.41a5.86,5.86,0,0,1,4.1,1.37,4.74,4.74,0,0,1,1.51,3.71,4.48,4.48,0,0,1-.79,2.6,5.29,5.29,0,0,1-2.23,1.8l4.13,7.15h-3.72l-3.6-6.46h-2.36v6.46Zm3.45-9h2.5a2.24,2.24,0,0,0,2.52-2.55,2.19,2.19,0,0,0-2.47-2.49h-2.55Z" transform="translate(-42 -472)"/>
      <path class="cls-7" d="M1307.55,1131.72v-16.63h3.6v16.63Z" transform="translate(-42 -472)"/>
      <path class="cls-7" d="M1318.33,1124.45a7,7,0,0,1-3.07-1.94,4.8,4.8,0,0,1,.73-6.49,6.94,6.94,0,0,1,4.47-1.34,12.9,12.9,0,0,1,4.61.86v2.74a14.67,14.67,0,0,0-4.32-.72c-1.88,0-2.83.61-2.83,1.82a1.41,1.41,0,0,0,.49,1.11,6.28,6.28,0,0,0,1.84.91l1.78.65a7.7,7.7,0,0,1,3.18,1.91,4.16,4.16,0,0,1,.94,2.84,4.74,4.74,0,0,1-1.77,3.9,7.6,7.6,0,0,1-4.88,1.43,15.19,15.19,0,0,1-2.68-.25,10.22,10.22,0,0,1-2.31-.69v-2.73a20.69,20.69,0,0,0,2.57.57,16.57,16.57,0,0,0,2.47.22,3.88,3.88,0,0,0,2.19-.52,1.67,1.67,0,0,0,.76-1.48,1.52,1.52,0,0,0-.46-1.17,6.23,6.23,0,0,0-1.89-1Z" transform="translate(-42 -472)"/>
      <path class="cls-7" d="M1332.56,1131.72V1118h-5.06v-2.88h13.72V1118h-5.06v13.75Z" transform="translate(-42 -472)"/>
      <path class="cls-7" d="M1343.43,1131.72v-16.63h3.6v13.75h7.3v2.88Z" transform="translate(-42 -472)"/>
      <path class="cls-7" d="M1356.46,1131.72v-16.63h11v2.78h-7.35v3.94h6v2.78h-6v4.34h7.35v2.79Z" transform="translate(-42 -472)"/>
      <path class="cls-7" d="M1382,1131.29a12.16,12.16,0,0,1-4.34.74c-2.71,0-4.75-.72-6.15-2.17s-2.08-3.57-2.08-6.37a8.94,8.94,0,0,1,2.18-6.44,8.14,8.14,0,0,1,6.15-2.27,11.83,11.83,0,0,1,4,.67v2.83a17.35,17.35,0,0,0-3.57-.48,4.9,4.9,0,0,0-3.74,1.32,5.73,5.73,0,0,0-1.23,4v.55a5.74,5.74,0,0,0,1.2,4A4.75,4.75,0,0,0,1378,1129a20.2,20.2,0,0,0,3.91-.55Z" transform="translate(-42 -472)"/>
      <path class="cls-7" d="M1383.42,1123.39a10.4,10.4,0,0,1,.95-4.61,6.81,6.81,0,0,1,2.78-3,9.47,9.47,0,0,1,8.67,0,6.92,6.92,0,0,1,2.82,3,10.15,10.15,0,0,1,1,4.69,10.54,10.54,0,0,1-1,4.61,7,7,0,0,1-2.78,3,9.42,9.42,0,0,1-8.68,0,7,7,0,0,1-2.82-3A10.35,10.35,0,0,1,1383.42,1123.39Zm3.69,0a7.06,7.06,0,0,0,1.13,4.32,4.38,4.38,0,0,0,6.58,0,8.87,8.87,0,0,0,0-8.63,4.42,4.42,0,0,0-6.58,0A7,7,0,0,0,1387.11,1123.39Z" transform="translate(-42 -472)"/>
      <path class="cls-7" d="M1406.17,1120.17v11.55H1403v-16.63h3.84l6.77,11.64v-11.64h3.17v16.63h-3.84Z" transform="translate(-42 -472)"/>
      <path class="cls-7" d="M1420.62,1131.72v-16.63h10.94v2.78h-7.34v3.94h6v2.78h-6v4.34h7.34v2.79Z" transform="translate(-42 -472)"/>
      <path class="cls-7" d="M1440.44,1128.46a11.72,11.72,0,0,0,2,.63,9.47,9.47,0,0,0,2,.25,3.35,3.35,0,0,0,2.77-1.1,6.69,6.69,0,0,0,1-3.65,7.15,7.15,0,0,1-3.55,1,4.78,4.78,0,0,1-3.62-1.39,5.1,5.1,0,0,1-1.35-3.73,6,6,0,0,1,.72-2.94,5.27,5.27,0,0,1,2.09-2.07,6.39,6.39,0,0,1,3.17-.77,5.36,5.36,0,0,1,4.53,2,9.66,9.66,0,0,1,1.56,6q0,4.59-1.8,7a6.14,6.14,0,0,1-5.23,2.41,9.88,9.88,0,0,1-2.4-.31,6.93,6.93,0,0,1-2-.82Zm5.4-5.53a6.21,6.21,0,0,0,2.52-.57v0a8.17,8.17,0,0,0-.65-3.73,2.14,2.14,0,0,0-2-1.19,2.24,2.24,0,0,0-1.77.72,2.94,2.94,0,0,0-.63,2C1443.3,1122,1444.14,1122.93,1445.84,1122.93Z" transform="translate(-42 -472)"/>
    </g>
    <g>
      <path class="cls-7" d="M1052,1131.72v-16.63h6a5.85,5.85,0,0,1,3.87,1.22,4,4,0,0,1,1.48,3.19,3.75,3.75,0,0,1-.57,2.1,3.57,3.57,0,0,1-1.67,1.36,4.35,4.35,0,0,1,2.34,1.5,4,4,0,0,1,.81,2.55,4.16,4.16,0,0,1-1.61,3.44,6.81,6.81,0,0,1-4.32,1.27Zm3.41-14.07V1122h2.08c1.56,0,2.33-.72,2.33-2.16s-.71-2.21-2.13-2.21Zm0,6.82v4.68h2.83c1.63,0,2.45-.77,2.45-2.3s-.87-2.38-2.62-2.38Z" transform="translate(-42 -472)"/>
      <path class="cls-7" d="M1067.14,1131.72v-16.63h6.4a5.87,5.87,0,0,1,4.11,1.37,4.74,4.74,0,0,1,1.51,3.71,4.48,4.48,0,0,1-.79,2.6,5.29,5.29,0,0,1-2.23,1.8l4.12,7.15h-3.72l-3.59-6.46h-2.36v6.46Zm3.45-9h2.5a2.24,2.24,0,0,0,2.52-2.55,2.19,2.19,0,0,0-2.47-2.49h-2.55Z" transform="translate(-42 -472)"/>
      <path class="cls-7" d="M1082.52,1131.72v-16.63h3.6v16.63Z" transform="translate(-42 -472)"/>
      <path class="cls-7" d="M1093.3,1124.45a7.14,7.14,0,0,1-3.08-1.94,4.81,4.81,0,0,1,.74-6.49,6.94,6.94,0,0,1,4.47-1.34,12.9,12.9,0,0,1,4.61.86v2.74a14.67,14.67,0,0,0-4.32-.72c-1.89,0-2.83.61-2.83,1.82a1.41,1.41,0,0,0,.49,1.11,6.28,6.28,0,0,0,1.84.91l1.77.65a7.56,7.56,0,0,1,3.18,1.91,4.17,4.17,0,0,1,.95,2.84,4.72,4.72,0,0,1-1.78,3.9,7.55,7.55,0,0,1-4.87,1.43,15.19,15.19,0,0,1-2.68-.25,10.22,10.22,0,0,1-2.31-.69v-2.73a20.69,20.69,0,0,0,2.57.57,16.57,16.57,0,0,0,2.47.22,3.9,3.9,0,0,0,2.19-.52,1.67,1.67,0,0,0,.76-1.48,1.49,1.49,0,0,0-.47-1.17,6.14,6.14,0,0,0-1.88-1Z" transform="translate(-42 -472)"/>
      <path class="cls-7" d="M1107.53,1131.72V1118h-5.07v-2.88h13.73V1118h-5.06v13.75Z" transform="translate(-42 -472)"/>
      <path class="cls-7" d="M1118.4,1131.72v-16.63h3.6v13.75h7.3v2.88Z" transform="translate(-42 -472)"/>
      <path class="cls-7" d="M1131.43,1131.72v-16.63h11v2.78H1135v3.94h6v2.78h-6v4.34h7.35v2.79Z" transform="translate(-42 -472)"/>
      <path class="cls-7" d="M1156.92,1131.29a12.2,12.2,0,0,1-4.34.74q-4.07,0-6.15-2.17t-2.09-6.37a8.94,8.94,0,0,1,2.19-6.44,8.12,8.12,0,0,1,6.14-2.27,11.84,11.84,0,0,1,4,.67v2.83a17.43,17.43,0,0,0-3.58-.48,4.89,4.89,0,0,0-3.73,1.32,5.73,5.73,0,0,0-1.23,4v.55a5.74,5.74,0,0,0,1.2,4A4.75,4.75,0,0,0,1153,1129a20.2,20.2,0,0,0,3.91-.55Z" transform="translate(-42 -472)"/>
      <path class="cls-7" d="M1158.38,1123.39a10.54,10.54,0,0,1,.95-4.61,6.83,6.83,0,0,1,2.79-3,9.47,9.47,0,0,1,8.67,0,6.92,6.92,0,0,1,2.82,3,10.15,10.15,0,0,1,1,4.69,10.54,10.54,0,0,1-.95,4.61,7,7,0,0,1-2.78,3,9.42,9.42,0,0,1-8.68,0,6.83,6.83,0,0,1-2.82-3A10.35,10.35,0,0,1,1158.38,1123.39Zm3.7,0a7.06,7.06,0,0,0,1.13,4.32,4.37,4.37,0,0,0,6.57,0,8.8,8.8,0,0,0,0-8.63,4.41,4.41,0,0,0-6.57,0A7,7,0,0,0,1162.08,1123.39Z" transform="translate(-42 -472)"/>
      <path class="cls-7" d="M1181.14,1120.17v11.55H1178v-16.63h3.84l6.77,11.64v-11.64h3.16v16.63h-3.84Z" transform="translate(-42 -472)"/>
      <path class="cls-7" d="M1195.58,1131.72v-16.63h11v2.78h-7.35v3.94h6v2.78h-6v4.34h7.35v2.79Z" transform="translate(-42 -472)"/>
      <path class="cls-7" d="M1220.33,1131.72v-13.13l-4.27,1.34v-2.73l4.68-2.11h3.14v16.63Z" transform="translate(-42 -472)"/>
      <path class="cls-7" d="M1234.92,1132.08a5.42,5.42,0,0,1-4.68-2.26,13.52,13.52,0,0,1,0-12.89,6,6,0,0,1,9.34,0,13.52,13.52,0,0,1,0,12.89A5.42,5.42,0,0,1,1234.92,1132.08Zm0-2.88a2.15,2.15,0,0,0,2.09-1.35,16.46,16.46,0,0,0,0-8.95,2.3,2.3,0,0,0-4.18,0,16.46,16.46,0,0,0,0,8.95A2.15,2.15,0,0,0,1234.92,1129.2Z" transform="translate(-42 -472)"/>
    </g>
    <g>
      <path class="cls-7" d="M505.75,868V846.26h-8V841.7h21.74v4.56h-8V868Z" transform="translate(-42 -472)"/>
      <path class="cls-7" d="M539.15,868V856.83H528.67V868H523V841.7h5.7v10.72h10.48V841.7h5.7V868Z" transform="translate(-42 -472)"/>
      <path class="cls-7" d="M550.93,868V841.7h17.33v4.41H556.63v6.23h9.47v4.41h-9.47v6.88h11.63V868Z" transform="translate(-42 -472)"/>
      <path class="cls-7" d="M582.09,854.85a16.62,16.62,0,0,1,1.5-7.29,10.88,10.88,0,0,1,4.41-4.81,15,15,0,0,1,13.74-.06,11.09,11.09,0,0,1,4.46,4.73,16.23,16.23,0,0,1,1.58,7.43,15.68,15.68,0,0,1-2.15,8.48,10.83,10.83,0,0,1-6.09,4.67,15,15,0,0,0,3.42,1.35,23.67,23.67,0,0,0,4.29.66v4.64a21.43,21.43,0,0,1-6.78-2,23.5,23.5,0,0,1-6-4,12,12,0,0,1-9.06-3.82Q582.1,861.16,582.09,854.85Zm5.86,0q0,4.49,1.78,6.84a6.92,6.92,0,0,0,10.41,0q1.79-2.36,1.79-6.84T600.14,848a7,7,0,0,0-10.41,0Q587.94,850.37,588,854.85Z" transform="translate(-42 -472)"/>
      <path class="cls-7" d="M629,841.7h5.7v16.69c0,3.26-.94,5.8-2.83,7.6s-4.56,2.7-8,2.7-6.15-.9-8-2.68-2.83-4.34-2.83-7.66V841.7h5.7v16.91a5.6,5.6,0,0,0,1.33,4,6,6,0,0,0,7.67,0,5.6,5.6,0,0,0,1.33-4Z" transform="translate(-42 -472)"/>
      <path class="cls-7" d="M655.28,868l-1.86-6h-9l-1.78,6h-6l9.27-26.34h6.27L661.47,868Zm-9.65-10.11h6.61l-3.34-11Z" transform="translate(-42 -472)"/>
      <path class="cls-7" d="M664.74,868V841.7h9.46q5.89,0,9.07,3.41t3.17,9.74q0,6.31-3.17,9.75T674.32,868Zm5.7-21.93v17.52h3.27q6.87,0,6.88-8.4v-.76q0-8.36-6.92-8.36Z" transform="translate(-42 -472)"/>
      <path class="cls-7" d="M542.88,890.77v6.07h-3.51V880.21h6.36a5.79,5.79,0,0,1,4.11,1.41,5.7,5.7,0,0,1,0,7.73,5.75,5.75,0,0,1-4.11,1.42Zm0-2.69h2.44a2.44,2.44,0,0,0,1.84-.66,3.23,3.23,0,0,0,0-3.86,2.44,2.44,0,0,0-1.84-.66h-2.44Z" transform="translate(-42 -472)"/>
      <path class="cls-7" d="M554.32,896.84V880.21h3.6v16.63Z" transform="translate(-42 -472)"/>
      <path class="cls-7" d="M565,885.3v11.54h-3.17V880.21h3.84l6.77,11.64V880.21h3.16v16.63h-3.84Z" transform="translate(-42 -472)"/>
      <path class="cls-7" d="M583.29,896.84V890.7l-5.5-10.49h4l3.4,7.77,3.51-7.77h3.77l-5.6,10.53v6.1Z" transform="translate(-42 -472)"/>
      <path class="cls-7" d="M592.92,888.51a10.57,10.57,0,0,1,.94-4.61,6.89,6.89,0,0,1,2.79-3,9.47,9.47,0,0,1,8.67,0,7,7,0,0,1,2.82,3,10.15,10.15,0,0,1,1,4.69,10.54,10.54,0,0,1-.95,4.61,7,7,0,0,1-2.78,3,8.52,8.52,0,0,1-4.38,1.08,8.69,8.69,0,0,1-4.3-1,7,7,0,0,1-2.82-3A10.39,10.39,0,0,1,592.92,888.51Zm3.69,0a7.06,7.06,0,0,0,1.13,4.32,4.37,4.37,0,0,0,6.57,0,8.8,8.8,0,0,0,0-8.63,4.41,4.41,0,0,0-6.57,0A7,7,0,0,0,596.61,888.51Z" transform="translate(-42 -472)"/>
      <path class="cls-7" d="M615.67,885.3v11.54H612.5V880.21h3.84l6.77,11.64V880.21h3.16v16.63h-3.84Z" transform="translate(-42 -472)"/>
      <path class="cls-7" d="M636.23,881.72a9.65,9.65,0,0,1,2.63-1.48,8.87,8.87,0,0,1,2.85-.44,5.18,5.18,0,0,1,3.66,1.27,4.36,4.36,0,0,1,1.38,3.36,5.67,5.67,0,0,1-.7,2.59,15.11,15.11,0,0,1-2.21,3q-1.51,1.7-4.05,4h7.63v2.78H635.8v-2.59q3.08-3.11,4.6-4.84a18.36,18.36,0,0,0,2.11-2.79,4.12,4.12,0,0,0,.59-2,1.9,1.9,0,0,0-.55-1.43,2.12,2.12,0,0,0-1.49-.51,6.5,6.5,0,0,0-2.31.48,11.62,11.62,0,0,0-2.52,1.37Z" transform="translate(-42 -472)"/>
    </g>
    <g>
      <path class="cls-7" d="M333.26,514.41a7.23,7.23,0,0,1-3.08-1.93,4.44,4.44,0,0,1-.93-2.9,4.38,4.38,0,0,1,1.67-3.6,6.94,6.94,0,0,1,4.47-1.34,12.9,12.9,0,0,1,4.61.86v2.74a14.67,14.67,0,0,0-4.32-.72c-1.89,0-2.83.61-2.83,1.82a1.41,1.41,0,0,0,.49,1.11,6.28,6.28,0,0,0,1.84.91L337,512a7.56,7.56,0,0,1,3.18,1.91,4.17,4.17,0,0,1,.95,2.84,4.72,4.72,0,0,1-1.78,3.9,7.55,7.55,0,0,1-4.87,1.43,15.39,15.39,0,0,1-2.69-.25,10.28,10.28,0,0,1-2.3-.69v-2.73A20.69,20.69,0,0,0,332,519a15.24,15.24,0,0,0,2.47.22,3.84,3.84,0,0,0,2.18-.52,1.65,1.65,0,0,0,.77-1.47A1.5,1.5,0,0,0,337,516a6.14,6.14,0,0,0-1.88-1Z" transform="translate(-42 -472)"/>
      <path class="cls-7" d="M347.56,515.61v6.07h-3.5V505.05h6.36a5.78,5.78,0,0,1,4.1,1.41,5.7,5.7,0,0,1,0,7.73,5.75,5.75,0,0,1-4.1,1.42Zm0-2.69H350a2.41,2.41,0,0,0,1.83-.66,3.23,3.23,0,0,0,0-3.86,2.41,2.41,0,0,0-1.83-.66h-2.45Z" transform="translate(-42 -472)"/>
      <path class="cls-7" d="M358.43,513.35a10.57,10.57,0,0,1,.95-4.61,6.86,6.86,0,0,1,2.78-3,9.5,9.5,0,0,1,8.68,0,7,7,0,0,1,2.82,3,10.28,10.28,0,0,1,1,4.69,10.54,10.54,0,0,1-1,4.61,6.93,6.93,0,0,1-2.79,3,8.47,8.47,0,0,1-4.38,1.08,8.65,8.65,0,0,1-4.29-1,6.94,6.94,0,0,1-2.82-3A10.26,10.26,0,0,1,358.43,513.35Zm3.7,0a7,7,0,0,0,1.13,4.32,4.37,4.37,0,0,0,6.57,0,8.8,8.8,0,0,0,0-8.63,4.41,4.41,0,0,0-6.57,0A7,7,0,0,0,362.13,513.35Z" transform="translate(-42 -472)"/>
      <path class="cls-7" d="M381.18,510.14v11.54H378V505.05h3.84l6.76,11.64V505.05h3.17v16.63H388Z" transform="translate(-42 -472)"/>
      <path class="cls-7" d="M398.87,514.41a7.18,7.18,0,0,1-3.07-1.93,4.45,4.45,0,0,1-.94-2.9,4.4,4.4,0,0,1,1.67-3.6,7,7,0,0,1,4.48-1.34,12.94,12.94,0,0,1,4.61.86v2.74a14.78,14.78,0,0,0-4.33-.72c-1.88,0-2.83.61-2.83,1.82a1.42,1.42,0,0,0,.5,1.11,6.06,6.06,0,0,0,1.83.91l1.78.65a7.56,7.56,0,0,1,3.18,1.91,4.17,4.17,0,0,1,.95,2.84,4.74,4.74,0,0,1-1.78,3.9,7.57,7.57,0,0,1-4.87,1.43,15.3,15.3,0,0,1-2.69-.25,10.13,10.13,0,0,1-2.3-.69v-2.73a20.52,20.52,0,0,0,2.56.57,15.45,15.45,0,0,0,2.48.22,3.84,3.84,0,0,0,2.18-.52,1.68,1.68,0,0,0,.77-1.47,1.54,1.54,0,0,0-.47-1.18,6.14,6.14,0,0,0-1.88-1Z" transform="translate(-42 -472)"/>
      <path class="cls-7" d="M409,513.35a10.57,10.57,0,0,1,.95-4.61,6.86,6.86,0,0,1,2.78-3,9.5,9.5,0,0,1,8.68,0,7,7,0,0,1,2.82,3,10.28,10.28,0,0,1,1,4.69,10.54,10.54,0,0,1-.95,4.61,6.93,6.93,0,0,1-2.79,3,8.47,8.47,0,0,1-4.38,1.08,8.65,8.65,0,0,1-4.29-1,6.94,6.94,0,0,1-2.82-3A10.26,10.26,0,0,1,409,513.35Zm3.7,0a7,7,0,0,0,1.13,4.32,4.37,4.37,0,0,0,6.57,0,8.8,8.8,0,0,0,0-8.63,4.41,4.41,0,0,0-6.57,0A7,7,0,0,0,412.65,513.35Z" transform="translate(-42 -472)"/>
      <path class="cls-7" d="M428.54,521.68V505.05h6.4a5.87,5.87,0,0,1,4.11,1.37,4.79,4.79,0,0,1,1.51,3.72,4.52,4.52,0,0,1-.79,2.59,5.28,5.28,0,0,1-2.23,1.8l4.12,7.15h-3.72l-3.6-6.46H432v6.46Zm3.45-8.95h2.5a2.24,2.24,0,0,0,2.52-2.55,2.19,2.19,0,0,0-2.47-2.49H432Z" transform="translate(-42 -472)"/>
      <path class="cls-7" d="M338.09,547.68V531.05h3.6V544.8H349v2.88Z" transform="translate(-42 -472)"/>
      <path class="cls-7" d="M350.28,539.35a10.57,10.57,0,0,1,1-4.61,6.83,6.83,0,0,1,2.79-3,9.47,9.47,0,0,1,8.67,0,6.92,6.92,0,0,1,2.82,3,10.15,10.15,0,0,1,1,4.69,10.54,10.54,0,0,1-.95,4.61,7,7,0,0,1-2.78,3,8.52,8.52,0,0,1-4.38,1.08,8.69,8.69,0,0,1-4.3-1,6.94,6.94,0,0,1-2.82-3A10.39,10.39,0,0,1,350.28,539.35Zm3.7,0a7.06,7.06,0,0,0,1.13,4.32,4.37,4.37,0,0,0,6.57,0,8.8,8.8,0,0,0,0-8.63,4.41,4.41,0,0,0-6.57,0A7,7,0,0,0,354,539.35Z" transform="translate(-42 -472)"/>
      <path class="cls-7" d="M379.9,531.05h3.6v10.53a6.31,6.31,0,0,1-1.79,4.8,7,7,0,0,1-5.07,1.71,7.13,7.13,0,0,1-5.08-1.69,6.35,6.35,0,0,1-1.79-4.84V531.05h3.6v10.68a3.53,3.53,0,0,0,.84,2.55,3.78,3.78,0,0,0,4.85,0,3.53,3.53,0,0,0,.84-2.55Z" transform="translate(-42 -472)"/>
      <path class="cls-7" d="M390.41,536.14v11.54h-3.17V531.05h3.84l6.77,11.64V531.05H401v16.63h-3.84Z" transform="translate(-42 -472)"/>
      <path class="cls-7" d="M413.24,545.11A15.72,15.72,0,0,0,415,545v-4h-3.12v-2.6h6.43v8.33a10.44,10.44,0,0,1-2.69.94,15.13,15.13,0,0,1-3.16.33,7.91,7.91,0,0,1-6-2.18,8.62,8.62,0,0,1-2.1-6.22c0-2.84.72-5,2.17-6.51a8.36,8.36,0,0,1,6.3-2.25,11,11,0,0,1,4.87,1v2.73a15.24,15.24,0,0,0-4.48-.79,5.15,5.15,0,0,0-3.92,1.33,6,6,0,0,0-1.24,4.19v.43a5.89,5.89,0,0,0,1.23,4.14A5.15,5.15,0,0,0,413.24,545.11Z" transform="translate(-42 -472)"/>
      <path class="cls-7" d="M421.88,547.68V531.05h10.94v2.78h-7.34v3.94h6v2.78h-6v4.35h7.34v2.78Z" transform="translate(-42 -472)"/>
      <path class="cls-7" d="M335.51,570.05v6.43h-2.37V559.85h6a5.33,5.33,0,0,1,3.86,1.38,5.52,5.52,0,0,1,0,7.44,5.33,5.33,0,0,1-3.86,1.38Zm0-1.95H339a3,3,0,0,0,2.27-.8A3.24,3.24,0,0,0,342,565q0-3.16-3-3.17h-3.44Z" transform="translate(-42 -472)"/>
      <path class="cls-7" d="M347.63,576.48V559.85h2.45v16.63Z" transform="translate(-42 -472)"/>
      <path class="cls-7" d="M356.46,563.26v13.22h-2.25V559.85h2.66l8.19,13.29V559.85h2.25v16.63h-2.69Z" transform="translate(-42 -472)"/>
      <path class="cls-7" d="M375.33,576.48v-6.12l-5.67-10.51h2.72l4.2,8.52,4.27-8.52h2.64l-5.76,10.56v6.07Z" transform="translate(-42 -472)"/>
      <path class="cls-7" d="M384.28,568.18a10.79,10.79,0,0,1,.91-4.62,6.74,6.74,0,0,1,2.68-3,8.07,8.07,0,0,1,4.21-1,7.26,7.26,0,0,1,5.7,2.31,9.25,9.25,0,0,1,2.08,6.38,10.85,10.85,0,0,1-.92,4.62,6.75,6.75,0,0,1-2.66,3,8,8,0,0,1-4.2,1.07,8.08,8.08,0,0,1-4.13-1,6.8,6.8,0,0,1-2.71-3A10.62,10.62,0,0,1,384.28,568.18Zm2.52,0a7.75,7.75,0,0,0,1.36,5,4.72,4.72,0,0,0,3.92,1.69,4.66,4.66,0,0,0,3.91-1.7,9.71,9.71,0,0,0,0-9.88,5.4,5.4,0,0,0-7.85,0A7.86,7.86,0,0,0,386.8,568.18Z" transform="translate(-42 -472)"/>
      <path class="cls-7" d="M405.66,563.26v13.22h-2.25V559.85h2.66l8.19,13.29V559.85h2.25v16.63h-2.69Z" transform="translate(-42 -472)"/>
      <path class="cls-7" d="M433.17,561.45A4,4,0,0,0,429.7,563a8.38,8.38,0,0,0-1.26,4.78,8.35,8.35,0,0,1,2.06-1,7,7,0,0,1,2.16-.36,5.63,5.63,0,0,1,2.61.58,4.42,4.42,0,0,1,1.8,1.71,5,5,0,0,1,.66,2.6,5.35,5.35,0,0,1-1.54,4,5.61,5.61,0,0,1-4.1,1.5,5.24,5.24,0,0,1-4.51-2q-1.51-2-1.52-6.1a11.28,11.28,0,0,1,1.79-6.79,5.87,5.87,0,0,1,5-2.42,9.8,9.8,0,0,1,2,.21,8,8,0,0,1,1.75.58v1.82a11.31,11.31,0,0,0-1.72-.46A9.32,9.32,0,0,0,433.17,561.45ZM432,568.37a6.45,6.45,0,0,0-1.8.27,9.43,9.43,0,0,0-1.8.76q.15,5.48,3.72,5.47a3.1,3.1,0,0,0,2.34-.86,3.49,3.49,0,0,0,.83-2.5,3.14,3.14,0,0,0-.85-2.32A3.37,3.37,0,0,0,432,568.37Z" transform="translate(-42 -472)"/>
    </g>
    <g>
      <path class="cls-7" d="M300.51,1333.76V1325l-3.12,5.89H295.9l-3.13-5.91v8.74h-1.5v-11.09h1.82l3.58,6.8,3.57-6.8H302v11.09Z" transform="translate(-42 -472)"/>
      <path class="cls-7" d="M311.78,1333.76l-1-3h-4.56l-1,3h-1.68l4.1-11.09h1.76l4.09,11.09Zm-5.17-4.18h3.73l-1.88-5.44Z" transform="translate(-42 -472)"/>
      <path class="cls-7" d="M316.48,1324.94v8.82H315v-11.09h1.77l5.46,8.87v-8.87h1.5v11.09h-1.79Z" transform="translate(-42 -472)"/>
      <path class="cls-7" d="M333.44,1322.67h1.63v7a4.32,4.32,0,0,1-1.12,3.2,4.42,4.42,0,0,1-3.24,1.12,4.46,4.46,0,0,1-3.25-1.11,4.31,4.31,0,0,1-1.12-3.21v-7H328v7.18a2.88,2.88,0,0,0,.7,2.08,3.2,3.2,0,0,0,4.07,0,2.88,2.88,0,0,0,.7-2.08Z" transform="translate(-42 -472)"/>
      <path class="cls-7" d="M337.7,1333.76v-11.09h6.57V1324h-4.94v3.57h4.08v1.31h-4.08v4.9Z" transform="translate(-42 -472)"/>
      <path class="cls-7" d="M352.27,1333.76l-1-3h-4.56l-1,3H344l4.09-11.09h1.76l4.1,11.09Zm-5.17-4.18h3.73l-1.87-5.44Z" transform="translate(-42 -472)"/>
      <path class="cls-7" d="M362.72,1333.46a7.78,7.78,0,0,1-2.8.49,5.18,5.18,0,0,1-4-1.45,7.26,7.26,0,0,1,.05-8.5,5.26,5.26,0,0,1,4-1.49,7.68,7.68,0,0,1,2.56.43v1.33a11.33,11.33,0,0,0-2.37-.34,3.87,3.87,0,0,0-2.94,1,4.45,4.45,0,0,0-.93,3.13v.38a4.55,4.55,0,0,0,.9,3.11,3.73,3.73,0,0,0,2.88,1,11.85,11.85,0,0,0,2.62-.4Z" transform="translate(-42 -472)"/>
      <path class="cls-7" d="M367.06,1333.76V1324h-3.54v-1.34h8.7V1324h-3.53v9.75Z" transform="translate(-42 -472)"/>
      <path class="cls-7" d="M380.85,1322.67h1.63v7a4.28,4.28,0,0,1-1.13,3.2,4.38,4.38,0,0,1-3.24,1.12,4.44,4.44,0,0,1-3.24-1.11,4.31,4.31,0,0,1-1.13-3.21v-7h1.64v7.18a2.88,2.88,0,0,0,.7,2.08,2.72,2.72,0,0,0,2,.73,2.69,2.69,0,0,0,2-.73,2.88,2.88,0,0,0,.71-2.08Z" transform="translate(-42 -472)"/>
      <path class="cls-7" d="M385.11,1333.76v-11.09h4a3.66,3.66,0,0,1,2.58.89,3.4,3.4,0,0,1,.36,4.3,3.39,3.39,0,0,1-1.69,1.18l2.94,4.72h-1.77l-2.72-4.47h-2.16v4.47Zm1.58-5.76H389a2.15,2.15,0,0,0,1.55-.51A2,2,0,0,0,391,1326a2,2,0,0,0-.51-1.5,2.07,2.07,0,0,0-1.52-.5h-2.32Z" transform="translate(-42 -472)"/>
      <path class="cls-7" d="M395,1333.76v-11.09h1.63v11.09Z" transform="translate(-42 -472)"/>
      <path class="cls-7" d="M400.87,1324.94v8.82h-1.51v-11.09h1.78l5.45,8.87v-8.87h1.51v11.09h-1.8Z" transform="translate(-42 -472)"/>
      <path class="cls-7" d="M416.13,1332.58a7.24,7.24,0,0,0,1.69-.18v-3.25h-2.48v-1.26h4v5.28a5.93,5.93,0,0,1-1.62.58,9.36,9.36,0,0,1-1.93.2,5.24,5.24,0,0,1-4-1.44,6,6,0,0,1-1.36-4.22,6,6,0,0,1,1.4-4.3,5.26,5.26,0,0,1,4-1.48,7.2,7.2,0,0,1,3.09.66v1.28a8.94,8.94,0,0,0-2.92-.56,3.91,3.91,0,0,0-3,1,4.56,4.56,0,0,0-.95,3.18v.35a4.44,4.44,0,0,0,1,3.14A4,4,0,0,0,416.13,1332.58Z" transform="translate(-42 -472)"/>
      <path class="cls-7" d="M428.7,1331.89v-3.06h-2.92v-1.28h2.92v-3h1.38v3H433v1.28h-2.93v3.06Z" transform="translate(-42 -472)"/>
      <path class="cls-7" d="M309.34,1351.76l-1-3h-4.56l-1,3h-1.68l4.1-11.09h1.76l4.09,11.09Zm-5.17-4.18h3.73l-1.87-5.44Z" transform="translate(-42 -472)"/>
      <path class="cls-7" d="M319.1,1340.67h1.63v7a4.32,4.32,0,0,1-1.13,3.2,5.26,5.26,0,0,1-6.48,0,4.31,4.31,0,0,1-1.13-3.21v-7h1.63v7.18a2.88,2.88,0,0,0,.71,2.08,3.19,3.19,0,0,0,4.06,0,2.88,2.88,0,0,0,.71-2.08Z" transform="translate(-42 -472)"/>
      <path class="cls-7" d="M325.79,1351.76V1342h-3.54v-1.34H331V1342h-3.53v9.75Z" transform="translate(-42 -472)"/>
      <path class="cls-7" d="M331.74,1346.22a7.33,7.33,0,0,1,.6-3.08,4.49,4.49,0,0,1,1.79-2,5.45,5.45,0,0,1,2.81-.7,4.88,4.88,0,0,1,3.8,1.54,6.16,6.16,0,0,1,1.38,4.25,7.14,7.14,0,0,1-.61,3.08,4.53,4.53,0,0,1-1.77,2,5.89,5.89,0,0,1-5.55,0,4.5,4.5,0,0,1-1.81-2A7.07,7.07,0,0,1,331.74,1346.22Zm1.68,0a5.24,5.24,0,0,0,.9,3.31,3.16,3.16,0,0,0,2.62,1.13,3.09,3.09,0,0,0,2.6-1.14,6.48,6.48,0,0,0,0-6.59,3.11,3.11,0,0,0-2.6-1.12,3.17,3.17,0,0,0-2.63,1.12A5.2,5.2,0,0,0,333.42,1346.22Z" transform="translate(-42 -472)"/>
      <path class="cls-7" d="M348.74,1351.76v-11.09h1.64v11.09Z" transform="translate(-42 -472)"/>
      <path class="cls-7" d="M354.63,1342.94v8.82h-1.5v-11.09h1.77l5.46,8.87v-8.87h1.5v11.09h-1.79Z" transform="translate(-42 -472)"/>
      <path class="cls-7" d="M364.55,1351.76v-11.09h3.65a4.79,4.79,0,0,1,3.74,1.42,6,6,0,0,1,1.28,4.13,5.82,5.82,0,0,1-1.31,4.11,4.85,4.85,0,0,1-3.76,1.43Zm1.63-9.81v8.53H368q3.56,0,3.56-4.08V1346a4.54,4.54,0,0,0-.89-3.06,3.37,3.37,0,0,0-2.67-1Z" transform="translate(-42 -472)"/>
      <path class="cls-7" d="M382.63,1340.67h1.63v7a4.32,4.32,0,0,1-1.12,3.2,5.26,5.26,0,0,1-6.48,0,4.27,4.27,0,0,1-1.13-3.21v-7h1.63v7.18a2.88,2.88,0,0,0,.7,2.08,3.2,3.2,0,0,0,4.07,0,2.88,2.88,0,0,0,.7-2.08Z" transform="translate(-42 -472)"/>
      <path class="cls-7" d="M389,1346.5a4.66,4.66,0,0,1-1.91-1.21,2.66,2.66,0,0,1-.59-1.77,2.85,2.85,0,0,1,.45-1.59,3,3,0,0,1,1.29-1.1,4.5,4.5,0,0,1,2-.4,8.19,8.19,0,0,1,3,.58v1.29a9.79,9.79,0,0,0-2.84-.49,2.66,2.66,0,0,0-1.61.42,1.42,1.42,0,0,0-.57,1.21,1.4,1.4,0,0,0,.38,1,4.15,4.15,0,0,0,1.43.75l1.45.55a4.39,4.39,0,0,1,1.87,1.16,2.63,2.63,0,0,1,.57,1.75,3,3,0,0,1-1.1,2.45,4.45,4.45,0,0,1-3,.91,7.37,7.37,0,0,1-3.2-.65v-1.29a9.85,9.85,0,0,0,3.17.57,2.87,2.87,0,0,0,1.78-.5,1.61,1.61,0,0,0,.65-1.35,1.37,1.37,0,0,0-.38-1,3.53,3.53,0,0,0-1.27-.74Z" transform="translate(-42 -472)"/>
      <path class="cls-7" d="M398.44,1351.76V1342H394.9v-1.34h8.71V1342h-3.54v9.75Z" transform="translate(-42 -472)"/>
      <path class="cls-7" d="M405.19,1351.76v-11.09h4.05a3.66,3.66,0,0,1,2.58.89,3.4,3.4,0,0,1,.36,4.3,3.44,3.44,0,0,1-1.69,1.18l2.94,4.72h-1.77l-2.72-4.47h-2.16v4.47Zm1.59-5.76H409a2.19,2.19,0,0,0,1.56-.51,2,2,0,0,0,.54-1.52,2,2,0,0,0-.51-1.5,2.08,2.08,0,0,0-1.52-.5h-2.32Z" transform="translate(-42 -472)"/>
      <path class="cls-7" d="M417.42,1351.76v-4.08l-3.78-7h1.81l2.8,5.68,2.85-5.68h1.76l-3.84,7v4Z" transform="translate(-42 -472)"/>
      <path class="cls-7" d="M331.7,1369.76v-11.09h1.63v9.75h5.23v1.34Z" transform="translate(-42 -472)"/>
      <path class="cls-7" d="M339.47,1364.22a7.17,7.17,0,0,1,.61-3.08,4.53,4.53,0,0,1,1.78-2,5.47,5.47,0,0,1,2.81-.7,4.87,4.87,0,0,1,3.8,1.54,6.16,6.16,0,0,1,1.39,4.25,7.29,7.29,0,0,1-.61,3.08,4.61,4.61,0,0,1-1.78,2,5.32,5.32,0,0,1-2.8.71,5.42,5.42,0,0,1-2.75-.68,4.55,4.55,0,0,1-1.81-2A7.21,7.21,0,0,1,339.47,1364.22Zm1.68,0a5.18,5.18,0,0,0,.91,3.31,3.57,3.57,0,0,0,5.22,0,6.48,6.48,0,0,0,0-6.59,3.61,3.61,0,0,0-5.23,0A5.2,5.2,0,0,0,341.15,1364.22Z" transform="translate(-42 -472)"/>
      <path class="cls-7" d="M359.26,1358.67h1.64v7a4.32,4.32,0,0,1-1.13,3.2,5.26,5.26,0,0,1-6.48,0,4.31,4.31,0,0,1-1.13-3.21v-7h1.63v7.18a2.88,2.88,0,0,0,.71,2.08,2.69,2.69,0,0,0,2,.73,2.72,2.72,0,0,0,2-.73,2.88,2.88,0,0,0,.7-2.08Z" transform="translate(-42 -472)"/>
      <path class="cls-7" d="M365,1360.94v8.82h-1.5v-11.09h1.78l5.45,8.87v-8.87h1.51v11.09h-1.8Z" transform="translate(-42 -472)"/>
      <path class="cls-7" d="M380.29,1368.58a7.24,7.24,0,0,0,1.69-.18v-3.25H379.5v-1.26h4v5.28a5.93,5.93,0,0,1-1.62.58,9.28,9.28,0,0,1-1.93.2,5.24,5.24,0,0,1-4-1.44,6,6,0,0,1-1.36-4.22,6,6,0,0,1,1.4-4.3,5.24,5.24,0,0,1,4-1.48,7.2,7.2,0,0,1,3.09.66v1.28a8.94,8.94,0,0,0-2.92-.56,3.91,3.91,0,0,0-3,1,4.56,4.56,0,0,0-.95,3.18v.35a4.44,4.44,0,0,0,1,3.14A4,4,0,0,0,380.29,1368.58Z" transform="translate(-42 -472)"/>
      <path class="cls-7" d="M386,1369.76v-11.09h6.89V1360h-5.26v3.41h4.41v1.31h-4.41v3.75h5.26v1.31Z" transform="translate(-42 -472)"/>
    </g>
  </g>
</svg>
