<svg id="map" xmlns="http://www.w3.org/2000/svg" width="1932.05" height="1327.78" viewBox="0 0 1932.05 1327.78">
  <defs>
    <style>
      .cls-1 {
        fill: #3f3f3f;
      }

      .cls-2 {
        fill: #7a797a;
      }

      .cls-3 {
        fill: #82589f;
      }

      .cls-4 {
        fill: #c0539f;
      }

      .cls-5 {
        fill: #949393;
      }

      .cls-6 {
        fill: #ff2939;
      }

      .cls-7 {
        opacity: 0.2;
      }

      .cls-11, .cls-8 {
        fill: none;
      }

      .cls-8 {
        stroke: #3f3f3f;
        stroke-width: 2px;
      }

      .cls-11, .cls-12, .cls-8 {
        stroke-miterlimit: 10;
      }

      .cls-9 {
        fill: #fff;
      }

      .cls-10 {
        fill: #454546;
      }

      .cls-11, .cls-12 {
        stroke: #fff;
      }

      .cls-11 {
        stroke-linecap: round;
        stroke-width: 1.45px;
      }

      .cls-12 {
        fill: #fc427b;
        stroke-width: 2.17px;
      }
    </style>
  </defs>
  <title>ARI_2FE</title>
  <g id="ground">
    <path class="cls-1" d="M1128,696H28v680s-10,252,250,292H786l36-26,8-48,154,70h614v-72l28-20v16h20v-20l-16-20h20l32,120,40-8-78,50,62,94,106-76-40-58,6-10-6-18,58-12-2-26,102-30-26-86,56-24-16-40-16,6-60-118,26-172-108,46-20-56s-28,10-38-40-46-244-116-350-136-154-136-154l-164,42V486s-102-22-182,0Z" transform="translate(-27.95 -476.22)"/>
    <path class="cls-2" d="M468,1666V1538h60v-38h42v38H722v-38h44v38H918v-38h34v38h112v-38h38v38h78l20-16V1366h-38v-46h38v-92h-40v-84h38v-92h-38v-44h38V924h-36V884h36V720h-70s2-180,2-234c72-22,182,0,182,0V628l164-42s214,142,252,504c0,0,2,40,38,40l20,56,108-46-26,172,60,118,16-6,16,40-56,24,26,86-102,30,2,26-58,12,6,18-6,10,40,58-106,76-62-94,78-50-40,8-32-120h-20l16,20v20h-20v-16l-28,20v72H984l-154-70-8,48-36,26Z" transform="translate(-27.95 -476.22)"/>
  </g>
  <g id="footprint">
    <g id="registration">
      <rect id="_Rectangle_" data-name="&lt;Rectangle&gt;" class="cls-3" x="306.05" y="395.78" width="828" height="448"/>
    </g>
    <g id="programming">
      <path class="cls-4" d="M1768,1400h-16l-6-22h-50l4,70-36,10,6,18-32,8-2-12-26,2v-8H1488v8h-14l2,46-18-18-28,22-40-40-14,12-16-14-8,8,98,94s60,60,118,24l30-16,28-20v16h20v-20l-16-20h20l32,120,40-8-78,50,62,94,106-76-40-58,6-10-6-18,58-12Z" transform="translate(-27.95 -476.22)"/>
      <rect class="cls-4" x="302.05" y="887.78" width="354" height="136"/>
      <rect class="cls-4" x="662.05" y="887.78" width="472" height="136"/>
    </g>
    <g id="restrooms">
      <path class="cls-5" d="M1288,1548l64-58,98,94s60,60,118,24h0l30-16v72H1312v-90Z" transform="translate(-27.95 -476.22)"/>
      <path class="cls-5" d="M1198,758h72V646h42V486s-116-22-182,0l-2,234h70Z" transform="translate(-27.95 -476.22)"/>
    </g>
    <g id="building">
      <polyline class="cls-5" points="1137.05 1116.78 1208.05 1116.78 1260.05 1071.78 1284.05 1097.78 1284.05 1187.78 1137.05 1187.78 1137.05 1116.78"/>
      <path class="cls-5" d="M1460,1408l8,16s68-42,144-42l4-18S1536,1368,1460,1408Z" transform="translate(-27.95 -476.22)"/>
      <path class="cls-5" d="M1270,800V646h42V628h14l108,116v48S1344,814,1270,800Z" transform="translate(-27.95 -476.22)"/>
      <rect class="cls-5" x="162.05" y="589.78" width="140" height="242"/>
    </g>
  </g>
  <g id="points">
    <rect id="ARI_191" class="cls-6" x="1863.42" y="1506.08" width="68" height="67.57" transform="translate(-364.06 72.32) rotate(-15.13)"/>
    <rect id="ARI_419" class="cls-6" x="1336.05" y="449.78" width="68" height="68"/>
    <rect id="ARI_423" class="cls-6" x="1064.05" y="1117.78" width="70" height="70"/>
    <polygon id="ARI_390" class="cls-6" points="1321.05 849.22 1290.45 849.97 1300.77 872.14 1321.05 849.22"/>
    <polygon id="ARI_391" class="cls-6" points="1321.05 849.22 1290.45 849.97 1300.77 872.14 1321.05 849.22"/>
    <path id="ARI_637" class="cls-6" d="M1768,1400h-16l-6-22h-50l4,70-36,10,6,18-32,8-2-12-26,2v-8H1488v8h-14l2,46-18-18-28,22-40-40-14,12-16-14-8,8,98,94s60,60,118,24l30-16,28-20v16h20v-20l-16-20h20l32,120,40-8-78,50,62,94,106-76-40-58,6-10-6-18,58-12Z" transform="translate(-27.95 -476.22)"/>
    <rect id="ARI_634" class="cls-6" x="302.05" y="887.78" width="354" height="136"/>
    <rect id="ARI_635" class="cls-6" x="662.05" y="887.78" width="472" height="136"/>
    <rect id="ARI_846" class="cls-6" x="306.05" y="395.78" width="828" height="448"/>
    <rect id="ARI_636" class="cls-6" x="306.05" y="395.78" width="828" height="448"/>
  </g>
  <g id="bounds" class="cls-7">
    <rect id="_ARI_191" class="cls-6" x="1826.05" y="1021.78" width="90" height="86"/>
    <rect id="_ARI_419" class="cls-6" x="1336.05" y="449.78" width="68" height="68"/>
    <rect id="_ARI_423" class="cls-6" x="1064.05" y="1117.78" width="70" height="70"/>
    <rect id="_ARI_390" class="cls-6" x="1314.46" y="1304.75" width="49.56" height="51.74" transform="translate(1952.54 -921.24) rotate(65.04)"/>
    <rect id="_ARI_391" class="cls-6" x="1314.46" y="1304.75" width="49.56" height="51.74" transform="translate(1952.54 -921.24) rotate(65.04)"/>
    <rect id="_ARI_637" class="cls-6" x="1324.05" y="899.78" width="482" height="428"/>
    <rect id="_ARI_634" class="cls-6" x="302.05" y="887.78" width="354" height="136"/>
    <rect id="_ARI_635" class="cls-6" x="662.05" y="887.78" width="472" height="136"/>
    <rect id="_ARI_846" class="cls-6" x="306.05" y="395.78" width="828" height="448"/>
    <rect id="_ARI_636" class="cls-6" x="306.05" y="395.78" width="828" height="448"/>
  </g>
  <g id="paths">
    <g id="ARI_191-2" data-name="ARI_191">
      <line id="ARI_191-ARI_419" class="cls-8" x1="1862.05" y1="1025.78" x2="1404.05" y2="481.78"/>
      <polyline id="ARI_191-ARI_637" class="cls-8" points="1520.05 987.78 1520.05 935.78 1638.05 935.78 1638.05 867.78 1844.05 867.78 1844.05 1029.78"/>
      <path id="ARI_191-ARI_634" class="cls-8" d="M544,1500s-8,58,0,58h694l258-236h296l90,178" transform="translate(-27.95 -476.22)"/>
      <path id="ARI_191-ARI_635" class="cls-8" d="M1084,1500s-8,58,0,58h154l258-236h296l90,178" transform="translate(-27.95 -476.22)"/>
      <polyline id="ARI_191-ARI_636" class="cls-8" points="1132.05 707.78 1652.05 707.78 1858.05 1025.78"/>
      <polyline id="ARI_191-ARI_846" class="cls-8" points="1132.05 707.78 1652.05 707.78 1858.05 1025.78"/>
      <path id="ARI_191-ARI_423" class="cls-8" d="M1128,1594s-6-36,2-36h108l258-236h296l90,178" transform="translate(-27.95 -476.22)"/>
    </g>
    <g id="ARI_390-2" data-name="ARI_390">
      <polyline id="ARI_390-ARI_423" class="cls-8" points="1098.05 1115.78 1098.05 1093.78 1192.05 1093.78 1321.05 848.78"/>
      <polyline id="ARI_390-ARI_419" class="cls-8" points="1370.05 521.78 1368.05 681.78 1321.05 848.78"/>
      <polyline id="ARI_390-ARI_637" class="cls-8" points="1520.05 987.78 1520.05 961.78 1320.05 961.78 1320.05 848.78"/>
      <polyline id="ARI_390-ARI_634" class="cls-8" points="520.05 1025.78 520.05 1087.78 1194.05 1087.78 1320.05 979.78 1320.05 848.78"/>
      <polyline id="ARI_390-ARI_635" class="cls-8" points="1058.05 1025.78 1058.05 1087.78 1194.05 1087.78 1320.05 979.78 1320.05 848.78"/>
      <polyline id="ARI_390-ARI_636" class="cls-8" points="1132.05 703.78 1320.05 703.78 1320.05 848.78"/>
      <polyline id="ARI_390-ARI_846" class="cls-8" points="1132.05 703.78 1320.05 703.78 1320.05 848.78"/>
      <polyline id="ARI_390-ARI_191" class="cls-8" points="1854.05 1029.78 1680.05 775.78 1321.05 848.78"/>
    </g>
    <g id="ARI_391-2" data-name="ARI_391">
      <polyline id="ARI_391-ARI_423" class="cls-8" points="1098.05 1115.78 1098.05 1093.78 1192.05 1093.78 1321.05 848.78"/>
      <polyline id="ARI_391-ARI_419" class="cls-8" points="1370.05 521.78 1368.05 681.78 1321.05 848.78"/>
      <polyline id="ARI_391-ARI_637" class="cls-8" points="1520.05 987.78 1520.05 961.78 1320.05 961.78 1320.05 848.78"/>
      <polyline id="ARI_391-ARI_634" class="cls-8" points="520.05 1025.78 520.05 1087.78 1194.05 1087.78 1320.05 979.78 1320.05 848.78"/>
      <polyline id="ARI_391-ARI_635" class="cls-8" points="1058.05 1025.78 1058.05 1087.78 1194.05 1087.78 1320.05 979.78 1320.05 848.78"/>
      <polyline id="ARI_391-ARI_636" class="cls-8" points="1132.05 703.78 1320.05 703.78 1320.05 848.78"/>
      <polyline id="ARI_391-ARI_846" class="cls-8" points="1132.05 703.78 1320.05 703.78 1320.05 848.78"/>
      <polyline id="ARI_391-ARI_191" class="cls-8" points="1854.05 1029.78 1680.05 775.78 1321.05 848.78"/>
    </g>
    <g id="ARI_419-2" data-name="ARI_419">
      <polyline id="ARI_419-ARI_637" class="cls-8" points="1516.05 987.78 1516.05 963.78 1366.05 963.78 1366.05 523.78"/>
      <polyline id="ARI_419-ARI_634" class="cls-8" points="516.05 1025.78 516.05 1081.78 1196.05 1081.78 1372.05 923.78 1372.05 521.78"/>
      <polyline id="ARI_419-ARI_635" class="cls-8" points="1054.05 1025.78 1054.05 1081.78 1196.05 1081.78 1372.05 923.78 1372.05 521.78"/>
      <polyline id="ARI_419-ARI_636" class="cls-8" points="1132.05 707.78 1368.05 707.78 1368.05 519.78"/>
      <polyline id="ARI_419-ARI_846" class="cls-8" points="1132.05 707.78 1368.05 707.78 1368.05 519.78"/>
      <line id="ARI_419-ARI_191" class="cls-8" x1="1856.05" y1="1027.78" x2="1404.05" y2="481.78"/>
      <polyline id="ARI_419-ARI_423" class="cls-8" points="1104.05 1117.78 1104.05 1081.78 1196.05 1081.78 1372.05 923.78 1372.05 521.78"/>
    </g>
    <g id="ARI_423-2" data-name="ARI_423">
      <polyline id="ARI_423-ARI_637" class="cls-8" points="1510.05 987.78 1510.05 967.78 1324.05 967.78 1192.05 1087.78 1100.05 1087.78 1100.05 1115.78"/>
      <polyline id="ARI_423-ARI_634" class="cls-8" points="516.05 1025.78 516.05 1089.78 1102.05 1089.78 1102.05 1121.78"/>
      <polyline id="ARI_423-ARI_635" class="cls-8" points="1056.05 1025.78 1056.05 1089.78 1102.05 1089.78 1102.05 1121.78"/>
      <polyline id="ARI_423-ARI_636" class="cls-8" points="1132.05 705.78 1200.05 705.78 1200.05 1087.78 1096.05 1087.78 1096.05 1117.78"/>
      <polyline id="ARI_423-ARI_846" class="cls-8" points="1132.05 705.78 1200.05 705.78 1200.05 1087.78 1096.05 1087.78 1096.05 1117.78"/>
      <polyline id="ARI_423-ARI_191" class="cls-8" points="1858.05 1025.78 1756.05 863.78 1502.05 861.78 1192.05 1087.78 1100.05 1087.78 1100.05 1115.78"/>
      <polyline id="ARI_423-ARI_419" class="cls-8" points="1332.05 487.78 1200.05 487.78 1200.05 1087.78 1096.05 1087.78 1096.05 1117.78"/>
    </g>
  </g>
  <g id="icons">
    <g>
      <g>
        <rect x="1150.5" y="58.95" width="73.02" height="73.02"/>
        <path class="cls-9" d="M1248.58,538.06V605.3h-67.23V538.06h67.23m2.89-2.89h-73v73h73v-73Z" transform="translate(-27.95 -476.22)"/>
      </g>
      <g>
        <g>
          <g>
            <path class="cls-9" d="M1196,557.26a3.61,3.61,0,1,0-3.62-3.61A3.61,3.61,0,0,0,1196,557.26Z" transform="translate(-27.95 -476.22)"/>
            <path class="cls-10" d="M1196,553.65" transform="translate(-27.95 -476.22)"/>
          </g>
          <path class="cls-9" d="M1192.1,558.06a4.64,4.64,0,0,0-4.61,4.69v11.08a1.58,1.58,0,1,0,3.15,0V563.7h.75v27.76a2.1,2.1,0,1,0,4.2,0V575.34h.72v16.12a2.12,2.12,0,1,0,4.23,0V563.7h.73v10.13a1.57,1.57,0,1,0,3.13,0v-11a4.69,4.69,0,0,0-4.67-4.74Z" transform="translate(-27.95 -476.22)"/>
        </g>
        <g>
          <g>
            <path class="cls-9" d="M1232.48,557.12a3.54,3.54,0,1,0-3.54-3.54A3.55,3.55,0,0,0,1232.48,557.12Z" transform="translate(-27.95 -476.22)"/>
            <path class="cls-10" d="M1232.48,553.58" transform="translate(-27.95 -476.22)"/>
          </g>
          <path class="cls-9" d="M1232,579.57v12.26a1.67,1.67,0,0,1-3.34,0V579.65h-4.48l4.79-16.62h-.75l-2.78,9.38a1.51,1.51,0,1,1-2.83-1l3.09-10.19A4.67,4.67,0,0,1,1230,558h4.87a4.81,4.81,0,0,1,4.37,3.22l3.1,10.18c.62,2.18-2.17,3.09-2.83,1l-2.79-9.35h-.8l4.83,16.62h-4.49v12.19a1.66,1.66,0,0,1-3.32,0V579.57Z" transform="translate(-27.95 -476.22)"/>
        </g>
        <line class="cls-11" x1="1186.25" y1="117.75" x2="1186.25" y2="73.82"/>
      </g>
    </g>
    <g>
      <g>
        <rect x="1063.75" y="1117.15" width="73.02" height="73.02"/>
        <path class="cls-9" d="M1161.83,1596.26v67.23H1094.6v-67.23h67.23m2.89-2.89h-73v73h73v-73Z" transform="translate(-27.95 -476.22)"/>
      </g>
      <g>
        <g>
          <path class="cls-9" d="M1145.73,1623.9v7.88a2.8,2.8,0,0,1-.09.58,1,1,0,0,1-.85.72,4.51,4.51,0,0,1-.65,0v-7.95c0-.12,0-.23,0-.35a.6.6,0,0,0-1.19,0v17.35a2.24,2.24,0,0,1-.15.81,1,1,0,0,1-1.14.54,1,1,0,0,1-.82-.91,1.46,1.46,0,0,1,0-.3v-8.43c0-.11,0-.21,0-.32a.59.59,0,0,0-1.16,0,1.16,1.16,0,0,0,0,.32v8.53a1,1,0,0,1-1.18,1.11,1.07,1.07,0,0,1-.92-1,2.43,2.43,0,0,1,0-.27c0-5.71,0-11.44,0-17.16a2.3,2.3,0,0,0,0-.37.6.6,0,0,0-.64-.48.61.61,0,0,0-.54.6v8.19a1.15,1.15,0,0,1-1.53-1.16c0-2.67,0-5.35,0-8a2.72,2.72,0,0,1,2.85-2.84h5.25A2.73,2.73,0,0,1,1145.73,1623.9Z" transform="translate(-27.95 -476.22)"/>
          <path class="cls-9" d="M1129.86,1631.22c-.63-2.67-1.27-5.32-1.92-8a2.71,2.71,0,0,0-2.79-2.19h-3a2.71,2.71,0,0,0-2.82,2.19q-1,4-2,8.09a1,1,0,0,0,.57,1.21,4.35,4.35,0,0,0,.72.23c.36-1.5.7-3,1-4.41q.42-1.8.87-3.6a.59.59,0,0,1,.45-.5c.48-.09.81.3.69.81-.74,3.06-1.46,6.11-2.18,9.17-.13.51-.25,1-.37,1.59h1.77v6.55a1.14,1.14,0,0,0,.54,1,.92.92,0,0,0,1,0,1,1,0,0,0,.54-.93v-5.86a1,1,0,0,1,0-.3.52.52,0,0,1,.54-.48.59.59,0,0,1,.58.49,2.17,2.17,0,0,1,0,.36v5.76a1,1,0,0,0,.67,1,1,1,0,0,0,1.44-1v-6.66h1.76a.53.53,0,0,1,0-.16c-.51-2.19-1-4.37-1.54-6.56-.32-1.38-.65-2.74-1-4.12a.55.55,0,0,1,.45-.71.56.56,0,0,1,.67.42.44.44,0,0,1,0,.15c.51,2.12,1,4.25,1.5,6.36.12.53.26,1,.38,1.59.16,0,.31-.1.45-.12A1.07,1.07,0,0,0,1129.86,1631.22Z" transform="translate(-27.95 -476.22)"/>
          <path class="cls-9" d="M1129,1632.66c-.14,0-.29.08-.45.12-.12-.54-.26-1.06-.38-1.59-.49-2.11-1-4.24-1.5-6.36a.44.44,0,0,0,0-.15.56.56,0,0,0-.67-.42.55.55,0,0,0-.45.71c.31,1.38.64,2.74,1,4.12.51,2.19,1,4.37,1.54,6.56a.53.53,0,0,0,0,.16h-1.76v6.66a1,1,0,0,1-1.44,1,1,1,0,0,1-.67-1v-5.76a2.17,2.17,0,0,0,0-.36.59.59,0,0,0-.58-.49.52.52,0,0,0-.54.48,1,1,0,0,0,0,.3v5.86a1,1,0,0,1-.54.93.92.92,0,0,1-1,0,1.14,1.14,0,0,1-.54-1v-6.55h-1.77c.12-.56.24-1.08.37-1.59.72-3.06,1.44-6.11,2.18-9.17.12-.51-.21-.9-.69-.81a.59.59,0,0,0-.45.5q-.45,1.8-.87,3.6c-.35,1.45-.69,2.91-1,4.41a4.35,4.35,0,0,1-.72-.23,1,1,0,0,1-.57-1.21q1-4,2-8.09a2.71,2.71,0,0,1,2.82-2.19h3a2.71,2.71,0,0,1,2.79,2.19c.65,2.66,1.29,5.31,1.92,8A1.07,1.07,0,0,1,1129,1632.66Z" transform="translate(-27.95 -476.22)"/>
          <path class="cls-9" d="M1125.5,1617.91a1.92,1.92,0,0,1-1.88,1.86,1.87,1.87,0,0,1,0-3.74A1.91,1.91,0,0,1,1125.5,1617.91Z" transform="translate(-27.95 -476.22)"/>
          <path class="cls-9" d="M1142.13,1617.88a1.88,1.88,0,1,1-3.75,0,1.82,1.82,0,0,1,1.86-1.83A1.89,1.89,0,0,1,1142.13,1617.88Z" transform="translate(-27.95 -476.22)"/>
          <path class="cls-9" d="M1112.66,1623.9v7.88a5.4,5.4,0,0,1-.09.58,1,1,0,0,1-.86.72,4.32,4.32,0,0,1-.64,0v-7.95c0-.12,0-.23,0-.35a.6.6,0,0,0-1.19,0v17.35a2.24,2.24,0,0,1-.15.81,1,1,0,0,1-1.14.54,1,1,0,0,1-.82-.91,1.46,1.46,0,0,1,0-.3v-8.43c0-.11,0-.21,0-.32a.59.59,0,0,0-1.16,0,1.16,1.16,0,0,0,0,.32v8.53a1,1,0,0,1-1.18,1.11,1.07,1.07,0,0,1-.92-1,2.43,2.43,0,0,1,0-.27c0-5.71,0-11.44,0-17.16a2.3,2.3,0,0,0,0-.37.6.6,0,0,0-.64-.48.61.61,0,0,0-.54.6v8.19a1.15,1.15,0,0,1-1.53-1.16c0-2.67,0-5.35,0-8a2.72,2.72,0,0,1,2.85-2.84h5.25A2.73,2.73,0,0,1,1112.66,1623.9Z" transform="translate(-27.95 -476.22)"/>
          <path class="cls-9" d="M1109.06,1617.88a1.88,1.88,0,1,1-3.75,0,1.82,1.82,0,0,1,1.86-1.83A1.89,1.89,0,0,1,1109.06,1617.88Z" transform="translate(-27.95 -476.22)"/>
        </g>
        <path class="cls-9" d="M1150.83,1618.37v23l-1.64-1.64a.6.6,0,0,0-.86,0,.59.59,0,0,0,0,.85l3.11,3.11,3.11-3.11a.59.59,0,0,0,0-.85.6.6,0,0,0-.86,0l-1.64,1.64v-23h0l1.64,1.53a.61.61,0,0,0,.86-.86l-3.11-3.11-3.11,3.11a.6.6,0,0,0,0,.86.61.61,0,0,0,.43.18.6.6,0,0,0,.43-.18" transform="translate(-27.95 -476.22)"/>
      </g>
    </g>
    <g>
      <g>
        <rect x="1333.03" y="447.4" width="73.02" height="73.02"/>
        <path class="cls-9" d="M1431.11,926.51v67.23h-67.23V926.51h67.23m2.89-2.89h-73v73h73v-73Z" transform="translate(-27.95 -476.22)"/>
      </g>
      <g>
        <path class="cls-9" d="M1419.11,963.67c-1.69-.06-3.37,0-5.06,0a1.55,1.55,0,0,1-1.2-.5l-6.79-6.64q0-4.59,0-9.18c0-2.3-.92-3.57-2.57-3.6-.75,0-1.5,0-2.25,0-1.46,0-2.38,1.35-2.39,3.35,0,.75-.07,1.53-.08,2.29q-5.55-5.42-11.09-10.84a1.64,1.64,0,0,0-1.26-.5c-3.47,0-6.93,0-10.39,0a6.54,6.54,0,0,0-2.18,12.64,8,8,0,0,0,2.53.47c1.59.08,3.19,0,4.78,0a1.72,1.72,0,0,1,1.07.42q12.62,12.27,25.2,24.59a1.74,1.74,0,0,0,1.37.56c1.67,0,3.33,0,5,0v-.11a57.16,57.16,0,0,0,6,0,6.42,6.42,0,0,0,5.52-7A6.5,6.5,0,0,0,1419.11,963.67Z" transform="translate(-27.95 -476.22)"/>
        <path class="cls-9" d="M1402.44,936.86a2.87,2.87,0,0,0-2.9,2.86,2.9,2.9,0,0,0,2.86,2.92,2.93,2.93,0,0,0,2.92-2.88A2.9,2.9,0,0,0,1402.44,936.86Z" transform="translate(-27.95 -476.22)"/>
        <path class="cls-9" d="M1398.11,985.19a.67.67,0,0,1-.46-.18l-27.44-26.18a.66.66,0,0,1,0-.94.67.67,0,0,1,1,0L1398.58,984a.67.67,0,0,1,0,.94A.67.67,0,0,1,1398.11,985.19Z" transform="translate(-27.95 -476.22)"/>
        <path class="cls-9" d="M1370.62,964.92a.68.68,0,0,1-.68-.65l-.17-6.11a.68.68,0,0,1,.66-.69l6.11-.17a.69.69,0,0,1,.69.65.68.68,0,0,1-.66.69l-5.43.15.15,5.44a.68.68,0,0,1-.66.69Z" transform="translate(-27.95 -476.22)"/>
        <path class="cls-9" d="M1392.2,985.6a.67.67,0,1,1,0-1.34l5.44-.15-.16-5.44a.68.68,0,0,1,.66-.69h0a.67.67,0,0,1,.68.65l.17,6.11a.68.68,0,0,1-.66.69l-6.11.17Z" transform="translate(-27.95 -476.22)"/>
      </g>
    </g>
    <g>
      <g>
        <rect x="1864.4" y="1504.01" width="73.02" height="73.02" transform="translate(-50.23 -448.32) rotate(-0.84)"/>
        <path class="cls-9" d="M1934,1506.42l1,67.22-67.23,1-1-67.22,67.23-1m2.85-2.94-73,1.07,1.06,73,73-1.07-1.06-73Z" transform="translate(-27.95 -476.22)"/>
      </g>
      <g>
        <path class="cls-9" d="M1922.57,1543.74c-1.68,0-3.37,0-5.06.07a1.56,1.56,0,0,1-1.2-.48l-6.89-6.54c-.05-3.06-.09-6.12-.14-9.18,0-2.3-1-3.56-2.62-3.56-.75,0-1.51,0-2.26,0-1.45.08-2.35,1.39-2.33,3.39,0,.74,0,1.53,0,2.29l-11.25-10.68a1.63,1.63,0,0,0-1.27-.48c-3.46.07-6.93.07-10.39.18a6.55,6.55,0,0,0-2,12.68,8.67,8.67,0,0,0,2.54.43c1.59,0,3.19-.05,4.78,0a1.68,1.68,0,0,1,1.07.41q12.79,12.09,25.56,24.22a1.76,1.76,0,0,0,1.38.54c1.66-.06,3.33-.06,5-.09v-.1a54.46,54.46,0,0,0,6-.13,6.41,6.41,0,0,0,5.42-7.07A6.52,6.52,0,0,0,1922.57,1543.74Z" transform="translate(-27.95 -476.22)"/>
        <path class="cls-9" d="M1905.52,1517.18a2.89,2.89,0,0,0,0,5.78,2.89,2.89,0,1,0,0-5.78Z" transform="translate(-27.95 -476.22)"/>
        <path class="cls-9" d="M1901.89,1565.58a.67.67,0,0,1-.46-.18l-27.82-25.77a.67.67,0,0,1,0-1,.68.68,0,0,1,1,0l27.82,25.77a.67.67,0,0,1,0,.95A.69.69,0,0,1,1901.89,1565.58Z" transform="translate(-27.95 -476.22)"/>
        <path class="cls-9" d="M1874.1,1545.71a.68.68,0,0,1-.68-.65l-.26-6.1a.68.68,0,0,1,.65-.7l6.1-.26a.69.69,0,0,1,.7.64.66.66,0,0,1-.64.7l-5.44.23.23,5.44a.67.67,0,0,1-.64.7Z" transform="translate(-27.95 -476.22)"/>
        <path class="cls-9" d="M1896,1566.07a.67.67,0,0,1,0-1.34l5.44-.23-.23-5.44a.67.67,0,0,1,.64-.7h0a.67.67,0,0,1,.68.65l.26,6.1a.67.67,0,0,1-.64.7l-6.11.26Z" transform="translate(-27.95 -476.22)"/>
      </g>
    </g>
    <g>
      <g>
        <rect x="1791.01" y="1505.09" width="72.78" height="72.78" transform="translate(-50.25 -449.39) rotate(-0.84)"/>
        <path class="cls-9" d="M1860.41,1507.48l1,67-67,1-1-67,67-1m2.84-2.92-72.77,1.06,1.06,72.77,72.77-1.06-1.06-72.77Z" transform="translate(-27.95 -476.22)"/>
      </g>
      <path class="cls-9" d="M1819.44,1563.67l-15.35.22a3,3,0,1,1-.08-5.91l9.43-.14-.21-14.22,12.17-.18-.2-13.49,11.52-.17-.16-10.52,14.14-.2a3,3,0,1,1,.09,5.91l-8.23.12.16,10.52-11.52.17.2,13.49-12.17.17Z" transform="translate(-27.95 -476.22)"/>
    </g>
    <g>
      <g>
        <rect x="1312.76" y="1089.95" width="73.02" height="73.02"/>
        <path class="cls-9" d="M1410.83,1569.06v67.24H1343.6v-67.24h67.23m2.9-2.89h-73v73h73v-73Z" transform="translate(-27.95 -476.22)"/>
      </g>
      <g>
        <g>
          <g>
            <path class="cls-9" d="M1358.22,1588.26a3.61,3.61,0,1,0-3.61-3.61A3.6,3.6,0,0,0,1358.22,1588.26Z" transform="translate(-27.95 -476.22)"/>
            <path class="cls-10" d="M1358.22,1584.65" transform="translate(-27.95 -476.22)"/>
          </g>
          <path class="cls-9" d="M1354.36,1589.06a4.64,4.64,0,0,0-4.62,4.69v11.08a1.58,1.58,0,1,0,3.16,0V1594.7h.75v27.76a2.1,2.1,0,1,0,4.2,0v-16.12h.72v16.12a2.11,2.11,0,1,0,4.22,0V1594.7h.73v10.13a1.57,1.57,0,1,0,3.14,0v-11a4.7,4.7,0,0,0-4.67-4.74Z" transform="translate(-27.95 -476.22)"/>
        </g>
        <g>
          <g>
            <path class="cls-9" d="M1394.74,1588.12a3.54,3.54,0,1,0-3.54-3.54A3.54,3.54,0,0,0,1394.74,1588.12Z" transform="translate(-27.95 -476.22)"/>
            <path class="cls-10" d="M1394.74,1584.58" transform="translate(-27.95 -476.22)"/>
          </g>
          <path class="cls-9" d="M1394.21,1610.57v12.26a1.66,1.66,0,0,1-3.33,0v-12.18h-4.48l4.79-16.62h-.74l-2.79,9.38a1.5,1.5,0,1,1-2.82-1l3.09-10.19a4.67,4.67,0,0,1,4.34-3.22h4.87a4.82,4.82,0,0,1,4.38,3.22l3.09,10.18c.62,2.18-2.16,3.09-2.83,1L1399,1594h-.81l4.83,16.62h-4.49v12.19a1.66,1.66,0,0,1-3.32,0v-12.27Z" transform="translate(-27.95 -476.22)"/>
        </g>
        <line class="cls-11" x1="1348.51" y1="1148.75" x2="1348.51" y2="1104.82"/>
      </g>
    </g>
    <polygon id="_Path_" data-name="&lt;Path&gt;" class="cls-12" points="1329.9 842.02 1283.13 847.63 1301.66 879.73 1329.9 842.02"/>
  </g>
  <g id="labels">
    <g>
      <path class="cls-9" d="M1512.52,1510.44a13.08,13.08,0,0,1-4.71.81c-2.93,0-5.15-.79-6.66-2.35s-2.26-3.87-2.26-6.91.79-5.32,2.37-7a8.74,8.74,0,0,1,6.65-2.47,13,13,0,0,1,4.34.72v3.07a18.47,18.47,0,0,0-3.87-.52,5.29,5.29,0,0,0-4,1.43,6.21,6.21,0,0,0-1.34,4.37v.6a6.23,6.23,0,0,0,1.3,4.33,5.16,5.16,0,0,0,4,1.41,21.89,21.89,0,0,0,4.24-.59Z" transform="translate(-27.95 -476.22)"/>
      <path class="cls-9" d="M1519.54,1510.91v-6.66l-6-11.36h4.29l3.69,8.43,3.8-8.43h4.08l-6.06,11.42v6.6Z" transform="translate(-27.95 -476.22)"/>
      <path class="cls-9" d="M1535.58,1504.33v6.58h-3.8v-18h6.89a6.27,6.27,0,0,1,4.45,1.54,6.19,6.19,0,0,1,0,8.37,6.26,6.26,0,0,1-4.45,1.53Zm0-2.91h2.65a2.66,2.66,0,0,0,2-.71,3.53,3.53,0,0,0,0-4.19,2.62,2.62,0,0,0-2-.71h-2.65Z" transform="translate(-27.95 -476.22)"/>
      <path class="cls-9" d="M1547.88,1510.91v-18h6.94a6.36,6.36,0,0,1,4.44,1.49,5.16,5.16,0,0,1,1.64,4,4.83,4.83,0,0,1-.86,2.8,5.66,5.66,0,0,1-2.41,2l4.47,7.75h-4l-3.9-7h-2.55v7Zm3.74-9.7h2.7a2.42,2.42,0,0,0,2.73-2.75,2.38,2.38,0,0,0-2.67-2.71h-2.76Z" transform="translate(-27.95 -476.22)"/>
      <path class="cls-9" d="M1564.44,1510.91v-18h11.85v3h-8v4.26h6.47v3h-6.47v4.71h8v3Z" transform="translate(-27.95 -476.22)"/>
      <path class="cls-9" d="M1583,1503a7.63,7.63,0,0,1-3.32-2.09,5.19,5.19,0,0,1,.79-7,7.5,7.5,0,0,1,4.85-1.46,13.72,13.72,0,0,1,5,.94v3a15.9,15.9,0,0,0-4.68-.78c-2,0-3.07.66-3.07,2a1.5,1.5,0,0,0,.54,1.19,6.56,6.56,0,0,0,2,1l1.93.7a8.24,8.24,0,0,1,3.44,2.07,4.52,4.52,0,0,1,1,3.08,5.14,5.14,0,0,1-1.92,4.23,8.24,8.24,0,0,1-5.28,1.54,15.92,15.92,0,0,1-2.91-.27,11.09,11.09,0,0,1-2.5-.74v-3a23.74,23.74,0,0,0,2.78.62,16.82,16.82,0,0,0,2.68.23,4.2,4.2,0,0,0,2.37-.56,1.81,1.81,0,0,0,.83-1.59,1.65,1.65,0,0,0-.51-1.28,6.83,6.83,0,0,0-2-1Z" transform="translate(-27.95 -476.22)"/>
      <path class="cls-9" d="M1597.92,1503a7.63,7.63,0,0,1-3.32-2.09,5.19,5.19,0,0,1,.79-7,7.5,7.5,0,0,1,4.85-1.46,13.72,13.72,0,0,1,5,.94v3a15.9,15.9,0,0,0-4.68-.78c-2,0-3.07.66-3.07,2a1.5,1.5,0,0,0,.54,1.19,6.56,6.56,0,0,0,2,1l1.93.7a8.24,8.24,0,0,1,3.44,2.07,4.52,4.52,0,0,1,1,3.08,5.14,5.14,0,0,1-1.92,4.23,8.24,8.24,0,0,1-5.28,1.54,15.92,15.92,0,0,1-2.91-.27,11.09,11.09,0,0,1-2.5-.74v-3a23.74,23.74,0,0,0,2.78.62,16.82,16.82,0,0,0,2.68.23,4.2,4.2,0,0,0,2.37-.56,1.81,1.81,0,0,0,.83-1.59,1.65,1.65,0,0,0-.51-1.28,6.83,6.83,0,0,0-2-1Z" transform="translate(-27.95 -476.22)"/>
      <path class="cls-9" d="M1486.14,1540.91v-18H1498v3h-8v4.26h6.47v3H1490v4.71h8v3Z" transform="translate(-27.95 -476.22)"/>
      <path class="cls-9" d="M1511,1540.91l-3.77-6.66-3.72,6.66h-4.29l5.85-9.36-5.41-8.66h4.4l3.3,5.85,3.3-5.85h4.29l-5.49,8.61,5.93,9.41Z" transform="translate(-27.95 -476.22)"/>
      <path class="cls-9" d="M1517.55,1540.91v-18h11.85v3h-8v4.26h6.47v3h-6.47v4.71h8v3Z" transform="translate(-27.95 -476.22)"/>
      <path class="cls-9" d="M1545.16,1540.44a13,13,0,0,1-4.71.81c-2.93,0-5.15-.79-6.65-2.35s-2.27-3.87-2.27-6.91.79-5.32,2.37-7a8.79,8.79,0,0,1,6.66-2.48,13,13,0,0,1,4.34.73v3.07a18.63,18.63,0,0,0-3.88-.52,5.29,5.29,0,0,0-4,1.43,6.21,6.21,0,0,0-1.34,4.37v.6a6.28,6.28,0,0,0,1.3,4.33,5.16,5.16,0,0,0,4,1.41,21.8,21.8,0,0,0,4.24-.59Z" transform="translate(-27.95 -476.22)"/>
      <path class="cls-9" d="M1558.91,1522.89h3.9v11.42a6.85,6.85,0,0,1-1.93,5.2,9.16,9.16,0,0,1-11,0,6.87,6.87,0,0,1-1.94-5.24v-11.39h3.9v11.57a3.82,3.82,0,0,0,.91,2.77,4.1,4.1,0,0,0,5.25,0,3.82,3.82,0,0,0,.91-2.77Z" transform="translate(-27.95 -476.22)"/>
      <path class="cls-9" d="M1570.59,1540.91V1526h-5.49v-3.12H1580V1526h-5.48v14.9Z" transform="translate(-27.95 -476.22)"/>
      <path class="cls-9" d="M1582.47,1540.91v-18h3.9v18Z" transform="translate(-27.95 -476.22)"/>
      <path class="cls-9" d="M1595.1,1540.91l-6.39-18H1593l4.22,14.2,4.18-14.2h4.21l-6.39,18Z" transform="translate(-27.95 -476.22)"/>
      <path class="cls-9" d="M1607.87,1540.91v-18h11.85v3h-8v4.26h6.47v3h-6.47v4.71h8v3Z" transform="translate(-27.95 -476.22)"/>
      <path class="cls-9" d="M1501.62,1570.91v-18h3.9v14.9h7.9v3.12Z" transform="translate(-27.95 -476.22)"/>
      <path class="cls-9" d="M1514.83,1561.89a11.29,11.29,0,0,1,1-5,7.39,7.39,0,0,1,3-3.29,10.26,10.26,0,0,1,9.4,0,7.5,7.5,0,0,1,3.06,3.24,11.17,11.17,0,0,1,1.07,5.08,11.43,11.43,0,0,1-1,5,7.55,7.55,0,0,1-3,3.3,9.18,9.18,0,0,1-4.74,1.17,9.37,9.37,0,0,1-4.66-1.11,7.56,7.56,0,0,1-3-3.25A11.19,11.19,0,0,1,1514.83,1561.89Zm4,0a7.7,7.7,0,0,0,1.22,4.68,4.75,4.75,0,0,0,7.13,0,9.57,9.57,0,0,0,0-9.35,4.77,4.77,0,0,0-7.13,0A7.63,7.63,0,0,0,1518.83,1561.89Z" transform="translate(-27.95 -476.22)"/>
      <path class="cls-9" d="M1546.91,1552.89h3.9v11.42a6.85,6.85,0,0,1-1.93,5.2,9.16,9.16,0,0,1-11,0,6.87,6.87,0,0,1-1.94-5.24v-11.39h3.9v11.57a3.82,3.82,0,0,0,.91,2.77,4.1,4.1,0,0,0,5.25,0,3.82,3.82,0,0,0,.91-2.77Z" transform="translate(-27.95 -476.22)"/>
      <path class="cls-9" d="M1558.3,1558.41v12.5h-3.43v-18H1559l7.33,12.61v-12.61h3.43v18h-4.16Z" transform="translate(-27.95 -476.22)"/>
      <path class="cls-9" d="M1583,1568.13a16.23,16.23,0,0,0,1.92-.13v-4.39h-3.38v-2.81h7v9a11.4,11.4,0,0,1-2.91,1,15.83,15.83,0,0,1-3.44.37,8.56,8.56,0,0,1-6.48-2.37,9.31,9.31,0,0,1-2.28-6.73q0-4.63,2.36-7.06c1.56-1.62,3.84-2.43,6.82-2.43a12.07,12.07,0,0,1,5.28,1.06v3a16.41,16.41,0,0,0-4.86-.86,5.56,5.56,0,0,0-4.24,1.44,6.48,6.48,0,0,0-1.35,4.54v.47a6.32,6.32,0,0,0,1.34,4.48A5.57,5.57,0,0,0,1583,1568.13Z" transform="translate(-27.95 -476.22)"/>
      <path class="cls-9" d="M1592.39,1570.91v-18h11.85v3h-8v4.26h6.47v3h-6.47v4.71h8v3Z" transform="translate(-27.95 -476.22)"/>
    </g>
    <g>
      <path class="cls-9" d="M636.66,1065.52v-22.18h8.54a7.81,7.81,0,0,1,5.47,1.83,6.33,6.33,0,0,1,2,5,5.89,5.89,0,0,1-1.06,3.45,6.86,6.86,0,0,1-3,2.4l5.5,9.54h-5l-4.8-8.61h-3.13v8.61Zm4.61-11.94h3.32q3.36,0,3.36-3.39t-3.29-3.33h-3.39Z" transform="translate(-27.95 -476.22)"/>
      <path class="cls-9" d="M657,1065.52v-22.18h14.59v3.71h-9.79v5.25h8V1056h-8v5.8h9.79v3.71Z" transform="translate(-27.95 -476.22)"/>
      <path class="cls-9" d="M686.06,1062.09a20,20,0,0,0,2.37-.16v-5.4h-4.16v-3.46h8.58v11.1a13.65,13.65,0,0,1-3.58,1.25,20,20,0,0,1-4.23.45q-5.19,0-8-2.91c-1.87-1.94-2.8-4.71-2.8-8.29,0-3.8,1-6.69,2.89-8.69s4.73-3,8.4-3a14.89,14.89,0,0,1,6.5,1.31V1048a20.16,20.16,0,0,0-6-1.06c-2.36,0-4.1.6-5.21,1.78s-1.66,3-1.66,5.58v.58c0,2.52.54,4.36,1.64,5.52S683.68,1062.09,686.06,1062.09Z" transform="translate(-27.95 -476.22)"/>
      <path class="cls-9" d="M697.71,1065.52v-22.18h4.8v22.18Z" transform="translate(-27.95 -476.22)"/>
      <path class="cls-9" d="M712.08,1055.82a9.49,9.49,0,0,1-4.1-2.57,6.43,6.43,0,0,1,1-8.66,9.26,9.26,0,0,1,6-1.79,17,17,0,0,1,6.14,1.15v3.65a19.59,19.59,0,0,0-5.76-1c-2.52,0-3.77.81-3.77,2.43a1.88,1.88,0,0,0,.65,1.47,8.13,8.13,0,0,0,2.45,1.22l2.37.86a10.27,10.27,0,0,1,4.24,2.55,5.58,5.58,0,0,1,1.26,3.79,6.31,6.31,0,0,1-2.37,5.2,10.05,10.05,0,0,1-6.49,1.9,19.82,19.82,0,0,1-3.59-.33,13.8,13.8,0,0,1-3.07-.92v-3.64a25.83,25.83,0,0,0,3.43.76,20.28,20.28,0,0,0,3.29.29,5.23,5.23,0,0,0,2.92-.69,2.21,2.21,0,0,0,1-2A2,2,0,0,0,717,1058a8.3,8.3,0,0,0-2.52-1.28Z" transform="translate(-27.95 -476.22)"/>
      <path class="cls-9" d="M731.06,1065.52v-18.34H724.3v-3.84h18.31v3.84h-6.75v18.34Z" transform="translate(-27.95 -476.22)"/>
      <path class="cls-9" d="M745.55,1065.52v-22.18h8.55a7.85,7.85,0,0,1,5.47,1.83,6.36,6.36,0,0,1,2,5,6,6,0,0,1-1.05,3.45,7,7,0,0,1-3,2.4l5.51,9.54h-5l-4.8-8.61h-3.14v8.61Zm4.61-11.94h3.33q3.36,0,3.36-3.39t-3.3-3.33h-3.39Z" transform="translate(-27.95 -476.22)"/>
      <path class="cls-9" d="M780.21,1065.52l-1.57-5.06h-7.58l-1.51,5.06h-5l7.81-22.18h5.28l7.8,22.18Zm-8.13-8.51h5.57l-2.82-9.28Z" transform="translate(-27.95 -476.22)"/>
      <path class="cls-9" d="M790.83,1065.52v-18.34h-6.75v-3.84h18.3v3.84h-6.75v18.34Z" transform="translate(-27.95 -476.22)"/>
      <path class="cls-9" d="M805.46,1065.52v-22.18h4.8v22.18Z" transform="translate(-27.95 -476.22)"/>
      <path class="cls-9" d="M814.86,1054.41a13.91,13.91,0,0,1,1.27-6.14,9.16,9.16,0,0,1,3.71-4,12.69,12.69,0,0,1,11.57,0,9.36,9.36,0,0,1,3.76,4,13.7,13.7,0,0,1,1.33,6.25,14.07,14.07,0,0,1-1.27,6.15,9.24,9.24,0,0,1-3.71,4.06,11.32,11.32,0,0,1-5.84,1.44,11.51,11.51,0,0,1-5.73-1.37,9.33,9.33,0,0,1-3.76-4A13.83,13.83,0,0,1,814.86,1054.41Zm4.93,0a9.42,9.42,0,0,0,1.5,5.76,5.83,5.83,0,0,0,8.77,0,11.7,11.7,0,0,0,0-11.5,5.87,5.87,0,0,0-8.77,0A9.35,9.35,0,0,0,819.79,1054.41Z" transform="translate(-27.95 -476.22)"/>
      <path class="cls-9" d="M845.2,1050.13v15.39H841v-22.18h5.13l9,15.52v-15.52h4.22v22.18h-5.12Z" transform="translate(-27.95 -476.22)"/>
      <path class="cls-9" d="M657.28,1100.43v-5.82h-5.47V1091h5.47v-5.82h4V1091h5.47v3.59h-5.47v5.82Z" transform="translate(-27.95 -476.22)"/>
      <path class="cls-9" d="M693.22,1103.92v-9.44h-8.84v9.44h-4.8v-22.18h4.8v9h8.84v-9H698v22.18Z" transform="translate(-27.95 -476.22)"/>
      <path class="cls-9" d="M703.14,1103.92v-22.18h14.59v3.71h-9.79v5.25h8v3.71h-8v5.8h9.79v3.71Z" transform="translate(-27.95 -476.22)"/>
      <path class="cls-9" d="M721.63,1103.92v-22.18h4.8v18.34h9.73v3.84Z" transform="translate(-27.95 -476.22)"/>
      <path class="cls-9" d="M743.68,1095.82v8.1H739v-22.18h8.48a7.67,7.67,0,0,1,5.47,1.89,7.57,7.57,0,0,1,0,10.3,7.67,7.67,0,0,1-5.47,1.89Zm0-3.58h3.26a3.22,3.22,0,0,0,2.45-.88,3.57,3.57,0,0,0,.85-2.58,3.53,3.53,0,0,0-.85-2.57,3.22,3.22,0,0,0-2.45-.88h-3.26Z" transform="translate(-27.95 -476.22)"/>
      <path class="cls-9" d="M767.2,1103.92v-22.18h8c3.3,0,5.85,1,7.63,2.87s2.67,4.64,2.67,8.2-.89,6.28-2.67,8.21a9.74,9.74,0,0,1-7.54,2.9Zm4.8-18.47v14.76h2.75q5.79,0,5.79-7.08v-.64q0-7-5.82-7Z" transform="translate(-27.95 -476.22)"/>
      <path class="cls-9" d="M790,1103.92v-22.18h14.59v3.71h-9.79v5.25h8v3.71h-8v5.8h9.79v3.71Z" transform="translate(-27.95 -476.22)"/>
      <path class="cls-9" d="M812.77,1094.22a9.43,9.43,0,0,1-4.1-2.57,5.91,5.91,0,0,1-1.25-3.86,5.83,5.83,0,0,1,2.23-4.8,9.26,9.26,0,0,1,6-1.79,17,17,0,0,1,6.14,1.15V1086a19.59,19.59,0,0,0-5.76-1q-3.78,0-3.78,2.43a1.85,1.85,0,0,0,.66,1.47,8,8,0,0,0,2.45,1.22l2.37.86a10.34,10.34,0,0,1,4.24,2.55,5.58,5.58,0,0,1,1.26,3.79,6.31,6.31,0,0,1-2.37,5.2,10.07,10.07,0,0,1-6.49,1.9,19.82,19.82,0,0,1-3.59-.33,13.64,13.64,0,0,1-3.07-.92v-3.64a26,26,0,0,0,3.42.76,20.49,20.49,0,0,0,3.3.29,5.17,5.17,0,0,0,2.91-.69,2.22,2.22,0,0,0,1-2,2,2,0,0,0-.63-1.57,8.22,8.22,0,0,0-2.51-1.28Z" transform="translate(-27.95 -476.22)"/>
      <path class="cls-9" d="M827.17,1103.92v-22.18H832v9.51l8-9.51h5.41l-9,10.31,9.79,11.87h-5.72L832,1093.39v10.53Z" transform="translate(-27.95 -476.22)"/>
      <path class="cls-9" d="M691.8,1132.72V1121.2l-3.67,7.46h-3.21l-3.68-7.46v11.52h-3.16v-16.63H682l4.54,9.45,4.56-9.45H695v16.63Z" transform="translate(-27.95 -476.22)"/>
      <path class="cls-9" d="M708.8,1132.72l-1.18-3.79h-5.69l-1.13,3.79H697l5.85-16.63h4l5.86,16.63Zm-6.1-6.39h4.18l-2.12-7Z" transform="translate(-27.95 -476.22)"/>
      <path class="cls-9" d="M714.77,1132.72v-16.63h6.41a5.91,5.91,0,0,1,4.11,1.36,4.81,4.81,0,0,1,1.51,3.72,4.49,4.49,0,0,1-.8,2.6,5.3,5.3,0,0,1-2.23,1.8l4.13,7.15h-3.72l-3.6-6.46h-2.35v6.46Zm3.46-9h2.49a2.24,2.24,0,0,0,2.52-2.55,2.19,2.19,0,0,0-2.47-2.49h-2.54Z" transform="translate(-27.95 -476.22)"/>
      <path class="cls-9" d="M730.16,1132.72v-16.63h3.6v16.63Z" transform="translate(-27.95 -476.22)"/>
      <path class="cls-9" d="M741.2,1126.65v6.07h-3.51v-16.63h6.36a5.79,5.79,0,0,1,4.11,1.41,5.7,5.7,0,0,1,0,7.73,5.8,5.8,0,0,1-4.11,1.42Zm0-2.69h2.44a2.44,2.44,0,0,0,1.84-.66,3.25,3.25,0,0,0,0-3.87,2.44,2.44,0,0,0-1.84-.66H741.2Z" transform="translate(-27.95 -476.22)"/>
      <path class="cls-9" d="M752.07,1124.39a10.4,10.4,0,0,1,.95-4.61,6.86,6.86,0,0,1,2.78-3,8.46,8.46,0,0,1,4.38-1.07,8.58,8.58,0,0,1,4.3,1,7,7,0,0,1,2.81,3,10.15,10.15,0,0,1,1,4.69,10.54,10.54,0,0,1-.95,4.61,7,7,0,0,1-2.78,3,8.47,8.47,0,0,1-4.38,1.08,8.58,8.58,0,0,1-4.3-1,7,7,0,0,1-2.82-3A10.35,10.35,0,0,1,752.07,1124.39Zm3.69,0a7.06,7.06,0,0,0,1.13,4.32,4.38,4.38,0,0,0,6.58,0,8.8,8.8,0,0,0,0-8.63,4.42,4.42,0,0,0-6.58,0A7,7,0,0,0,755.76,1124.39Z" transform="translate(-27.95 -476.22)"/>
      <path class="cls-9" d="M774.65,1125.45a7.1,7.1,0,0,1-3.07-1.94,4.8,4.8,0,0,1,.73-6.49,7,7,0,0,1,4.48-1.34,12.84,12.84,0,0,1,4.6.86v2.74a14.66,14.66,0,0,0-4.31-.72c-1.89,0-2.84.61-2.84,1.82a1.42,1.42,0,0,0,.5,1.11,6.06,6.06,0,0,0,1.83.91l1.78.65a7.73,7.73,0,0,1,3.18,1.9,4.2,4.2,0,0,1,.94,2.85,4.74,4.74,0,0,1-1.77,3.9,7.57,7.57,0,0,1-4.87,1.43,14.42,14.42,0,0,1-2.69-.26,9.52,9.52,0,0,1-2.3-.68v-2.74a18.52,18.52,0,0,0,2.56.58,16.69,16.69,0,0,0,2.48.22,3.92,3.92,0,0,0,2.18-.52,1.68,1.68,0,0,0,.77-1.48,1.53,1.53,0,0,0-.47-1.17,6.1,6.1,0,0,0-1.89-1Z" transform="translate(-27.95 -476.22)"/>
      <path class="cls-9" d="M795.44,1132.72l-1.18-3.79h-5.69l-1.13,3.79h-3.76l5.85-16.63h4l5.86,16.63Zm-6.1-6.39h4.18l-2.12-7Z" transform="translate(-27.95 -476.22)"/>
      <path class="cls-9" d="M807.15,1129.38a16,16,0,0,0,4.75.91,3.35,3.35,0,0,0,2.26-.67,2.48,2.48,0,0,0,.76-2,2.27,2.27,0,0,0-.76-1.9,3.81,3.81,0,0,0-2.38-.62,36,36,0,0,0-3.94.24v-2.16l.44-7.12h9.43v2.73h-6.48l-.27,3.94a8.76,8.76,0,0,1,2.07-.24,5.6,5.6,0,0,1,4,1.38,4.78,4.78,0,0,1,1.48,3.68,5.28,5.28,0,0,1-.76,2.83,5.13,5.13,0,0,1-2.24,2,7.73,7.73,0,0,1-3.4.71,12.13,12.13,0,0,1-4.92-1Z" transform="translate(-27.95 -476.22)"/>
    </g>
    <g>
      <path class="cls-9" d="M444.44,1439.56v-13.44l-4.28,8.71H436.4l-4.28-8.71v13.44h-3.7v-19.41H433l5.29,11,5.32-11h4.5v19.41Z" transform="translate(-27.95 -476.22)"/>
      <path class="cls-9" d="M464.26,1439.56l-1.37-4.43h-6.64l-1.31,4.43h-4.4l6.84-19.41H462l6.83,19.41Zm-7.11-7.45H462l-2.46-8.12Z" transform="translate(-27.95 -476.22)"/>
      <path class="cls-9" d="M471.23,1439.56v-19.41h7.48a6.9,6.9,0,0,1,4.79,1.6,5.57,5.57,0,0,1,1.76,4.34,5.16,5.16,0,0,1-.92,3,6.1,6.1,0,0,1-2.61,2.1l4.82,8.35h-4.34L478,1432h-2.74v7.53Zm4-10.45h2.91c2,0,2.94-1,2.94-3s-1-2.92-2.89-2.92h-3Z" transform="translate(-27.95 -476.22)"/>
      <path class="cls-9" d="M489.18,1439.56v-19.41h4.2v19.41Z" transform="translate(-27.95 -476.22)"/>
      <path class="cls-9" d="M502.06,1432.47v7.09H498v-19.41h7.42a6.72,6.72,0,0,1,4.79,1.66,6.62,6.62,0,0,1,0,9,6.72,6.72,0,0,1-4.79,1.65Zm0-3.13h2.86a2.84,2.84,0,0,0,2.14-.77,3.17,3.17,0,0,0,.74-2.26,3.13,3.13,0,0,0-.74-2.25,2.84,2.84,0,0,0-2.14-.77h-2.86Z" transform="translate(-27.95 -476.22)"/>
      <path class="cls-9" d="M514.75,1429.84a12.2,12.2,0,0,1,1.1-5.37,8,8,0,0,1,3.25-3.55,11.1,11.1,0,0,1,10.12,0,8.11,8.11,0,0,1,3.29,3.49,11.84,11.84,0,0,1,1.16,5.47,12.36,12.36,0,0,1-1.1,5.38,8.1,8.1,0,0,1-3.25,3.55,9.9,9.9,0,0,1-5.11,1.26,10,10,0,0,1-5-1.2,8.08,8.08,0,0,1-3.29-3.5A12,12,0,0,1,514.75,1429.84Zm4.31,0a8.3,8.3,0,0,0,1.31,5,5.11,5.11,0,0,0,7.68,0,8.3,8.3,0,0,0,1.31-5,8.19,8.19,0,0,0-1.31-5,5.13,5.13,0,0,0-7.68,0A8.19,8.19,0,0,0,519.06,1429.84Z" transform="translate(-27.95 -476.22)"/>
      <path class="cls-9" d="M541.09,1431.07a8.18,8.18,0,0,1-3.58-2.25,5.61,5.61,0,0,1,.85-7.57,8.07,8.07,0,0,1,5.23-1.57,14.7,14.7,0,0,1,5.37,1v3.19a17.13,17.13,0,0,0-5-.84q-3.3,0-3.3,2.13a1.62,1.62,0,0,0,.57,1.28,7.14,7.14,0,0,0,2.14,1.07l2.08.75a9,9,0,0,1,3.71,2.23,4.92,4.92,0,0,1,1.1,3.32,5.53,5.53,0,0,1-2.07,4.55,8.83,8.83,0,0,1-5.68,1.66,16.68,16.68,0,0,1-3.14-.29,11.94,11.94,0,0,1-2.69-.8v-3.19a22.85,22.85,0,0,0,3,.67,18.29,18.29,0,0,0,2.88.25,4.58,4.58,0,0,0,2.55-.6,1.94,1.94,0,0,0,.9-1.72,1.78,1.78,0,0,0-.55-1.37,7.16,7.16,0,0,0-2.2-1.12Z" transform="translate(-27.95 -476.22)"/>
      <path class="cls-9" d="M565.34,1439.56l-1.37-4.43h-6.64l-1.31,4.43h-4.4l6.83-19.41h4.62l6.84,19.41Zm-7.11-7.45h4.87l-2.46-8.12Z" transform="translate(-27.95 -476.22)"/>
      <path class="cls-9" d="M585,1439.56v-15.32l-5,1.57v-3.19l5.46-2.47h3.67v19.41Z" transform="translate(-27.95 -476.22)"/>
    </g>
    <g>
      <path class="cls-9" d="M864.44,1439.56v-13.44l-4.28,8.71H856.4l-4.28-8.71v13.44h-3.7v-19.41H853l5.29,11,5.32-11h4.5v19.41Z" transform="translate(-27.95 -476.22)"/>
      <path class="cls-9" d="M884.26,1439.56l-1.37-4.43h-6.64l-1.31,4.43h-4.4l6.84-19.41H882l6.83,19.41Zm-7.11-7.45H882l-2.46-8.12Z" transform="translate(-27.95 -476.22)"/>
      <path class="cls-9" d="M891.23,1439.56v-19.41h7.48a6.9,6.9,0,0,1,4.79,1.6,5.57,5.57,0,0,1,1.76,4.34,5.16,5.16,0,0,1-.92,3,6.1,6.1,0,0,1-2.61,2.1l4.82,8.35h-4.34L898,1432h-2.74v7.53Zm4-10.45h2.91c2,0,2.94-1,2.94-3s-1-2.92-2.89-2.92h-3Z" transform="translate(-27.95 -476.22)"/>
      <path class="cls-9" d="M909.18,1439.56v-19.41h4.2v19.41Z" transform="translate(-27.95 -476.22)"/>
      <path class="cls-9" d="M922.06,1432.47v7.09H918v-19.41h7.42a6.72,6.72,0,0,1,4.79,1.66,6.62,6.62,0,0,1,0,9,6.72,6.72,0,0,1-4.79,1.65Zm0-3.13h2.86a2.84,2.84,0,0,0,2.14-.77,3.17,3.17,0,0,0,.74-2.26,3.13,3.13,0,0,0-.74-2.25,2.84,2.84,0,0,0-2.14-.77h-2.86Z" transform="translate(-27.95 -476.22)"/>
      <path class="cls-9" d="M934.75,1429.84a12.2,12.2,0,0,1,1.1-5.37,8,8,0,0,1,3.25-3.55,11.1,11.1,0,0,1,10.12,0,8.11,8.11,0,0,1,3.29,3.49,11.84,11.84,0,0,1,1.16,5.47,12.36,12.36,0,0,1-1.1,5.38,8.1,8.1,0,0,1-3.25,3.55,9.9,9.9,0,0,1-5.11,1.26,10,10,0,0,1-5-1.2,8.08,8.08,0,0,1-3.29-3.5A12,12,0,0,1,934.75,1429.84Zm4.31,0a8.3,8.3,0,0,0,1.31,5,5.11,5.11,0,0,0,7.68,0,8.3,8.3,0,0,0,1.31-5,8.19,8.19,0,0,0-1.31-5,5.13,5.13,0,0,0-7.68,0A8.19,8.19,0,0,0,939.06,1429.84Z" transform="translate(-27.95 -476.22)"/>
      <path class="cls-9" d="M961.09,1431.07a8.18,8.18,0,0,1-3.58-2.25,5.61,5.61,0,0,1,.85-7.57,8.07,8.07,0,0,1,5.23-1.57,14.7,14.7,0,0,1,5.37,1v3.19a17.13,17.13,0,0,0-5-.84q-3.3,0-3.3,2.13a1.62,1.62,0,0,0,.57,1.28,7.14,7.14,0,0,0,2.14,1.07l2.08.75a9,9,0,0,1,3.71,2.23,4.92,4.92,0,0,1,1.1,3.32,5.53,5.53,0,0,1-2.07,4.55,8.83,8.83,0,0,1-5.68,1.66,16.68,16.68,0,0,1-3.14-.29,11.94,11.94,0,0,1-2.69-.8v-3.19a22.85,22.85,0,0,0,3,.67,18.29,18.29,0,0,0,2.88.25,4.58,4.58,0,0,0,2.55-.6,1.94,1.94,0,0,0,.9-1.72,1.78,1.78,0,0,0-.55-1.37,7.16,7.16,0,0,0-2.2-1.12Z" transform="translate(-27.95 -476.22)"/>
      <path class="cls-9" d="M985.34,1439.56l-1.37-4.43h-6.64l-1.31,4.43h-4.4l6.83-19.41h4.62l6.84,19.41Zm-7.11-7.45h4.87l-2.46-8.12Z" transform="translate(-27.95 -476.22)"/>
      <path class="cls-9" d="M1006.26,1428.25a6.42,6.42,0,0,1,4.23,1.59,5.06,5.06,0,0,1,1.54,3.84,5.8,5.8,0,0,1-3.56,5.5,9.67,9.67,0,0,1-4.06.8,13.32,13.32,0,0,1-5.29-1.15v-3.16a16.77,16.77,0,0,0,5.15,1.06,4.25,4.25,0,0,0,2.73-.77,2.72,2.72,0,0,0,.94-2.25,2.25,2.25,0,0,0-.87-2,4.62,4.62,0,0,0-2.69-.63c-.24,0-.66,0-1.25.07s-1,.09-1.35.13v-2.58l5-5.4h-7.42v-3.2h11.82v3.08Z" transform="translate(-27.95 -476.22)"/>
    </g>
  </g>
</svg>
