<svg id="map" xmlns="http://www.w3.org/2000/svg" width="1944.46" height="2636.06" viewBox="0 0 1944.46 2636.06">
  <defs>
    <style>
      .cls-1 {
        fill: #3f3f3f;
      }

      .cls-2 {
        fill: #7a797a;
      }

      .cls-3 {
        fill: #82589f;
      }

      .cls-4 {
        fill: #949393;
      }

      .cls-5 {
        fill: #ff2939;
      }

      .cls-6, .cls-9 {
        fill: none;
      }

      .cls-6 {
        stroke: #3f3f3f;
        stroke-width: 2px;
      }

      .cls-10, .cls-6, .cls-9 {
        stroke-miterlimit: 10;
      }

      .cls-7 {
        fill: #fff;
      }

      .cls-8 {
        fill: #454546;
      }

      .cls-10, .cls-9 {
        stroke: #fff;
      }

      .cls-9 {
        stroke-linecap: round;
        stroke-width: 1.45px;
      }

      .cls-10 {
        fill: #fc427b;
        stroke-width: 2.17px;
      }
    </style>
  </defs>
  <title>ARI_2FEW</title>
  <g id="ground">
    <path class="cls-1" d="M1168.46,1446.06H68.46v680s-10,252,250,292h508l36-26,8-48,154,70h614v-72l28-20v16h20v-20l-16-20h20l32,120,40-8-78,50,62,94,106-76-40-58,6-10-6-18,58-12-2-26,102-30-26-86,56-24-16-40-16,6-60-118,26-172-108,46-20-56s-28,10-38-40-46-244-116-350-136-154-136-154l-164,42v-142s-102-22-182,0Z" transform="translate(-56 82)"/>
    <path class="cls-2" d="M1944.46,2238.06l56-24-16-40-16,6-60-118,26-172-108,46-20-56c-36,0-38-40-38-40-38-362-252-504-252-504l-.19,0c-28.27-36.11-223-373-860.77-466.61C294.83,816.59,286.43,535.05,290.85,448c.14-2.88,1.15-32,1.15-32h0V334l44,10,6-16,180,32,4-16,178,24,2-20,176,22,4-18,182,8V342h180V324l180-8V298l180-18V260l134-16-2-10,30-4-6-18,190-34-16-52h-42V108h14V-32h-32V-82H56V312h96V416h0s-.84,29.09-.95,32c-3.24,85.83,3.89,382.9,247.45,488.5,242.25,105,619.37,62.27,855.49,289.8-28.26-.27-58.24,2-83.53,9.76,0,54-2,234-2,234h70v164h-36v40h36v84h-38v44h38v92h-38v84h40v92h-38v46h38v156l-20,16h-78v-38h-38v38h-112v-38h-34v38h-152v-38h-44v38h-152v-38h-42v38h-60v128l318,2,36-26,8-48,154,70h614v-72l28-20v16h20v-20l-16-20h20l32,120,40-8-78,50,62,94,106-76-40-58,6-10-6-18,58-12-2-26,102-30Zm-592-860v-25.13q6.24,10.75,12.17,22Z" transform="translate(-56 82)"/>
  </g>
  <g id="footprint">
    <g id="registration">
      <rect class="cls-3" x="796" y="208" width="98" height="60"/>
      <rect class="cls-3" x="958" y="208" width="80" height="68"/>
      <polygon class="cls-3" points="1146.46 1704.06 1146.46 1886.06 934.46 1886.06 934.46 2152.06 318.46 2152.06 318.46 1704.06 1146.46 1704.06"/>
    </g>
    <g id="information">
      <rect class="cls-3" x="940.46" y="1892.06" width="206" height="260"/>
    </g>
    <g id="restrooms">
      <polygon class="cls-4" points="254 214 254 74 354 74 354 228 340 228 340 212 278 212 278 222 254 214"/>
      <polyline class="cls-4" points="1669 220 1669 76 1776 76 1776 234 1742 234 1669 220"/>
      <path class="cls-4" d="M1238.46,1508.06h72v-112h42v-160s-116-22-182,0l-2,234h70Z" transform="translate(-56 82)"/>
    </g>
    <g id="building">
      <path class="cls-4" d="M56,312h82l10-64s102,20,124-98V-4H260V-28h10V-54h48V-8h92V146l42,8V138H758V126H940V54h16V18h40V54h18v72h252v10h292v20l58-6V136h60v14l50-12V-6h184V-32h-32V-82H58Z" transform="translate(-56 82)"/>
      <path class="cls-4" d="M1310.46,1550.06v-154h42v-18h14l108,116v48S1384.46,1564.06,1310.46,1550.06Z" transform="translate(-56 82)"/>
      <rect class="cls-4" x="174.46" y="1898.06" width="140" height="242"/>
    </g>
  </g>
  <g id="points">
    <rect id="ARI_191" class="cls-5" x="1381.88" y="1820.53" width="68" height="67.57"/>
    <rect id="ARI_419" class="cls-5" x="1490.43" y="1822.17" width="68" height="67.57"/>
    <rect id="ARI_193" class="cls-5" x="159.41" y="283.81" width="68" height="67.57"/>
    <rect id="ARI_427" class="cls-5" x="267.96" y="285.45" width="68" height="67.57"/>
    <rect id="ARI_423" class="cls-5" x="1428.43" y="1908.17" width="68" height="67.57"/>
  </g>
  <g id="bounds">
    <rect id="_ARI_191" class="cls-5" x="1370" y="1812" width="90" height="86"/>
    <rect id="_ARI_419" class="cls-5" x="1468" y="1810" width="90" height="86"/>
    <rect id="_ARI_193" class="cls-5" x="147.53" y="275.28" width="90" height="86"/>
    <rect id="_ARI_427" class="cls-5" x="245.53" y="273.28" width="90" height="86"/>
    <rect id="_ARI_423" class="cls-5" x="1420" y="1902" width="90" height="86"/>
  </g>
  <g id="paths">
    <g id="ARI_427-2" data-name="ARI_427">
      <path id="ARI_427-ARI_423" class="cls-6" d="M1520,1730c17.06-56.4,51.91-200.31-14.16-344.89-38.66-84.6-93.49-135.61-159.73-188.64-136.47-109.24-269.89-164.45-340.23-189.73-32.31-11.61-218.22-72.16-400.14-89.41-23-2.18-77-3.69-140.78-29.53C405.19,863.58,362.09,829,334.47,802.71c-60.48-78.05-79.39-151.56-86.33-191-11.13-63.21-4.8-114.33.79-159.53a738.5,738.5,0,0,1,46.52-181.68" transform="translate(-56 82)"/>
    </g>
    <g id="ARI_423-2" data-name="ARI_423">
      <path id="ARI_423-ARI_427" class="cls-6" d="M305,280a514.33,514.33,0,0,0-52,140c-11.35,53.57-40.23,189.91,38,322,6.62,11.18,96.51,158,252,180,21.5,3,21.57.48,62,2,129.16,4.86,228,34.69,310,60,75.72,23.39,169.77,52.44,282,116,125.53,71.09,213.53,120.93,280,230,21.24,34.86,93,162.23,74,324a466.76,466.76,0,0,1-16,78" transform="translate(-56 82)"/>
    </g>
    <g id="ARI_193-2" data-name="ARI_193">
      <path id="ARI_193-ARI_419" class="cls-6" d="M1506,1732c17.06-56.4,51.91-200.31-14.16-344.89-38.66-84.6-93.49-135.61-159.73-188.64-136.47-109.24-269.89-164.45-340.23-189.73-32.31-11.61-218.22-72.16-400.14-89.41-23-2.18-77-3.69-140.78-29.53C391.19,865.58,348.09,831,320.47,804.71c-60.48-78.05-79.39-151.56-86.33-191-11.13-63.21-4.8-114.33.79-159.53a738.5,738.5,0,0,1,46.52-181.68" transform="translate(-56 82)"/>
      <path id="ARI_193-ARI_191" class="cls-6" d="M1510,1730c17.06-56.4,51.91-200.31-14.16-344.89-38.66-84.6-93.49-135.61-159.73-188.64-136.47-109.24-269.89-164.45-340.23-189.73-32.31-11.61-218.22-72.16-400.14-89.41-23-2.18-77-3.69-140.78-29.53C395.19,863.58,352.09,829,324.47,802.71c-60.48-78.05-79.39-151.56-86.33-191-11.13-63.21-4.8-114.33.79-159.53a738.5,738.5,0,0,1,46.52-181.68" transform="translate(-56 82)"/>
    </g>
    <g id="ARI_419-2" data-name="ARI_419">
      <path id="ARI_419-ARI_193" class="cls-6" d="M315,274a514.33,514.33,0,0,0-52,140c-11.35,53.57-40.23,189.91,38,322,6.62,11.18,96.51,158,252,180,21.5,3,21.57.48,62,2,129.16,4.86,228,34.69,310,60,75.72,23.39,169.77,52.44,282,116,125.53,71.09,213.53,120.93,280,230,21.24,34.86,93,162.23,74,324a466.76,466.76,0,0,1-16,78" transform="translate(-56 82)"/>
    </g>
    <g id="ARI_191-2" data-name="ARI_191">
      <path id="ARI_191-ARI_193" class="cls-6" d="M302,278a514.33,514.33,0,0,0-52,140c-11.35,53.57-40.23,189.91,38,322,6.62,11.18,96.51,158,252,180,21.5,3,21.57.48,62,2,129.16,4.86,228,34.69,310,60,75.72,23.39,169.77,52.44,282,116,125.53,71.09,213.53,120.93,280,230,21.24,34.86,93,162.23,74,324a466.76,466.76,0,0,1-16,78" transform="translate(-56 82)"/>
    </g>
  </g>
  <g id="icons">
    <g>
      <g>
        <rect x="996.98" y="329.59" width="73.02" height="73.02"/>
        <path class="cls-7" d="M1123.11,250.48v67.23h-67.23V250.48h67.23m2.89-2.89h-73v73h73v-73Z" transform="translate(-56 82)"/>
      </g>
      <g>
        <path class="cls-7" d="M1111.11,287.63c-1.69-.05-3.37,0-5.06,0a1.51,1.51,0,0,1-1.2-.49l-6.79-6.64q0-4.59,0-9.18c0-2.3-.92-3.58-2.57-3.6-.75,0-1.5,0-2.25,0-1.46.06-2.38,1.36-2.39,3.36,0,.75-.07,1.53-.08,2.29q-5.55-5.42-11.09-10.84a1.64,1.64,0,0,0-1.26-.5c-3.47,0-6.93,0-10.39,0a6.55,6.55,0,0,0-2.18,12.65,8.33,8.33,0,0,0,2.53.47c1.59.08,3.19,0,4.78,0a1.73,1.73,0,0,1,1.07.43q12.62,12.27,25.2,24.59a1.74,1.74,0,0,0,1.37.56c1.67,0,3.33,0,5,0v-.11a54.56,54.56,0,0,0,6,0,6.41,6.41,0,0,0,5.52-7A6.52,6.52,0,0,0,1111.11,287.63Z" transform="translate(-56 82)"/>
        <path class="cls-7" d="M1094.44,260.82a2.9,2.9,0,0,0,0,5.79,2.9,2.9,0,1,0,0-5.79Z" transform="translate(-56 82)"/>
        <path class="cls-7" d="M1090.11,309.16a.63.63,0,0,1-.46-.19l-27.44-26.17a.67.67,0,0,1,0-.95.68.68,0,0,1,1,0L1090.58,308a.69.69,0,0,1,0,.95A.67.67,0,0,1,1090.11,309.16Z" transform="translate(-56 82)"/>
        <path class="cls-7" d="M1062.62,288.89a.68.68,0,0,1-.68-.65l-.17-6.11a.68.68,0,0,1,.66-.69l6.11-.17a.69.69,0,0,1,.69.65.68.68,0,0,1-.66.69l-5.43.15.15,5.44a.68.68,0,0,1-.66.69Z" transform="translate(-56 82)"/>
        <path class="cls-7" d="M1084.2,309.57a.67.67,0,1,1,0-1.34l5.44-.16-.16-5.43a.68.68,0,0,1,.66-.69h0a.67.67,0,0,1,.68.65l.17,6.11a.68.68,0,0,1-.66.69l-6.11.17Z" transform="translate(-56 82)"/>
      </g>
    </g>
    <g>
      <g>
        <rect x="732.98" y="329.59" width="73.02" height="73.02"/>
        <path class="cls-7" d="M859.11,250.48v67.23H791.88V250.48h67.23m2.89-2.89H789v73h73v-73Z" transform="translate(-56 82)"/>
      </g>
      <g>
        <path class="cls-7" d="M847.11,287.63c-1.69-.05-3.37,0-5.06,0a1.51,1.51,0,0,1-1.2-.49l-6.79-6.64q0-4.59,0-9.18c0-2.3-.92-3.58-2.57-3.6-.75,0-1.5,0-2.25,0-1.46.06-2.38,1.36-2.39,3.36,0,.75-.07,1.53-.08,2.29q-5.55-5.42-11.09-10.84a1.64,1.64,0,0,0-1.26-.5c-3.47,0-6.93,0-10.39,0a6.55,6.55,0,0,0-2.18,12.65,8.33,8.33,0,0,0,2.53.47c1.59.08,3.19,0,4.78,0a1.73,1.73,0,0,1,1.07.43q12.62,12.27,25.2,24.59a1.74,1.74,0,0,0,1.37.56c1.67,0,3.33,0,5,0v-.11a54.56,54.56,0,0,0,6,0,6.41,6.41,0,0,0,5.52-7A6.52,6.52,0,0,0,847.11,287.63Z" transform="translate(-56 82)"/>
        <path class="cls-7" d="M830.44,260.82a2.9,2.9,0,0,0,0,5.79,2.9,2.9,0,1,0,0-5.79Z" transform="translate(-56 82)"/>
        <path class="cls-7" d="M826.11,309.16a.63.63,0,0,1-.46-.19L798.21,282.8a.67.67,0,0,1,0-.95.68.68,0,0,1,.95,0L826.58,308a.69.69,0,0,1,0,.95A.67.67,0,0,1,826.11,309.16Z" transform="translate(-56 82)"/>
        <path class="cls-7" d="M798.62,288.89a.68.68,0,0,1-.68-.65l-.17-6.11a.68.68,0,0,1,.66-.69l6.11-.17a.69.69,0,0,1,.69.65.68.68,0,0,1-.66.69l-5.43.15.15,5.44a.68.68,0,0,1-.66.69Z" transform="translate(-56 82)"/>
        <path class="cls-7" d="M820.2,309.57a.67.67,0,1,1,0-1.34l5.44-.16-.16-5.43a.68.68,0,0,1,.66-.69h0a.67.67,0,0,1,.68.65l.17,6.11a.68.68,0,0,1-.66.69l-6.11.17Z" transform="translate(-56 82)"/>
      </g>
    </g>
    <g>
      <g>
        <rect x="388.98" y="329.59" width="73.02" height="73.02"/>
        <path class="cls-7" d="M515.11,250.48v67.23H447.88V250.48h67.23m2.89-2.89H445v73h73v-73Z" transform="translate(-56 82)"/>
      </g>
      <g>
        <path class="cls-7" d="M503.11,287.63c-1.69-.05-3.37,0-5.06,0a1.51,1.51,0,0,1-1.2-.49l-6.79-6.64q0-4.59,0-9.18c0-2.3-.92-3.58-2.57-3.6-.75,0-1.5,0-2.25,0-1.46.06-2.38,1.36-2.39,3.36,0,.75-.07,1.53-.08,2.29q-5.55-5.42-11.09-10.84a1.64,1.64,0,0,0-1.26-.5c-3.47,0-6.93,0-10.39,0a6.55,6.55,0,0,0-2.18,12.65,8.33,8.33,0,0,0,2.53.47c1.59.08,3.19,0,4.78,0a1.73,1.73,0,0,1,1.07.43q12.61,12.27,25.2,24.59a1.74,1.74,0,0,0,1.37.56c1.67,0,3.33,0,5,0v-.11a54.56,54.56,0,0,0,6,0,6.41,6.41,0,0,0,5.52-7A6.52,6.52,0,0,0,503.11,287.63Z" transform="translate(-56 82)"/>
        <path class="cls-7" d="M486.44,260.82a2.9,2.9,0,0,0,0,5.79,2.9,2.9,0,1,0,0-5.79Z" transform="translate(-56 82)"/>
        <path class="cls-7" d="M482.11,309.16a.63.63,0,0,1-.46-.19L454.21,282.8a.67.67,0,0,1,0-.95.68.68,0,0,1,.95,0L482.58,308a.69.69,0,0,1,0,.95A.67.67,0,0,1,482.11,309.16Z" transform="translate(-56 82)"/>
        <path class="cls-7" d="M454.62,288.89a.68.68,0,0,1-.68-.65l-.17-6.11a.68.68,0,0,1,.66-.69l6.11-.17a.69.69,0,0,1,.69.65.68.68,0,0,1-.66.69l-5.43.15.15,5.44a.68.68,0,0,1-.66.69Z" transform="translate(-56 82)"/>
        <path class="cls-7" d="M476.2,309.57a.67.67,0,1,1,0-1.34l5.44-.16-.16-5.43a.68.68,0,0,1,.66-.69h0a.67.67,0,0,1,.68.65l.17,6.11a.68.68,0,0,1-.66.69l-6.11.17Z" transform="translate(-56 82)"/>
      </g>
    </g>
    <g>
      <g>
        <rect x="1686.96" y="109.26" width="73.02" height="73.02"/>
        <path class="cls-7" d="M1813.09,30.15V97.38h-67.24V30.15h67.24m2.89-2.89h-73v73h73v-73Z" transform="translate(-56 82)"/>
      </g>
      <g>
        <g>
          <g>
            <path class="cls-7" d="M1760.47,49.35a3.61,3.61,0,1,0-3.61-3.61A3.62,3.62,0,0,0,1760.47,49.35Z" transform="translate(-56 82)"/>
            <path class="cls-8" d="M1760.47,45.74" transform="translate(-56 82)"/>
          </g>
          <path class="cls-7" d="M1756.61,50.15a4.63,4.63,0,0,0-4.61,4.68V65.92a1.58,1.58,0,1,0,3.15,0V55.78h.75V83.54a2.1,2.1,0,1,0,4.2,0V67.43h.72V83.54a2.12,2.12,0,1,0,4.23,0V55.78h.73V65.92a1.57,1.57,0,1,0,3.13,0v-11a4.7,4.7,0,0,0-4.67-4.75Z" transform="translate(-56 82)"/>
        </g>
        <g>
          <g>
            <path class="cls-7" d="M1797,49.21a3.54,3.54,0,1,0-3.54-3.54A3.55,3.55,0,0,0,1797,49.21Z" transform="translate(-56 82)"/>
            <path class="cls-8" d="M1797,45.67" transform="translate(-56 82)"/>
          </g>
          <path class="cls-7" d="M1796.46,71.66V83.91a1.67,1.67,0,1,1-3.34,0V71.74h-4.48l4.79-16.62h-.75l-2.78,9.38a1.51,1.51,0,1,1-2.83-1l3.09-10.18a4.66,4.66,0,0,1,4.35-3.22h4.86a4.82,4.82,0,0,1,4.38,3.22l3.1,10.17c.62,2.19-2.17,3.1-2.83,1l-2.79-9.34h-.8l4.82,16.62h-4.48V83.93a1.67,1.67,0,0,1-3.33,0V71.66Z" transform="translate(-56 82)"/>
        </g>
        <line class="cls-9" x1="1722.71" y1="168.06" x2="1722.71" y2="124.13"/>
      </g>
    </g>
    <g>
      <g>
        <rect x="713.71" y="211.7" width="72.91" height="72.91"/>
        <path class="cls-7" d="M839.73,132.59v67.14H772.6V132.59h67.13m2.89-2.89H769.71v72.92h72.91V129.7Z" transform="translate(-56 82)"/>
      </g>
      <path class="cls-7" d="M797.87,188.28H782.49a3,3,0,0,1,0-5.93h9.45V168.1h12.19V154.58h11.54V144h14.16a3,3,0,1,1,0,5.93h-8.24v10.54H810.06V174H797.87Z" transform="translate(-56 82)"/>
    </g>
    <g>
      <g>
        <rect x="293.37" y="278.7" width="72.91" height="72.91"/>
        <path class="cls-7" d="M419.4,199.59v67.14H352.26V199.59H419.4m2.89-2.89H349.37v72.92h72.92V196.7Z" transform="translate(-56 82)"/>
      </g>
      <path class="cls-7" d="M377.53,255.28H362.16a3,3,0,0,1,0-5.93h9.45V235.1H383.8V221.58h11.53V211H409.5a3,3,0,0,1,0,5.93h-8.24v10.54H389.72V241H377.53Z" transform="translate(-56 82)"/>
    </g>
    <g>
      <g>
        <rect x="270.06" y="88.95" width="66.26" height="66.26"/>
        <path class="cls-7" d="M389.7,9.58v61h-61v-61h61M392.33,7H326.06V73.22h66.27V7Z" transform="translate(-56 82)"/>
      </g>
      <g>
        <path class="cls-7" d="M358.22,25.13v0l.09,0,.1,0h.07v-.05a3.39,3.39,0,0,0,0-6.77V18.3h-.26v0a3.4,3.4,0,0,0,0,6.8Z" transform="translate(-56 82)"/>
        <path class="cls-7" d="M367.89,38.53l-2.95-9.66a4.55,4.55,0,0,0-4.15-3.05h-2.31v0h-3.67a4.42,4.42,0,0,0-4.4,4.45V40.81a1.51,1.51,0,1,0,3,0v-9.6h.72V57.55a2,2,0,1,0,4,0V42.25h.37v4H359V57.92a1.58,1.58,0,0,0,3.16,0V46.35h4.27l-4.6-15.79h.77l2.64,8.89C365.83,41.46,368.46,40.61,367.89,38.53Z" transform="translate(-56 82)"/>
      </g>
    </g>
    <g>
      <g>
        <rect x="293.32" y="187.51" width="73.02" height="73.02"/>
        <path class="cls-7" d="M419.44,108.4v67.23H352.21V108.4h67.23m2.9-2.89h-73v73h73v-73Z" transform="translate(-56 82)"/>
      </g>
      <g>
        <g>
          <path class="cls-7" d="M403.35,136v7.88a5.4,5.4,0,0,1-.09.58,1,1,0,0,1-.86.72,4.32,4.32,0,0,1-.64,0v-8a2.06,2.06,0,0,0,0-.35.59.59,0,0,0-1.18.05v17.35a2.76,2.76,0,0,1-.15.81,1,1,0,0,1-1.14.54,1,1,0,0,1-.83-.91,2.91,2.91,0,0,1,0-.3v-8.43a1.72,1.72,0,0,0,0-.32.6.6,0,0,0-.57-.49.59.59,0,0,0-.58.49,1.16,1.16,0,0,0,0,.32v8.53a1,1,0,0,1-1.19,1.11,1.07,1.07,0,0,1-.91-1,2.43,2.43,0,0,1,0-.27c0-5.71,0-11.44,0-17.16a2.3,2.3,0,0,0,0-.37.6.6,0,0,0-.64-.48.61.61,0,0,0-.54.6v8.19a1.15,1.15,0,0,1-1.53-1.16c0-2.67,0-5.35,0-8a2.72,2.72,0,0,1,2.85-2.84h5.25A2.74,2.74,0,0,1,403.35,136Z" transform="translate(-56 82)"/>
          <path class="cls-7" d="M387.48,143.36c-.63-2.67-1.27-5.32-1.92-8a2.71,2.71,0,0,0-2.79-2.19h-3a2.71,2.71,0,0,0-2.82,2.19q-1,4-2,8.09a1,1,0,0,0,.57,1.21,4.35,4.35,0,0,0,.72.23c.36-1.5.7-3,1.05-4.41q.42-1.8.87-3.6a.59.59,0,0,1,.45-.5c.48-.09.81.3.69.81-.74,3.06-1.46,6.11-2.18,9.17-.13.51-.25,1-.37,1.59h1.77v6.55a1.14,1.14,0,0,0,.54,1,.92.92,0,0,0,1,0,1,1,0,0,0,.54-.93v-5.86a1,1,0,0,1,0-.3.52.52,0,0,1,.54-.48.59.59,0,0,1,.58.49,2.17,2.17,0,0,1,0,.36v5.76a1,1,0,0,0,.67,1,1,1,0,0,0,1.44-1V148h1.76a.53.53,0,0,1,0-.16c-.51-2.19-1-4.37-1.54-6.56-.32-1.38-.65-2.74-1-4.12a.55.55,0,0,1,.45-.71.56.56,0,0,1,.67.42.44.44,0,0,1,0,.15c.51,2.12,1,4.25,1.5,6.36.12.53.26,1,.38,1.59.16,0,.31-.1.45-.12A1.07,1.07,0,0,0,387.48,143.36Z" transform="translate(-56 82)"/>
          <path class="cls-7" d="M386.63,144.8c-.14,0-.29.08-.45.12-.12-.54-.26-1.06-.38-1.59-.49-2.11-1-4.24-1.5-6.36a.44.44,0,0,0,0-.15.56.56,0,0,0-.67-.42.55.55,0,0,0-.45.71c.31,1.38.64,2.74,1,4.12.51,2.19,1,4.37,1.54,6.56a.53.53,0,0,0,0,.16h-1.76v6.66a1,1,0,0,1-1.44,1,1,1,0,0,1-.67-1v-5.76a2.17,2.17,0,0,0,0-.36.59.59,0,0,0-.58-.49.52.52,0,0,0-.54.48,1,1,0,0,0,0,.3v5.86a1,1,0,0,1-.54.93.92.92,0,0,1-1,0,1.14,1.14,0,0,1-.54-1V148h-1.77c.12-.56.24-1.08.37-1.59.72-3.06,1.44-6.11,2.18-9.17.12-.51-.21-.9-.69-.81a.59.59,0,0,0-.45.5q-.45,1.8-.87,3.6c-.35,1.45-.69,2.91-1.05,4.41a4.35,4.35,0,0,1-.72-.23,1,1,0,0,1-.57-1.21q1-4,2-8.09a2.71,2.71,0,0,1,2.82-2.19h3a2.71,2.71,0,0,1,2.79,2.19c.65,2.66,1.29,5.31,1.92,8A1.07,1.07,0,0,1,386.63,144.8Z" transform="translate(-56 82)"/>
          <path class="cls-7" d="M383.12,130.05a1.91,1.91,0,0,1-1.88,1.85,1.87,1.87,0,1,1,0-3.73A1.91,1.91,0,0,1,383.12,130.05Z" transform="translate(-56 82)"/>
          <path class="cls-7" d="M399.75,130a1.9,1.9,0,0,1-1.85,1.88A1.87,1.87,0,0,1,396,130a1.81,1.81,0,0,1,1.86-1.83A1.89,1.89,0,0,1,399.75,130Z" transform="translate(-56 82)"/>
          <path class="cls-7" d="M370.28,136v7.88a5.4,5.4,0,0,1-.09.58,1,1,0,0,1-.86.72,4.32,4.32,0,0,1-.64,0v-8a2.06,2.06,0,0,0,0-.35.59.59,0,0,0-1.18.05v17.35a2.76,2.76,0,0,1-.15.81,1,1,0,0,1-1.14.54,1,1,0,0,1-.83-.91,2.91,2.91,0,0,1,0-.3v-8.43a1.72,1.72,0,0,0,0-.32.6.6,0,0,0-.57-.49.59.59,0,0,0-.58.49,1.16,1.16,0,0,0,0,.32v8.53a1,1,0,0,1-1.19,1.11,1.07,1.07,0,0,1-.91-1,1.22,1.22,0,0,1,0-.27c0-5.71,0-11.44,0-17.16,0-.12,0-.25,0-.37a.6.6,0,0,0-1.19.12v8.19a1.15,1.15,0,0,1-1.53-1.16c0-2.67,0-5.35,0-8a2.72,2.72,0,0,1,2.85-2.84h5.25A2.74,2.74,0,0,1,370.28,136Z" transform="translate(-56 82)"/>
          <path class="cls-7" d="M366.68,130a1.9,1.9,0,0,1-1.85,1.88,1.87,1.87,0,0,1-1.9-1.9,1.81,1.81,0,0,1,1.86-1.83A1.89,1.89,0,0,1,366.68,130Z" transform="translate(-56 82)"/>
        </g>
        <path class="cls-7" d="M408.45,130.51v23l-1.64-1.64a.6.6,0,0,0-.86,0,.59.59,0,0,0,0,.85l3.11,3.11,3.11-3.11a.61.61,0,0,0,0-.85.6.6,0,0,0-.86,0l-1.64,1.64v-23h0l1.64,1.53a.6.6,0,0,0,.86,0,.62.62,0,0,0,0-.86l-3.11-3.11L406,131.18a.61.61,0,1,0,.86.86" transform="translate(-56 82)"/>
      </g>
    </g>
    <g>
      <g>
        <rect x="1162.91" y="1367.23" width="73.02" height="73.02"/>
        <path class="cls-7" d="M1289,1288.12v67.24h-67.23v-67.24H1289m2.89-2.89h-73v73h73v-73Z" transform="translate(-56 82)"/>
      </g>
      <g>
        <g>
          <g>
            <path class="cls-7" d="M1236.42,1307.32a3.61,3.61,0,1,0-3.61-3.61A3.61,3.61,0,0,0,1236.42,1307.32Z" transform="translate(-56 82)"/>
            <path class="cls-8" d="M1236.42,1303.71" transform="translate(-56 82)"/>
          </g>
          <path class="cls-7" d="M1232.56,1308.12a4.64,4.64,0,0,0-4.61,4.69v11.09a1.58,1.58,0,1,0,3.15,0v-10.14h.75v27.76a2.1,2.1,0,1,0,4.2,0V1325.4h.72v16.12a2.12,2.12,0,1,0,4.23,0v-27.76h.73v10.14a1.57,1.57,0,1,0,3.13,0v-11a4.7,4.7,0,0,0-4.67-4.74Z" transform="translate(-56 82)"/>
        </g>
        <g>
          <g>
            <path class="cls-7" d="M1272.94,1307.18a3.54,3.54,0,1,0-3.54-3.54A3.55,3.55,0,0,0,1272.94,1307.18Z" transform="translate(-56 82)"/>
            <path class="cls-8" d="M1272.94,1303.64" transform="translate(-56 82)"/>
          </g>
          <path class="cls-7" d="M1272.41,1329.63v12.26a1.67,1.67,0,0,1-3.34,0v-12.17h-4.48l4.79-16.63h-.75l-2.78,9.38a1.51,1.51,0,1,1-2.83-1l3.09-10.19a4.67,4.67,0,0,1,4.35-3.22h4.86a4.82,4.82,0,0,1,4.38,3.22l3.1,10.18c.62,2.18-2.17,3.09-2.83,1l-2.79-9.35h-.8l4.82,16.63h-4.48v12.18a1.67,1.67,0,0,1-3.33,0v-12.27Z" transform="translate(-56 82)"/>
        </g>
        <line class="cls-9" x1="1198.66" y1="1426.04" x2="1198.66" y2="1382.1"/>
      </g>
    </g>
    <g>
      <g>
        <rect x="1345.44" y="1755.68" width="73.02" height="73.02"/>
        <path class="cls-7" d="M1471.57,1676.57v67.23h-67.24v-67.23h67.24m2.89-2.89h-73v73h73v-73Z" transform="translate(-56 82)"/>
      </g>
      <g>
        <path class="cls-7" d="M1459.57,1713.73c-1.69-.06-3.37,0-5.06,0a1.55,1.55,0,0,1-1.2-.5l-6.8-6.64q0-4.59,0-9.18c0-2.3-.92-3.57-2.57-3.6-.75,0-1.5,0-2.25,0-1.46.06-2.38,1.35-2.39,3.35,0,.75-.07,1.53-.08,2.29q-5.55-5.42-11.09-10.84a1.67,1.67,0,0,0-1.26-.5c-3.47,0-6.93,0-10.39,0a6.54,6.54,0,0,0-2.18,12.64,8.34,8.34,0,0,0,2.53.48c1.59.07,3.19,0,4.78,0a1.67,1.67,0,0,1,1.06.42q12.63,12.27,25.21,24.59a1.74,1.74,0,0,0,1.37.56c1.67,0,3.33,0,5,0v-.1a57.32,57.32,0,0,0,6,0,6.4,6.4,0,0,0,5.51-7A6.49,6.49,0,0,0,1459.57,1713.73Z" transform="translate(-56 82)"/>
        <path class="cls-7" d="M1442.9,1686.92a2.89,2.89,0,0,0,0,5.78,2.93,2.93,0,0,0,2.92-2.88A2.9,2.9,0,0,0,1442.9,1686.92Z" transform="translate(-56 82)"/>
        <path class="cls-7" d="M1438.57,1735.25a.67.67,0,0,1-.46-.18l-27.44-26.17a.68.68,0,0,1,0-1,.67.67,0,0,1,.95,0L1439,1734.1a.68.68,0,0,1,0,1A.71.71,0,0,1,1438.57,1735.25Z" transform="translate(-56 82)"/>
        <path class="cls-7" d="M1411.07,1715a.67.67,0,0,1-.67-.65l-.17-6.11a.68.68,0,0,1,.66-.69l6.11-.17a.71.71,0,0,1,.69.65.68.68,0,0,1-.66.69l-5.44.15.16,5.44a.68.68,0,0,1-.66.69Z" transform="translate(-56 82)"/>
        <path class="cls-7" d="M1432.65,1735.66a.67.67,0,0,1,0-1.34l5.43-.15-.15-5.44a.68.68,0,0,1,.66-.69h0a.68.68,0,0,1,.68.65l.17,6.11a.68.68,0,0,1-.66.69l-6.11.17Z" transform="translate(-56 82)"/>
      </g>
    </g>
    <polygon id="_Path_" data-name="&lt;Path&gt;" class="cls-10" points="164.89 446.68 146.36 490 183.42 490 164.89 446.68"/>
  </g>
  <g id="labels">
    <g>
      <path class="cls-7" d="M878.46,151.76V135.13h6.41a5.84,5.84,0,0,1,4.1,1.37,4.75,4.75,0,0,1,1.51,3.72,4.45,4.45,0,0,1-.79,2.59,5.22,5.22,0,0,1-2.23,1.8l4.13,7.15h-3.72l-3.6-6.46h-2.35v6.46Zm3.46-8.95h2.49a2.24,2.24,0,0,0,2.52-2.55,2.19,2.19,0,0,0-2.47-2.49h-2.54Z" transform="translate(-56 82)"/>
      <path class="cls-7" d="M893.75,151.76V135.13h10.94v2.78h-7.34v3.94h6v2.78h-6V149h7.34v2.78Z" transform="translate(-56 82)"/>
      <path class="cls-7" d="M915.52,149.19a15.72,15.72,0,0,0,1.77-.12v-4h-3.12v-2.6h6.43v8.33a10.5,10.5,0,0,1-2.68.94,15.3,15.3,0,0,1-3.17.33,7.91,7.91,0,0,1-6-2.18,8.62,8.62,0,0,1-2.1-6.22c0-2.84.72-5,2.17-6.51a8.36,8.36,0,0,1,6.3-2.25,11,11,0,0,1,4.87,1v2.73a15.24,15.24,0,0,0-4.48-.79,5.19,5.19,0,0,0-3.92,1.33,6,6,0,0,0-1.24,4.19v.43a5.89,5.89,0,0,0,1.23,4.14A5.16,5.16,0,0,0,915.52,149.19Z" transform="translate(-56 82)"/>
      <path class="cls-7" d="M925.64,152.07a2.16,2.16,0,1,1,0-4.32,2.16,2.16,0,1,1,0,4.32Z" transform="translate(-56 82)"/>
      <path class="cls-7" d="M889.54,162.64a9.47,9.47,0,0,1,2.62-1.48,8.87,8.87,0,0,1,2.85-.44,5.18,5.18,0,0,1,3.66,1.27,4.36,4.36,0,0,1,1.38,3.36,5.55,5.55,0,0,1-.7,2.59,15.11,15.11,0,0,1-2.21,3,55.37,55.37,0,0,1-4,4h7.63v2.78H889.1v-2.59q3.07-3.1,4.6-4.84a17.71,17.71,0,0,0,2.11-2.79,4,4,0,0,0,.59-1.95,1.86,1.86,0,0,0-.55-1.43,2.12,2.12,0,0,0-1.49-.51,6.45,6.45,0,0,0-2.3.48,11.18,11.18,0,0,0-2.52,1.37Z" transform="translate(-56 82)"/>
      <path class="cls-7" d="M913.75,177.76,912.58,174h-5.69l-1.13,3.79H902l5.86-16.63h4l5.85,16.63Zm-6.09-6.38h4.17l-2.11-7Z" transform="translate(-56 82)"/>
    </g>
    <g>
      <path class="cls-7" d="M1029.66,153.76V137.13h6.41a5.87,5.87,0,0,1,4.11,1.37,4.79,4.79,0,0,1,1.51,3.72,4.52,4.52,0,0,1-.79,2.59,5.25,5.25,0,0,1-2.24,1.8l4.13,7.15h-3.72l-3.6-6.46h-2.35v6.46Zm3.46-8.95h2.5a2.24,2.24,0,0,0,2.52-2.55,2.2,2.2,0,0,0-2.48-2.49h-2.54Z" transform="translate(-56 82)"/>
      <path class="cls-7" d="M1045,153.76V137.13h11v2.78h-7.35v3.94h6v2.78h-6V151h7.35v2.78Z" transform="translate(-56 82)"/>
      <path class="cls-7" d="M1066.72,151.19a15.73,15.73,0,0,0,1.78-.12v-4h-3.12v-2.6h6.43v8.33a10.58,10.58,0,0,1-2.69.94,15.3,15.3,0,0,1-3.17.33,7.91,7.91,0,0,1-6-2.18,8.62,8.62,0,0,1-2.1-6.22c0-2.84.73-5,2.18-6.51s3.54-2.25,6.3-2.25a11.08,11.08,0,0,1,4.87,1v2.73a15.3,15.3,0,0,0-4.49-.79,5.15,5.15,0,0,0-3.91,1.33,6,6,0,0,0-1.25,4.19v.43a5.84,5.84,0,0,0,1.24,4.14A5.14,5.14,0,0,0,1066.72,151.19Z" transform="translate(-56 82)"/>
      <path class="cls-7" d="M1076.85,154.07a2.06,2.06,0,1,1,1.56-.6A2.11,2.11,0,0,1,1076.85,154.07Z" transform="translate(-56 82)"/>
      <path class="cls-7" d="M1041.14,164.64a9.47,9.47,0,0,1,2.62-1.48,8.87,8.87,0,0,1,2.85-.44,5.18,5.18,0,0,1,3.66,1.27,4.36,4.36,0,0,1,1.38,3.36,5.55,5.55,0,0,1-.7,2.59,15.11,15.11,0,0,1-2.21,3,55.37,55.37,0,0,1-4,4h7.63v2.78H1040.7v-2.59q3.08-3.1,4.6-4.84a17.71,17.71,0,0,0,2.11-2.79,4.12,4.12,0,0,0,.59-1.95,1.86,1.86,0,0,0-.55-1.43,2.12,2.12,0,0,0-1.49-.51,6.45,6.45,0,0,0-2.3.48,11.18,11.18,0,0,0-2.52,1.37Z" transform="translate(-56 82)"/>
      <path class="cls-7" d="M1055.37,179.76V163.13h6a5.91,5.91,0,0,1,3.88,1.22,4,4,0,0,1,1.48,3.19,3.75,3.75,0,0,1-.57,2.1,3.57,3.57,0,0,1-1.67,1.36,4.35,4.35,0,0,1,2.34,1.5,4.06,4.06,0,0,1,.81,2.56,4.15,4.15,0,0,1-1.61,3.43,6.75,6.75,0,0,1-4.32,1.27Zm3.41-14.06v4.36h2.08c1.56,0,2.33-.72,2.33-2.16a1.91,1.91,0,0,0-2.13-2.2Zm0,6.81v4.68h2.83c1.63,0,2.45-.77,2.45-2.3s-.88-2.38-2.62-2.38Z" transform="translate(-56 82)"/>
    </g>
    <g>
      <path class="cls-7" d="M557.12,1845.58V1823.4h8.54a7.83,7.83,0,0,1,5.47,1.83,6.33,6.33,0,0,1,2,5,5.89,5.89,0,0,1-1.06,3.45,6.86,6.86,0,0,1-3,2.4l5.5,9.54h-5l-4.8-8.61h-3.14v8.61Zm4.6-11.94h3.33q3.36,0,3.36-3.39t-3.29-3.33h-3.4Z" transform="translate(-56 82)"/>
      <path class="cls-7" d="M577.5,1845.58V1823.4h14.59v3.71H582.3v5.25h8v3.71h-8v5.8h9.79v3.71Z" transform="translate(-56 82)"/>
      <path class="cls-7" d="M606.52,1842.15a20.13,20.13,0,0,0,2.37-.16v-5.4h-4.16v-3.46h8.58v11.1a13.72,13.72,0,0,1-3.59,1.25,19.83,19.83,0,0,1-4.22.45q-5.19,0-8-2.91c-1.87-1.94-2.8-4.71-2.8-8.29,0-3.8,1-6.69,2.89-8.69s4.73-3,8.4-3a14.92,14.92,0,0,1,6.5,1.31V1828a20.21,20.21,0,0,0-6-1.06c-2.36,0-4.1.6-5.21,1.78s-1.67,3-1.67,5.58v.58q0,3.78,1.65,5.52T606.52,1842.15Z" transform="translate(-56 82)"/>
      <path class="cls-7" d="M618.17,1845.58V1823.4H623v22.18Z" transform="translate(-56 82)"/>
      <path class="cls-7" d="M632.54,1835.88a9.49,9.49,0,0,1-4.1-2.57,6.43,6.43,0,0,1,1-8.66,9.26,9.26,0,0,1,6-1.79,17,17,0,0,1,6.14,1.15v3.65a19.59,19.59,0,0,0-5.76-1c-2.52,0-3.77.81-3.77,2.43a1.84,1.84,0,0,0,.65,1.47,8,8,0,0,0,2.45,1.22l2.37.86a10.27,10.27,0,0,1,4.24,2.55A5.58,5.58,0,0,1,643,1839a6.31,6.31,0,0,1-2.37,5.2,10.05,10.05,0,0,1-6.49,1.9,19.82,19.82,0,0,1-3.59-.33,13.64,13.64,0,0,1-3.07-.92v-3.64a25.83,25.83,0,0,0,3.43.76,20.28,20.28,0,0,0,3.29.29,5.17,5.17,0,0,0,2.91-.69,2.2,2.2,0,0,0,1-2,2,2,0,0,0-.63-1.57,8.09,8.09,0,0,0-2.51-1.28Z" transform="translate(-56 82)"/>
      <path class="cls-7" d="M651.52,1845.58v-18.34h-6.76v-3.84h18.31v3.84h-6.75v18.34Z" transform="translate(-56 82)"/>
      <path class="cls-7" d="M666,1845.58V1823.4h8.54a7.86,7.86,0,0,1,5.48,1.83,6.36,6.36,0,0,1,2,5,6,6,0,0,1-1,3.45,7,7,0,0,1-3,2.4l5.51,9.54h-5l-4.79-8.61h-3.14v8.61Zm4.61-11.94H674q3.36,0,3.36-3.39t-3.3-3.33h-3.39Z" transform="translate(-56 82)"/>
      <path class="cls-7" d="M700.67,1845.58l-1.57-5.06h-7.58l-1.51,5.06h-5l7.8-22.18h5.28l7.81,22.18Zm-8.13-8.51h5.57l-2.82-9.28Z" transform="translate(-56 82)"/>
      <path class="cls-7" d="M711.29,1845.58v-18.34h-6.75v-3.84h18.3v3.84h-6.75v18.34Z" transform="translate(-56 82)"/>
      <path class="cls-7" d="M725.91,1845.58V1823.4h4.8v22.18Z" transform="translate(-56 82)"/>
      <path class="cls-7" d="M735.32,1834.47a13.91,13.91,0,0,1,1.27-6.14,9.16,9.16,0,0,1,3.71-4,11.41,11.41,0,0,1,5.84-1.42,11.54,11.54,0,0,1,5.73,1.37,9.36,9.36,0,0,1,3.76,4,13.7,13.7,0,0,1,1.32,6.25,14.07,14.07,0,0,1-1.26,6.15,9.24,9.24,0,0,1-3.71,4.06,11.32,11.32,0,0,1-5.84,1.44,11.51,11.51,0,0,1-5.73-1.37,9.33,9.33,0,0,1-3.76-4A13.7,13.7,0,0,1,735.32,1834.47Zm4.93,0a9.42,9.42,0,0,0,1.5,5.76,5.83,5.83,0,0,0,8.77,0,11.7,11.7,0,0,0,0-11.5,5.87,5.87,0,0,0-8.77,0A9.35,9.35,0,0,0,740.25,1834.47Z" transform="translate(-56 82)"/>
      <path class="cls-7" d="M765.66,1830.19v15.39h-4.23V1823.4h5.12l9,15.52V1823.4h4.22v22.18h-5.12Z" transform="translate(-56 82)"/>
      <path class="cls-7" d="M612.26,1874.38v-11.52l-3.67,7.46h-3.21l-3.68-7.46v11.52h-3.16v-16.63h3.93l4.54,9.45,4.56-9.45h3.86v16.63Z" transform="translate(-56 82)"/>
      <path class="cls-7" d="M629.26,1874.38l-1.18-3.79h-5.69l-1.13,3.79H617.5l5.85-16.63h4l5.86,16.63Zm-6.1-6.39h4.18l-2.12-7Z" transform="translate(-56 82)"/>
      <path class="cls-7" d="M635.23,1874.38v-16.63h6.41a5.87,5.87,0,0,1,4.1,1.36,4.79,4.79,0,0,1,1.52,3.72,4.49,4.49,0,0,1-.8,2.6,5.3,5.3,0,0,1-2.23,1.8l4.13,7.15h-3.72l-3.6-6.46h-2.35v6.46Zm3.46-9h2.49a2.24,2.24,0,0,0,2.52-2.55,2.19,2.19,0,0,0-2.47-2.49h-2.54Z" transform="translate(-56 82)"/>
      <path class="cls-7" d="M650.62,1874.38v-16.63h3.59v16.63Z" transform="translate(-56 82)"/>
      <path class="cls-7" d="M661.65,1868.31v6.07h-3.5v-16.63h6.36a5.79,5.79,0,0,1,4.11,1.41,5.7,5.7,0,0,1,0,7.73,5.8,5.8,0,0,1-4.11,1.42Zm0-2.69h2.45a2.45,2.45,0,0,0,1.84-.66,3.25,3.25,0,0,0,0-3.87,2.45,2.45,0,0,0-1.84-.66h-2.45Z" transform="translate(-56 82)"/>
      <path class="cls-7" d="M672.53,1866.05a10.54,10.54,0,0,1,.94-4.61,6.94,6.94,0,0,1,2.79-3,9.47,9.47,0,0,1,8.67,0,6.92,6.92,0,0,1,2.82,3,10.15,10.15,0,0,1,1,4.69,10.54,10.54,0,0,1-1,4.61,7,7,0,0,1-2.78,3,9.42,9.42,0,0,1-8.68,0,7,7,0,0,1-2.82-3A10.35,10.35,0,0,1,672.53,1866.05Zm3.69,0a7.06,7.06,0,0,0,1.13,4.32,4.38,4.38,0,0,0,6.58,0,8.87,8.87,0,0,0,0-8.63,4.42,4.42,0,0,0-6.58,0A7,7,0,0,0,676.22,1866.05Z" transform="translate(-56 82)"/>
      <path class="cls-7" d="M695.11,1867.11a7.1,7.1,0,0,1-3.07-1.94,4.8,4.8,0,0,1,.73-6.49,7,7,0,0,1,4.48-1.34,12.88,12.88,0,0,1,4.6.86v2.74a14.67,14.67,0,0,0-4.32-.72c-1.88,0-2.83.61-2.83,1.82a1.44,1.44,0,0,0,.49,1.11,6.28,6.28,0,0,0,1.84.91l1.78.65a7.8,7.8,0,0,1,3.18,1.9,4.2,4.2,0,0,1,.94,2.85,4.74,4.74,0,0,1-1.77,3.9,7.59,7.59,0,0,1-4.87,1.43,14.34,14.34,0,0,1-2.69-.26,9.75,9.75,0,0,1-2.31-.68v-2.74a19,19,0,0,0,2.57.58,16.57,16.57,0,0,0,2.47.22,3.94,3.94,0,0,0,2.19-.52,1.68,1.68,0,0,0,.77-1.48,1.53,1.53,0,0,0-.47-1.17,6.1,6.1,0,0,0-1.89-1Z" transform="translate(-56 82)"/>
      <path class="cls-7" d="M715.89,1874.38l-1.17-3.79H709l-1.13,3.79h-3.77l5.86-16.63h4l5.86,16.63ZM709.8,1868H714l-2.11-7Z" transform="translate(-56 82)"/>
      <path class="cls-7" d="M727.61,1871a15.94,15.94,0,0,0,4.75.91,3.31,3.31,0,0,0,2.25-.67,2.45,2.45,0,0,0,.77-2,2.25,2.25,0,0,0-.77-1.9,3.75,3.75,0,0,0-2.37-.62,35.88,35.88,0,0,0-3.94.24v-2.16l.43-7.12h9.44v2.73h-6.48l-.27,3.94a8.76,8.76,0,0,1,2.07-.24,5.62,5.62,0,0,1,4,1.38,4.78,4.78,0,0,1,1.48,3.68,5.28,5.28,0,0,1-.76,2.83,5.19,5.19,0,0,1-2.24,2,7.73,7.73,0,0,1-3.4.71,12.13,12.13,0,0,1-4.92-1Z" transform="translate(-56 82)"/>
    </g>
    <g>
      <path class="cls-7" d="M1075,1939.58v-9.44h-8.84v9.44h-4.8V1917.4h4.8v9H1075v-9h4.8v22.18Z" transform="translate(-56 82)"/>
      <path class="cls-7" d="M1085,1939.58V1917.4h14.59v3.71h-9.8v5.25h8v3.71h-8v5.8h9.8v3.71Z" transform="translate(-56 82)"/>
      <path class="cls-7" d="M1103.45,1939.58V1917.4h4.8v18.34H1118v3.84Z" transform="translate(-56 82)"/>
      <path class="cls-7" d="M1125.5,1931.48v8.1h-4.67V1917.4h8.48a7.69,7.69,0,0,1,5.47,1.89,7.6,7.6,0,0,1,0,10.3,7.69,7.69,0,0,1-5.47,1.89Zm0-3.58h3.26a3.24,3.24,0,0,0,2.45-.88,3.57,3.57,0,0,0,.85-2.58,3.53,3.53,0,0,0-.85-2.57,3.24,3.24,0,0,0-2.45-.88h-3.26Z" transform="translate(-56 82)"/>
      <path class="cls-7" d="M1042.26,1968.38v-11.52l-3.67,7.46h-3.21l-3.68-7.46v11.52h-3.16v-16.63h3.93l4.54,9.45,4.56-9.45h3.86v16.63Z" transform="translate(-56 82)"/>
      <path class="cls-7" d="M1059.26,1968.38l-1.18-3.79h-5.69l-1.13,3.79h-3.76l5.85-16.63h4l5.86,16.63Zm-6.1-6.39h4.18l-2.12-7Z" transform="translate(-56 82)"/>
      <path class="cls-7" d="M1065.23,1968.38v-16.63h6.41a5.87,5.87,0,0,1,4.1,1.36,4.79,4.79,0,0,1,1.52,3.72,4.49,4.49,0,0,1-.8,2.6,5.3,5.3,0,0,1-2.23,1.8l4.13,7.15h-3.72l-3.6-6.46h-2.35v6.46Zm3.46-9h2.49a2.24,2.24,0,0,0,2.52-2.55,2.19,2.19,0,0,0-2.47-2.49h-2.54Z" transform="translate(-56 82)"/>
      <path class="cls-7" d="M1080.62,1968.38v-16.63h3.59v16.63Z" transform="translate(-56 82)"/>
      <path class="cls-7" d="M1091.65,1962.31v6.07h-3.5v-16.63h6.36a5.79,5.79,0,0,1,4.11,1.41,5.7,5.7,0,0,1,0,7.73,5.8,5.8,0,0,1-4.11,1.42Zm0-2.69h2.45a2.45,2.45,0,0,0,1.84-.66,3.25,3.25,0,0,0,0-3.87,2.45,2.45,0,0,0-1.84-.66h-2.45Z" transform="translate(-56 82)"/>
      <path class="cls-7" d="M1102.53,1960.05a10.54,10.54,0,0,1,.94-4.61,6.94,6.94,0,0,1,2.79-3,9.47,9.47,0,0,1,8.67,0,6.92,6.92,0,0,1,2.82,3,10.15,10.15,0,0,1,1,4.69,10.54,10.54,0,0,1-1,4.61,7,7,0,0,1-2.78,3,9.42,9.42,0,0,1-8.68,0,7,7,0,0,1-2.82-3A10.35,10.35,0,0,1,1102.53,1960.05Zm3.69,0a7.06,7.06,0,0,0,1.13,4.32,4.38,4.38,0,0,0,6.58,0,8.87,8.87,0,0,0,0-8.63,4.42,4.42,0,0,0-6.58,0A7,7,0,0,0,1106.22,1960.05Z" transform="translate(-56 82)"/>
      <path class="cls-7" d="M1125.11,1961.11a7.1,7.1,0,0,1-3.07-1.94,4.8,4.8,0,0,1,.73-6.49,7,7,0,0,1,4.48-1.34,12.88,12.88,0,0,1,4.6.86v2.74a14.67,14.67,0,0,0-4.32-.72c-1.88,0-2.83.61-2.83,1.82a1.44,1.44,0,0,0,.49,1.11,6.28,6.28,0,0,0,1.84.91l1.78.65a7.8,7.8,0,0,1,3.18,1.9,4.2,4.2,0,0,1,.94,2.85,4.74,4.74,0,0,1-1.77,3.9,7.59,7.59,0,0,1-4.87,1.43,14.34,14.34,0,0,1-2.69-.26,9.75,9.75,0,0,1-2.31-.68v-2.74a19,19,0,0,0,2.57.58,16.57,16.57,0,0,0,2.47.22,3.94,3.94,0,0,0,2.19-.52,1.68,1.68,0,0,0,.77-1.48,1.53,1.53,0,0,0-.47-1.17,6.1,6.1,0,0,0-1.89-1Z" transform="translate(-56 82)"/>
      <path class="cls-7" d="M1145.89,1968.38l-1.17-3.79H1139l-1.13,3.79h-3.77l5.86-16.63h4l5.86,16.63Zm-6.09-6.39H1144l-2.11-7Z" transform="translate(-56 82)"/>
      <path class="cls-7" d="M1157.61,1965a15.94,15.94,0,0,0,4.75.91,3.31,3.31,0,0,0,2.25-.67,2.45,2.45,0,0,0,.77-2,2.25,2.25,0,0,0-.77-1.9,3.75,3.75,0,0,0-2.37-.62,35.88,35.88,0,0,0-3.94.24v-2.16l.43-7.12h9.44v2.73h-6.48l-.27,3.94a8.76,8.76,0,0,1,2.07-.24,5.62,5.62,0,0,1,4,1.38,4.78,4.78,0,0,1,1.48,3.68,5.28,5.28,0,0,1-.76,2.83,5.19,5.19,0,0,1-2.24,2,7.73,7.73,0,0,1-3.4.71,12.13,12.13,0,0,1-4.92-1Z" transform="translate(-56 82)"/>
    </g>
  </g>
</svg>
