<svg id="map" xmlns="http://www.w3.org/2000/svg" width="1860.04" height="1362" viewBox="0 0 1860.04 1362">
  <defs>
    <style>
      .cls-1 {
        fill: #3f3f3f;
      }

      .cls-2 {
        fill: #7a797a;
      }

      .cls-3 {
        fill: #c0539f;
      }

      .cls-4 {
        fill: #949393;
      }

      .cls-5 {
        fill: #ff2939;
      }

      .cls-6 {
        opacity: 0.2;
      }

      .cls-10, .cls-7 {
        fill: none;
        stroke-miterlimit: 10;
      }

      .cls-7 {
        stroke: #3f3f3f;
        stroke-width: 2px;
      }

      .cls-8 {
        fill: #fff;
      }

      .cls-9 {
        fill: #454546;
      }

      .cls-10 {
        stroke: #fff;
        stroke-linecap: round;
        stroke-width: 1.45px;
      }
    </style>
  </defs>
  <title>ARI_1FE</title>
  <g id="ground">
    <path class="cls-1" d="M54,314H907.41l129.12,2H1896V1676H419.17S58,1639.89,56,1280.84,54,314,54,314Z" transform="translate(-54 -314)"/>
    <polygon class="cls-2" points="1842 4 1842 406 1678 406 1678 1256 1609 1256 1609 1282 1510 1282 1510 1246 1538 1246 1538 1150 1574 1150 1574 722 1390 722 1390 752 1352 752 1352 722 1132 722 1132 752 1090 752 1090 722 956 722 956 1298 872 1298 872 722 780 722 780 752 740 752 740 722 562 722 562 752 522 752 522 722 430 722 430 528 522 528 522 490 564 490 564 528 742 528 742 490 778 490 778 528 876 528 876 466 960 466 960 528 1090 528 1090 490 1132 490 1132 528 1350 528 1350 490 1392 490 1392 528 1476 528 1476 2 1678 4 1842 4"/>
  </g>
  <g id="footprint">
    <g id="programming">
      <rect class="cls-3" x="958" y="200" width="518" height="290"/>
      <rect class="cls-3" x="660" y="216" width="216" height="274"/>
      <rect class="cls-3" x="438" y="216" width="216" height="274"/>
      <rect class="cls-3" x="90" y="310" width="340" height="658"/>
      <rect class="cls-3" x="438" y="752" width="434" height="354"/>
      <rect class="cls-3" x="956" y="752" width="618" height="398"/>
    </g>
    <g id="restrooms">
      <path class="cls-4" d="M926,1472H600v118H876s0,22,50,22Z" transform="translate(-54 -314)"/>
      <path class="cls-4" d="M1010,1472h286v118H1053.86s0,22-43.86,22Z" transform="translate(-54 -314)"/>
    </g>
    <g id="building">
      <polygon class="cls-4" points="1802 324 1678 324 1678 1256 1842 1256 1842 382 1802 324"/>
    </g>
  </g>
  <g id="points">
    <rect id="ARI_628" class="cls-5" x="958" y="200" width="518" height="290"/>
    <rect id="ARI_629" class="cls-5" x="660" y="216" width="216" height="274"/>
    <rect id="ARI_630" class="cls-5" x="438" y="216" width="216" height="274"/>
    <rect id="ARI_631" class="cls-5" x="90" y="310" width="340" height="658"/>
    <rect id="ARI_632" class="cls-5" x="438" y="752" width="434" height="354"/>
    <rect id="ARI_633" class="cls-5" x="956" y="752" width="618" height="398"/>
    <rect id="ARI_422" class="cls-5" x="1536" y="1280" width="72" height="72"/>
    <rect id="ARI_418" class="cls-5" x="1576" y="354" width="72" height="70"/>
  </g>
  <g id="bounds" class="cls-6">
    <rect id="_ARI_628" class="cls-5" x="958" y="200" width="518" height="290"/>
    <rect id="_ARI_629" class="cls-5" x="660" y="216" width="216" height="274"/>
    <rect id="_ARI_630" class="cls-5" x="438" y="216" width="216" height="274"/>
    <rect id="_ARI_631" class="cls-5" x="90" y="310" width="340" height="658"/>
    <rect id="_ARI_632" class="cls-5" x="438" y="752" width="434" height="354"/>
    <rect id="_ARI_633" class="cls-5" x="956" y="752" width="618" height="398"/>
    <rect id="_ARI_422" class="cls-5" x="1536" y="1280" width="72" height="72"/>
    <rect id="_ARI_418" class="cls-5" x="1576" y="354" width="72" height="70"/>
  </g>
  <g id="paths">
    <g id="ARI_422-2" data-name="ARI_422">
      <polyline id="ARI_422-ARI_628" class="cls-7" points="1108 492 1108 562 1592 562 1592 1280"/>
      <polyline id="ARI_422-ARI_629" class="cls-7" points="762 492 762 562 1592 562 1592 1280"/>
      <polyline id="ARI_422-ARI_630" class="cls-7" points="542 492 542 562 1592 562 1592 1280"/>
      <polyline id="ARI_422-ARI_631" class="cls-7" points="430 580 542 580 1592 580 1592 1280"/>
      <polyline id="ARI_422-ARI_632" class="cls-7" points="542 750 542 686 1592 686 1592 1280"/>
      <polyline id="ARI_422-ARI_633" class="cls-7" points="1114 750 1114 686 1592 686 1592 1280"/>
      <line id="ARI_422-ARI_418" class="cls-7" x1="1592" y1="428" x2="1592" y2="1280"/>
    </g>
    <g id="ARI_418-2" data-name="ARI_418">
      <polyline id="ARI_418-ARI_628" class="cls-7" points="1108 492 1108 562 1608.72 562 1608.72 430"/>
      <polyline id="ARI_418-ARI_629" class="cls-7" points="762 492 762 562 1609 562 1609 428"/>
      <polyline id="ARI_418-ARI_630" class="cls-7" points="542 492 542 562 1612 562 1612 428"/>
      <polyline id="ARI_418-ARI_631" class="cls-7" points="430 580 542 580 1609 580 1609 428"/>
      <polyline id="ARI_418-ARI_632" class="cls-7" points="542 750 542 686 1608 686 1608 428"/>
      <polyline id="ARI_418-ARI_633" class="cls-7" points="1114 750 1114 686 1608 686 1608 428"/>
      <line id="ARI_418-ARI_422" class="cls-7" x1="1592" y1="1280" x2="1592" y2="428"/>
    </g>
  </g>
  <g id="icons">
    <g>
      <g>
        <rect x="1070.45" y="1184.17" width="73.02" height="73.02"/>
        <path class="cls-8" d="M1194.58,1501.06v67.24h-67.23v-67.24h67.23m2.89-2.89h-73v73h73v-73Z" transform="translate(-54 -314)"/>
      </g>
      <g>
        <g>
          <g>
            <path class="cls-8" d="M1142,1520.26a3.61,3.61,0,1,0-3.62-3.61A3.61,3.61,0,0,0,1142,1520.26Z" transform="translate(-54 -314)"/>
            <path class="cls-9" d="M1142,1516.65" transform="translate(-54 -314)"/>
          </g>
          <path class="cls-8" d="M1138.1,1521.06a4.64,4.64,0,0,0-4.61,4.69v11.08a1.58,1.58,0,1,0,3.15,0V1526.7h.75v27.76a2.1,2.1,0,1,0,4.2,0v-16.12h.72v16.12a2.12,2.12,0,1,0,4.23,0V1526.7h.73v10.13a1.57,1.57,0,1,0,3.13,0v-11a4.69,4.69,0,0,0-4.67-4.74Z" transform="translate(-54 -314)"/>
        </g>
        <g>
          <g>
            <path class="cls-8" d="M1178.48,1520.12a3.54,3.54,0,1,0-3.54-3.54A3.55,3.55,0,0,0,1178.48,1520.12Z" transform="translate(-54 -314)"/>
            <path class="cls-9" d="M1178.48,1516.58" transform="translate(-54 -314)"/>
          </g>
          <path class="cls-8" d="M1178,1542.57v12.26a1.67,1.67,0,0,1-3.34,0v-12.18h-4.48l4.79-16.62h-.75l-2.78,9.38a1.51,1.51,0,1,1-2.83-1l3.09-10.19A4.67,4.67,0,0,1,1176,1521h4.87a4.81,4.81,0,0,1,4.37,3.22l3.1,10.18c.62,2.18-2.17,3.09-2.83,1l-2.79-9.35h-.8l4.83,16.62h-4.49v12.19a1.66,1.66,0,0,1-3.32,0v-12.27Z" transform="translate(-54 -314)"/>
        </g>
        <line class="cls-10" x1="1106.2" y1="1242.98" x2="1106.2" y2="1199.04"/>
      </g>
    </g>
    <g>
      <g>
        <rect x="1535.7" y="1279.37" width="73.02" height="73.02"/>
        <path class="cls-8" d="M1659.83,1596.26v67.23H1592.6v-67.23h67.23m2.89-2.89h-73v73h73v-73Z" transform="translate(-54 -314)"/>
      </g>
      <g>
        <g>
          <path class="cls-8" d="M1643.73,1623.9v7.88a2.8,2.8,0,0,1-.09.58,1,1,0,0,1-.85.72,4.51,4.51,0,0,1-.65,0v-7.95c0-.12,0-.23,0-.35a.6.6,0,0,0-1.19,0v17.35a2.24,2.24,0,0,1-.15.81,1,1,0,0,1-1.14.54,1,1,0,0,1-.82-.91,1.46,1.46,0,0,1,0-.3v-8.43c0-.11,0-.21,0-.32a.59.59,0,0,0-1.16,0,1.16,1.16,0,0,0,0,.32v8.53a1,1,0,0,1-1.18,1.11,1.07,1.07,0,0,1-.92-1,2.43,2.43,0,0,1,0-.27c0-5.71,0-11.44,0-17.16a2.3,2.3,0,0,0,0-.37.6.6,0,0,0-.64-.48.61.61,0,0,0-.54.6v8.19a1.15,1.15,0,0,1-1.53-1.16c0-2.67,0-5.35,0-8a2.72,2.72,0,0,1,2.85-2.84h5.25A2.73,2.73,0,0,1,1643.73,1623.9Z" transform="translate(-54 -314)"/>
          <path class="cls-8" d="M1627.86,1631.22c-.63-2.67-1.27-5.32-1.92-8a2.71,2.71,0,0,0-2.79-2.19h-3a2.71,2.71,0,0,0-2.82,2.19q-1,4-2,8.09a1,1,0,0,0,.57,1.21,4.35,4.35,0,0,0,.72.23c.36-1.5.7-3,1-4.41q.42-1.8.87-3.6a.59.59,0,0,1,.45-.5c.48-.09.81.3.69.81-.74,3.06-1.46,6.11-2.18,9.17-.13.51-.25,1-.37,1.59h1.77v6.55a1.14,1.14,0,0,0,.54,1,.92.92,0,0,0,1,0,1,1,0,0,0,.54-.93v-5.86a1,1,0,0,1,0-.3.52.52,0,0,1,.54-.48.59.59,0,0,1,.58.49,2.17,2.17,0,0,1,0,.36v5.76a1,1,0,0,0,.67,1,1,1,0,0,0,1.44-1v-6.66h1.76a.53.53,0,0,1,0-.16c-.51-2.19-1-4.37-1.54-6.56-.32-1.38-.65-2.74-1-4.12a.55.55,0,0,1,.45-.71.56.56,0,0,1,.67.42.44.44,0,0,1,0,.15c.51,2.12,1,4.25,1.5,6.36.12.53.26,1,.38,1.59.16,0,.31-.1.45-.12A1.07,1.07,0,0,0,1627.86,1631.22Z" transform="translate(-54 -314)"/>
          <path class="cls-8" d="M1627,1632.66c-.14,0-.29.08-.45.12-.12-.54-.26-1.06-.38-1.59-.49-2.11-1-4.24-1.5-6.36a.44.44,0,0,0,0-.15.56.56,0,0,0-.67-.42.55.55,0,0,0-.45.71c.31,1.38.64,2.74,1,4.12.51,2.19,1,4.37,1.54,6.56a.53.53,0,0,0,0,.16h-1.76v6.66a1,1,0,0,1-1.44,1,1,1,0,0,1-.67-1v-5.76a2.17,2.17,0,0,0,0-.36.59.59,0,0,0-.58-.49.52.52,0,0,0-.54.48,1,1,0,0,0,0,.3v5.86a1,1,0,0,1-.54.93.92.92,0,0,1-1,0,1.14,1.14,0,0,1-.54-1v-6.55h-1.77c.12-.56.24-1.08.37-1.59.72-3.06,1.44-6.11,2.18-9.17.12-.51-.21-.9-.69-.81a.59.59,0,0,0-.45.5q-.45,1.8-.87,3.6c-.35,1.45-.69,2.91-1,4.41a4.35,4.35,0,0,1-.72-.23,1,1,0,0,1-.57-1.21q1-4,2-8.09a2.71,2.71,0,0,1,2.82-2.19h3a2.71,2.71,0,0,1,2.79,2.19c.65,2.66,1.29,5.31,1.92,8A1.07,1.07,0,0,1,1627,1632.66Z" transform="translate(-54 -314)"/>
          <path class="cls-8" d="M1623.5,1617.91a1.92,1.92,0,0,1-1.88,1.86,1.87,1.87,0,0,1,0-3.74A1.91,1.91,0,0,1,1623.5,1617.91Z" transform="translate(-54 -314)"/>
          <path class="cls-8" d="M1640.13,1617.88a1.88,1.88,0,1,1-3.75,0,1.82,1.82,0,0,1,1.86-1.83A1.89,1.89,0,0,1,1640.13,1617.88Z" transform="translate(-54 -314)"/>
          <path class="cls-8" d="M1610.66,1623.9v7.88a5.4,5.4,0,0,1-.09.58,1,1,0,0,1-.86.72,4.32,4.32,0,0,1-.64,0v-7.95c0-.12,0-.23,0-.35a.6.6,0,0,0-1.19,0v17.35a2.24,2.24,0,0,1-.15.81,1,1,0,0,1-1.14.54,1,1,0,0,1-.82-.91,1.46,1.46,0,0,1,0-.3v-8.43c0-.11,0-.21,0-.32a.59.59,0,0,0-1.16,0,1.16,1.16,0,0,0,0,.32v8.53a1,1,0,0,1-1.18,1.11,1.07,1.07,0,0,1-.92-1,2.43,2.43,0,0,1,0-.27c0-5.71,0-11.44,0-17.16a2.3,2.3,0,0,0,0-.37.6.6,0,0,0-.64-.48.61.61,0,0,0-.54.6v8.19a1.15,1.15,0,0,1-1.53-1.16c0-2.67,0-5.35,0-8a2.72,2.72,0,0,1,2.85-2.84h5.25A2.73,2.73,0,0,1,1610.66,1623.9Z" transform="translate(-54 -314)"/>
          <path class="cls-8" d="M1607.06,1617.88a1.88,1.88,0,1,1-3.75,0,1.82,1.82,0,0,1,1.86-1.83A1.89,1.89,0,0,1,1607.06,1617.88Z" transform="translate(-54 -314)"/>
        </g>
        <path class="cls-8" d="M1648.83,1618.37v23l-1.64-1.64a.6.6,0,0,0-.86,0,.59.59,0,0,0,0,.85l3.11,3.11,3.11-3.11a.59.59,0,0,0,0-.85.6.6,0,0,0-.86,0l-1.64,1.64v-23h0l1.64,1.53a.61.61,0,0,0,.86-.86l-3.11-3.11-3.11,3.11a.6.6,0,0,0,0,.86.61.61,0,0,0,.43.18.6.6,0,0,0,.43-.18" transform="translate(-54 -314)"/>
      </g>
    </g>
    <g>
      <g>
        <rect x="1576.98" y="354.62" width="73.02" height="73.02"/>
        <path class="cls-8" d="M1701.11,671.51v67.23h-67.23V671.51h67.23m2.89-2.89h-73v73h73v-73Z" transform="translate(-54 -314)"/>
      </g>
      <g>
        <path class="cls-8" d="M1689.11,708.67c-1.69-.06-3.37,0-5.06,0a1.55,1.55,0,0,1-1.2-.5l-6.79-6.64q0-4.59,0-9.18c0-2.3-.92-3.57-2.57-3.6-.75,0-1.5,0-2.25,0-1.46,0-2.38,1.35-2.39,3.35,0,.75-.07,1.53-.08,2.29q-5.55-5.42-11.09-10.84a1.64,1.64,0,0,0-1.26-.5c-3.47,0-6.93,0-10.39,0a6.54,6.54,0,0,0-2.18,12.64,8,8,0,0,0,2.53.47c1.59.08,3.19,0,4.78,0a1.72,1.72,0,0,1,1.07.42q12.62,12.27,25.2,24.59a1.74,1.74,0,0,0,1.37.56c1.67,0,3.33,0,5,0v-.11a57.16,57.16,0,0,0,6,0,6.42,6.42,0,0,0,5.52-7A6.5,6.5,0,0,0,1689.11,708.67Z" transform="translate(-54 -314)"/>
        <path class="cls-8" d="M1672.44,681.86a2.87,2.87,0,0,0-2.9,2.86,2.9,2.9,0,0,0,2.86,2.92,2.93,2.93,0,0,0,2.92-2.88A2.9,2.9,0,0,0,1672.44,681.86Z" transform="translate(-54 -314)"/>
        <path class="cls-8" d="M1668.11,730.19a.67.67,0,0,1-.46-.18l-27.44-26.18a.66.66,0,0,1,0-.94.67.67,0,0,1,1,0L1668.58,729a.67.67,0,0,1,0,.94A.67.67,0,0,1,1668.11,730.19Z" transform="translate(-54 -314)"/>
        <path class="cls-8" d="M1640.62,709.92a.68.68,0,0,1-.68-.65l-.17-6.11a.68.68,0,0,1,.66-.69l6.11-.17a.69.69,0,0,1,.69.65.68.68,0,0,1-.66.69l-5.43.15.15,5.44a.68.68,0,0,1-.66.69Z" transform="translate(-54 -314)"/>
        <path class="cls-8" d="M1662.2,730.6a.67.67,0,1,1,0-1.34l5.44-.15-.16-5.44a.68.68,0,0,1,.66-.69h0a.67.67,0,0,1,.68.65l.17,6.11a.68.68,0,0,1-.66.69l-6.11.17Z" transform="translate(-54 -314)"/>
      </g>
    </g>
    <g>
      <g>
        <rect x="676.68" y="1184.17" width="73.02" height="73.02"/>
        <path class="cls-8" d="M800.8,1501.06v67.24H733.57v-67.24H800.8m2.89-2.89h-73v73h73v-73Z" transform="translate(-54 -314)"/>
      </g>
      <g>
        <g>
          <g>
            <path class="cls-8" d="M748.19,1520.26a3.61,3.61,0,1,0-3.61-3.61A3.61,3.61,0,0,0,748.19,1520.26Z" transform="translate(-54 -314)"/>
            <path class="cls-9" d="M748.19,1516.65" transform="translate(-54 -314)"/>
          </g>
          <path class="cls-8" d="M744.32,1521.06a4.64,4.64,0,0,0-4.61,4.69v11.08a1.58,1.58,0,1,0,3.15,0V1526.7h.75v27.76a2.1,2.1,0,1,0,4.2,0v-16.12h.73v16.12a2.11,2.11,0,1,0,4.22,0V1526.7h.73v10.13a1.57,1.57,0,1,0,3.13,0v-11a4.69,4.69,0,0,0-4.67-4.74Z" transform="translate(-54 -314)"/>
        </g>
        <g>
          <g>
            <path class="cls-8" d="M784.7,1520.12a3.54,3.54,0,1,0-3.54-3.54A3.54,3.54,0,0,0,784.7,1520.12Z" transform="translate(-54 -314)"/>
            <path class="cls-9" d="M784.7,1516.58" transform="translate(-54 -314)"/>
          </g>
          <path class="cls-8" d="M784.18,1542.57v12.26a1.67,1.67,0,0,1-3.34,0v-12.18h-4.48l4.79-16.62h-.74l-2.79,9.38a1.51,1.51,0,1,1-2.83-1l3.1-10.19a4.67,4.67,0,0,1,4.34-3.22h4.87a4.81,4.81,0,0,1,4.37,3.22l3.1,10.18c.62,2.18-2.17,3.09-2.83,1L789,1526h-.8l4.83,16.62h-4.49v12.19a1.66,1.66,0,0,1-3.32,0v-12.27Z" transform="translate(-54 -314)"/>
        </g>
        <line class="cls-10" x1="712.42" y1="1242.98" x2="712.42" y2="1199.04"/>
      </g>
    </g>
    <g>
      <g>
        <rect x="1787.02" y="228.53" width="73.02" height="73.02"/>
        <path class="cls-8" d="M1911.15,545.43v67.23h-67.24V545.43h67.24m2.89-2.9h-73v73h73v-73Z" transform="translate(-54 -314)"/>
      </g>
      <g>
        <path class="cls-8" d="M1899.15,582.58c-1.69-.05-3.37,0-5.06,0a1.51,1.51,0,0,1-1.2-.49l-6.8-6.64q0-4.59,0-9.18c0-2.3-.92-3.58-2.57-3.6-.75,0-1.5,0-2.25,0-1.46.06-2.38,1.36-2.39,3.36,0,.74-.07,1.53-.08,2.29l-11.09-10.84a1.65,1.65,0,0,0-1.26-.51c-3.47,0-6.93,0-10.39,0a6.55,6.55,0,0,0-2.18,12.65,8.33,8.33,0,0,0,2.53.47c1.59.07,3.19,0,4.78,0a1.68,1.68,0,0,1,1.06.43q12.63,12.27,25.21,24.58a1.75,1.75,0,0,0,1.37.57c1.67,0,3.33,0,5,0v-.1a54.72,54.72,0,0,0,6,0,6.4,6.4,0,0,0,5.51-7A6.51,6.51,0,0,0,1899.15,582.58Z" transform="translate(-54 -314)"/>
        <path class="cls-8" d="M1882.48,555.77a2.9,2.9,0,0,0,0,5.79,2.9,2.9,0,1,0,0-5.79Z" transform="translate(-54 -314)"/>
        <path class="cls-8" d="M1878.15,604.11a.63.63,0,0,1-.46-.19l-27.44-26.17a.67.67,0,1,1,.92-1L1878.61,603a.67.67,0,0,1-.46,1.16Z" transform="translate(-54 -314)"/>
        <path class="cls-8" d="M1850.65,583.84a.67.67,0,0,1-.67-.66l-.17-6.11a.69.69,0,0,1,.66-.69l6.11-.17a.71.71,0,0,1,.69.66.68.68,0,0,1-.66.69l-5.44.15.16,5.44a.68.68,0,0,1-.66.69Z" transform="translate(-54 -314)"/>
        <path class="cls-8" d="M1872.23,604.52a.67.67,0,0,1-.67-.66.69.69,0,0,1,.66-.69l5.43-.15-.15-5.44a.69.69,0,0,1,.66-.69h0a.68.68,0,0,1,.68.66l.17,6.11a.68.68,0,0,1-.66.69l-6.11.17Z" transform="translate(-54 -314)"/>
      </g>
    </g>
  </g>
  <g id="labels">
    <g>
      <path class="cls-8" d="M238.84,965.48a14,14,0,0,0,3.42.45,3.17,3.17,0,0,0,2.47-.85,4.4,4.4,0,0,0,.73-2.87v-15h4.8v15q0,7.77-7.33,7.77a10.61,10.61,0,0,1-2-.17,16,16,0,0,1-2.08-.56Z" transform="translate(-54 -314)"/>
      <path class="cls-8" d="M254.61,958.25a13.93,13.93,0,0,1,1.27-6.15,9.16,9.16,0,0,1,3.71-4.05,12.65,12.65,0,0,1,11.57,0,9.28,9.28,0,0,1,3.76,4,13.71,13.71,0,0,1,1.33,6.26,14.05,14.05,0,0,1-1.27,6.14,9.24,9.24,0,0,1-3.71,4.06,11.22,11.22,0,0,1-5.84,1.44,11.41,11.41,0,0,1-5.73-1.37,9.33,9.33,0,0,1-3.76-4A13.81,13.81,0,0,1,254.61,958.25Zm4.93,0A9.46,9.46,0,0,0,261,964a5.85,5.85,0,0,0,8.77,0,11.72,11.72,0,0,0,0-11.51,5.87,5.87,0,0,0-8.77,0A9.37,9.37,0,0,0,259.54,958.25Z" transform="translate(-54 -314)"/>
      <path class="cls-8" d="M284.72,959.65a9.45,9.45,0,0,1-4.09-2.57,6.41,6.41,0,0,1,1-8.66,9.25,9.25,0,0,1,6-1.79,17.05,17.05,0,0,1,6.15,1.15v3.65a19.59,19.59,0,0,0-5.76-1q-3.78,0-3.78,2.43a1.89,1.89,0,0,0,.66,1.48,8.14,8.14,0,0,0,2.45,1.21l2.36.86a10.2,10.2,0,0,1,4.24,2.55,5.53,5.53,0,0,1,1.27,3.79,6.31,6.31,0,0,1-2.37,5.2,10.1,10.1,0,0,1-6.5,1.9,19.71,19.71,0,0,1-3.58-.33,14,14,0,0,1-3.07-.91V965a27.32,27.32,0,0,0,3.42.77,21.59,21.59,0,0,0,3.3.28,5.18,5.18,0,0,0,2.91-.68,2.24,2.24,0,0,0,1-2,2,2,0,0,0-.62-1.57,8.45,8.45,0,0,0-2.51-1.28Z" transform="translate(-54 -314)"/>
      <path class="cls-8" d="M312.76,969.35v-9.44h-8.84v9.44h-4.8V947.17h4.8v9h8.84v-9h4.8v22.18Z" transform="translate(-54 -314)"/>
      <path class="cls-8" d="M336.05,947.17h4.8v14.05a8.41,8.41,0,0,1-2.38,6.4c-1.59,1.52-3.85,2.27-6.77,2.27a9.49,9.49,0,0,1-6.77-2.25,8.45,8.45,0,0,1-2.38-6.45v-14h4.8v14.25a4.71,4.71,0,0,0,1.12,3.4,5,5,0,0,0,6.46,0,4.71,4.71,0,0,0,1.12-3.4Z" transform="translate(-54 -314)"/>
      <path class="cls-8" d="M358.2,969.35l-1.57-5.06H349l-1.5,5.06h-5l7.8-22.18h5.28l7.81,22.18Zm-8.13-8.51h5.57l-2.82-9.28Z" transform="translate(-54 -314)"/>
      <path class="cls-8" d="M373.81,964.9a21.49,21.49,0,0,0,6.34,1.22,4.45,4.45,0,0,0,3-.9,3.29,3.29,0,0,0,1-2.62,3.09,3.09,0,0,0-1-2.55,5.1,5.1,0,0,0-3.17-.81,48.72,48.72,0,0,0-5.25.32v-2.88l.58-9.51h12.57v3.65h-8.64l-.35,5.25a11.77,11.77,0,0,1,2.75-.32,7.43,7.43,0,0,1,5.28,1.84,6.39,6.39,0,0,1,2,4.91,7.1,7.1,0,0,1-1,3.78,6.91,6.91,0,0,1-3,2.61,10.33,10.33,0,0,1-4.55.94,16.31,16.31,0,0,1-6.56-1.34Z" transform="translate(-54 -314)"/>
    </g>
    <g>
      <path class="cls-8" d="M633.84,1237.48a14,14,0,0,0,3.42.45,3.17,3.17,0,0,0,2.47-.85,4.4,4.4,0,0,0,.73-2.87v-15h4.8v14.95q0,7.77-7.33,7.77a10.61,10.61,0,0,1-2-.17,16,16,0,0,1-2.08-.56Z" transform="translate(-54 -314)"/>
      <path class="cls-8" d="M649.61,1230.25a13.93,13.93,0,0,1,1.27-6.15,9.16,9.16,0,0,1,3.71-4,12.65,12.65,0,0,1,11.57,0,9.28,9.28,0,0,1,3.76,4,13.71,13.71,0,0,1,1.33,6.26,14.05,14.05,0,0,1-1.27,6.14,9.24,9.24,0,0,1-3.71,4.06,11.22,11.22,0,0,1-5.84,1.44,11.41,11.41,0,0,1-5.73-1.37,9.33,9.33,0,0,1-3.76-4A13.81,13.81,0,0,1,649.61,1230.25Zm4.93,0A9.46,9.46,0,0,0,656,1236a5.85,5.85,0,0,0,8.77,0,11.72,11.72,0,0,0,0-11.51,5.87,5.87,0,0,0-8.77,0A9.37,9.37,0,0,0,654.54,1230.25Z" transform="translate(-54 -314)"/>
      <path class="cls-8" d="M679.72,1231.65a9.45,9.45,0,0,1-4.09-2.57,6.41,6.41,0,0,1,1-8.66,9.25,9.25,0,0,1,6-1.79,17.05,17.05,0,0,1,6.15,1.15v3.65a19.59,19.59,0,0,0-5.76-1q-3.78,0-3.78,2.43a1.89,1.89,0,0,0,.66,1.48,8.14,8.14,0,0,0,2.45,1.21l2.36.86a10.2,10.2,0,0,1,4.24,2.55,5.53,5.53,0,0,1,1.27,3.79,6.31,6.31,0,0,1-2.37,5.2,10.1,10.1,0,0,1-6.5,1.9,19.71,19.71,0,0,1-3.58-.33,14,14,0,0,1-3.07-.91V1237a27.32,27.32,0,0,0,3.42.77,21.59,21.59,0,0,0,3.3.28,5.18,5.18,0,0,0,2.91-.68,2.24,2.24,0,0,0,1-2,2,2,0,0,0-.62-1.57,8.45,8.45,0,0,0-2.51-1.28Z" transform="translate(-54 -314)"/>
      <path class="cls-8" d="M707.76,1241.35v-9.44h-8.84v9.44h-4.8v-22.18h4.8v9h8.84v-9h4.8v22.18Z" transform="translate(-54 -314)"/>
      <path class="cls-8" d="M731.05,1219.17h4.8v14a8.41,8.41,0,0,1-2.38,6.4c-1.59,1.52-3.85,2.27-6.77,2.27a9.49,9.49,0,0,1-6.77-2.25,8.45,8.45,0,0,1-2.38-6.45v-14h4.8v14.25a4.71,4.71,0,0,0,1.12,3.4,5,5,0,0,0,6.46,0,4.71,4.71,0,0,0,1.12-3.4Z" transform="translate(-54 -314)"/>
      <path class="cls-8" d="M753.2,1241.35l-1.57-5.06H744l-1.5,5.06h-5l7.8-22.18h5.28l7.81,22.18Zm-8.13-8.51h5.57l-2.82-9.28Z" transform="translate(-54 -314)"/>
      <path class="cls-8" d="M771,1241.35l8.32-18.46h-11.1v-3.72h15.84v3.49l-8,18.69Z" transform="translate(-54 -314)"/>
    </g>
    <g>
      <path class="cls-8" d="M1254.84,1237.48a14,14,0,0,0,3.42.45,3.17,3.17,0,0,0,2.47-.85,4.4,4.4,0,0,0,.73-2.87v-15h4.8v14.95q0,7.77-7.33,7.77a10.61,10.61,0,0,1-2-.17,16,16,0,0,1-2.08-.56Z" transform="translate(-54 -314)"/>
      <path class="cls-8" d="M1270.61,1230.25a13.93,13.93,0,0,1,1.27-6.15,9.16,9.16,0,0,1,3.71-4,12.65,12.65,0,0,1,11.57,0,9.28,9.28,0,0,1,3.76,4,13.71,13.71,0,0,1,1.33,6.26,14.05,14.05,0,0,1-1.27,6.14,9.24,9.24,0,0,1-3.71,4.06,11.22,11.22,0,0,1-5.84,1.44,11.41,11.41,0,0,1-5.73-1.37,9.33,9.33,0,0,1-3.76-4A13.81,13.81,0,0,1,1270.61,1230.25Zm4.93,0a9.46,9.46,0,0,0,1.5,5.76,5.85,5.85,0,0,0,8.77,0,11.72,11.72,0,0,0,0-11.51,5.87,5.87,0,0,0-8.77,0A9.37,9.37,0,0,0,1275.54,1230.25Z" transform="translate(-54 -314)"/>
      <path class="cls-8" d="M1300.72,1231.65a9.45,9.45,0,0,1-4.09-2.57,6.41,6.41,0,0,1,1-8.66,9.25,9.25,0,0,1,6-1.79,17.05,17.05,0,0,1,6.15,1.15v3.65a19.59,19.59,0,0,0-5.76-1q-3.78,0-3.78,2.43a1.89,1.89,0,0,0,.66,1.48,8.14,8.14,0,0,0,2.45,1.21l2.36.86a10.2,10.2,0,0,1,4.24,2.55,5.53,5.53,0,0,1,1.27,3.79,6.31,6.31,0,0,1-2.37,5.2,10.1,10.1,0,0,1-6.5,1.9,19.71,19.71,0,0,1-3.58-.33,14,14,0,0,1-3.07-.91V1237a27.32,27.32,0,0,0,3.42.77,21.59,21.59,0,0,0,3.3.28,5.18,5.18,0,0,0,2.91-.68,2.24,2.24,0,0,0,1-2,2,2,0,0,0-.62-1.57,8.45,8.45,0,0,0-2.51-1.28Z" transform="translate(-54 -314)"/>
      <path class="cls-8" d="M1328.76,1241.35v-9.44h-8.84v9.44h-4.8v-22.18h4.8v9h8.84v-9h4.8v22.18Z" transform="translate(-54 -314)"/>
      <path class="cls-8" d="M1352.05,1219.17h4.8v14a8.41,8.41,0,0,1-2.38,6.4c-1.59,1.52-3.85,2.27-6.77,2.27a9.49,9.49,0,0,1-6.77-2.25,8.45,8.45,0,0,1-2.38-6.45v-14h4.8v14.25a4.71,4.71,0,0,0,1.12,3.4,5,5,0,0,0,6.46,0,4.71,4.71,0,0,0,1.12-3.4Z" transform="translate(-54 -314)"/>
      <path class="cls-8" d="M1374.2,1241.35l-1.57-5.06H1365l-1.5,5.06h-5l7.8-22.18h5.28l7.81,22.18Zm-8.13-8.51h5.57l-2.82-9.28Z" transform="translate(-54 -314)"/>
      <path class="cls-8" d="M1390.1,1237a15.59,15.59,0,0,0,2.72.85,13,13,0,0,0,2.69.33,4.42,4.42,0,0,0,3.69-1.47,8.86,8.86,0,0,0,1.4-4.86,9.64,9.64,0,0,1-4.74,1.31,6.41,6.41,0,0,1-4.83-1.84,6.82,6.82,0,0,1-1.79-5,8,8,0,0,1,1-3.92,7,7,0,0,1,2.78-2.76,8.4,8.4,0,0,1,4.22-1,7.15,7.15,0,0,1,6,2.72q2.09,2.72,2.08,7.94,0,6.11-2.4,9.32a8.14,8.14,0,0,1-7,3.22,12.94,12.94,0,0,1-3.2-.41,9.56,9.56,0,0,1-2.66-1.09Zm7.2-7.36a8.27,8.27,0,0,0,3.36-.77v0a11,11,0,0,0-.86-5,2.88,2.88,0,0,0-2.69-1.58,3,3,0,0,0-2.35,1,3.84,3.84,0,0,0-.85,2.65Q1393.91,1229.64,1397.3,1229.64Z" transform="translate(-54 -314)"/>
    </g>
    <g>
      <path class="cls-8" d="M1192.84,656.48a14,14,0,0,0,3.42.45,3.17,3.17,0,0,0,2.47-.85,4.4,4.4,0,0,0,.73-2.87v-15h4.8v15q0,7.77-7.33,7.77a10.61,10.61,0,0,1-2-.17,16,16,0,0,1-2.08-.56Z" transform="translate(-54 -314)"/>
      <path class="cls-8" d="M1208.61,649.25a13.93,13.93,0,0,1,1.27-6.15,9.16,9.16,0,0,1,3.71-4.05,12.65,12.65,0,0,1,11.57,0,9.28,9.28,0,0,1,3.76,4,13.71,13.71,0,0,1,1.33,6.26,14.05,14.05,0,0,1-1.27,6.14,9.24,9.24,0,0,1-3.71,4.06,11.22,11.22,0,0,1-5.84,1.44,11.41,11.41,0,0,1-5.73-1.37,9.33,9.33,0,0,1-3.76-4A13.81,13.81,0,0,1,1208.61,649.25Zm4.93,0A9.46,9.46,0,0,0,1215,655a5.85,5.85,0,0,0,8.77,0,11.72,11.72,0,0,0,0-11.51,5.87,5.87,0,0,0-8.77,0A9.37,9.37,0,0,0,1213.54,649.25Z" transform="translate(-54 -314)"/>
      <path class="cls-8" d="M1238.72,650.65a9.45,9.45,0,0,1-4.09-2.57,6.41,6.41,0,0,1,1-8.66,9.25,9.25,0,0,1,6-1.79,17.05,17.05,0,0,1,6.15,1.15v3.65a19.59,19.59,0,0,0-5.76-1q-3.78,0-3.78,2.43a1.89,1.89,0,0,0,.66,1.48,8.14,8.14,0,0,0,2.45,1.21l2.36.86a10.2,10.2,0,0,1,4.24,2.55,5.53,5.53,0,0,1,1.27,3.79,6.31,6.31,0,0,1-2.37,5.2,10.1,10.1,0,0,1-6.5,1.9,19.71,19.71,0,0,1-3.58-.33,14,14,0,0,1-3.07-.91V656a27.32,27.32,0,0,0,3.42.77,21.59,21.59,0,0,0,3.3.28,5.18,5.18,0,0,0,2.91-.68,2.24,2.24,0,0,0,1-2,2,2,0,0,0-.62-1.57,8.45,8.45,0,0,0-2.51-1.28Z" transform="translate(-54 -314)"/>
      <path class="cls-8" d="M1266.76,660.35v-9.44h-8.84v9.44h-4.8V638.17h4.8v9h8.84v-9h4.8v22.18Z" transform="translate(-54 -314)"/>
      <path class="cls-8" d="M1290.05,638.17h4.8v14.05a8.41,8.41,0,0,1-2.38,6.4c-1.59,1.52-3.85,2.27-6.77,2.27a9.49,9.49,0,0,1-6.77-2.25,8.45,8.45,0,0,1-2.38-6.45v-14h4.8v14.25a4.71,4.71,0,0,0,1.12,3.4,5,5,0,0,0,6.46,0,4.71,4.71,0,0,0,1.12-3.4Z" transform="translate(-54 -314)"/>
      <path class="cls-8" d="M1312.2,660.35l-1.57-5.06H1303l-1.5,5.06h-5l7.8-22.18h5.28l7.81,22.18Zm-8.13-8.51h5.57l-2.82-9.28Z" transform="translate(-54 -314)"/>
      <path class="cls-8" d="M1328.32,640.19a12.77,12.77,0,0,1,3.51-2,11.64,11.64,0,0,1,3.79-.59,6.92,6.92,0,0,1,4.88,1.7,5.79,5.79,0,0,1,1.84,4.48,7.46,7.46,0,0,1-.93,3.45,20.42,20.42,0,0,1-2.94,4q-2,2.25-5.41,5.33h10.18v3.71h-15.49v-3.46q4.1-4.12,6.13-6.44a24,24,0,0,0,2.81-3.73,5.44,5.44,0,0,0,.79-2.59,2.5,2.5,0,0,0-.74-1.91,2.78,2.78,0,0,0-2-.69,8.8,8.8,0,0,0-3.08.64,16.2,16.2,0,0,0-3.36,1.83Z" transform="translate(-54 -314)"/>
    </g>
    <g>
      <path class="cls-8" d="M746.84,656.48a14,14,0,0,0,3.42.45,3.17,3.17,0,0,0,2.47-.85,4.4,4.4,0,0,0,.73-2.87v-15h4.8v15q0,7.77-7.33,7.77a10.61,10.61,0,0,1-2-.17,16,16,0,0,1-2.08-.56Z" transform="translate(-54 -314)"/>
      <path class="cls-8" d="M762.61,649.25a13.93,13.93,0,0,1,1.27-6.15,9.16,9.16,0,0,1,3.71-4.05,12.65,12.65,0,0,1,11.57,0,9.28,9.28,0,0,1,3.76,4,13.71,13.71,0,0,1,1.33,6.26,14.05,14.05,0,0,1-1.27,6.14,9.24,9.24,0,0,1-3.71,4.06,11.22,11.22,0,0,1-5.84,1.44,11.41,11.41,0,0,1-5.73-1.37,9.33,9.33,0,0,1-3.76-4A13.81,13.81,0,0,1,762.61,649.25Zm4.93,0A9.46,9.46,0,0,0,769,655a5.85,5.85,0,0,0,8.77,0,11.72,11.72,0,0,0,0-11.51,5.87,5.87,0,0,0-8.77,0A9.37,9.37,0,0,0,767.54,649.25Z" transform="translate(-54 -314)"/>
      <path class="cls-8" d="M792.72,650.65a9.45,9.45,0,0,1-4.09-2.57,6.41,6.41,0,0,1,1-8.66,9.25,9.25,0,0,1,6-1.79,17.05,17.05,0,0,1,6.15,1.15v3.65a19.59,19.59,0,0,0-5.76-1q-3.78,0-3.78,2.43a1.89,1.89,0,0,0,.66,1.48,8.14,8.14,0,0,0,2.45,1.21l2.36.86a10.2,10.2,0,0,1,4.24,2.55,5.53,5.53,0,0,1,1.27,3.79,6.31,6.31,0,0,1-2.37,5.2,10.1,10.1,0,0,1-6.5,1.9,19.71,19.71,0,0,1-3.58-.33,14,14,0,0,1-3.07-.91V656a27.32,27.32,0,0,0,3.42.77,21.59,21.59,0,0,0,3.3.28,5.18,5.18,0,0,0,2.91-.68,2.24,2.24,0,0,0,1-2,2,2,0,0,0-.62-1.57,8.45,8.45,0,0,0-2.51-1.28Z" transform="translate(-54 -314)"/>
      <path class="cls-8" d="M820.76,660.35v-9.44h-8.84v9.44h-4.8V638.17h4.8v9h8.84v-9h4.8v22.18Z" transform="translate(-54 -314)"/>
      <path class="cls-8" d="M844.05,638.17h4.8v14.05a8.41,8.41,0,0,1-2.38,6.4c-1.59,1.52-3.85,2.27-6.77,2.27a9.49,9.49,0,0,1-6.77-2.25,8.45,8.45,0,0,1-2.38-6.45v-14h4.8v14.25a4.71,4.71,0,0,0,1.12,3.4,5,5,0,0,0,6.46,0,4.71,4.71,0,0,0,1.12-3.4Z" transform="translate(-54 -314)"/>
      <path class="cls-8" d="M866.2,660.35l-1.57-5.06H857l-1.5,5.06h-5l7.8-22.18h5.28l7.81,22.18Zm-8.13-8.51h5.57l-2.82-9.28Z" transform="translate(-54 -314)"/>
      <path class="cls-8" d="M890.1,647.42a7.33,7.33,0,0,1,4.83,1.83,5.73,5.73,0,0,1,1.76,4.38,6.78,6.78,0,0,1-1,3.75,6.92,6.92,0,0,1-3,2.54,11,11,0,0,1-4.64.91,15.25,15.25,0,0,1-6-1.31V655.9a19.25,19.25,0,0,0,5.89,1.22,4.81,4.81,0,0,0,3.12-.88,3.17,3.17,0,0,0,1.07-2.58,2.56,2.56,0,0,0-1-2.22,5.27,5.27,0,0,0-3.07-.72c-.28,0-.76,0-1.43.08s-1.19.1-1.55.14V648l5.73-6.18h-8.48v-3.65h13.5v3.52Z" transform="translate(-54 -314)"/>
    </g>
    <g>
      <path class="cls-8" d="M524.84,656.48a14,14,0,0,0,3.42.45,3.17,3.17,0,0,0,2.47-.85,4.4,4.4,0,0,0,.73-2.87v-15h4.8v15q0,7.77-7.33,7.77a10.61,10.61,0,0,1-2-.17,16,16,0,0,1-2.08-.56Z" transform="translate(-54 -314)"/>
      <path class="cls-8" d="M540.61,649.25a13.93,13.93,0,0,1,1.27-6.15,9.16,9.16,0,0,1,3.71-4.05,12.65,12.65,0,0,1,11.57,0,9.28,9.28,0,0,1,3.76,4,13.71,13.71,0,0,1,1.33,6.26,14.05,14.05,0,0,1-1.27,6.14,9.24,9.24,0,0,1-3.71,4.06,11.22,11.22,0,0,1-5.84,1.44,11.41,11.41,0,0,1-5.73-1.37,9.33,9.33,0,0,1-3.76-4A13.81,13.81,0,0,1,540.61,649.25Zm4.93,0A9.46,9.46,0,0,0,547,655a5.85,5.85,0,0,0,8.77,0,11.72,11.72,0,0,0,0-11.51,5.87,5.87,0,0,0-8.77,0A9.37,9.37,0,0,0,545.54,649.25Z" transform="translate(-54 -314)"/>
      <path class="cls-8" d="M570.72,650.65a9.45,9.45,0,0,1-4.09-2.57,6.41,6.41,0,0,1,1-8.66,9.25,9.25,0,0,1,6-1.79,17.05,17.05,0,0,1,6.15,1.15v3.65a19.59,19.59,0,0,0-5.76-1q-3.78,0-3.78,2.43a1.89,1.89,0,0,0,.66,1.48,8.14,8.14,0,0,0,2.45,1.21l2.36.86a10.2,10.2,0,0,1,4.24,2.55,5.53,5.53,0,0,1,1.27,3.79,6.31,6.31,0,0,1-2.37,5.2,10.1,10.1,0,0,1-6.5,1.9,19.71,19.71,0,0,1-3.58-.33,14,14,0,0,1-3.07-.91V656a27.32,27.32,0,0,0,3.42.77,21.59,21.59,0,0,0,3.3.28,5.18,5.18,0,0,0,2.91-.68,2.24,2.24,0,0,0,1-2,2,2,0,0,0-.62-1.57,8.45,8.45,0,0,0-2.51-1.28Z" transform="translate(-54 -314)"/>
      <path class="cls-8" d="M598.76,660.35v-9.44h-8.84v9.44h-4.8V638.17h4.8v9h8.84v-9h4.8v22.18Z" transform="translate(-54 -314)"/>
      <path class="cls-8" d="M622.05,638.17h4.8v14.05a8.41,8.41,0,0,1-2.38,6.4c-1.59,1.52-3.85,2.27-6.77,2.27a9.49,9.49,0,0,1-6.77-2.25,8.45,8.45,0,0,1-2.38-6.45v-14h4.8v14.25a4.71,4.71,0,0,0,1.12,3.4,5,5,0,0,0,6.46,0,4.71,4.71,0,0,0,1.12-3.4Z" transform="translate(-54 -314)"/>
      <path class="cls-8" d="M644.2,660.35l-1.57-5.06H635l-1.5,5.06h-5l7.8-22.18h5.28l7.81,22.18Zm-8.13-8.51h5.57l-2.82-9.28Z" transform="translate(-54 -314)"/>
      <path class="cls-8" d="M669,660.35V656H658.69v-3.43l10-14.37h4.35v14.21h2.82V656h-2.82v4.38Zm0-8v-8.51l-5.95,8.51Z" transform="translate(-54 -314)"/>
    </g>
  </g>
</svg>
