<svg id="map" xmlns="http://www.w3.org/2000/svg" width="1912" height="1286.5" viewBox="0 0 1912 1286.5">
  <defs>
    <style>
      .cls-1 {
        fill: #3f3f3f;
      }

      .cls-2 {
        fill: #7a797a;
      }

      .cls-3 {
        fill: #6fccdd;
      }

      .cls-4 {
        fill: #949393;
      }

      .cls-5 {
        fill: #ff2939;
      }

      .cls-6 {
        opacity: 0.2;
      }

      .cls-10, .cls-7 {
        fill: none;
        stroke-miterlimit: 10;
      }

      .cls-7 {
        stroke: #3f3f3f;
        stroke-width: 2px;
      }

      .cls-8 {
        fill: #fff;
      }

      .cls-9 {
        fill: #454546;
      }

      .cls-10 {
        stroke: #fff;
        stroke-linecap: round;
        stroke-width: 1.45px;
      }
    </style>
  </defs>
  <title>ARI_3FE</title>
  <g id="ground">
    <path class="cls-1" d="M32,516H1114l86,102s170-20,280,80l62-74h-22V548h48V472h96v74h106l4-14,38,20,34-44,96,78-38,42,30,48-76,50-24-28-38,18,54,90-114-8-18-34-56,32-70-44-10,14s312,304,32,704v198h72v90H1348s-98,8-180-40-98-66-184-60v94H426v-48H356s-66-54-144-70S66,1504,66,1504l-14,2L30,1402Z" transform="translate(-30 -472)"/>
    <path class="cls-2" d="M1344,626v964H1184v136s64,36,162,32h340v-90h-70V1470s278-342-30-708l4-12,72,46,56-32,37,61,95-19-54-90,38-18,24,28,76-50-30-48,38-42-96-78-34,44-38-20-4,14H1664V472h-96v76h-48v76h22l-62,74s-30-38-136-72" transform="translate(-30 -472)"/>
  </g>
  <g id="footprint">
    <g id="meals">
      <rect class="cls-3" x="396" y="256" width="918" height="836"/>
    </g>
    <g id="restrooms">
      <path class="cls-4" d="M1184,1590v136s58,34,160,32h0V1626h62v-36Z" transform="translate(-30 -472)"/>
      <polygon class="cls-4" points="1319 792 1500 792 1500 1046 1430 1046 1430 1080 1378 1080 1378 1112 1320 1112 1319 792"/>
    </g>
    <g id="building">
      <rect class="cls-4" y="256" width="384" height="674"/>
      <rect class="cls-4" x="396" y="1110" width="558" height="170"/>
      <polygon class="cls-4" points="1446 1196 1656 1196 1656 1286 1447 1286 1446 1196"/>
      <rect class="cls-4" x="1314" y="1154" width="62" height="132"/>
    </g>
  </g>
  <g id="points">
    <rect id="ARI_638" class="cls-5" x="396" y="256" width="918" height="836"/>
    <rect id="ARI_420" class="cls-5" x="1728" y="282" width="68" height="68"/>
    <rect id="ARI_424" class="cls-5" x="1374" y="1212" width="70" height="70"/>
  </g>
  <g id="bounds" class="cls-6">
    <rect id="_ARI_638" class="cls-5" x="396" y="256" width="918" height="836"/>
    <rect id="_ARI_420" class="cls-5" x="1728" y="282" width="68" height="68"/>
    <rect id="_ARI_424" class="cls-5" x="1374" y="1212" width="70" height="70"/>
  </g>
  <g id="paths">
    <polyline id="ARI_424-ARI_638" class="cls-7" points="1314 438 1551.5 438 1551.5 1114.5 1404.5 1114.5 1404.5 1214"/>
    <polyline id="ARI_420-ARI_638" class="cls-7" points="1312 436 1472 436 1472 296 1580 170 1746 170 1746 280"/>
  </g>
  <g id="icons">
    <g>
      <g>
        <rect x="1374.45" y="885.17" width="73.02" height="73.02"/>
        <path class="cls-8" d="M1474.58,1360.06v67.24h-67.23v-67.24h67.23m2.89-2.89h-73v73h73v-73Z" transform="translate(-30 -472)"/>
      </g>
      <g>
        <g>
          <g>
            <path class="cls-8" d="M1422,1379.26a3.61,3.61,0,1,0-3.62-3.61A3.61,3.61,0,0,0,1422,1379.26Z" transform="translate(-30 -472)"/>
            <path class="cls-9" d="M1422,1375.65" transform="translate(-30 -472)"/>
          </g>
          <path class="cls-8" d="M1418.1,1380.06a4.64,4.64,0,0,0-4.61,4.69v11.08a1.58,1.58,0,1,0,3.15,0V1385.7h.75v27.76a2.1,2.1,0,1,0,4.2,0v-16.12h.72v16.12a2.12,2.12,0,1,0,4.23,0V1385.7h.73v10.13a1.57,1.57,0,1,0,3.13,0v-11a4.69,4.69,0,0,0-4.67-4.74Z" transform="translate(-30 -472)"/>
        </g>
        <g>
          <g>
            <path class="cls-8" d="M1458.48,1379.12a3.54,3.54,0,1,0-3.54-3.54A3.55,3.55,0,0,0,1458.48,1379.12Z" transform="translate(-30 -472)"/>
            <path class="cls-9" d="M1458.48,1375.58" transform="translate(-30 -472)"/>
          </g>
          <path class="cls-8" d="M1458,1401.57v12.26a1.67,1.67,0,0,1-3.34,0v-12.18h-4.48l4.79-16.62h-.75l-2.78,9.38a1.51,1.51,0,1,1-2.83-1l3.09-10.19A4.67,4.67,0,0,1,1456,1380h4.87a4.81,4.81,0,0,1,4.37,3.22l3.1,10.18c.62,2.18-2.17,3.09-2.83,1l-2.79-9.35h-.8l4.83,16.62h-4.49v12.19a1.66,1.66,0,0,1-3.32,0v-12.27Z" transform="translate(-30 -472)"/>
        </g>
        <line class="cls-10" x1="1410.2" y1="943.98" x2="1410.2" y2="900.04"/>
      </g>
    </g>
    <g>
      <g>
        <rect x="1373.7" y="1212.37" width="73.02" height="73.02"/>
        <path class="cls-8" d="M1473.83,1687.26v67.23H1406.6v-67.23h67.23m2.89-2.89h-73v73h73v-73Z" transform="translate(-30 -472)"/>
      </g>
      <g>
        <g>
          <path class="cls-8" d="M1457.73,1714.9v7.88a2.8,2.8,0,0,1-.09.58,1,1,0,0,1-.85.72,4.51,4.51,0,0,1-.65,0v-7.95c0-.12,0-.23,0-.35a.6.6,0,0,0-1.19,0v17.35a2.24,2.24,0,0,1-.15.81,1,1,0,0,1-1.14.54,1,1,0,0,1-.82-.91,1.46,1.46,0,0,1,0-.3v-8.43c0-.11,0-.21,0-.32a.59.59,0,0,0-1.16,0,1.16,1.16,0,0,0,0,.32v8.53a1,1,0,0,1-1.18,1.11,1.07,1.07,0,0,1-.92-1,2.43,2.43,0,0,1,0-.27c0-5.71,0-11.44,0-17.16a2.3,2.3,0,0,0,0-.37.6.6,0,0,0-.64-.48.61.61,0,0,0-.54.6v8.19a1.15,1.15,0,0,1-1.53-1.16c0-2.67,0-5.35,0-8a2.72,2.72,0,0,1,2.85-2.84h5.25A2.73,2.73,0,0,1,1457.73,1714.9Z" transform="translate(-30 -472)"/>
          <path class="cls-8" d="M1441.86,1722.22c-.63-2.67-1.27-5.32-1.92-8a2.71,2.71,0,0,0-2.79-2.19h-3a2.71,2.71,0,0,0-2.82,2.19q-1,4-2,8.09a1,1,0,0,0,.57,1.21,4.35,4.35,0,0,0,.72.23c.36-1.5.7-3,1-4.41q.42-1.8.87-3.6a.59.59,0,0,1,.45-.5c.48-.09.81.3.69.81-.74,3.06-1.46,6.11-2.18,9.17-.13.51-.25,1-.37,1.59h1.77v6.55a1.14,1.14,0,0,0,.54,1,.92.92,0,0,0,1,0,1,1,0,0,0,.54-.93v-5.86a1,1,0,0,1,0-.3.52.52,0,0,1,.54-.48.59.59,0,0,1,.58.49,2.17,2.17,0,0,1,0,.36v5.76a1,1,0,0,0,.67,1,1,1,0,0,0,1.44-1v-6.66h1.76a.53.53,0,0,1,0-.16c-.51-2.19-1-4.37-1.54-6.56-.32-1.38-.65-2.74-1-4.12a.55.55,0,0,1,.45-.71.56.56,0,0,1,.67.42.44.44,0,0,1,0,.15c.51,2.12,1,4.25,1.5,6.36.12.53.26,1,.38,1.59.16,0,.31-.1.45-.12A1.07,1.07,0,0,0,1441.86,1722.22Z" transform="translate(-30 -472)"/>
          <path class="cls-8" d="M1441,1723.66c-.14,0-.29.08-.45.12-.12-.54-.26-1.06-.38-1.59-.49-2.11-1-4.24-1.5-6.36a.44.44,0,0,0,0-.15.56.56,0,0,0-.67-.42.55.55,0,0,0-.45.71c.31,1.38.64,2.74,1,4.12.51,2.19,1,4.37,1.54,6.56a.53.53,0,0,0,0,.16h-1.76v6.66a1,1,0,0,1-1.44,1,1,1,0,0,1-.67-1v-5.76a2.17,2.17,0,0,0,0-.36.59.59,0,0,0-.58-.49.52.52,0,0,0-.54.48,1,1,0,0,0,0,.3v5.86a1,1,0,0,1-.54.93.92.92,0,0,1-1,0,1.14,1.14,0,0,1-.54-1v-6.55h-1.77c.12-.56.24-1.08.37-1.59.72-3.06,1.44-6.11,2.18-9.17.12-.51-.21-.9-.69-.81a.59.59,0,0,0-.45.5q-.45,1.8-.87,3.6c-.35,1.45-.69,2.91-1,4.41a4.35,4.35,0,0,1-.72-.23,1,1,0,0,1-.57-1.21q1-4,2-8.09a2.71,2.71,0,0,1,2.82-2.19h3a2.71,2.71,0,0,1,2.79,2.19c.65,2.66,1.29,5.31,1.92,8A1.07,1.07,0,0,1,1441,1723.66Z" transform="translate(-30 -472)"/>
          <path class="cls-8" d="M1437.5,1708.91a1.92,1.92,0,0,1-1.88,1.86,1.87,1.87,0,0,1,0-3.74A1.91,1.91,0,0,1,1437.5,1708.91Z" transform="translate(-30 -472)"/>
          <path class="cls-8" d="M1454.13,1708.88a1.88,1.88,0,1,1-3.75,0,1.82,1.82,0,0,1,1.86-1.83A1.89,1.89,0,0,1,1454.13,1708.88Z" transform="translate(-30 -472)"/>
          <path class="cls-8" d="M1424.66,1714.9v7.88a5.4,5.4,0,0,1-.09.58,1,1,0,0,1-.86.72,4.32,4.32,0,0,1-.64,0v-7.95c0-.12,0-.23,0-.35a.6.6,0,0,0-1.19,0v17.35a2.24,2.24,0,0,1-.15.81,1,1,0,0,1-1.14.54,1,1,0,0,1-.82-.91,1.46,1.46,0,0,1,0-.3v-8.43c0-.11,0-.21,0-.32a.59.59,0,0,0-1.16,0,1.16,1.16,0,0,0,0,.32v8.53a1,1,0,0,1-1.18,1.11,1.07,1.07,0,0,1-.92-1,2.43,2.43,0,0,1,0-.27c0-5.71,0-11.44,0-17.16a2.3,2.3,0,0,0,0-.37.6.6,0,0,0-.64-.48.61.61,0,0,0-.54.6v8.19a1.15,1.15,0,0,1-1.53-1.16c0-2.67,0-5.35,0-8a2.72,2.72,0,0,1,2.85-2.84h5.25A2.73,2.73,0,0,1,1424.66,1714.9Z" transform="translate(-30 -472)"/>
          <path class="cls-8" d="M1421.06,1708.88a1.88,1.88,0,1,1-3.75,0,1.82,1.82,0,0,1,1.86-1.83A1.89,1.89,0,0,1,1421.06,1708.88Z" transform="translate(-30 -472)"/>
        </g>
        <path class="cls-8" d="M1462.83,1709.37v23l-1.64-1.64a.6.6,0,0,0-.86,0,.59.59,0,0,0,0,.85l3.11,3.11,3.11-3.11a.59.59,0,0,0,0-.85.6.6,0,0,0-.86,0l-1.64,1.64v-23h0l1.64,1.53a.61.61,0,0,0,.86-.86l-3.11-3.11-3.11,3.11a.6.6,0,0,0,0,.86.61.61,0,0,0,.43.18.6.6,0,0,0,.43-.18" transform="translate(-30 -472)"/>
      </g>
    </g>
    <g>
      <g>
        <rect x="1724.98" y="279.62" width="73.02" height="73.02"/>
        <path class="cls-8" d="M1825.11,754.51v67.23h-67.23V754.51h67.23m2.89-2.89h-73v73h73v-73Z" transform="translate(-30 -472)"/>
      </g>
      <g>
        <path class="cls-8" d="M1813.11,791.67c-1.69-.06-3.37,0-5.06,0a1.55,1.55,0,0,1-1.2-.5l-6.79-6.64q0-4.59,0-9.18c0-2.3-.92-3.57-2.57-3.6-.75,0-1.5,0-2.25,0-1.46,0-2.38,1.35-2.39,3.35,0,.75-.07,1.53-.08,2.29q-5.55-5.42-11.09-10.84a1.64,1.64,0,0,0-1.26-.5c-3.47,0-6.93,0-10.39,0a6.54,6.54,0,0,0-2.18,12.64,8,8,0,0,0,2.53.47c1.59.08,3.19,0,4.78,0a1.72,1.72,0,0,1,1.07.42q12.62,12.27,25.2,24.59a1.74,1.74,0,0,0,1.37.56c1.67,0,3.33,0,5,0v-.11a57.16,57.16,0,0,0,6,0,6.42,6.42,0,0,0,5.52-7A6.5,6.5,0,0,0,1813.11,791.67Z" transform="translate(-30 -472)"/>
        <path class="cls-8" d="M1796.44,764.86a2.87,2.87,0,0,0-2.9,2.86,2.9,2.9,0,0,0,2.86,2.92,2.93,2.93,0,0,0,2.92-2.88A2.9,2.9,0,0,0,1796.44,764.86Z" transform="translate(-30 -472)"/>
        <path class="cls-8" d="M1792.11,813.19a.67.67,0,0,1-.46-.18l-27.44-26.18a.66.66,0,0,1,0-.94.67.67,0,0,1,1,0L1792.58,812a.67.67,0,0,1,0,.94A.67.67,0,0,1,1792.11,813.19Z" transform="translate(-30 -472)"/>
        <path class="cls-8" d="M1764.62,792.92a.68.68,0,0,1-.68-.65l-.17-6.11a.68.68,0,0,1,.66-.69l6.11-.17a.69.69,0,0,1,.69.65.68.68,0,0,1-.66.69l-5.43.15.15,5.44a.68.68,0,0,1-.66.69Z" transform="translate(-30 -472)"/>
        <path class="cls-8" d="M1786.2,813.6a.67.67,0,1,1,0-1.34l5.44-.15-.16-5.44a.68.68,0,0,1,.66-.69h0a.67.67,0,0,1,.68.65l.17,6.11a.68.68,0,0,1-.66.69l-6.11.17Z" transform="translate(-30 -472)"/>
      </g>
    </g>
    <g>
      <g>
        <rect x="1194.71" y="1155.17" width="73.02" height="73.02"/>
        <path class="cls-8" d="M1294.83,1630.06v67.24H1227.6v-67.24h67.23m2.9-2.89h-73v73h73v-73Z" transform="translate(-30 -472)"/>
      </g>
      <g>
        <g>
          <g>
            <path class="cls-8" d="M1242.22,1649.26a3.61,3.61,0,1,0-3.61-3.61A3.6,3.6,0,0,0,1242.22,1649.26Z" transform="translate(-30 -472)"/>
            <path class="cls-9" d="M1242.22,1645.65" transform="translate(-30 -472)"/>
          </g>
          <path class="cls-8" d="M1238.36,1650.06a4.64,4.64,0,0,0-4.62,4.69v11.08a1.58,1.58,0,1,0,3.16,0V1655.7h.75v27.76a2.1,2.1,0,1,0,4.2,0v-16.12h.72v16.12a2.11,2.11,0,1,0,4.22,0V1655.7h.73v10.13a1.57,1.57,0,1,0,3.14,0v-11a4.7,4.7,0,0,0-4.67-4.74Z" transform="translate(-30 -472)"/>
        </g>
        <g>
          <g>
            <path class="cls-8" d="M1278.74,1649.12a3.54,3.54,0,1,0-3.54-3.54A3.54,3.54,0,0,0,1278.74,1649.12Z" transform="translate(-30 -472)"/>
            <path class="cls-9" d="M1278.74,1645.58" transform="translate(-30 -472)"/>
          </g>
          <path class="cls-8" d="M1278.21,1671.57v12.26a1.66,1.66,0,0,1-3.33,0v-12.18h-4.48l4.79-16.62h-.74l-2.79,9.38a1.5,1.5,0,1,1-2.82-1l3.09-10.19a4.67,4.67,0,0,1,4.34-3.22h4.87a4.82,4.82,0,0,1,4.38,3.22l3.09,10.18c.62,2.18-2.16,3.09-2.83,1L1283,1655h-.81l4.83,16.62h-4.49v12.19a1.66,1.66,0,0,1-3.32,0v-12.27Z" transform="translate(-30 -472)"/>
        </g>
        <line class="cls-10" x1="1230.46" y1="1213.98" x2="1230.46" y2="1170.04"/>
      </g>
    </g>
    <g>
      <g>
        <rect x="1464.99" y="229.51" width="73.02" height="73.02"/>
        <path class="cls-8" d="M1565.12,704.4v67.23h-67.23V704.4h67.23m2.89-2.89h-73v73h73v-73Z" transform="translate(-30 -472)"/>
      </g>
      <g>
        <path class="cls-8" d="M1553.12,741.56c-1.69-.06-3.37,0-5.06,0a1.54,1.54,0,0,1-1.2-.49l-6.79-6.65q0-4.59,0-9.18c0-2.3-.92-3.57-2.57-3.6-.75,0-1.5,0-2.25,0-1.46.06-2.38,1.35-2.39,3.35,0,.75-.07,1.54-.08,2.29q-5.55-5.41-11.09-10.84a1.67,1.67,0,0,0-1.26-.5c-3.46,0-6.93,0-10.39,0a6.55,6.55,0,0,0-2.18,12.65,8.64,8.64,0,0,0,2.53.47c1.59.07,3.19,0,4.78,0a1.72,1.72,0,0,1,1.07.42q12.62,12.27,25.2,24.59a1.74,1.74,0,0,0,1.37.56c1.67,0,3.33,0,5,0v-.1a57.15,57.15,0,0,0,6,0,6.41,6.41,0,0,0,5.52-7A6.51,6.51,0,0,0,1553.12,741.56Z" transform="translate(-30 -472)"/>
        <path class="cls-8" d="M1536.45,714.75a2.89,2.89,0,0,0,0,5.78,2.93,2.93,0,0,0,2.92-2.88A2.9,2.9,0,0,0,1536.45,714.75Z" transform="translate(-30 -472)"/>
        <path class="cls-8" d="M1532.12,763.08a.67.67,0,0,1-.46-.18l-27.44-26.17a.67.67,0,1,1,.93-1l27.44,26.17a.69.69,0,0,1,0,1A.7.7,0,0,1,1532.12,763.08Z" transform="translate(-30 -472)"/>
        <path class="cls-8" d="M1504.63,742.81a.68.68,0,0,1-.68-.65l-.17-6.11a.68.68,0,0,1,.66-.69l6.11-.17a.71.71,0,0,1,.69.65.68.68,0,0,1-.66.69l-5.43.15.15,5.44a.68.68,0,0,1-.66.69Z" transform="translate(-30 -472)"/>
        <path class="cls-8" d="M1526.21,763.49a.67.67,0,1,1,0-1.34l5.44-.15-.16-5.44a.68.68,0,0,1,.66-.69h0a.67.67,0,0,1,.67.65l.17,6.11a.68.68,0,0,1-.66.69l-6.11.17Z" transform="translate(-30 -472)"/>
      </g>
    </g>
  </g>
  <g id="labels">
    <g>
      <path class="cls-8" d="M848.31,1135V1116.8l-5.81,11.82h-5.09l-5.82-11.82V1135h-5V1108.7h6.23l7.18,15,7.22-15h6.12V1135Z" transform="translate(-30 -472)"/>
      <path class="cls-8" d="M859.41,1135V1108.7h17.33v4.41H865.11v6.23h9.46v4.41h-9.46v6.88h11.63V1135Z" transform="translate(-30 -472)"/>
      <path class="cls-8" d="M897.18,1135l-1.86-6h-9l-1.78,6h-6l9.27-26.34h6.27l9.27,26.34Zm-9.65-10.11h6.61l-3.35-11Z" transform="translate(-30 -472)"/>
      <path class="cls-8" d="M906.64,1135V1108.7h5.7v21.78h11.55V1135Z" transform="translate(-30 -472)"/>
      <path class="cls-8" d="M932.4,1123.52a11.12,11.12,0,0,1-4.86-3.06,7.61,7.61,0,0,1,1.16-10.27,11,11,0,0,1,7.09-2.13,20.05,20.05,0,0,1,7.29,1.37v4.33a23.23,23.23,0,0,0-6.84-1.14q-4.49,0-4.48,2.89a2.2,2.2,0,0,0,.78,1.74,9.63,9.63,0,0,0,2.9,1.45l2.82,1a12.14,12.14,0,0,1,5,3,6.61,6.61,0,0,1,1.5,4.5,7.46,7.46,0,0,1-2.81,6.17c-1.87,1.51-4.45,2.26-7.71,2.26a23.61,23.61,0,0,1-4.26-.39,16.3,16.3,0,0,1-3.65-1.09v-4.33a31.24,31.24,0,0,0,4.07.91,25,25,0,0,0,3.91.34,6.21,6.21,0,0,0,3.46-.81A2.67,2.67,0,0,0,939,1128a2.42,2.42,0,0,0-.74-1.86,9.92,9.92,0,0,0-3-1.52Z" transform="translate(-30 -472)"/>
      <path class="cls-8" d="M741.22,1161.55v7.09h-4.09v-19.41h7.42a6.72,6.72,0,0,1,4.79,1.66,6.62,6.62,0,0,1,0,9,6.72,6.72,0,0,1-4.79,1.65Zm0-3.13h2.86a2.86,2.86,0,0,0,2.14-.77,3.81,3.81,0,0,0,0-4.51,2.86,2.86,0,0,0-2.14-.77h-2.86Z" transform="translate(-30 -472)"/>
      <path class="cls-8" d="M754.46,1168.64v-19.41h7.48a6.9,6.9,0,0,1,4.79,1.6,5.57,5.57,0,0,1,1.76,4.34,5.23,5.23,0,0,1-.92,3,6.1,6.1,0,0,1-2.61,2.1l4.82,8.35h-4.34l-4.2-7.53H758.5v7.53Zm4-10.45h2.91c2,0,2.94-1,2.94-3s-1-2.92-2.89-2.92h-3Z" transform="translate(-30 -472)"/>
      <path class="cls-8" d="M772.41,1168.64v-19.41h4.2v19.41Z" transform="translate(-30 -472)"/>
      <path class="cls-8" d="M797.22,1168.64V1155.2l-4.28,8.71h-3.76l-4.28-8.71v13.44h-3.69v-19.41h4.59l5.29,11,5.32-11h4.51v19.41Z" transform="translate(-30 -472)"/>
      <path class="cls-8" d="M805.4,1168.64v-19.41h7.47a6.9,6.9,0,0,1,4.79,1.6,5.54,5.54,0,0,1,1.76,4.34,5.16,5.16,0,0,1-.92,3,6.07,6.07,0,0,1-2.6,2.1l4.81,8.35h-4.34l-4.2-7.53h-2.74v7.53Zm4-10.45h2.91c2,0,2.94-1,2.94-3s-1-2.92-2.88-2.92h-3Z" transform="translate(-30 -472)"/>
      <path class="cls-8" d="M822.11,1158.92a12.2,12.2,0,0,1,1.11-5.37,8.1,8.1,0,0,1,3.25-3.55,11.1,11.1,0,0,1,10.12,0,8.23,8.23,0,0,1,3.29,3.49,12,12,0,0,1,1.16,5.47,12.22,12.22,0,0,1-1.11,5.38,8,8,0,0,1-3.24,3.55,9.93,9.93,0,0,1-5.11,1.26,10.05,10.05,0,0,1-5-1.2,8.2,8.2,0,0,1-3.29-3.5A12.09,12.09,0,0,1,822.11,1158.92Zm4.31,0a8.19,8.19,0,0,0,1.32,5,5.1,5.1,0,0,0,7.67,0,10.24,10.24,0,0,0,0-10.06,5.12,5.12,0,0,0-7.67,0A8.12,8.12,0,0,0,826.42,1158.92Z" transform="translate(-30 -472)"/>
      <path class="cls-8" d="M848.46,1160.15a8.12,8.12,0,0,1-3.58-2.25,5.61,5.61,0,0,1,.85-7.57,8.06,8.06,0,0,1,5.22-1.57,14.79,14.79,0,0,1,5.38,1V1153a17.13,17.13,0,0,0-5-.84c-2.2,0-3.31.71-3.31,2.13a1.67,1.67,0,0,0,.58,1.29,7,7,0,0,0,2.14,1.06l2.07.75a9,9,0,0,1,3.71,2.23,4.88,4.88,0,0,1,1.11,3.32,5.53,5.53,0,0,1-2.07,4.55,8.86,8.86,0,0,1-5.69,1.66,16.58,16.58,0,0,1-3.13-.29,11.3,11.3,0,0,1-2.69-.8v-3.19a23.06,23.06,0,0,0,3,.67,18.51,18.51,0,0,0,2.89.25,4.58,4.58,0,0,0,2.55-.6,2,2,0,0,0,.89-1.72,1.77,1.77,0,0,0-.54-1.37,7.29,7.29,0,0,0-2.2-1.12Z" transform="translate(-30 -472)"/>
      <path class="cls-8" d="M861.06,1168.64v-19.41h12.77v3.25h-8.57v4.59h7v3.25h-7v5.07h8.57v3.25Z" transform="translate(-30 -472)"/>
      <path class="cls-8" d="M884.58,1168.64v-19.41h7a6.84,6.84,0,0,1,4.52,1.43,4.62,4.62,0,0,1,1.73,3.73,4.42,4.42,0,0,1-.66,2.45,4.24,4.24,0,0,1-1.95,1.58,5.12,5.12,0,0,1,2.73,1.75,4.7,4.7,0,0,1,.94,3,4.82,4.82,0,0,1-1.88,4,7.9,7.9,0,0,1-5,1.49Zm4-16.41v5.1H891c1.81,0,2.72-.84,2.72-2.52s-.83-2.58-2.49-2.58Zm0,8v5.46h3.3c1.9,0,2.86-.89,2.86-2.68s-1-2.78-3.06-2.78Z" transform="translate(-30 -472)"/>
      <path class="cls-8" d="M913.92,1168.64l-1.37-4.43h-6.63l-1.32,4.43h-4.4l6.84-19.41h4.62l6.83,19.41Zm-7.11-7.45h4.87l-2.46-8.12Z" transform="translate(-30 -472)"/>
      <path class="cls-8" d="M920.9,1168.64v-19.41h4.2v16h8.51v3.36Z" transform="translate(-30 -472)"/>
      <path class="cls-8" d="M936.1,1168.64v-19.41h4.2v16h8.51v3.36Z" transform="translate(-30 -472)"/>
      <path class="cls-8" d="M951.3,1168.64v-19.41h7.48a6.91,6.91,0,0,1,4.79,1.6,5.57,5.57,0,0,1,1.76,4.34,5.23,5.23,0,0,1-.92,3,6.1,6.1,0,0,1-2.61,2.1l4.82,8.35h-4.34l-4.2-7.53h-2.74v7.53Zm4-10.45h2.91c2,0,2.94-1,2.94-3s-1-2.92-2.89-2.92h-3Z" transform="translate(-30 -472)"/>
      <path class="cls-8" d="M968,1158.92a12.2,12.2,0,0,1,1.11-5.37,8.08,8.08,0,0,1,3.24-3.55,11.12,11.12,0,0,1,10.13,0,8.29,8.29,0,0,1,3.29,3.49,12,12,0,0,1,1.16,5.47,12.22,12.22,0,0,1-1.11,5.38,8.1,8.1,0,0,1-3.25,3.55,9.88,9.88,0,0,1-5.11,1.26,10,10,0,0,1-5-1.2,8.14,8.14,0,0,1-3.29-3.5A12.09,12.09,0,0,1,968,1158.92Zm4.31,0a8.19,8.19,0,0,0,1.32,5,5.1,5.1,0,0,0,7.67,0,10.31,10.31,0,0,0,0-10.06,5.12,5.12,0,0,0-7.67,0A8.12,8.12,0,0,0,972.33,1158.92Z" transform="translate(-30 -472)"/>
      <path class="cls-8" d="M990.31,1158.92a12.35,12.35,0,0,1,1.1-5.37,8.1,8.1,0,0,1,3.25-3.55,11.1,11.1,0,0,1,10.12,0,8.17,8.17,0,0,1,3.29,3.49,11.84,11.84,0,0,1,1.16,5.47,12.22,12.22,0,0,1-1.1,5.38,8.1,8.1,0,0,1-3.25,3.55,9.9,9.9,0,0,1-5.11,1.26,10,10,0,0,1-5-1.2,8.08,8.08,0,0,1-3.29-3.5A12,12,0,0,1,990.31,1158.92Zm4.31,0a8.19,8.19,0,0,0,1.32,5,5.1,5.1,0,0,0,7.67,0,10.31,10.31,0,0,0,0-10.06,5.12,5.12,0,0,0-7.67,0A8.12,8.12,0,0,0,994.62,1158.92Z" transform="translate(-30 -472)"/>
      <path class="cls-8" d="M1029.17,1168.64V1155.2l-4.28,8.71h-3.76l-4.28-8.71v13.44h-3.7v-19.41h4.6l5.29,11,5.32-11h4.51v19.41Z" transform="translate(-30 -472)"/>
    </g>
  </g>
</svg>
