<svg id="map" xmlns="http://www.w3.org/2000/svg" width="1930" height="1010" viewBox="0 0 1930 1010">
  <defs>
    <style>
      .cls-1 {
        fill: #7a797a;
      }

      .cls-2 {
        fill: #6fccdd;
      }

      .cls-3 {
        fill: #c0539f;
      }

      .cls-4 {
        fill: #949393;
      }

      .cls-5 {
        fill: #ff2939;
      }

      .cls-6 {
        opacity: 0.2;
      }

      .cls-10, .cls-7 {
        fill: none;
      }

      .cls-7 {
        stroke: #3f3f3f;
        stroke-width: 2px;
      }

      .cls-10, .cls-11, .cls-7 {
        stroke-miterlimit: 10;
      }

      .cls-8 {
        fill: #fff;
      }

      .cls-9 {
        fill: #454546;
      }

      .cls-10, .cls-11 {
        stroke: #fff;
      }

      .cls-10 {
        stroke-linecap: round;
        stroke-width: 1.45px;
      }

      .cls-11 {
        fill: #fc427b;
        stroke-width: 2.17px;
      }
    </style>
  </defs>
  <title>ARI_3FW</title>
  <g id="ground">
    <polygon class="cls-1" points="12 666 102 666 112 666 112 614 274 614 274 674 302 674 302 8 896 8 896 60 998 60 998 0 1312 0 1312 770 1486 770 1486 728 1400 728 1400 452 1488 452 1488 314 1400 314 1400 34 1486 34 1486 10 1848 10 1848 668 1906 668 1906 570 1930 570 1930 824 1814 850 1818 866 1618 898 1618 912 1418 934 1420 950 1216 960 1216 978 1016 980 1016 996 812 990 812 1006 612 988 610 1010 408 972 408 994 210 948 206 978 0 932 12 834 12 666"/>
  </g>
  <g id="footprint">
    <g id="meals">
      <rect class="cls-2" x="302" y="596" width="594" height="160"/>
    </g>
    <g id="programming">
      <rect id="_Rectangle_" data-name="&lt;Rectangle&gt;" class="cls-3" x="302" y="188" width="594" height="400"/>
      <rect id="_Rectangle_2" data-name="&lt;Rectangle&gt;" class="cls-3" x="690" y="8" width="206" height="144"/>
      <rect id="_Rectangle_3" data-name="&lt;Rectangle&gt;" class="cls-3" x="302" y="8" width="360" height="144"/>
      <rect id="_Rectangle_4" data-name="&lt;Rectangle&gt;" class="cls-3" x="1000" y="386" width="312" height="370"/>
      <rect id="_Rectangle_5" data-name="&lt;Rectangle&gt;" class="cls-3" x="1000" width="312" height="376"/>
      <rect class="cls-3" x="1702" y="572" width="146" height="92"/>
      <rect class="cls-3" x="1702" y="474" width="146" height="94"/>
      <rect class="cls-3" x="1702" y="292" width="146" height="94"/>
      <rect class="cls-3" x="1488" y="220" width="140" height="326"/>
      <polyline class="cls-3" points="252 970 408 992 408 910 252 910 252 970 252 970"/>
    </g>
    <g id="mothers_room">
      <rect class="cls-3" x="1000" y="772" width="100" height="62"/>
    </g>
    <g id="reflection_room">
      <rect class="cls-3" x="784" y="760" width="124" height="64"/>
    </g>
    <g id="restrooms">
      <polygon class="cls-4" points="102 746 102 668 112 668 112 614 274 614 274 674 302 674 302 756 226 772 200 766 200 760 210 760 210 746 170 746 170 762 152 762 152 746 102 746"/>
      <polygon class="cls-4" points="1702 668 1702 780 1794 768 1794 760 1860 760 1860 734 1896 734 1896 764 1906 764 1906 668 1702 668"/>
    </g>
    <g id="building">
      <rect class="cls-4" x="1702" y="390" width="146" height="80"/>
      <rect class="cls-4" x="1702" y="10" width="146" height="278"/>
      <polygon class="cls-4" points="1632 10 1632 136 1488 136 1488 314 1400 314 1400 34 1486 34 1486 10 1632 10"/>
      <polygon class="cls-4" points="1632 766 1632 626 1488 626 1488 452 1400 452 1400 728 1486 728 1486 766 1632 766"/>
    </g>
  </g>
  <g id="points">
    <rect id="ARI_195" class="cls-5" x="474" y="904" width="66" height="68"/>
    <rect id="ARI_428" class="cls-5" x="228" y="736" width="70" height="70"/>
    <polygon id="ARI_389" class="cls-5" points="403.49 815.71 414.89 787.3 390.44 788.02 403.49 815.71"/>
    <polygon id="ARI_388" class="cls-5" points="403.49 815.71 414.89 787.3 390.44 788.02 403.49 815.71"/>
    <rect id="ARI_608" class="cls-5" x="784" y="760" width="124" height="64"/>
    <rect id="ARI_609" class="cls-5" x="1000" y="772" width="100" height="62"/>
    <rect id="ARI_610" class="cls-5" x="302" y="596" width="594" height="160"/>
    <rect id="ARI_611" class="cls-5" x="302" y="188" width="594" height="400"/>
    <rect id="ARI_612" class="cls-5" x="302" y="8" width="360" height="144"/>
    <rect id="ARI_613" class="cls-5" x="690" y="8" width="206" height="144"/>
    <rect id="ARI_615" class="cls-5" x="1000" y="386" width="312" height="370"/>
    <rect id="ARI_616" class="cls-5" x="1000" width="312" height="376"/>
    <rect id="ARI_617" class="cls-5" x="1702" y="572" width="146" height="92"/>
    <rect id="ARI_618" class="cls-5" x="1702" y="474" width="146" height="94"/>
    <rect id="ARI_619" class="cls-5" x="1702" y="292" width="146" height="94"/>
    <rect id="ARI_620" class="cls-5" x="1488" y="220" width="140" height="326"/>
    <polyline id="ARI_849" class="cls-5" points="252 970 408 992 408 910 252 910 252 970 252 970"/>
    <rect id="ARI_614" class="cls-5" x="302" y="596" width="594" height="160"/>
  </g>
  <g id="bounds" class="cls-6">
    <rect id="_ARI_195" class="cls-5" x="474" y="904" width="66" height="68"/>
    <rect id="_ARI_428" class="cls-5" x="228" y="736" width="70" height="70"/>
    <rect id="_ARI_389" class="cls-5" x="414" y="1322.31" width="48" height="55.38" transform="translate(840 2152) rotate(-180)"/>
    <rect id="_ARI_388" class="cls-5" x="414" y="1322.31" width="48" height="55.38" transform="translate(840 2152) rotate(-180)"/>
    <rect id="_ARI_608" class="cls-5" x="784" y="760" width="124" height="64"/>
    <rect id="_ARI_609" class="cls-5" x="1000" y="772" width="100" height="62"/>
    <rect id="_ARI_610" class="cls-5" x="302" y="596" width="594" height="160"/>
    <rect id="_ARI_611" class="cls-5" x="302" y="188" width="594" height="400"/>
    <rect id="_ARI_612" class="cls-5" x="302" y="8" width="360" height="144"/>
    <rect id="_ARI_613" class="cls-5" x="690" y="8" width="206" height="144"/>
    <rect id="_ARI_615" class="cls-5" x="1000" y="386" width="312" height="370"/>
    <rect id="_ARI_616" class="cls-5" x="1000" width="312" height="376"/>
    <rect id="_ARI_617" class="cls-5" x="1702" y="572" width="146" height="92"/>
    <rect id="_ARI_618" class="cls-5" x="1702" y="474" width="146" height="94"/>
    <rect id="_ARI_619" class="cls-5" x="1702" y="292" width="146" height="94"/>
    <rect id="_ARI_620" class="cls-5" x="1488" y="220" width="140" height="326"/>
    <rect id="_ARI_849" class="cls-5" x="252" y="910" width="156" height="82"/>
    <rect id="_ARI_614" class="cls-5" x="302" y="596" width="594" height="160"/>
  </g>
  <g id="paths">
    <g id="ARI_428-2" data-name="ARI_428">
      <polyline id="ARI_428-ARI_610" class="cls-7" points="500 754 500 850 262 850 262 802"/>
      <path id="ARI_428-ARI_611" class="cls-7" d="M930,920h46s6,492,0,492H296v-56" transform="translate(-36 -548)"/>
      <polyline id="ARI_428-ARI_612" class="cls-7" points="356 150 356 170 942 170 942 864 258 864 258 804"/>
      <polyline id="ARI_428-ARI_613" class="cls-7" points="894 82 946 82 946 866 256 866 256 806"/>
      <polyline id="ARI_428-ARI_615" class="cls-7" points="998 554 946 554 946 866 258 866 258 804"/>
      <polyline id="ARI_428-ARI_616" class="cls-7" points="998 184 946 184 946 866 258 866 258 804"/>
      <polyline id="ARI_428-ARI_608" class="cls-7" points="844 824 844 876 252 876 252 808"/>
      <polyline id="ARI_428-ARI_609" class="cls-7" points="1054 830 1054 876 252 876 252 808"/>
      <polyline id="ARI_428-ARI_617" class="cls-7" points="1704 610 1660 610 1660 868 252 868 252 802"/>
      <polyline id="ARI_428-ARI_618" class="cls-7" points="1704 512.23 1660 512.23 1660 868 252 868 252 802"/>
      <polyline id="ARI_428-ARI_619" class="cls-7" points="1704 330.23 1660 330.23 1660 868 252 868 252 802"/>
      <polyline id="ARI_428-ARI_620" class="cls-7" points="1548 220 1548 192 1664 192 1664 858 258 858 258 804"/>
      <polyline id="ARI_428-ARI_195" class="cls-7" points="500 902 500 850 262 850 262 802"/>
      <polyline id="ARI_428-ARI_849" class="cls-7" points="352 912 352 850 262 850 262 802"/>
      <polyline id="ARI_428-ARI_614" class="cls-7" points="500 754 500 850 262 850 262 802"/>
    </g>
    <g id="ARI_195-2" data-name="ARI_195">
      <line id="ARI_195-ARI_610" class="cls-7" x1="500" y1="754" x2="500" y2="915"/>
      <path id="ARI_195-ARI_611" class="cls-7" d="M930,920h46s6,492,0,492H540v51" transform="translate(-36 -548)"/>
      <polyline id="ARI_195-ARI_612" class="cls-7" points="356 150 356 170 942 170 942 864 512 864 512 915"/>
      <polyline id="ARI_195-ARI_613" class="cls-7" points="894 82 946 82 946 866 504 866 504 915"/>
      <polyline id="ARI_195-ARI_615" class="cls-7" points="998 554 946 554 946 866 498 866 498 915"/>
      <polyline id="ARI_195-ARI_616" class="cls-7" points="998 184 946 184 946 866 504 866 504 915"/>
      <polyline id="ARI_195-ARI_608" class="cls-7" points="844 824 844 876 504 876 504 915"/>
      <polyline id="ARI_195-ARI_609" class="cls-7" points="1054 830 1054 876 498 876 498 915"/>
      <polyline id="ARI_195-ARI_617" class="cls-7" points="1704 610 1660 610 1660 868 502 868 502 915"/>
      <polyline id="ARI_195-ARI_618" class="cls-7" points="1704 512.23 1660 512.23 1660 868 504 868 504 915"/>
      <polyline id="ARI_195-ARI_619" class="cls-7" points="1704 330.23 1660 330.23 1660 868 496 868 496 918"/>
      <polyline id="ARI_195-ARI_620" class="cls-7" points="1548 220 1548 192 1664 192 1664 858 502 858 502 915"/>
      <polyline id="ARI_195-ARI_428" class="cls-7" points="258 806 258 876 498 876 498 915"/>
      <polyline id="ARI_195-ARI_849" class="cls-7" points="314 910 314 876 498 876 498 915"/>
      <line id="ARI_195-ARI_614" class="cls-7" x1="500" y1="754" x2="500" y2="915"/>
    </g>
    <g id="ARI_388-2" data-name="ARI_388">
      <polyline id="ARI_388-ARI_428" class="cls-7" points="254 806 254 858 402 858 402 816"/>
      <polyline id="ARI_388-ARI_195" class="cls-7" points="512 915 512 858 402 858 402 816"/>
      <polyline id="ARI_388-ARI_610" class="cls-7" points="500 754 500 850 403.49 850 403.49 802"/>
      <path id="ARI_388-ARI_611" class="cls-7" d="M930,920h46s6,492,0,492H439.49v-56" transform="translate(-36 -548)"/>
      <polyline id="ARI_388-ARI_612" class="cls-7" points="356 150 356 170 942 170 942 864 403.49 864 403.49 804"/>
      <polyline id="ARI_388-ARI_613" class="cls-7" points="894 82 946 82 946 866 403.49 866 403.49 806"/>
      <polyline id="ARI_388-ARI_615" class="cls-7" points="998 554 946 554 946 866 403.49 866 403.49 804"/>
      <polyline id="ARI_388-ARI_616" class="cls-7" points="998 184 946 184 946 866 403.49 866 403.49 804"/>
      <polyline id="ARI_388-ARI_608" class="cls-7" points="844 824 844 876 403.49 876 403.49 808"/>
      <polyline id="ARI_388-ARI_609" class="cls-7" points="1054 830 1054 876 403.49 876 403.49 808"/>
      <polyline id="ARI_388-ARI_617" class="cls-7" points="1704 610 1660 610 1660 868 403.49 868 403.49 802"/>
      <polyline id="ARI_388-ARI_618" class="cls-7" points="1704 512.23 1660 512.23 1660 868 403.49 868 403.49 802"/>
      <polyline id="ARI_388-ARI_619" class="cls-7" points="1704 330.23 1660 330.23 1660 868 403.49 868 403.49 802"/>
      <polyline id="ARI_388-ARI_620" class="cls-7" points="1548 220 1548 192 1664 192 1664 858 403.49 858 403.49 804"/>
      <polyline id="ARI_388-ARI_849" class="cls-7" points="322 910 322 858 402 858 402 816"/>
      <polyline id="ARI_388-ARI_614" class="cls-7" points="500 754 500 850 403.49 850 403.49 802"/>
    </g>
    <g id="ARI_389-2" data-name="ARI_389">
      <polyline id="ARI_389-ARI_428" class="cls-7" points="254 806 254 858 402 858 402 816"/>
      <polyline id="ARI_389-ARI_195" class="cls-7" points="512 915 512 858 402 858 402 816"/>
      <polyline id="ARI_389-ARI_610" class="cls-7" points="500 754 500 850 403.49 850 403.49 802"/>
      <path id="ARI_389-ARI_611" class="cls-7" d="M930,920h46s6,492,0,492H439.49v-56" transform="translate(-36 -548)"/>
      <polyline id="ARI_389-ARI_612" class="cls-7" points="356 150 356 170 942 170 942 864 403.49 864 403.49 804"/>
      <polyline id="ARI_389-ARI_613" class="cls-7" points="894 82 946 82 946 866 403.49 866 403.49 806"/>
      <polyline id="ARI_389-ARI_615" class="cls-7" points="998 554 946 554 946 866 403.49 866 403.49 804"/>
      <polyline id="ARI_389-ARI_616" class="cls-7" points="998 184 946 184 946 866 403.49 866 403.49 804"/>
      <polyline id="ARI_389-ARI_608" class="cls-7" points="844 824 844 876 403.49 876 403.49 808"/>
      <polyline id="ARI_389-ARI_609" class="cls-7" points="1054 830 1054 876 403.49 876 403.49 808"/>
      <polyline id="ARI_389-ARI_617" class="cls-7" points="1704 610 1660 610 1660 868 403.49 868 403.49 802"/>
      <polyline id="ARI_389-ARI_618" class="cls-7" points="1704 512.23 1660 512.23 1660 868 403.49 868 403.49 802"/>
      <polyline id="ARI_389-ARI_619" class="cls-7" points="1704 330.23 1660 330.23 1660 868 403.49 868 403.49 802"/>
      <polyline id="ARI_389-ARI_620" class="cls-7" points="1548 220 1548 192 1664 192 1664 858 403.49 858 403.49 804"/>
      <polyline id="ARI_389-ARI_849" class="cls-7" points="322 910 322 858 402 858 402 816"/>
      <polyline id="ARI_389-ARI_614" class="cls-7" points="500 754 500 850 403.49 850 403.49 802"/>
    </g>
  </g>
  <g id="icons">
    <g>
      <g>
        <rect x="470.66" y="902.05" width="73.02" height="73.02"/>
        <path class="cls-8" d="M576.78,1452.94v67.23H509.55v-67.23h67.23m2.9-2.89h-73v73h73v-73Z" transform="translate(-36 -548)"/>
      </g>
      <g>
        <path class="cls-8" d="M564.79,1490.1c-1.69-.06-3.38,0-5.06,0a1.55,1.55,0,0,1-1.2-.5l-6.8-6.64c0-3.06,0-6.12,0-9.18,0-2.3-.92-3.57-2.57-3.6-.75,0-1.5,0-2.26,0-1.45,0-2.37,1.35-2.38,3.35,0,.75-.07,1.53-.09,2.29L533.34,1465a1.6,1.6,0,0,0-1.25-.5c-3.47,0-6.93,0-10.4,0a6.54,6.54,0,0,0-2.17,12.64,8,8,0,0,0,2.53.47c1.59.08,3.19,0,4.78.05a1.69,1.69,0,0,1,1.06.42q12.63,12.27,25.21,24.59a1.74,1.74,0,0,0,1.37.56c1.66,0,3.33,0,5,0v-.11a57.33,57.33,0,0,0,6,0,6.41,6.41,0,0,0,5.51-7A6.49,6.49,0,0,0,564.79,1490.1Z" transform="translate(-36 -548)"/>
        <path class="cls-8" d="M548.12,1463.29a2.86,2.86,0,0,0-2.9,2.86,2.89,2.89,0,1,0,2.9-2.86Z" transform="translate(-36 -548)"/>
        <path class="cls-8" d="M543.79,1511.62a.71.71,0,0,1-.47-.18l-27.44-26.18a.67.67,0,0,1,.93-1l27.44,26.18a.66.66,0,0,1,0,.94A.64.64,0,0,1,543.79,1511.62Z" transform="translate(-36 -548)"/>
        <path class="cls-8" d="M516.29,1491.35a.67.67,0,0,1-.67-.65l-.17-6.11a.67.67,0,0,1,.65-.69l6.11-.17a.68.68,0,0,1,.69.65.67.67,0,0,1-.65.69l-5.44.15.15,5.44a.67.67,0,0,1-.65.69Z" transform="translate(-36 -548)"/>
        <path class="cls-8" d="M537.87,1512a.67.67,0,0,1,0-1.34l5.44-.15-.15-5.44a.67.67,0,0,1,.65-.69h0a.67.67,0,0,1,.67.65l.17,6.11a.67.67,0,0,1-.65.69l-6.11.17Z" transform="translate(-36 -548)"/>
      </g>
    </g>
    <g>
      <g>
        <rect x="821.66" y="902.05" width="73.02" height="73.02"/>
        <path class="cls-8" d="M927.78,1452.94v67.23H860.55v-67.23h67.23m2.9-2.89h-73v73h73v-73Z" transform="translate(-36 -548)"/>
      </g>
      <g>
        <path class="cls-8" d="M915.79,1490.1c-1.69-.06-3.38,0-5.06,0a1.55,1.55,0,0,1-1.2-.5l-6.8-6.64c0-3.06,0-6.12,0-9.18,0-2.3-.92-3.57-2.57-3.6-.75,0-1.5,0-2.26,0-1.45,0-2.37,1.35-2.38,3.35,0,.75-.07,1.53-.09,2.29L884.34,1465a1.6,1.6,0,0,0-1.25-.5c-3.47,0-6.93,0-10.4,0a6.54,6.54,0,0,0-2.17,12.64,8,8,0,0,0,2.53.47c1.59.08,3.19,0,4.78.05a1.69,1.69,0,0,1,1.06.42q12.63,12.27,25.21,24.59a1.74,1.74,0,0,0,1.37.56c1.66,0,3.33,0,5,0v-.11a57.33,57.33,0,0,0,6,0,6.41,6.41,0,0,0,5.51-7A6.49,6.49,0,0,0,915.79,1490.1Z" transform="translate(-36 -548)"/>
        <path class="cls-8" d="M899.12,1463.29a2.86,2.86,0,0,0-2.9,2.86,2.89,2.89,0,1,0,2.9-2.86Z" transform="translate(-36 -548)"/>
        <path class="cls-8" d="M894.79,1511.62a.71.71,0,0,1-.47-.18l-27.44-26.18a.67.67,0,0,1,.93-1l27.44,26.18a.66.66,0,0,1,0,.94A.64.64,0,0,1,894.79,1511.62Z" transform="translate(-36 -548)"/>
        <path class="cls-8" d="M867.29,1491.35a.67.67,0,0,1-.67-.65l-.17-6.11a.67.67,0,0,1,.65-.69l6.11-.17a.68.68,0,0,1,.69.65.67.67,0,0,1-.65.69l-5.44.15.15,5.44a.67.67,0,0,1-.65.69Z" transform="translate(-36 -548)"/>
        <path class="cls-8" d="M888.87,1512a.67.67,0,0,1,0-1.34l5.44-.15-.15-5.44a.67.67,0,0,1,.65-.69h0a.67.67,0,0,1,.67.65l.17,6.11a.67.67,0,0,1-.65.69l-6.11.17Z" transform="translate(-36 -548)"/>
      </g>
    </g>
    <g>
      <g>
        <rect x="1718.12" y="679.72" width="73.02" height="73.02"/>
        <path class="cls-8" d="M1824.25,1230.61v67.23H1757v-67.23h67.24m2.89-2.89h-73v73h73v-73Z" transform="translate(-36 -548)"/>
      </g>
      <g>
        <g>
          <g>
            <path class="cls-8" d="M1771.63,1249.81a3.61,3.61,0,1,0-3.61-3.61A3.61,3.61,0,0,0,1771.63,1249.81Z" transform="translate(-36 -548)"/>
            <path class="cls-9" d="M1771.63,1246.2" transform="translate(-36 -548)"/>
          </g>
          <path class="cls-8" d="M1767.77,1250.61a4.64,4.64,0,0,0-4.61,4.69v11.08a1.58,1.58,0,1,0,3.15,0v-10.13h.75V1284a2.1,2.1,0,1,0,4.2,0v-16.12h.72V1284a2.12,2.12,0,1,0,4.23,0v-27.76h.72v10.13a1.57,1.57,0,1,0,3.14,0v-11a4.71,4.71,0,0,0-4.67-4.75Z" transform="translate(-36 -548)"/>
        </g>
        <g>
          <g>
            <path class="cls-8" d="M1808.15,1249.67a3.54,3.54,0,1,0-3.54-3.54A3.55,3.55,0,0,0,1808.15,1249.67Z" transform="translate(-36 -548)"/>
            <path class="cls-9" d="M1808.15,1246.13" transform="translate(-36 -548)"/>
          </g>
          <path class="cls-8" d="M1807.62,1272.12v12.26a1.66,1.66,0,0,1-3.33,0V1272.2h-4.48l4.79-16.62h-.75l-2.78,9.38a1.51,1.51,0,1,1-2.83-1l3.09-10.18a4.67,4.67,0,0,1,4.34-3.22h4.87a4.82,4.82,0,0,1,4.38,3.22L1818,1264c.61,2.19-2.17,3.1-2.83,1l-2.79-9.35h-.8l4.82,16.62h-4.48v12.19a1.67,1.67,0,0,1-3.33,0v-12.27Z" transform="translate(-36 -548)"/>
        </g>
        <line class="cls-10" x1="1753.87" y1="738.53" x2="1753.87" y2="694.59"/>
      </g>
    </g>
    <g>
      <g>
        <rect x="155.12" y="646.72" width="73.02" height="73.02"/>
        <path class="cls-8" d="M261.25,1197.61v67.23H194v-67.23h67.24m2.89-2.89h-73v73h73v-73Z" transform="translate(-36 -548)"/>
      </g>
      <g>
        <g>
          <g>
            <path class="cls-8" d="M208.63,1216.81a3.61,3.61,0,1,0-3.61-3.61A3.61,3.61,0,0,0,208.63,1216.81Z" transform="translate(-36 -548)"/>
            <path class="cls-9" d="M208.63,1213.2" transform="translate(-36 -548)"/>
          </g>
          <path class="cls-8" d="M204.77,1217.61a4.64,4.64,0,0,0-4.61,4.69v11.08a1.58,1.58,0,1,0,3.15,0v-10.13h.75V1251a2.1,2.1,0,1,0,4.2,0v-16.12H209V1251a2.12,2.12,0,1,0,4.23,0v-27.76h.72v10.13a1.57,1.57,0,1,0,3.14,0v-11a4.71,4.71,0,0,0-4.67-4.75Z" transform="translate(-36 -548)"/>
        </g>
        <g>
          <g>
            <path class="cls-8" d="M245.15,1216.67a3.54,3.54,0,1,0-3.54-3.54A3.55,3.55,0,0,0,245.15,1216.67Z" transform="translate(-36 -548)"/>
            <path class="cls-9" d="M245.15,1213.13" transform="translate(-36 -548)"/>
          </g>
          <path class="cls-8" d="M244.62,1239.12v12.26a1.66,1.66,0,0,1-3.33,0V1239.2h-4.48l4.79-16.62h-.75l-2.78,9.38a1.51,1.51,0,1,1-2.83-1l3.09-10.18a4.67,4.67,0,0,1,4.34-3.22h4.87a4.82,4.82,0,0,1,4.38,3.22L255,1231c.61,2.19-2.17,3.1-2.83,1l-2.79-9.35h-.8l4.82,16.62h-4.48v12.19a1.67,1.67,0,0,1-3.33,0v-12.27Z" transform="translate(-36 -548)"/>
        </g>
        <line class="cls-10" x1="190.87" y1="705.53" x2="190.87" y2="661.59"/>
      </g>
    </g>
    <g>
      <g>
        <rect x="687.66" y="771.55" width="72.91" height="72.91"/>
        <path class="cls-8" d="M793.69,1322.44v67.13H726.55v-67.13h67.14m2.88-2.89H723.66v72.91h72.91v-72.91Z" transform="translate(-36 -548)"/>
      </g>
      <path class="cls-8" d="M751.82,1378.12H736.45a3,3,0,1,1,0-5.92h9.45v-14.26h12.19v-13.51h11.53v-10.54h14.17a3,3,0,1,1,0,5.92h-8.24v10.55H764v13.51H751.82Z" transform="translate(-36 -548)"/>
    </g>
    <g>
      <g>
        <rect x="224.23" y="732.13" width="73.02" height="73.02"/>
        <path class="cls-8" d="M330.36,1283v67.23H263.13V1283h67.23m2.89-2.89h-73v73h73v-73Z" transform="translate(-36 -548)"/>
      </g>
      <g>
        <g>
          <path class="cls-8" d="M314.26,1310.67v7.87a2.8,2.8,0,0,1-.09.59,1,1,0,0,1-.85.72,4.6,4.6,0,0,1-.65,0v-7.95c0-.12,0-.22,0-.34a.61.61,0,0,0-.6-.53.6.6,0,0,0-.59.57V1329a2.28,2.28,0,0,1-.15.81,1,1,0,0,1-1.14.54,1,1,0,0,1-.82-.92,1.42,1.42,0,0,1,0-.3v-8.43c0-.1,0-.21,0-.31a.62.62,0,0,0-.57-.5.6.6,0,0,0-.59.5,1.09,1.09,0,0,0,0,.31v8.54a1,1,0,0,1-1.18,1.11,1.08,1.08,0,0,1-.92-1,2.43,2.43,0,0,1,0-.27c0-5.72,0-11.45,0-17.16a2.42,2.42,0,0,0,0-.38.6.6,0,0,0-.64-.48.61.61,0,0,0-.54.6v8.19a1.14,1.14,0,0,1-1.53-1.15c0-2.67,0-5.36,0-8a2.72,2.72,0,0,1,2.85-2.83h5.25A2.73,2.73,0,0,1,314.26,1310.67Z" transform="translate(-36 -548)"/>
          <path class="cls-8" d="M298.39,1318q-.94-4-1.92-8a2.71,2.71,0,0,0-2.79-2.19h-3a2.71,2.71,0,0,0-2.82,2.19c-.66,2.68-1.31,5.38-1.95,8.08a1,1,0,0,0,.57,1.22,4.36,4.36,0,0,0,.72.22c.36-1.5.7-3,1-4.41q.42-1.8.87-3.6a.59.59,0,0,1,.45-.49c.48-.09.81.3.69.81-.74,3.06-1.46,6.1-2.18,9.16-.13.51-.25,1-.37,1.59h1.77v6.56a1.12,1.12,0,0,0,.54,1,.94.94,0,0,0,1,0,1,1,0,0,0,.54-.93v-5.87a1,1,0,0,1,0-.3.52.52,0,0,1,.54-.48.59.59,0,0,1,.58.5,2.17,2.17,0,0,1,0,.36v5.76a1,1,0,0,0,.67,1,1,1,0,0,0,1.44-1v-6.66h1.76a.59.59,0,0,1,0-.17c-.51-2.19-1-4.36-1.54-6.55-.32-1.38-.65-2.75-1-4.13a.54.54,0,0,1,.45-.7.55.55,0,0,1,.67.42.37.37,0,0,1,0,.15c.51,2.11,1,4.24,1.5,6.36.12.52.26,1,.38,1.59a2.16,2.16,0,0,1,.45-.12A1.08,1.08,0,0,0,298.39,1318Z" transform="translate(-36 -548)"/>
          <path class="cls-8" d="M297.54,1319.43a2.16,2.16,0,0,0-.45.12c-.12-.54-.26-1.07-.38-1.59-.49-2.12-1-4.25-1.5-6.36a.37.37,0,0,0,0-.15.55.55,0,0,0-.67-.42.54.54,0,0,0-.45.7c.31,1.38.64,2.75,1,4.13.51,2.19,1,4.36,1.54,6.55a.59.59,0,0,0,0,.17h-1.76v6.66a1,1,0,0,1-1.44,1,1,1,0,0,1-.67-1v-5.76a2.17,2.17,0,0,0,0-.36.59.59,0,0,0-.58-.5.52.52,0,0,0-.54.48,1,1,0,0,0,0,.3v5.87a1,1,0,0,1-.54.93.94.94,0,0,1-1,0,1.12,1.12,0,0,1-.54-1v-6.56h-1.77c.12-.55.24-1.08.37-1.59.72-3.06,1.44-6.1,2.18-9.16.12-.51-.21-.9-.69-.81a.59.59,0,0,0-.45.49q-.45,1.8-.87,3.6c-.35,1.46-.69,2.91-1,4.41a4.36,4.36,0,0,1-.72-.22,1,1,0,0,1-.57-1.22c.64-2.7,1.29-5.4,1.95-8.08a2.71,2.71,0,0,1,2.82-2.19h3a2.71,2.71,0,0,1,2.79,2.19q1,4,1.92,8A1.08,1.08,0,0,1,297.54,1319.43Z" transform="translate(-36 -548)"/>
          <path class="cls-8" d="M294,1304.67a1.92,1.92,0,0,1-1.88,1.86,1.87,1.87,0,0,1,0-3.74A1.91,1.91,0,0,1,294,1304.67Z" transform="translate(-36 -548)"/>
          <path class="cls-8" d="M310.66,1304.64a1.88,1.88,0,1,1-3.75,0,1.82,1.82,0,0,1,1.86-1.83A1.89,1.89,0,0,1,310.66,1304.64Z" transform="translate(-36 -548)"/>
          <path class="cls-8" d="M281.19,1310.67v7.87a2.8,2.8,0,0,1-.09.59,1,1,0,0,1-.85.72,4.6,4.6,0,0,1-.65,0v-7.95c0-.12,0-.22,0-.34a.61.61,0,0,0-.6-.53.6.6,0,0,0-.59.57V1329a2.28,2.28,0,0,1-.15.81,1,1,0,0,1-1.14.54,1,1,0,0,1-.82-.92,1.42,1.42,0,0,1,0-.3v-8.43c0-.1,0-.21,0-.31a.62.62,0,0,0-.57-.5.6.6,0,0,0-.59.5,1.09,1.09,0,0,0,0,.31v8.54a1,1,0,0,1-1.18,1.11,1.08,1.08,0,0,1-.92-1,2.43,2.43,0,0,1,0-.27c0-5.72,0-11.45,0-17.16a2.42,2.42,0,0,0,0-.38.6.6,0,0,0-.64-.48.61.61,0,0,0-.54.6v8.19a1.14,1.14,0,0,1-1.53-1.15c0-2.67,0-5.36,0-8a2.72,2.72,0,0,1,2.85-2.83h5.25A2.73,2.73,0,0,1,281.19,1310.67Z" transform="translate(-36 -548)"/>
          <path class="cls-8" d="M277.59,1304.64a1.88,1.88,0,1,1-3.75,0,1.82,1.82,0,0,1,1.86-1.83A1.89,1.89,0,0,1,277.59,1304.64Z" transform="translate(-36 -548)"/>
        </g>
        <path class="cls-8" d="M319.36,1305.13v23l-1.64-1.64a.6.6,0,0,0-.86,0,.62.62,0,0,0,0,.86l3.11,3.11,3.11-3.11a.61.61,0,0,0-.86-.86l-1.64,1.64v-23h0l1.64,1.53a.61.61,0,0,0,.86-.86l-3.11-3.11-3.11,3.11a.62.62,0,0,0,0,.86.61.61,0,0,0,.43.18.6.6,0,0,0,.43-.18" transform="translate(-36 -548)"/>
      </g>
    </g>
    <g>
      <g>
        <rect x="819.83" y="765.83" width="52.34" height="52.34"/>
        <path class="cls-8" d="M906.1,1315.9v48.2H857.9v-48.2h48.2m2.07-2.07H855.83v52.34h52.34v-52.34Z" transform="translate(-36 -548)"/>
      </g>
      <g>
        <path class="cls-8" d="M862,1349.26a.71.71,0,0,0,.61.35H866a.69.69,0,0,0,.6-.34l4.34-7.36h2.32v7a.7.7,0,0,0,.7.7h3.41a.7.7,0,0,0,.7-.7V1329.5a.7.7,0,0,0-.7-.7h-7.25a7.27,7.27,0,0,0-5,1.73,6.06,6.06,0,0,0-2,4.71,6.23,6.23,0,0,0,1.1,3.68,6.37,6.37,0,0,0,2.38,2l-4.61,7.62A.72.72,0,0,0,862,1349.26Zm11.29-11.38h-2.71c-1.79,0-2.56-.76-2.56-2.53s.74-2.52,2.48-2.52h2.79Z" transform="translate(-36 -548)"/>
        <path class="cls-8" d="M902,1348.55l-4.61-7.62a6.37,6.37,0,0,0,2.38-2,6.23,6.23,0,0,0,1.1-3.68,6.06,6.06,0,0,0-2-4.71,7.27,7.27,0,0,0-5-1.73h-7.25a.7.7,0,0,0-.7.7v19.41a.7.7,0,0,0,.7.7H890a.7.7,0,0,0,.7-.7v-7H893l4.34,7.36a.69.69,0,0,0,.6.34h3.42a.71.71,0,0,0,.61-.35A.72.72,0,0,0,902,1348.55Zm-11.28-15.72h2.79c1.74,0,2.48.76,2.48,2.52s-.77,2.53-2.56,2.53H890.7Z" transform="translate(-36 -548)"/>
        <path class="cls-8" d="M881.79,1350a.35.35,0,0,1-.35-.35V1328.8a.35.35,0,0,1,.35-.35.34.34,0,0,1,.35.35v20.81A.34.34,0,0,1,881.79,1350Z" transform="translate(-36 -548)"/>
      </g>
    </g>
    <g>
      <g>
        <rect x="1023.78" y="776.78" width="52.43" height="52.43"/>
        <path class="cls-8" d="M1110.14,1326.86v48.28h-48.28v-48.28h48.28m2.08-2.08h-52.44v52.44h52.44v-52.44Z" transform="translate(-36 -548)"/>
      </g>
      <g>
        <path class="cls-8" d="M1086,1343.26a5,5,0,1,0-5-5A5,5,0,0,0,1086,1343.26Z" transform="translate(-36 -548)"/>
        <path class="cls-8" d="M1086,1353.77h-5.31v-3.84l-4.06,4.09c-1.84,1.84-4.32-.52-2.49-2.36l6.73-6.73a2.71,2.71,0,0,1,2.09-.89h6a2.83,2.83,0,0,1,2.15.89l6.79,6.8a1.72,1.72,0,1,1-2.48,2.36l-4.17-4.18v3.86H1086Z" transform="translate(-36 -548)"/>
        <path class="cls-8" d="M1091.25,1355.76l-4,4,2.93,2.92-3,3a1.76,1.76,0,1,0,2.5,2.47l4.75-4.94a3,3,0,0,0,.21-4Z" transform="translate(-36 -548)"/>
        <path class="cls-8" d="M1080.68,1355.76l4,4-2.93,2.92,3,3a1.77,1.77,0,1,1-2.51,2.47l-4.75-4.94a3,3,0,0,1-.21-4Z" transform="translate(-36 -548)"/>
      </g>
    </g>
    <polygon id="_Path_" data-name="&lt;Path&gt;" class="cls-11" points="402.69 826.32 421.23 783 384.17 783 402.69 826.32"/>
  </g>
  <g id="labels">
    <g>
      <path class="cls-8" d="M598.31,1236.5v-18.24l-5.81,11.82h-5.09l-5.82-11.82v18.24h-5v-26.33h6.23l7.18,15,7.22-15h6.12v26.33Z" transform="translate(-36 -548)"/>
      <path class="cls-8" d="M609.41,1236.5v-26.33h17.33v4.4H615.11v6.24h9.46v4.4h-9.46v6.88h11.63v4.41Z" transform="translate(-36 -548)"/>
      <path class="cls-8" d="M647.18,1236.5l-1.86-6h-9l-1.78,6h-6l9.27-26.33h6.27l9.27,26.33Zm-9.65-10.11h6.61l-3.35-11Z" transform="translate(-36 -548)"/>
      <path class="cls-8" d="M656.64,1236.5v-26.33h5.7v21.77h11.55v4.56Z" transform="translate(-36 -548)"/>
      <path class="cls-8" d="M682.4,1225a11.31,11.31,0,0,1-4.86-3.06,7.62,7.62,0,0,1,1.16-10.28,11,11,0,0,1,7.09-2.13,20.26,20.26,0,0,1,7.29,1.37v4.33a23.23,23.23,0,0,0-6.84-1.14q-4.49,0-4.48,2.89a2.23,2.23,0,0,0,.78,1.75,9.91,9.91,0,0,0,2.9,1.44l2.82,1a12,12,0,0,1,5,3,6.61,6.61,0,0,1,1.5,4.5,7.46,7.46,0,0,1-2.81,6.17,12,12,0,0,1-7.71,2.27,23.62,23.62,0,0,1-4.26-.4,16.3,16.3,0,0,1-3.65-1.09v-4.33a29.69,29.69,0,0,0,4.07.91,25.12,25.12,0,0,0,3.91.35,6.21,6.21,0,0,0,3.46-.82,2.66,2.66,0,0,0,1.22-2.34,2.43,2.43,0,0,0-.74-1.86,9.92,9.92,0,0,0-3-1.52Z" transform="translate(-36 -548)"/>
    </g>
    <g>
      <path class="cls-8" d="M441.54,632V615.36h3.6V632Z" transform="translate(-36 -548)"/>
      <path class="cls-8" d="M449.07,632V615.36h6.41a5.87,5.87,0,0,1,4.1,1.36,4.79,4.79,0,0,1,1.52,3.72,4.49,4.49,0,0,1-.8,2.6,5.3,5.3,0,0,1-2.23,1.8L462.2,632h-3.72l-3.6-6.46h-2.35V632Zm3.46-9H455a2.24,2.24,0,0,0,2.52-2.55,2.19,2.19,0,0,0-2.47-2.49h-2.54Z" transform="translate(-36 -548)"/>
      <path class="cls-8" d="M463.4,623.66a10.54,10.54,0,0,1,1-4.61,6.86,6.86,0,0,1,2.78-3,9.5,9.5,0,0,1,8.68,0,7,7,0,0,1,2.82,3,10.28,10.28,0,0,1,1,4.69,10.54,10.54,0,0,1-.95,4.61,7,7,0,0,1-2.79,3.05,9.4,9.4,0,0,1-8.67,0,6.83,6.83,0,0,1-2.82-3A10.22,10.22,0,0,1,463.4,623.66Zm3.7,0a7.07,7.07,0,0,0,1.12,4.32,4.38,4.38,0,0,0,6.58,0,8.8,8.8,0,0,0,0-8.63,4.42,4.42,0,0,0-6.58,0A7,7,0,0,0,467.1,623.66Z" transform="translate(-36 -548)"/>
      <path class="cls-8" d="M486.15,620.44V632H483V615.36h3.84L493.59,627V615.36h3.17V632h-3.84Z" transform="translate(-36 -548)"/>
      <path class="cls-8" d="M512.72,632l-2.64-11.74L507.54,632h-3.92L499,615.36h4l2.64,12.72,2.64-12.32h3.79L514.76,628l2.59-12.67h3.89L516.66,632Z" transform="translate(-36 -548)"/>
      <path class="cls-8" d="M522.3,623.66a10.54,10.54,0,0,1,.94-4.61,6.89,6.89,0,0,1,2.79-3,9.47,9.47,0,0,1,8.67,0,6.92,6.92,0,0,1,2.82,3,10.15,10.15,0,0,1,1,4.69,10.54,10.54,0,0,1-.95,4.61,7,7,0,0,1-2.78,3.05,9.42,9.42,0,0,1-8.68,0,7,7,0,0,1-2.82-3A10.35,10.35,0,0,1,522.3,623.66Zm3.69,0a7.06,7.06,0,0,0,1.13,4.32,4.38,4.38,0,0,0,6.58,0,8.87,8.87,0,0,0,0-8.63,4.42,4.42,0,0,0-6.58,0A7,7,0,0,0,526,623.66Z" transform="translate(-36 -548)"/>
      <path class="cls-8" d="M541.4,623.66a10.4,10.4,0,0,1,1-4.61,6.86,6.86,0,0,1,2.78-3,9.5,9.5,0,0,1,8.68,0,7,7,0,0,1,2.82,3,10.28,10.28,0,0,1,1,4.69,10.54,10.54,0,0,1-.94,4.61,7,7,0,0,1-2.79,3.05,8.47,8.47,0,0,1-4.38,1.08,8.58,8.58,0,0,1-4.3-1,6.87,6.87,0,0,1-2.81-3A10.22,10.22,0,0,1,541.4,623.66Zm3.7,0a7.07,7.07,0,0,0,1.12,4.32,4.38,4.38,0,0,0,6.58,0,8.8,8.8,0,0,0,0-8.63,4.42,4.42,0,0,0-6.58,0A7,7,0,0,0,545.1,623.66Z" transform="translate(-36 -548)"/>
      <path class="cls-8" d="M561,632V615.36h6a7.43,7.43,0,0,1,5.72,2.14,10.44,10.44,0,0,1,0,12.32A7.32,7.32,0,0,1,567,632Zm3.6-13.85V629.2h2.07c2.89,0,4.34-1.76,4.34-5.3v-.48c0-3.52-1.45-5.28-4.37-5.28Z" transform="translate(-36 -548)"/>
      <path class="cls-8" d="M590.93,617.68a3.52,3.52,0,0,0-2.94,1.23,6.92,6.92,0,0,0-1.11,3.91,8,8,0,0,1,3.77-1,5,5,0,0,1,3.6,1.33,4.7,4.7,0,0,1,1.37,3.52,5.74,5.74,0,0,1-.75,2.94,5.17,5.17,0,0,1-2.12,2,6.9,6.9,0,0,1-3.23.73,5.42,5.42,0,0,1-4.59-2q-1.53-2-1.53-6a13.39,13.39,0,0,1,.83-5,6.91,6.91,0,0,1,2.42-3.22A6.44,6.44,0,0,1,590.5,615a10.07,10.07,0,0,1,2.16.24,7.12,7.12,0,0,1,1.88.65v2.49a9.34,9.34,0,0,0-1.75-.47A10.78,10.78,0,0,0,590.93,617.68Zm-1.44,6.77a6.74,6.74,0,0,0-2.59.6,7.33,7.33,0,0,0,.7,3.48,2.22,2.22,0,0,0,2.06,1.08c1.63,0,2.45-.87,2.45-2.61a2.52,2.52,0,0,0-.67-1.89A2.68,2.68,0,0,0,589.49,624.45Z" transform="translate(-36 -548)"/>
    </g>
    <g>
      <path class="cls-8" d="M749.54,632V615.36h3.6V632Z" transform="translate(-36 -548)"/>
      <path class="cls-8" d="M757.07,632V615.36h6.41a5.87,5.87,0,0,1,4.1,1.36,4.79,4.79,0,0,1,1.52,3.72,4.49,4.49,0,0,1-.8,2.6,5.3,5.3,0,0,1-2.23,1.8L770.2,632h-3.72l-3.6-6.46h-2.35V632Zm3.46-9H763a2.24,2.24,0,0,0,2.52-2.55,2.19,2.19,0,0,0-2.47-2.49h-2.54Z" transform="translate(-36 -548)"/>
      <path class="cls-8" d="M771.4,623.66a10.54,10.54,0,0,1,1-4.61,6.86,6.86,0,0,1,2.78-3,9.5,9.5,0,0,1,8.68,0,7,7,0,0,1,2.82,3,10.28,10.28,0,0,1,1,4.69,10.54,10.54,0,0,1-1,4.61,7,7,0,0,1-2.79,3.05,9.4,9.4,0,0,1-8.67,0,6.83,6.83,0,0,1-2.82-3A10.22,10.22,0,0,1,771.4,623.66Zm3.7,0a7.07,7.07,0,0,0,1.12,4.32,4.38,4.38,0,0,0,6.58,0,8.8,8.8,0,0,0,0-8.63,4.42,4.42,0,0,0-6.58,0A7,7,0,0,0,775.1,623.66Z" transform="translate(-36 -548)"/>
      <path class="cls-8" d="M794.15,620.44V632H791V615.36h3.84L801.59,627V615.36h3.17V632h-3.84Z" transform="translate(-36 -548)"/>
      <path class="cls-8" d="M820.72,632l-2.64-11.74L815.54,632h-3.92L807,615.36h4l2.64,12.72,2.64-12.32h3.79L822.76,628l2.59-12.67h3.89L824.66,632Z" transform="translate(-36 -548)"/>
      <path class="cls-8" d="M830.3,623.66a10.54,10.54,0,0,1,.94-4.61,6.89,6.89,0,0,1,2.79-3,9.47,9.47,0,0,1,8.67,0,6.92,6.92,0,0,1,2.82,3,10.15,10.15,0,0,1,1,4.69,10.54,10.54,0,0,1-.95,4.61,7,7,0,0,1-2.78,3.05,9.42,9.42,0,0,1-8.68,0,7,7,0,0,1-2.82-3A10.35,10.35,0,0,1,830.3,623.66Zm3.69,0a7.06,7.06,0,0,0,1.13,4.32,4.38,4.38,0,0,0,6.58,0,8.87,8.87,0,0,0,0-8.63,4.42,4.42,0,0,0-6.58,0A7,7,0,0,0,834,623.66Z" transform="translate(-36 -548)"/>
      <path class="cls-8" d="M849.4,623.66a10.4,10.4,0,0,1,1-4.61,6.86,6.86,0,0,1,2.78-3,9.5,9.5,0,0,1,8.68,0,7,7,0,0,1,2.82,3,10.28,10.28,0,0,1,1,4.69,10.54,10.54,0,0,1-.94,4.61,7,7,0,0,1-2.79,3.05,8.47,8.47,0,0,1-4.38,1.08,8.58,8.58,0,0,1-4.3-1,6.87,6.87,0,0,1-2.81-3A10.22,10.22,0,0,1,849.4,623.66Zm3.7,0a7.07,7.07,0,0,0,1.12,4.32,4.38,4.38,0,0,0,6.58,0,8.8,8.8,0,0,0,0-8.63,4.42,4.42,0,0,0-6.58,0A7,7,0,0,0,853.1,623.66Z" transform="translate(-36 -548)"/>
      <path class="cls-8" d="M869,632V615.36h6a7.43,7.43,0,0,1,5.72,2.14,10.44,10.44,0,0,1,0,12.32A7.32,7.32,0,0,1,875,632Zm3.6-13.85V629.2h2.07c2.89,0,4.34-1.76,4.34-5.3v-.48c0-3.52-1.45-5.28-4.37-5.28Z" transform="translate(-36 -548)"/>
      <path class="cls-8" d="M903,619.39a4,4,0,0,1-.7,2.28,4.85,4.85,0,0,1-1.89,1.63,6.74,6.74,0,0,1,2.44,1.76,3.71,3.71,0,0,1,.75,2.37,4.39,4.39,0,0,1-1.61,3.62,7,7,0,0,1-4.54,1.3,7.4,7.4,0,0,1-4.46-1.2,3.86,3.86,0,0,1-1.63-3.29,4.51,4.51,0,0,1,.8-2.6,5.23,5.23,0,0,1,2.22-1.84,5,5,0,0,1-1.8-1.6,3.91,3.91,0,0,1-.58-2.14,4.33,4.33,0,0,1,1.5-3.44,5.9,5.9,0,0,1,4-1.29,6.16,6.16,0,0,1,4,1.23A4,4,0,0,1,903,619.39Zm-6.72,4.92a4.13,4.13,0,0,0-1.16,1.28,3.25,3.25,0,0,0-.4,1.6,2.39,2.39,0,0,0,.7,1.88,3,3,0,0,0,2.08.64,3.05,3.05,0,0,0,2-.6,2.12,2.12,0,0,0,.71-1.71,1.79,1.79,0,0,0-.62-1.39,8.77,8.77,0,0,0-2.31-1.27Zm-1-4.83a2.18,2.18,0,0,0,.56,1.48,4.93,4.93,0,0,0,1.79,1.14l.89.38a3.55,3.55,0,0,0,1.22-2.66,2.43,2.43,0,0,0-.58-1.76,2.29,2.29,0,0,0-1.72-.62,2.25,2.25,0,0,0-1.61.53A2,2,0,0,0,895.24,619.48Z" transform="translate(-36 -548)"/>
    </g>
    <g>
      <path class="cls-8" d="M1758.09,1167.41a6.2,6.2,0,0,1-2.68-1.7,4.2,4.2,0,0,1,.64-5.68,6.05,6.05,0,0,1,3.91-1.17,11.24,11.24,0,0,1,4,.75v2.4a12.77,12.77,0,0,0-3.78-.63c-1.65,0-2.47.53-2.47,1.59a1.21,1.21,0,0,0,.43,1,5.26,5.26,0,0,0,1.6.8l1.56.57a6.68,6.68,0,0,1,2.78,1.66,3.69,3.69,0,0,1,.83,2.49,4.17,4.17,0,0,1-1.55,3.42,6.66,6.66,0,0,1-4.27,1.25,13.35,13.35,0,0,1-2.35-.22,9.33,9.33,0,0,1-2-.6v-2.4a18.13,18.13,0,0,0,2.25.51,14.82,14.82,0,0,0,2.16.19,3.36,3.36,0,0,0,1.92-.46,1.48,1.48,0,0,0,.67-1.29,1.36,1.36,0,0,0-.41-1,5.61,5.61,0,0,0-1.65-.84Z" transform="translate(-36 -548)"/>
      <path class="cls-8" d="M1770.55,1173.77v-12h-4.43v-2.52h12v2.52h-4.43v12Z" transform="translate(-36 -548)"/>
      <path class="cls-8" d="M1787.54,1173.77l-1-3.32h-5l-1,3.32h-3.29l5.12-14.55h3.46l5.13,14.55Zm-5.34-5.59h3.66l-1.85-6.09Z" transform="translate(-36 -548)"/>
      <path class="cls-8" d="M1792.76,1173.77v-14.55h5.61a5.14,5.14,0,0,1,3.59,1.19,4.2,4.2,0,0,1,1.33,3.26,4,4,0,0,1-.7,2.27,4.58,4.58,0,0,1-1.95,1.57l3.61,6.26H1801l-3.15-5.65h-2.06v5.65Zm3-7.83H1798a2,2,0,0,0,2.21-2.23,1.92,1.92,0,0,0-2.17-2.18h-2.22Z" transform="translate(-36 -548)"/>
      <path class="cls-8" d="M1809.75,1173.77l-5.16-14.55h3.48l3.4,11.46,3.39-11.46h3.4l-5.17,14.55Z" transform="translate(-36 -548)"/>
      <path class="cls-8" d="M1820.15,1173.77v-14.55h3.15v14.55Z" transform="translate(-36 -548)"/>
      <path class="cls-8" d="M1829.51,1163.67v10.1h-2.77v-14.55h3.36l5.92,10.18v-10.18h2.77v14.55h-3.35Z" transform="translate(-36 -548)"/>
      <path class="cls-8" d="M1842.16,1173.77v-14.55h9.57v2.43h-6.42v3.45h5.23v2.43h-5.23v3.8h6.42v2.44Z" transform="translate(-36 -548)"/>
      <path class="cls-8" d="M1863.81,1173.77v-11.49l-3.74,1.18v-2.4l4.09-1.84h2.75v14.55Z" transform="translate(-36 -548)"/>
    </g>
    <g>
      <path class="cls-8" d="M1758.09,1069.41a6.2,6.2,0,0,1-2.68-1.7,4.2,4.2,0,0,1,.64-5.68,6.05,6.05,0,0,1,3.91-1.17,11.24,11.24,0,0,1,4,.75v2.4a12.77,12.77,0,0,0-3.78-.63c-1.65,0-2.47.53-2.47,1.59a1.21,1.21,0,0,0,.43,1,5.26,5.26,0,0,0,1.6.8l1.56.57a6.68,6.68,0,0,1,2.78,1.66,3.69,3.69,0,0,1,.83,2.49,4.17,4.17,0,0,1-1.55,3.42,6.66,6.66,0,0,1-4.27,1.25,13.35,13.35,0,0,1-2.35-.22,9.33,9.33,0,0,1-2-.6v-2.4a18.13,18.13,0,0,0,2.25.51,14.82,14.82,0,0,0,2.16.19,3.36,3.36,0,0,0,1.92-.46,1.48,1.48,0,0,0,.67-1.29,1.36,1.36,0,0,0-.41-1,5.61,5.61,0,0,0-1.65-.84Z" transform="translate(-36 -548)"/>
      <path class="cls-8" d="M1770.55,1075.77v-12h-4.43v-2.52h12v2.52h-4.43v12Z" transform="translate(-36 -548)"/>
      <path class="cls-8" d="M1787.54,1075.77l-1-3.32h-5l-1,3.32h-3.29l5.12-14.55h3.46l5.13,14.55Zm-5.34-5.59h3.66l-1.85-6.09Z" transform="translate(-36 -548)"/>
      <path class="cls-8" d="M1792.76,1075.77v-14.55h5.61a5.14,5.14,0,0,1,3.59,1.19,4.2,4.2,0,0,1,1.33,3.26,4,4,0,0,1-.7,2.27,4.58,4.58,0,0,1-1.95,1.57l3.61,6.26H1801l-3.15-5.65h-2.06v5.65Zm3-7.83H1798a2,2,0,0,0,2.21-2.23,1.92,1.92,0,0,0-2.17-2.18h-2.22Z" transform="translate(-36 -548)"/>
      <path class="cls-8" d="M1809.75,1075.77l-5.16-14.55h3.48l3.4,11.46,3.39-11.46h3.4l-5.17,14.55Z" transform="translate(-36 -548)"/>
      <path class="cls-8" d="M1820.15,1075.77v-14.55h3.15v14.55Z" transform="translate(-36 -548)"/>
      <path class="cls-8" d="M1829.51,1065.67v10.1h-2.77v-14.55h3.36l5.92,10.18v-10.18h2.77v14.55h-3.35Z" transform="translate(-36 -548)"/>
      <path class="cls-8" d="M1842.16,1075.77v-14.55h9.57v2.43h-6.42v3.45h5.23v2.43h-5.23v3.8h6.42v2.44Z" transform="translate(-36 -548)"/>
      <path class="cls-8" d="M1859.65,1062.54a8.25,8.25,0,0,1,2.3-1.29,7.56,7.56,0,0,1,2.49-.39,4.55,4.55,0,0,1,3.2,1.11,3.82,3.82,0,0,1,1.21,2.94,5,5,0,0,1-.61,2.27,13.59,13.59,0,0,1-1.94,2.66,49.47,49.47,0,0,1-3.54,3.49h6.67v2.44h-10.16v-2.27q2.68-2.71,4-4.23a15.51,15.51,0,0,0,1.85-2.45,3.54,3.54,0,0,0,.51-1.7,1.63,1.63,0,0,0-.48-1.25,1.82,1.82,0,0,0-1.3-.45,5.66,5.66,0,0,0-2,.42,10.43,10.43,0,0,0-2.2,1.2Z" transform="translate(-36 -548)"/>
    </g>
    <g>
      <path class="cls-8" d="M1758.09,887.41a6.2,6.2,0,0,1-2.68-1.7,4.2,4.2,0,0,1,.64-5.68,6.05,6.05,0,0,1,3.91-1.17,11.24,11.24,0,0,1,4,.75V882a12.77,12.77,0,0,0-3.78-.63c-1.65,0-2.47.53-2.47,1.59a1.21,1.21,0,0,0,.43,1,5.26,5.26,0,0,0,1.6.8l1.56.57a6.68,6.68,0,0,1,2.78,1.66,3.69,3.69,0,0,1,.83,2.49,4.17,4.17,0,0,1-1.55,3.42,6.66,6.66,0,0,1-4.27,1.25,13.35,13.35,0,0,1-2.35-.22,9.33,9.33,0,0,1-2-.6v-2.4a18.13,18.13,0,0,0,2.25.51,14.82,14.82,0,0,0,2.16.19,3.36,3.36,0,0,0,1.92-.46,1.48,1.48,0,0,0,.67-1.29,1.36,1.36,0,0,0-.41-1,5.61,5.61,0,0,0-1.65-.84Z" transform="translate(-36 -548)"/>
      <path class="cls-8" d="M1770.55,893.77v-12h-4.43v-2.52h12v2.52h-4.43v12Z" transform="translate(-36 -548)"/>
      <path class="cls-8" d="M1787.54,893.77l-1-3.32h-5l-1,3.32h-3.29l5.12-14.55h3.46l5.13,14.55Zm-5.34-5.59h3.66l-1.85-6.09Z" transform="translate(-36 -548)"/>
      <path class="cls-8" d="M1792.76,893.77V879.22h5.61a5.14,5.14,0,0,1,3.59,1.19,4.2,4.2,0,0,1,1.33,3.26,4,4,0,0,1-.7,2.27,4.58,4.58,0,0,1-1.95,1.57l3.61,6.26H1801l-3.15-5.65h-2.06v5.65Zm3-7.83H1798a2,2,0,0,0,2.21-2.23,1.92,1.92,0,0,0-2.17-2.18h-2.22Z" transform="translate(-36 -548)"/>
      <path class="cls-8" d="M1809.75,893.77l-5.16-14.55h3.48l3.4,11.46,3.39-11.46h3.4l-5.17,14.55Z" transform="translate(-36 -548)"/>
      <path class="cls-8" d="M1820.15,893.77V879.22h3.15v14.55Z" transform="translate(-36 -548)"/>
      <path class="cls-8" d="M1829.51,883.67v10.1h-2.77V879.22h3.36L1836,889.4V879.22h2.77v14.55h-3.35Z" transform="translate(-36 -548)"/>
      <path class="cls-8" d="M1842.16,893.77V879.22h9.57v2.43h-6.42v3.45h5.23v2.43h-5.23v3.8h6.42v2.44Z" transform="translate(-36 -548)"/>
      <path class="cls-8" d="M1865.36,893.77v-2.88h-6.78v-2.25l6.59-9.42H1868v9.32h1.85v2.35H1868v2.88Zm0-5.23V883l-3.91,5.59Z" transform="translate(-36 -548)"/>
    </g>
    <g>
      <path class="cls-8" d="M513.93,940.5V914.17h5.7V940.5Z" transform="translate(-36 -548)"/>
      <path class="cls-8" d="M525.86,940.5V914.17H536a9.34,9.34,0,0,1,6.5,2.16,7.58,7.58,0,0,1,2.39,5.89,7.14,7.14,0,0,1-1.25,4.11,8.43,8.43,0,0,1-3.54,2.85l6.54,11.32h-5.89l-5.7-10.22h-3.72V940.5Zm5.48-14.17h3.95c2.66,0,4-1.35,4-4s-1.31-3.95-3.92-3.95h-4Z" transform="translate(-36 -548)"/>
      <path class="cls-8" d="M548.55,927.31a16.65,16.65,0,0,1,1.5-7.29,10.88,10.88,0,0,1,4.41-4.81,15,15,0,0,1,13.74-.06,11.09,11.09,0,0,1,4.46,4.73,16.26,16.26,0,0,1,1.58,7.43,16.66,16.66,0,0,1-1.5,7.3,11,11,0,0,1-4.41,4.83,13.45,13.45,0,0,1-6.94,1.71,13.61,13.61,0,0,1-6.8-1.64,11,11,0,0,1-4.46-4.75A16.32,16.32,0,0,1,548.55,927.31Zm5.85,0q0,4.49,1.79,6.84a6.92,6.92,0,0,0,10.41,0q1.78-2.35,1.79-6.84c0-3-.6-5.26-1.79-6.82a7,7,0,0,0-10.41,0C555,922.05,554.4,924.33,554.4,927.31Z" transform="translate(-36 -548)"/>
      <path class="cls-8" d="M584.57,922.22V940.5h-5V914.17h6.08l10.71,18.43V914.17h5V940.5h-6.08Z" transform="translate(-36 -548)"/>
      <path class="cls-8" d="M626.64,940.5l-4.18-18.58-4,18.58h-6.19l-7.3-26.33h6.31l4.18,20.14,4.18-19.5h6l4.26,19.42,4.1-20.06h6.16l-7.26,26.33Z" transform="translate(-36 -548)"/>
      <path class="cls-8" d="M641.8,927.31a16.65,16.65,0,0,1,1.5-7.29,10.88,10.88,0,0,1,4.41-4.81,15,15,0,0,1,13.74-.06,11.09,11.09,0,0,1,4.46,4.73,16.26,16.26,0,0,1,1.58,7.43,16.66,16.66,0,0,1-1.5,7.3,11,11,0,0,1-4.41,4.83,13.44,13.44,0,0,1-6.93,1.71,13.62,13.62,0,0,1-6.81-1.64,11,11,0,0,1-4.46-4.75A16.32,16.32,0,0,1,641.8,927.31Zm5.85,0q0,4.49,1.79,6.84a6.92,6.92,0,0,0,10.41,0q1.78-2.35,1.79-6.84c0-3-.6-5.26-1.79-6.82a7,7,0,0,0-10.41,0C648.25,922.05,647.65,924.33,647.65,927.31Z" transform="translate(-36 -548)"/>
      <path class="cls-8" d="M672.05,927.31a16.65,16.65,0,0,1,1.5-7.29,10.88,10.88,0,0,1,4.41-4.81,15,15,0,0,1,13.74-.06,11.09,11.09,0,0,1,4.46,4.73,16.26,16.26,0,0,1,1.58,7.43,16.66,16.66,0,0,1-1.5,7.3,11,11,0,0,1-4.41,4.83,14.93,14.93,0,0,1-13.74.07,11,11,0,0,1-4.46-4.75A16.19,16.19,0,0,1,672.05,927.31Zm5.85,0q0,4.49,1.79,6.84a6.92,6.92,0,0,0,10.41,0q1.78-2.35,1.78-6.84c0-3-.59-5.26-1.78-6.82a7,7,0,0,0-10.41,0C678.5,922.05,677.9,924.33,677.9,927.31Z" transform="translate(-36 -548)"/>
      <path class="cls-8" d="M703.06,940.5V914.17h9.46q5.9,0,9.06,3.4t3.17,9.74q0,6.32-3.17,9.75t-9,3.44Zm5.7-21.93v17.52H712q6.88,0,6.88-8.4v-.76q0-8.35-6.91-8.36Z" transform="translate(-36 -548)"/>
      <path class="cls-8" d="M750.1,940.5v-5.21H737.83v-4.06l11.93-17.06h5.17V931h3.34v4.25h-3.34v5.21Zm0-9.46V920.93L743,931Z" transform="translate(-36 -548)"/>
    </g>
    <g>
      <path class="cls-8" d="M1099.49,1119.44a17,17,0,0,0,4.07.53,3.66,3.66,0,0,0,2.92-1,5.2,5.2,0,0,0,.88-3.4V1097.7h5.7v17.75q0,9.24-8.71,9.23a12.81,12.81,0,0,1-2.39-.21,18.06,18.06,0,0,1-2.47-.66Z" transform="translate(-36 -548)"/>
      <path class="cls-8" d="M1134.87,1097.7h5.7v16.69a10,10,0,0,1-2.83,7.6c-1.89,1.8-4.57,2.69-8,2.69s-6.15-.89-8-2.68-2.83-4.33-2.83-7.65V1097.7h5.7v16.91a5.6,5.6,0,0,0,1.33,4.05,6,6,0,0,0,7.68,0,5.65,5.65,0,0,0,1.33-4.05Z" transform="translate(-36 -548)"/>
      <path class="cls-8" d="M1151.51,1105.76V1124h-5V1097.7h6.08l10.71,18.43V1097.7h5V1124h-6.08Z" transform="translate(-36 -548)"/>
      <path class="cls-8" d="M1174.54,1124V1097.7h5.7V1124Z" transform="translate(-36 -548)"/>
      <path class="cls-8" d="M1192,1114.42V1124h-5.55V1097.7h10.07a9.11,9.11,0,0,1,6.5,2.25,9,9,0,0,1,0,12.23,9.11,9.11,0,0,1-6.5,2.24Zm0-4.25h3.88a3.83,3.83,0,0,0,2.9-1.05,5.14,5.14,0,0,0,0-6.12,3.87,3.87,0,0,0-2.9-1H1192Z" transform="translate(-36 -548)"/>
      <path class="cls-8" d="M1210,1124V1097.7h17.33v4.41h-11.63v6.23h9.47v4.41h-9.47v6.88h11.63V1124Z" transform="translate(-36 -548)"/>
      <path class="cls-8" d="M1232,1124V1097.7h10.14a9.35,9.35,0,0,1,6.5,2.17,7.53,7.53,0,0,1,2.39,5.89,7,7,0,0,1-1.25,4.1,8.25,8.25,0,0,1-3.53,2.85l6.53,11.33h-5.89l-5.7-10.22h-3.72V1124Zm5.47-14.18h4q4,0,4-4t-3.91-4h-4Z" transform="translate(-36 -548)"/>
      <path class="cls-8" d="M1273.38,1124v-20.79l-6.77,2.13v-4.33l7.41-3.35h5V1124Z" transform="translate(-36 -548)"/>
    </g>
    <g>
      <path class="cls-8" d="M1099.49,741.44a16.49,16.49,0,0,0,4.07.53,3.7,3.7,0,0,0,2.92-1,5.25,5.25,0,0,0,.88-3.41V719.7h5.7v17.75q0,9.24-8.71,9.24a13.72,13.72,0,0,1-2.39-.21,19.81,19.81,0,0,1-2.47-.67Z" transform="translate(-36 -548)"/>
      <path class="cls-8" d="M1134.87,719.7h5.7v16.69a10,10,0,0,1-2.83,7.6q-2.84,2.7-8,2.7c-3.47,0-6.15-.9-8-2.68s-2.83-4.34-2.83-7.66V719.7h5.7v16.91a5.6,5.6,0,0,0,1.33,4,6,6,0,0,0,7.68,0,5.65,5.65,0,0,0,1.33-4Z" transform="translate(-36 -548)"/>
      <path class="cls-8" d="M1151.51,727.76V746h-5V719.7h6.08l10.71,18.43V719.7h5V746h-6.08Z" transform="translate(-36 -548)"/>
      <path class="cls-8" d="M1174.54,746V719.7h5.7V746Z" transform="translate(-36 -548)"/>
      <path class="cls-8" d="M1192,736.42V746h-5.55V719.7h10.07A9.11,9.11,0,0,1,1203,722a9,9,0,0,1,0,12.23,9.11,9.11,0,0,1-6.5,2.24Zm0-4.25h3.88a3.83,3.83,0,0,0,2.9-1,5.13,5.13,0,0,0,0-6.11,3.83,3.83,0,0,0-2.9-1H1192Z" transform="translate(-36 -548)"/>
      <path class="cls-8" d="M1210,746V719.7h17.33v4.41h-11.63v6.23h9.47v4.41h-9.47v6.88h11.63V746Z" transform="translate(-36 -548)"/>
      <path class="cls-8" d="M1232,746V719.7h10.14a9.35,9.35,0,0,1,6.5,2.17,7.53,7.53,0,0,1,2.39,5.89,7,7,0,0,1-1.25,4.1,8.25,8.25,0,0,1-3.53,2.85l6.53,11.33h-5.89l-5.7-10.22h-3.72V746Zm5.47-14.18h4q4,0,4-4t-3.91-4h-4Z" transform="translate(-36 -548)"/>
      <path class="cls-8" d="M1276.19,746v-5.21h-12.28v-4.06l11.94-17.07H1281v16.88h3.35v4.25H1281V746Zm0-9.46V726.47l-7.07,10.11Z" transform="translate(-36 -548)"/>
    </g>
    <g>
      <path class="cls-8" d="M1482.53,814.57a11.29,11.29,0,0,1-4.87-3.06,7.62,7.62,0,0,1,1.16-10.28,11,11,0,0,1,7.09-2.13,20.36,20.36,0,0,1,7.3,1.37v4.33a23.28,23.28,0,0,0-6.84-1.14q-4.48,0-4.49,2.89a2.23,2.23,0,0,0,.78,1.75,9.87,9.87,0,0,0,2.91,1.44l2.81,1a12,12,0,0,1,5,3,6.62,6.62,0,0,1,1.51,4.5,7.47,7.47,0,0,1-2.82,6.17,11.94,11.94,0,0,1-7.71,2.27,23.62,23.62,0,0,1-4.26-.4,16.3,16.3,0,0,1-3.65-1.09v-4.33a30,30,0,0,0,4.07.91,25.23,25.23,0,0,0,3.91.35,6.21,6.21,0,0,0,3.46-.82,2.66,2.66,0,0,0,1.22-2.34,2.43,2.43,0,0,0-.74-1.86,10,10,0,0,0-3-1.52Z" transform="translate(-36 -548)"/>
      <path class="cls-8" d="M1505.06,826.08V804.31h-8v-4.56h21.74v4.56h-8v21.77Z" transform="translate(-36 -548)"/>
      <path class="cls-8" d="M1535.8,826.08l-1.86-6h-9l-1.78,6h-6l9.28-26.33h6.26l9.28,26.33ZM1526.15,816h6.61l-3.34-11Z" transform="translate(-36 -548)"/>
      <path class="cls-8" d="M1545.26,826.08V799.75h10.15a9.34,9.34,0,0,1,6.5,2.16,7.58,7.58,0,0,1,2.39,5.89,7.14,7.14,0,0,1-1.25,4.11,8.43,8.43,0,0,1-3.54,2.85l6.54,11.32h-5.89l-5.7-10.22h-3.72v10.22Zm5.48-14.17h4c2.66,0,4-1.35,4-4s-1.31-4-3.92-4h-4Z" transform="translate(-36 -548)"/>
      <path class="cls-8" d="M1576,826.08l-9.35-26.33H1573l6.15,20.74,6.12-20.74h6.16l-9.35,26.33Z" transform="translate(-36 -548)"/>
      <path class="cls-8" d="M1594.82,826.08V799.75h5.7v26.33Z" transform="translate(-36 -548)"/>
      <path class="cls-8" d="M1611.76,807.8v18.28h-5V799.75h6.08l10.71,18.43V799.75h5v26.33h-6.08Z" transform="translate(-36 -548)"/>
      <path class="cls-8" d="M1634.64,826.08V799.75H1652v4.4h-11.63v6.24h9.46v4.4h-9.46v6.88H1652v4.41Z" transform="translate(-36 -548)"/>
      <path class="cls-8" d="M1552,864.08V843.29l-6.76,2.13v-4.33l7.41-3.34h5v26.33Z" transform="translate(-36 -548)"/>
      <path class="cls-8" d="M1575.09,864.65a8.61,8.61,0,0,1-7.41-3.57q-2.58-3.57-2.58-10.22t2.6-10.19a9.43,9.43,0,0,1,14.78,0q2.61,3.57,2.61,10.19t-2.59,10.22A8.59,8.59,0,0,1,1575.09,864.65Zm0-4.56a3.4,3.4,0,0,0,3.31-2.13q1-2.13,1-7.1c0-3.3-.33-5.65-1-7.07a3.63,3.63,0,0,0-6.61,0c-.66,1.42-1,3.77-1,7.07s.33,5.68,1,7.1A3.39,3.39,0,0,0,1575.09,860.09Z" transform="translate(-36 -548)"/>
    </g>
    <g>
      <path class="cls-8" d="M334.73,1503.84v-11.09h2.4v9.17H342v1.92Z" transform="translate(-36 -548)"/>
      <path class="cls-8" d="M342.86,1498.29a7,7,0,0,1,.63-3.07,4.61,4.61,0,0,1,1.85-2,6.34,6.34,0,0,1,5.79,0,4.64,4.64,0,0,1,1.88,2,6.86,6.86,0,0,1,.66,3.13,7,7,0,0,1-.63,3.07,4.63,4.63,0,0,1-1.86,2,5.64,5.64,0,0,1-2.92.72,5.71,5.71,0,0,1-2.86-.69,4.56,4.56,0,0,1-1.88-2A6.88,6.88,0,0,1,342.86,1498.29Zm2.46,0a4.71,4.71,0,0,0,.75,2.88,2.93,2.93,0,0,0,4.39,0,4.71,4.71,0,0,0,.75-2.88,4.66,4.66,0,0,0-.75-2.87,2.93,2.93,0,0,0-4.39,0A4.66,4.66,0,0,0,345.32,1498.29Z" transform="translate(-36 -548)"/>
      <path class="cls-8" d="M362.6,1492.75H365v7a4.24,4.24,0,0,1-1.19,3.2,4.77,4.77,0,0,1-3.39,1.13A4.68,4.68,0,0,1,357,1503a4.23,4.23,0,0,1-1.19-3.22v-7h2.4v7.12a2.35,2.35,0,0,0,.56,1.71,2.54,2.54,0,0,0,3.23,0,2.4,2.4,0,0,0,.56-1.71Z" transform="translate(-36 -548)"/>
      <path class="cls-8" d="M369.61,1496.14v7.7H367.5v-11.09h2.56l4.51,7.76v-7.76h2.11v11.09h-2.56Z" transform="translate(-36 -548)"/>
      <path class="cls-8" d="M384.82,1502.13a11.45,11.45,0,0,0,1.19-.08v-2.71h-2.08v-1.72h4.29v5.55a7.29,7.29,0,0,1-1.8.62,9.88,9.88,0,0,1-2.11.23,5.27,5.27,0,0,1-4-1.46,5.75,5.75,0,0,1-1.4-4.14,6,6,0,0,1,1.45-4.35,5.55,5.55,0,0,1,4.2-1.49,7.39,7.39,0,0,1,3.25.65v1.83a9.8,9.8,0,0,0-3-.53,3.37,3.37,0,0,0-2.6.89,3.94,3.94,0,0,0-.84,2.79v.29a3.94,3.94,0,0,0,.83,2.76A3.45,3.45,0,0,0,384.82,1502.13Z" transform="translate(-36 -548)"/>
      <path class="cls-8" d="M390.58,1503.84v-11.09h7.3v1.86H393v2.62h4v1.86h-4V1502h4.9v1.86Z" transform="translate(-36 -548)"/>
    </g>
  </g>
</svg>
