<svg id="map" xmlns="http://www.w3.org/2000/svg" width="1921.21" height="965.86" viewBox="0 0 1921.21 965.86">
  <defs>
    <style>
      .cls-1 {
        fill: #7a797a;
      }

      .cls-2 {
        fill: #82589f;
      }

      .cls-3 {
        fill: #6fccdd;
      }

      .cls-4 {
        fill: #c0539f;
      }

      .cls-5 {
        fill: #949393;
      }

      .cls-6 {
        fill: #ff2939;
      }

      .cls-7 {
        opacity: 0.2;
      }

      .cls-11, .cls-8 {
        fill: none;
      }

      .cls-8 {
        stroke: #3f3f3f;
        stroke-width: 2px;
      }

      .cls-11, .cls-13, .cls-8 {
        stroke-miterlimit: 10;
      }

      .cls-9 {
        fill: #fff;
      }

      .cls-10 {
        fill: #454546;
      }

      .cls-11, .cls-13 {
        stroke: #fff;
      }

      .cls-11 {
        stroke-linecap: round;
        stroke-width: 1.1px;
      }

      .cls-12 {
        fill: #231f20;
      }

      .cls-13 {
        fill: #fc427b;
        stroke-width: 2.17px;
      }
    </style>
  </defs>
  <title>BEL_1F</title>
  <g id="ground">
    <path class="cls-1" d="M941.92,1139.77c0,1.32,0,2.63.15,3.93h-.15Z" transform="translate(-47 -458.98)"/>
    <path class="cls-1" d="M1040.22,1139.77v3.93h-.16C1040.17,1142.4,1040.22,1141.09,1040.22,1139.77Z" transform="translate(-47 -458.98)"/>
    <path class="cls-1" d="M1968.21,1167.29v62.92H1842.38l-2-129.77H1655.6v19.66h-14.28a33.43,33.43,0,0,1-65.81,0h-14.28v-19.66H1372.49V1128h-39.33v32.44l-68.81-1-3.93-29.49H1225v-29.5h-177v13.77h-7.86v25.56c0,1.32,0,2.63-.16,3.93a49.15,49.15,0,0,1-98,0c-.11-1.3-.15-2.61-.15-3.93v-25.56h-9.83v-13.77H588l1.6,92.41h10.2v20.8c10.76,9.7,17.69,25,17.69,42.11s-6.93,32.41-17.69,42.12v24.73h-7.93l.06,3.93v98.31H380.47v-134.5H259.15v68.24h-139V1006.07H47.23V605l49.27-55H692.66v79.44H669.77V956.67h48V490.29h957.35V824.66h24.58V459h221.74v708.31Z" transform="translate(-47 -458.98)"/>
  </g>
  <g id="footprint">
    <g id="information">
      <rect class="cls-2" x="475" y="641.02" width="54" height="98.18"/>
    </g>
    <g id="meals">
      <rect class="cls-3" x="737" y="377.02" width="476" height="122"/>
    </g>
    <g id="programming">
      <rect class="cls-4" x="1385" y="429.02" width="168" height="138"/>
      <rect class="cls-4" x="1265" y="31.02" width="86" height="94"/>
      <rect class="cls-4" x="1265" y="275.02" width="86" height="92"/>
      <rect class="cls-4" x="1357" y="131.02" width="202" height="236"/>
      <rect class="cls-4" x="1265" y="131.02" width="86" height="138"/>
      <rect class="cls-4" x="1559" y="429.02" width="166" height="138"/>
      <rect class="cls-4" x="671" y="193.02" width="542" height="162"/>
      <rect class="cls-4" x="1027" y="31.02" width="186" height="140"/>
      <rect class="cls-4" x="737" y="31.02" width="282" height="140"/>
      <rect class="cls-4" x="1653" y="0.02" width="221" height="101"/>
      <rect class="cls-4" x="1653" y="231.02" width="90" height="66"/>
    </g>
    <g id="mothers_room">
      <rect class="cls-4" x="541" y="277.02" width="82" height="96"/>
    </g>
    <g id="reflection_room">
      <rect class="cls-4" x="541" y="175.02" width="82" height="96"/>
    </g>
    <g id="restrooms">
      <rect class="cls-5" x="541" y="379.02" width="82" height="120"/>
      <rect class="cls-5" x="1263" y="429.02" width="114" height="138"/>
      <rect class="cls-5" x="1731" y="429.02" width="62" height="212"/>
    </g>
    <g id="building">
      <polyline class="cls-5" points="73 901.2 73 641.02 213 641.02 213 901.2 73 901.2"/>
      <polyline class="cls-5" points="335 965.02 335 641.02 475 641.02 475 965.02 335 965.02"/>
      <polygon class="cls-5" points="73 547.02 0 547.02 0 146.02 50 91.02 477 91.02 477 569.02 73 569.02 73 547.02"/>
      <path class="cls-5" d="M693,550H586v78H693S693.34,550,693,550Z" transform="translate(-47 -458.98)"/>
      <polygon class="cls-5" points="1725 573.02 1725 641.02 1325 641.02 1325 669.02 1286 669.02 1286 700.02 1213 700.02 1213 671.02 1178 671.02 1179 641.02 543 641.02 543 573.02 1725 573.02"/>
      <rect class="cls-5" x="671" y="377.02" width="58" height="122"/>
      <rect class="cls-5" x="671" y="31.02" width="58" height="140"/>
      <rect class="cls-5" x="1357" y="31.02" width="202" height="94"/>
      <rect class="cls-5" x="1565" y="31.02" width="62" height="336"/>
      <rect class="cls-5" x="1653" y="107.02" width="70" height="118"/>
      <rect class="cls-5" x="1791" y="107.02" width="83" height="118"/>
      <rect class="cls-5" x="1653" y="303.02" width="90" height="64"/>
      <rect class="cls-5" x="1777" y="231.02" width="97" height="136"/>
    </g>
    <g id="water">
      <polygon class="cls-5" points="1391.23 852.99 1362.81 852.99 1362.81 871.94 1301.21 871.94 1301.21 852.99 1277.52 852.99 1277.52 871.94 1187.5 871.94 1187.5 852.99 1163.81 852.99 1163.81 871.94 1102.22 871.94 1102.22 852.99 1073.79 852.99 1073.79 871.94 1012.19 871.94 1012.19 852.99 993.24 852.99 993.24 762.97 1012.19 762.97 1012.19 744.01 1073.79 744.01 1073.79 762.97 1102.22 762.97 1102.22 744.01 1163.81 744.01 1163.81 762.97 1187.5 762.97 1187.5 744.01 1277.52 744.01 1277.52 762.97 1301.21 762.97 1301.21 744.01 1362.81 744.01 1362.81 762.97 1391.23 762.97 1391.23 744.01 1452.83 744.01 1452.83 762.97 1467.04 762.97 1467.04 852.99 1452.83 852.99 1452.83 871.94 1391.23 871.94 1391.23 852.99"/>
      <polygon class="cls-5" points="775.85 746.96 692.99 746.96 670.78 769.51 670.78 837.15 692.99 859.7 777.3 859.7 796.61 837.15 796.61 769.51 775.85 746.96"/>
    </g>
  </g>
  <g id="points">
    <rect id="BEL_843" class="cls-6" x="543.16" y="1366.46" width="23.14" height="23.14" transform="translate(1885.76 364.32) rotate(90)"/>
    <rect id="BEL_841" class="cls-6" x="1891.01" y="1187.75" width="23.14" height="23.14" transform="translate(3054.9 -1162.24) rotate(90)"/>
    <polygon id="BEL_392" class="cls-6" points="512.71 799.53 484.3 788.13 485.02 812.58 512.71 799.53"/>
    <polygon id="BEL_393" class="cls-6" points="512.71 799.53 484.3 788.13 485.02 812.58 512.71 799.53"/>
    <rect id="BEL_665" class="cls-6" x="475" y="641.02" width="54" height="98.18"/>
    <rect id="BEL_663" class="cls-6" x="541" y="175.02" width="82" height="96"/>
    <rect id="BEL_664" class="cls-6" x="541" y="277.02" width="82" height="96"/>
    <rect id="BEL_646" class="cls-6" x="737" y="377.02" width="476" height="122"/>
    <rect id="BEL_642" class="cls-6" x="1027" y="31.02" width="186" height="140"/>
    <rect id="BEL_643" class="cls-6" x="671" y="193.02" width="542" height="162"/>
    <rect id="BEL_644" class="cls-6" x="671" y="193.02" width="542" height="162"/>
    <rect id="BEL_650" class="cls-6" x="737" y="31.02" width="282" height="140"/>
    <rect id="BEL_649" class="cls-6" x="737" y="31.02" width="282" height="140"/>
    <rect id="BEL_652" class="cls-6" x="1357" y="131.02" width="202" height="236"/>
    <rect id="BEL_656" class="cls-6" x="1265" y="275.02" width="86" height="92"/>
    <rect id="BEL_655" class="cls-6" x="1265" y="131.02" width="86" height="138"/>
    <rect id="BEL_654" class="cls-6" x="1265" y="31.02" width="86" height="94"/>
    <rect id="BEL_659" class="cls-6" x="1385" y="429.02" width="168" height="138"/>
    <rect id="BEL_657" class="cls-6" x="1559" y="429.02" width="166" height="138"/>
    <rect id="BEL_662" class="cls-6" x="1653" y="231.02" width="90" height="66"/>
    <rect id="BEL_661" class="cls-6" x="1653" y="0.02" width="221" height="101"/>
  </g>
  <g id="bounds" class="cls-7">
    <rect id="_BEL_843" class="cls-6" x="543.16" y="1366.46" width="23.14" height="23.14" transform="translate(1885.76 364.32) rotate(90)"/>
    <rect id="_BEL_841" class="cls-6" x="1891.01" y="1187.75" width="23.14" height="23.14" transform="translate(3054.9 -1162.24) rotate(90)"/>
    <rect id="_BEL_392" class="cls-6" x="524" y="1232.31" width="48" height="55.38" transform="translate(1761 253.02) rotate(90)"/>
    <rect id="_BEL_393" class="cls-6" x="524" y="1232.31" width="48" height="55.38" transform="translate(1761 253.02) rotate(90)"/>
    <rect id="_BEL_665" class="cls-6" x="475" y="641.02" width="54" height="98.18"/>
    <rect id="_BEL_663" class="cls-6" x="541" y="175.02" width="82" height="96"/>
    <rect id="_BEL_664" class="cls-6" x="541" y="277.02" width="82" height="96"/>
    <rect id="_BEL_646" class="cls-6" x="737" y="377.02" width="476" height="122"/>
    <rect id="_BEL_642" class="cls-6" x="1027" y="31.02" width="186" height="140"/>
    <rect id="_BEL_643" class="cls-6" x="671" y="193.02" width="542" height="162"/>
    <rect id="_BEL_644" class="cls-6" x="671" y="193.02" width="542" height="162"/>
    <rect id="_BEL_650" class="cls-6" x="737" y="31.02" width="282" height="140"/>
    <rect id="_BEL_649" class="cls-6" x="737" y="31.02" width="282" height="140"/>
    <rect id="_BEL_652" class="cls-6" x="1357" y="131.02" width="202" height="236"/>
    <rect id="_BEL_656" class="cls-6" x="1265" y="275.02" width="86" height="92"/>
    <rect id="_BEL_655" class="cls-6" x="1265" y="131.02" width="86" height="138"/>
    <rect id="_BEL_654" class="cls-6" x="1265" y="31.02" width="86" height="94"/>
    <rect id="_BEL_659" class="cls-6" x="1385" y="429.02" width="168" height="138"/>
    <rect id="_BEL_657" class="cls-6" x="1559" y="429.02" width="166" height="138"/>
    <rect id="_BEL_662" class="cls-6" x="1653" y="231.02" width="90" height="66"/>
    <rect id="_BEL_661" class="cls-6" x="1653" y="0.02" width="221" height="101"/>
  </g>
  <g id="paths">
    <g id="BEL_392-2" data-name="BEL_392">
      <polyline id="BEL_392-BEL_665" class="cls-8" points="529 687.02 535 687.02 535 801.02 524 801.02"/>
      <polyline id="BEL_392-BEL_650" class="cls-8" points="833 173.02 833 181.02 1231 181.02 1231 531.02 537 531.02 537 801.02 524 801.02"/>
      <polyline id="BEL_392-BEL_649" class="cls-8" points="833 173.02 833 181.02 1231 181.02 1231 531.02 537 531.02 537 801.02 524 801.02"/>
      <polyline id="BEL_392-BEL_642" class="cls-8" points="1123 173.02 1123 181.02 1231 181.02 1231 531.02 537 531.02 537 801.02 524 801.02"/>
      <polyline id="BEL_392-BEL_643" class="cls-8" points="953 355.02 953 363.02 1231 363.02 1231 531.02 537 531.02 537 801.02 524 801.02"/>
      <polyline id="BEL_392-BEL_644" class="cls-8" points="953 355.02 953 363.02 1231 363.02 1231 531.02 537 531.02 537 801.02 524 801.02"/>
      <polyline id="BEL_392-BEL_646" class="cls-8" points="1109 497.02 1109 529.02 535 529.02 535 801.02 524 801.02"/>
      <polyline id="BEL_392-BEL_652" class="cls-8" points="1411 365.02 1411 395.02 1237 395.02 1237 531.02 537 531.02 537 803.02 524 803.02"/>
      <polyline id="BEL_392-BEL_656" class="cls-8" points="1313 365.02 1313 395.02 1237 395.02 1237 531.02 537 531.02 537 803.02 524 803.02"/>
      <polyline id="BEL_392-BEL_654" class="cls-8" points="1265 77.02 1243 77.02 1243 535.02 535 535.02 535 803.02 524 803.02"/>
      <polyline id="BEL_392-BEL_655" class="cls-8" points="1265 215.02 1243 215.02 1243 535.02 535 535.02 535 803.02 524 803.02"/>
      <polyline id="BEL_392-BEL_657" class="cls-8" points="1691 427.02 1691 409.02 1237 409.02 1237 535.02 537 535.02 537 799.02 524 799.02"/>
      <polyline id="BEL_392-BEL_659" class="cls-8" points="1507 427.02 1507 409.02 1237 409.02 1237 535.02 537 535.02 537 799.02 524 799.02"/>
      <polyline id="BEL_392-BEL_661" class="cls-8" points="1765 101.02 1765 399.02 1237 399.02 1237 541.02 535 541.02 535 801.02 524 801.02"/>
      <polyline id="BEL_392-BEL_663" class="cls-8" points="539 217.02 525 217.02 537 799.02 524 799.02"/>
      <polyline id="BEL_392-BEL_664" class="cls-8" points="539 323.02 525 323.02 537 799.02 524 799.02"/>
      <path id="BEL_392-BEL_843" class="cls-8" d="M566,1378s20,2,20,0V1260H574" transform="translate(-47 -458.98)"/>
      <polyline id="BEL_392-BEL_841" class="cls-8" points="1843 741.02 1823 741.02 1823 407.02 1241 407.02 1241 527.02 537 527.02 537 801.02 524 801.02"/>
      <polyline id="BEL_392-BEL_662" class="cls-8" points="1745 263.02 1759 263.02 1759 403.02 1237 403.02 1237 533.02 535 533.02 535 801.02 524 801.02"/>
    </g>
    <g id="BEL_393-2" data-name="BEL_393">
      <polyline id="BEL_393-BEL_665" class="cls-8" points="529 687.02 535 687.02 535 801.02 524 801.02"/>
      <polyline id="BEL_393-BEL_650" class="cls-8" points="833 173.02 833 181.02 1231 181.02 1231 531.02 537 531.02 537 801.02 524 801.02"/>
      <polyline id="BEL_393-BEL_649" class="cls-8" points="833 173.02 833 181.02 1231 181.02 1231 531.02 537 531.02 537 801.02 524 801.02"/>
      <polyline id="BEL_393-BEL_642" class="cls-8" points="1123 173.02 1123 181.02 1231 181.02 1231 531.02 537 531.02 537 801.02 524 801.02"/>
      <polyline id="BEL_393-BEL_643" class="cls-8" points="953 355.02 953 363.02 1231 363.02 1231 531.02 537 531.02 537 801.02 524 801.02"/>
      <polyline id="BEL_393-BEL_644" class="cls-8" points="953 355.02 953 363.02 1231 363.02 1231 531.02 537 531.02 537 801.02 524 801.02"/>
      <polyline id="BEL_393-BEL_646" class="cls-8" points="1109 497.02 1109 529.02 535 529.02 535 801.02 524 801.02"/>
      <polyline id="BEL_393-BEL_652" class="cls-8" points="1411 365.02 1411 395.02 1237 395.02 1237 531.02 537 531.02 537 803.02 524 803.02"/>
      <polyline id="BEL_393-BEL_656" class="cls-8" points="1313 365.02 1313 395.02 1237 395.02 1237 531.02 537 531.02 537 803.02 524 803.02"/>
      <polyline id="BEL_393-BEL_654" class="cls-8" points="1265 77.02 1243 77.02 1243 535.02 535 535.02 535 803.02 524 803.02"/>
      <polyline id="BEL_393-BEL_655" class="cls-8" points="1265 215.02 1243 215.02 1243 535.02 535 535.02 535 803.02 524 803.02"/>
      <polyline id="BEL_393-BEL_657" class="cls-8" points="1691 427.02 1691 409.02 1237 409.02 1237 535.02 537 535.02 537 799.02 524 799.02"/>
      <polyline id="BEL_393-BEL_659" class="cls-8" points="1507 427.02 1507 409.02 1237 409.02 1237 535.02 537 535.02 537 799.02 524 799.02"/>
      <polyline id="BEL_393-BEL_661" class="cls-8" points="1765 101.02 1765 399.02 1237 399.02 1237 541.02 535 541.02 535 801.02 524 801.02"/>
      <polyline id="BEL_393-BEL_662" class="cls-8" points="524 801.02 535 801.02 535 541.02 1237 541.02 1237 399.02 1765 399.02 1765 253.02 1748 253.02"/>
      <polyline id="BEL_393-BEL_663" class="cls-8" points="539 217.02 525 217.02 537 799.02 524 799.02"/>
      <polyline id="BEL_393-BEL_664" class="cls-8" points="539 323.02 525 323.02 537 799.02 524 799.02"/>
      <polyline id="BEL_393-BEL_843" class="cls-8" points="519 919.02 541 919.02 541 801.02 527 801.02"/>
      <polyline id="BEL_393-BEL_841" class="cls-8" points="1845 741.02 1821 741.02 1821 405.02 1241 405.02 1241 537.02 537 537.02 537 803.02 524 803.02"/>
    </g>
    <g id="BEL_841-2" data-name="BEL_841">
      <polyline id="BEL_841-BEL_661" class="cls-8" points="1761 101.02 1761 399.02 1855 399.02 1855 727.02"/>
      <polyline id="BEL_841-BEL_662" class="cls-8" points="1741 255.02 1757 255.02 1757 397.02 1859 397.02 1859 729.02"/>
      <polyline id="BEL_841-BEL_663" class="cls-8" points="539 219.02 509 219.02 509 537.02 1233 537.02 1233 401.02 1853 401.02 1853 729.02"/>
      <polyline id="BEL_841-BEL_664" class="cls-8" points="539 323.02 509 323.02 509 537.02 1233 537.02 1233 401.02 1853 401.02 1853 729.02"/>
      <polyline id="BEL_841-BEL_665" class="cls-8" points="529 693.02 537 693.02 537 537.02 1233 537.02 1233 401.02 1853 401.02 1853 729.02"/>
      <polyline id="BEL_841-BEL_646" class="cls-8" points="1075 499.02 1075 533.02 1239 533.02 1239 401.02 1857 401.02 1857 729.02"/>
      <polyline id="BEL_841-BEL_642" class="cls-8" points="1123 167.02 1123 179.02 1239 179.02 1239 401.02 1857 401.02 1857 729.02"/>
      <polyline id="BEL_841-BEL_643" class="cls-8" points="997 351.02 997 363.02 1239 363.02 1239 401.02 1857 401.02 1857 729.02"/>
      <polyline id="BEL_841-BEL_644" class="cls-8" points="997 351.02 997 363.02 1239 363.02 1239 401.02 1857 401.02 1857 729.02"/>
      <polyline id="BEL_841-BEL_649" class="cls-8" points="839 167.02 839 179.02 1239 179.02 1239 401.02 1857 401.02 1857 729.02"/>
      <polyline id="BEL_841-BEL_650" class="cls-8" points="839 167.02 839 179.02 1239 179.02 1239 401.02 1857 401.02 1857 729.02"/>
      <polyline id="BEL_841-BEL_654" class="cls-8" points="1263 87.02 1239 87.02 1239 401.02 1855 401.02 1855 727.02"/>
      <polyline id="BEL_841-BEL_655" class="cls-8" points="1263 179.02 1239 179.02 1239 401.02 1855 401.02 1855 727.02"/>
      <polyline id="BEL_841-BEL_656" class="cls-8" points="1303 367.02 1303 391.02 1851 391.02 1851 729.02"/>
      <polyline id="BEL_841-BEL_652" class="cls-8" points="1451 367.02 1451 391.02 1851 391.02 1851 729.02"/>
      <polyline id="BEL_841-BEL_659" class="cls-8" points="1491 427.02 1491 401.02 1851 401.02 1851 729.02"/>
      <polyline id="BEL_841-BEL_657" class="cls-8" points="1665 427.02 1665 401.02 1851 401.02 1851 729.02"/>
    </g>
    <g id="BEL_843-2" data-name="BEL_843">
      <polyline id="BEL_843-BEL_665" class="cls-8" points="529 687.02 535 687.02 535 917.02 519 917.02"/>
      <polyline id="BEL_843-BEL_650" class="cls-8" points="833 173.02 833 181.02 1231 181.02 1231 531.02 537 531.02 537 919.02 519 919.02"/>
      <polyline id="BEL_843-BEL_649" class="cls-8" points="833 173.02 833 181.02 1231 181.02 1231 531.02 537 531.02 537 919.02 519 919.02"/>
      <polyline id="BEL_843-BEL_642" class="cls-8" points="1123 173.02 1123 181.02 1231 181.02 1231 531.02 537 531.02 537 919.02 519 919.02"/>
      <polyline id="BEL_843-BEL_643" class="cls-8" points="953 355.02 953 363.02 1231 363.02 1231 531.02 537 531.02 537 919.02 519 919.02"/>
      <polyline id="BEL_843-BEL_644" class="cls-8" points="953 355.02 953 363.02 1231 363.02 1231 531.02 537 531.02 537 921.02 519 921.02"/>
      <polyline id="BEL_843-BEL_646" class="cls-8" points="1109 497.02 1109 529.02 535 529.02 535 921.02 519 921.02"/>
      <polyline id="BEL_843-BEL_652" class="cls-8" points="1411 365.02 1411 395.02 1237 395.02 1237 531.02 537 531.02 537 921.02 519 921.02"/>
      <polyline id="BEL_843-BEL_656" class="cls-8" points="1313 365.02 1313 395.02 1237 395.02 1237 531.02 537 531.02 537 917.02 519 917.02"/>
      <polyline id="BEL_843-BEL_654" class="cls-8" points="1265 77.02 1243 77.02 1243 535.02 535 535.02 535 919.02 519 919.02"/>
      <polyline id="BEL_843-BEL_655" class="cls-8" points="1265 215.02 1243 215.02 1243 535.02 535 535.02 535 921.02 519 921.02"/>
      <polyline id="BEL_843-BEL_657" class="cls-8" points="1691 427.02 1691 409.02 1237 409.02 1237 535.02 537 535.02 537 919.02 519 919.02"/>
      <polyline id="BEL_843-BEL_659" class="cls-8" points="1507 427.02 1507 409.02 1237 409.02 1237 535.02 537 535.02 537 919.02 519 919.02"/>
      <polyline id="BEL_843-BEL_661" class="cls-8" points="1765 101.02 1765 399.02 1237 399.02 1237 541.02 535 541.02 535 919.02 519 919.02"/>
      <polyline id="BEL_843-BEL_662" class="cls-8" points="519 919.02 535 919.02 535 541.02 1237 541.02 1237 399.02 1765 399.02 1765 253.02 1748 253.02"/>
      <polyline id="BEL_843-BEL_663" class="cls-8" points="539 217.02 525 217.02 537 921.02 519 921.02"/>
      <polyline id="BEL_843-BEL_664" class="cls-8" points="539 323.02 525 323.02 537 921.02 519 921.02"/>
    </g>
  </g>
  <g id="icons">
    <g>
      <g>
        <rect x="554.11" y="411.13" width="55.78" height="55.78"/>
        <path class="cls-9" d="M654.68,872.32v51.36H603.32V872.32h51.36m2.21-2.21H601.11v55.78h55.78V870.11Z" transform="translate(-47 -458.98)"/>
      </g>
      <g>
        <g>
          <g>
            <path class="cls-9" d="M614.49,887a2.76,2.76,0,1,0-2.76-2.76A2.77,2.77,0,0,0,614.49,887Z" transform="translate(-47 -458.98)"/>
            <path class="cls-10" d="M614.49,884.23" transform="translate(-47 -458.98)"/>
          </g>
          <path class="cls-9" d="M611.54,887.6a3.54,3.54,0,0,0-3.53,3.58v8.47a1.21,1.21,0,1,0,2.41,0V891.9H611v21.21a1.61,1.61,0,1,0,3.21,0V900.8h.55v12.31a1.62,1.62,0,1,0,3.23,0V891.9h.56v7.75a1.2,1.2,0,1,0,2.39,0v-8.42a3.59,3.59,0,0,0-3.57-3.63Z" transform="translate(-47 -458.98)"/>
        </g>
        <g>
          <g>
            <path class="cls-9" d="M642.38,886.88a2.71,2.71,0,1,0-2.7-2.71A2.71,2.71,0,0,0,642.38,886.88Z" transform="translate(-47 -458.98)"/>
            <path class="cls-10" d="M642.38,884.17" transform="translate(-47 -458.98)"/>
          </g>
          <path class="cls-9" d="M642,904v9.36a1.27,1.27,0,0,1-2.55,0v-9.3H636l3.66-12.69h-.57L637,898.56a1.15,1.15,0,1,1-2.16-.75l2.37-7.79a3.57,3.57,0,0,1,3.31-2.46h3.72a3.7,3.7,0,0,1,3.35,2.46l2.36,7.78c.47,1.67-1.65,2.36-2.16.73l-2.13-7.13H645l3.69,12.69h-3.43v9.31a1.27,1.27,0,0,1-2.54,0V904Z" transform="translate(-47 -458.98)"/>
        </g>
        <line class="cls-11" x1="581.42" y1="456.05" x2="581.42" y2="422.49"/>
      </g>
    </g>
    <g>
      <g>
        <rect x="1053.92" y="1104.42" width="59.52" height="59.52" transform="translate(-41.16 -464.53) rotate(0.29)"/>
        <path class="cls-9" d="M1111.22,1106.92l-.28,54.8-54.8-.28.28-54.8,54.8.28m2.37-2.35-59.52-.3-.3,59.51,59.51.31.31-59.52Z" transform="translate(-47 -458.98)"/>
      </g>
      <path class="cls-9" d="M1076.81,1152.19l-12.55-.06a2.42,2.42,0,0,1,0-4.84l7.71,0,.06-11.63,10,0,.06-11,9.42,0,0-8.61,11.56.06a2.42,2.42,0,1,1,0,4.84l-6.73,0,0,8.61-9.42-.05-.05,11-10,0Z" transform="translate(-47 -458.98)"/>
    </g>
    <g>
      <g>
        <rect x="867.99" y="1104.42" width="59.52" height="59.52" transform="translate(-41.17 -463.58) rotate(0.29)"/>
        <path class="cls-9" d="M925.29,1106.92l-.28,54.8-54.8-.28.28-54.8,54.8.28m2.37-2.35-59.51-.3-.31,59.51,59.52.31.3-59.52Z" transform="translate(-47 -458.98)"/>
      </g>
      <path class="cls-9" d="M890.89,1152.19l-12.55-.06a2.42,2.42,0,0,1,0-4.84l7.71,0,.06-11.63,10,0,0-11,9.42,0,0-8.61,11.57.06a2.42,2.42,0,0,1,0,4.84l-6.73,0,0,8.61-9.42-.05-.05,11-9.95,0Z" transform="translate(-47 -458.98)"/>
    </g>
    <polygon id="_Path_" data-name="&lt;Path&gt;" class="cls-12" points="512.71 799.53 484.3 788.13 485.02 812.58 512.71 799.53"/>
    <g>
      <g>
        <rect x="553.21" y="192.76" width="57.59" height="57.59"/>
        <path class="cls-9" d="M655.51,654v53h-53V654h53m2.28-2.28H600.21v57.59h57.58V651.75Z" transform="translate(-47 -458.98)"/>
      </g>
      <g>
        <path class="cls-9" d="M607,690.73a.76.76,0,0,0,.67.39h3.76a.78.78,0,0,0,.66-.38l4.77-8.1h2.55v7.71a.78.78,0,0,0,.77.77H624a.77.77,0,0,0,.77-.77V669a.76.76,0,0,0-.77-.77h-8a8,8,0,0,0-5.56,1.91,6.68,6.68,0,0,0-2.15,5.18,6.9,6.9,0,0,0,1.21,4.05,7.14,7.14,0,0,0,2.62,2.21L607,690A.78.78,0,0,0,607,690.73Zm12.41-12.53h-3c-2,0-2.82-.83-2.82-2.77s.82-2.78,2.73-2.78h3.06Z" transform="translate(-47 -458.98)"/>
        <path class="cls-9" d="M651,690l-5.07-8.38a7.14,7.14,0,0,0,2.62-2.21,6.9,6.9,0,0,0,1.21-4.05,6.68,6.68,0,0,0-2.15-5.18,8,8,0,0,0-5.56-1.91h-8a.76.76,0,0,0-.77.77v21.36a.77.77,0,0,0,.77.77h3.76a.78.78,0,0,0,.77-.77v-7.71h2.55l4.77,8.1a.78.78,0,0,0,.66.38h3.76a.76.76,0,0,0,.67-.39A.78.78,0,0,0,651,690Zm-12.4-17.3h3.06c1.91,0,2.73.83,2.73,2.78s-.84,2.77-2.82,2.77h-3Z" transform="translate(-47 -458.98)"/>
        <path class="cls-9" d="M628.77,691.5a.38.38,0,0,1-.38-.38v-22.9a.39.39,0,1,1,.77,0v22.9A.38.38,0,0,1,628.77,691.5Z" transform="translate(-47 -458.98)"/>
      </g>
    </g>
    <g>
      <g>
        <rect x="553.21" y="295.39" width="57.59" height="57.59"/>
        <path class="cls-9" d="M655.51,756.65v53h-53v-53h53m2.28-2.28H600.21V812h57.58V754.37Z" transform="translate(-47 -458.98)"/>
      </g>
      <g>
        <path class="cls-9" d="M629,774.67a5.52,5.52,0,1,0-5.52-5.52A5.52,5.52,0,0,0,629,774.67Z" transform="translate(-47 -458.98)"/>
        <path class="cls-9" d="M629,786.2h-5.83V782l-4.46,4.49c-2,2-4.75-.57-2.73-2.58l7.38-7.41a3,3,0,0,1,2.3-1h6.62a3.15,3.15,0,0,1,2.36,1L642.1,784a1.89,1.89,0,1,1-2.73,2.59L634.79,782v4.23H629Z" transform="translate(-47 -458.98)"/>
        <path class="cls-9" d="M634.77,788.39l-4.39,4.38L633.6,796l-3.3,3.3a1.94,1.94,0,1,0,2.75,2.71l5.22-5.42a3.29,3.29,0,0,0,.23-4.45Z" transform="translate(-47 -458.98)"/>
        <path class="cls-9" d="M623.16,788.39l4.38,4.38L624.32,796l3.3,3.3a1.94,1.94,0,1,1-2.75,2.71l-5.22-5.42a3.29,3.29,0,0,1-.22-4.45Z" transform="translate(-47 -458.98)"/>
      </g>
    </g>
    <g>
      <g>
        <rect x="1292.11" y="470.13" width="55.78" height="55.78"/>
        <path class="cls-9" d="M1392.68,931.32v51.36h-51.36V931.32h51.36m2.21-2.21h-55.78v55.78h55.78V929.11Z" transform="translate(-47 -458.98)"/>
      </g>
      <g>
        <g>
          <g>
            <path class="cls-9" d="M1352.49,946a2.76,2.76,0,1,0-2.76-2.76A2.77,2.77,0,0,0,1352.49,946Z" transform="translate(-47 -458.98)"/>
            <path class="cls-10" d="M1352.49,943.23" transform="translate(-47 -458.98)"/>
          </g>
          <path class="cls-9" d="M1349.54,946.6a3.54,3.54,0,0,0-3.53,3.58v8.47a1.21,1.21,0,1,0,2.41,0V950.9h.57v21.21a1.61,1.61,0,1,0,3.21,0V959.8h.55v12.31a1.62,1.62,0,1,0,3.23,0V950.9h.56v7.75a1.2,1.2,0,1,0,2.39,0v-8.42a3.59,3.59,0,0,0-3.57-3.63Z" transform="translate(-47 -458.98)"/>
        </g>
        <g>
          <g>
            <path class="cls-9" d="M1380.38,945.88a2.71,2.71,0,1,0-2.7-2.71A2.71,2.71,0,0,0,1380.38,945.88Z" transform="translate(-47 -458.98)"/>
            <path class="cls-10" d="M1380.38,943.17" transform="translate(-47 -458.98)"/>
          </g>
          <path class="cls-9" d="M1380,963v9.36a1.28,1.28,0,0,1-2.55,0v-9.3H1374l3.66-12.69h-.57l-2.13,7.16a1.15,1.15,0,1,1-2.16-.75l2.37-7.79a3.57,3.57,0,0,1,3.31-2.46h3.72a3.7,3.7,0,0,1,3.35,2.46l2.36,7.78c.47,1.67-1.65,2.36-2.16.73l-2.13-7.13H1383l3.69,12.69h-3.43v9.31a1.27,1.27,0,0,1-2.54,0V963Z" transform="translate(-47 -458.98)"/>
        </g>
        <line class="cls-11" x1="1319.42" y1="515.05" x2="1319.42" y2="481.49"/>
      </g>
    </g>
    <g>
      <g>
        <rect x="1732.95" y="506.99" width="55.78" height="55.78"/>
        <path class="cls-9" d="M1833.52,968.19v51.36h-51.36V968.19h51.36m2.21-2.21H1780v55.78h55.78V966Z" transform="translate(-47 -458.98)"/>
      </g>
      <g>
        <g>
          <g>
            <path class="cls-9" d="M1793.33,982.85a2.76,2.76,0,1,0-2.76-2.75A2.76,2.76,0,0,0,1793.33,982.85Z" transform="translate(-47 -458.98)"/>
            <path class="cls-10" d="M1793.33,980.1" transform="translate(-47 -458.98)"/>
          </g>
          <path class="cls-9" d="M1790.38,983.46a3.55,3.55,0,0,0-3.53,3.58v8.47a1.21,1.21,0,1,0,2.41,0v-7.74h.57V1009a1.61,1.61,0,1,0,3.21,0V996.67h.55V1009a1.62,1.62,0,1,0,3.23,0V987.77h.56v7.74a1.2,1.2,0,1,0,2.39,0v-8.42a3.59,3.59,0,0,0-3.57-3.62Z" transform="translate(-47 -458.98)"/>
        </g>
        <g>
          <g>
            <path class="cls-9" d="M1821.22,982.74a2.7,2.7,0,1,0-2.7-2.7A2.7,2.7,0,0,0,1821.22,982.74Z" transform="translate(-47 -458.98)"/>
            <path class="cls-10" d="M1821.22,980" transform="translate(-47 -458.98)"/>
          </g>
          <path class="cls-9" d="M1820.82,999.9v9.36a1.27,1.27,0,1,1-2.54,0V1000h-3.42l3.66-12.7h-.57l-2.13,7.17a1.15,1.15,0,1,1-2.16-.76l2.37-7.78a3.56,3.56,0,0,1,3.32-2.46h3.71a3.7,3.7,0,0,1,3.35,2.46l2.36,7.78c.48,1.67-1.65,2.36-2.16.73l-2.13-7.14h-.61l3.69,12.7h-3.43v9.31a1.27,1.27,0,0,1-2.54,0V999.9Z" transform="translate(-47 -458.98)"/>
        </g>
        <line class="cls-11" x1="1760.26" y1="551.92" x2="1760.26" y2="518.35"/>
      </g>
    </g>
    <polygon id="_Path_2" data-name="&lt;Path&gt;" class="cls-13" points="524.02 800.68 480.71 782.15 480.71 819.21 524.02 800.68"/>
  </g>
  <g id="labels">
    <g>
      <path class="cls-9" d="M1754.71,514.62l.19-18.69,7.2.07a6.59,6.59,0,0,1,4.59,1.59,5.34,5.34,0,0,1,1.66,4.19,5,5,0,0,1-.92,2.91,5.85,5.85,0,0,1-2.53,2l4.56,8.09-4.18,0-4-7.29-2.64,0-.07,7.26Zm4-10,2.8,0a2.52,2.52,0,0,0,2.86-2.83,2.46,2.46,0,0,0-2.75-2.83l-2.86,0Z" transform="translate(-47 -458.98)"/>
      <path class="cls-9" d="M1771.62,514.79l.18-18.69,12.3.12,0,3.13-8.25-.08,0,4.42,6.71.07,0,3.12-6.72-.06,0,4.88,8.25.08,0,3.13Z" transform="translate(-47 -458.98)"/>
      <path class="cls-9" d="M1790.62,502l-.13,13-3.55,0,.18-18.69,4.31,0,7.48,13.16.13-13.08,3.56,0-.19,18.69-4.31,0Z" transform="translate(-47 -458.98)"/>
      <path class="cls-9" d="M1806,505.77a11.76,11.76,0,0,1,1.12-5.17,7.77,7.77,0,0,1,3.16-3.38,10.66,10.66,0,0,1,9.75.06,7.8,7.8,0,0,1,3.13,3.39,11.5,11.5,0,0,1,1.07,5.28,11.76,11.76,0,0,1-1.12,5.17,7.85,7.85,0,0,1-3.16,3.39,9.47,9.47,0,0,1-4.93,1.16,9.65,9.65,0,0,1-4.82-1.2,7.82,7.82,0,0,1-3.13-3.4A11.64,11.64,0,0,1,1806,505.77Zm4.15,0a8,8,0,0,0,1.22,4.87,4.93,4.93,0,0,0,7.39.07,8,8,0,0,0,1.32-4.84,7.89,7.89,0,0,0-1.22-4.85,4.94,4.94,0,0,0-7.39-.08A7.85,7.85,0,0,0,1810.16,505.81Z" transform="translate(-47 -458.98)"/>
      <path class="cls-9" d="M1827.76,515.34l.18-18.69,4,0-.19,18.69Z" transform="translate(-47 -458.98)"/>
      <path class="cls-9" d="M1836,515.42l.18-18.68,7.2.07a6.63,6.63,0,0,1,4.6,1.58,5.35,5.35,0,0,1,1.65,4.2,5,5,0,0,1-.91,2.9,6,6,0,0,1-2.53,2l4.56,8.08-4.18,0-4-7.3-2.64,0-.07,7.25Zm4-10,2.8,0c1.89,0,2.84-.92,2.86-2.83a2.47,2.47,0,0,0-2.75-2.83l-2.86,0Z" transform="translate(-47 -458.98)"/>
      <path class="cls-9" d="M1864.81,515.71,1865,501l-4.81,1.46,0-3.07,5.28-2.32,3.53,0-.18,18.69Z" transform="translate(-47 -458.98)"/>
    </g>
    <g>
      <path class="cls-9" d="M1330.71,522.86l.11-11.09,4,0a3.94,3.94,0,0,1,2.58.84,2.63,2.63,0,0,1,1,2.14,2.58,2.58,0,0,1-.39,1.39,2.47,2.47,0,0,1-1.12.9,2.93,2.93,0,0,1,1.55,1,3,3,0,0,1-.58,4,4.51,4.51,0,0,1-2.89.82Zm2.32-4.81,0,3.12,1.88,0c1.09,0,1.64-.5,1.65-1.52s-.57-1.59-1.73-1.61Zm0-4.55,0,2.92h1.39c1,0,1.56-.47,1.57-1.42s-.46-1.48-1.41-1.49Z" transform="translate(-47 -458.98)"/>
      <path class="cls-9" d="M1340.66,523l.11-11.09,7.29.07,0,1.86-4.89,0,0,2.62,4,0,0,1.86-4,0,0,2.89,4.89,0,0,1.86Z" transform="translate(-47 -458.98)"/>
      <path class="cls-9" d="M1349.75,523l.11-11.08,2.4,0-.1,9.17,4.87.05,0,1.92Z" transform="translate(-47 -458.98)"/>
      <path class="cls-9" d="M1358.27,523.13l.11-11.09,2.4,0-.09,9.16,4.86,0v1.92Z" transform="translate(-47 -458.98)"/>
      <path class="cls-9" d="M1373.94,523.28l-.76-2.53-3.79,0-.78,2.52-2.51,0,4-11.05,2.64,0,3.79,11.13Zm-4-4.29,2.78,0-1.36-4.66Z" transform="translate(-47 -458.98)"/>
      <path class="cls-9" d="M1382.88,521.66a10.82,10.82,0,0,0,1.18-.07l0-2.7-2.08,0,0-1.73,4.29,0-.06,5.55a6.44,6.44,0,0,1-1.8.61,9.93,9.93,0,0,1-2.11.2,5.25,5.25,0,0,1-4-1.49,5.76,5.76,0,0,1-1.36-4.16,6,6,0,0,1,1.49-4.33,5.57,5.57,0,0,1,4.22-1.45,7.45,7.45,0,0,1,3.24.68l0,1.83a10.11,10.11,0,0,0-3-.56,3.45,3.45,0,0,0-2.62.86,4,4,0,0,0-.86,2.79V518a3.89,3.89,0,0,0,.79,2.77A3.46,3.46,0,0,0,1382.88,521.66Z" transform="translate(-47 -458.98)"/>
      <path class="cls-9" d="M1388.53,523.43l.11-11.09,2.4,0-.11,11.09Z" transform="translate(-47 -458.98)"/>
      <path class="cls-9" d="M1393.13,517.92a7,7,0,0,1,.66-3.06,4.61,4.61,0,0,1,1.87-2,5.7,5.7,0,0,1,2.93-.68,5.8,5.8,0,0,1,2.86.71,4.76,4.76,0,0,1,1.86,2,7.77,7.77,0,0,1,0,6.2,4.65,4.65,0,0,1-1.88,2,6.27,6.27,0,0,1-5.78,0,4.56,4.56,0,0,1-1.86-2A6.65,6.65,0,0,1,1393.13,517.92Zm2.46,0a4.74,4.74,0,0,0,.72,2.88,2.58,2.58,0,0,0,2.18,1,2.62,2.62,0,0,0,2.21-1,4.84,4.84,0,0,0,.78-2.88,4.63,4.63,0,0,0-.73-2.87,2.56,2.56,0,0,0-2.18-1,2.59,2.59,0,0,0-2.2,1A4.65,4.65,0,0,0,1395.59,518Z" transform="translate(-47 -458.98)"/>
      <path class="cls-9" d="M1325.14,542l.11-11.08,4,0a3.92,3.92,0,0,1,2.58.84,2.62,2.62,0,0,1,1,2.13,2.45,2.45,0,0,1-.39,1.4,2.35,2.35,0,0,1-1.12.89,3,3,0,0,1,1.55,1,2.66,2.66,0,0,1,.52,1.71,2.77,2.77,0,0,1-1.09,2.28,4.53,4.53,0,0,1-2.89.81Zm2.32-4.81,0,3.12,1.89,0c1.09,0,1.64-.49,1.64-1.52s-.56-1.59-1.72-1.6Zm0-4.54,0,2.91,1.39,0c1,0,1.56-.47,1.57-1.43a1.28,1.28,0,0,0-1.41-1.48Z" transform="translate(-47 -458.98)"/>
      <path class="cls-9" d="M1341.75,542.17l-.76-2.54-3.79,0-.78,2.52-2.51,0,4-11.05,2.64,0,3.8,11.12Zm-4-4.3,2.79,0-1.36-4.65Z" transform="translate(-47 -458.98)"/>
      <path class="cls-9" d="M1345.57,542.21l.11-11.09,2.4,0-.09,9.17,4.86.05,0,1.92Z" transform="translate(-47 -458.98)"/>
      <path class="cls-9" d="M1354.1,542.29l.11-11.09,2.4,0-.09,9.16,4.86.05,0,1.92Z" transform="translate(-47 -458.98)"/>
      <path class="cls-9" d="M1362.63,542.37l.11-11.08,4.27,0a3.87,3.87,0,0,1,2.72.94,3.16,3.16,0,0,1,1,2.49,3,3,0,0,1-.55,1.72,3.38,3.38,0,0,1-1.5,1.18l2.71,4.8-2.48,0-2.36-4.33-1.57,0,0,4.31Zm2.36-5.94h1.66a1.48,1.48,0,0,0,1.7-1.67,1.46,1.46,0,0,0-1.63-1.68l-1.7,0Z" transform="translate(-47 -458.98)"/>
      <path class="cls-9" d="M1372.07,536.91a7,7,0,0,1,.66-3.06,4.63,4.63,0,0,1,1.88-2,5.8,5.8,0,0,1,2.93-.68,5.66,5.66,0,0,1,2.85.72,4.54,4.54,0,0,1,1.86,2,6.76,6.76,0,0,1,.64,3.13,7,7,0,0,1-.67,3.07,4.61,4.61,0,0,1-1.87,2,5.7,5.7,0,0,1-2.93.69,5.8,5.8,0,0,1-2.86-.71,4.65,4.65,0,0,1-1.85-2A6.84,6.84,0,0,1,1372.07,536.91Zm2.47,0a4.64,4.64,0,0,0,.72,2.89,2.92,2.92,0,0,0,4.38,0,4.67,4.67,0,0,0,.78-2.87,4.58,4.58,0,0,0-.72-2.88,2.94,2.94,0,0,0-4.39,0A4.74,4.74,0,0,0,1374.54,536.94Z" transform="translate(-47 -458.98)"/>
      <path class="cls-9" d="M1384.65,537a7,7,0,0,1,.66-3.07,4.55,4.55,0,0,1,1.88-2,5.66,5.66,0,0,1,2.92-.69,5.8,5.8,0,0,1,2.86.72,4.7,4.7,0,0,1,1.86,2,7.77,7.77,0,0,1,0,6.2,4.63,4.63,0,0,1-1.88,2,5.57,5.57,0,0,1-2.92.7,5.7,5.7,0,0,1-2.86-.72,4.61,4.61,0,0,1-1.86-2A6.83,6.83,0,0,1,1384.65,537Zm2.46,0a4.77,4.77,0,0,0,.72,2.89,2.93,2.93,0,0,0,4.39,0,4.65,4.65,0,0,0,.78-2.87,4.72,4.72,0,0,0-.72-2.88,2.95,2.95,0,0,0-4.39,0A4.62,4.62,0,0,0,1387.11,537.06Z" transform="translate(-47 -458.98)"/>
      <path class="cls-9" d="M1406.64,542.81l.07-7.68-2.49,5-2.15,0-2.39-5-.08,7.68-2.11,0,.11-11.09,2.62,0,3,6.33,3.11-6.27,2.57,0-.11,11.09Z" transform="translate(-47 -458.98)"/>
      <path class="cls-9" d="M1363,559.35a10.73,10.73,0,0,0,3.17.64,2.15,2.15,0,0,0,1.5-.43,1.66,1.66,0,0,0,.53-1.31,1.5,1.5,0,0,0-.5-1.27,2.53,2.53,0,0,0-1.58-.43,23,23,0,0,0-2.63.14l0-1.44.33-4.75,6.29.06,0,1.82-4.32,0-.2,2.62a5.67,5.67,0,0,1,1.38-.14,3.71,3.71,0,0,1,2.63.94,3.21,3.21,0,0,1,1,2.47,3.61,3.61,0,0,1-.53,1.88,3.52,3.52,0,0,1-1.5,1.29,5.16,5.16,0,0,1-2.28.45,8.2,8.2,0,0,1-3.27-.7Z" transform="translate(-47 -458.98)"/>
    </g>
    <g>
      <path class="cls-9" d="M1709.27,726a8.87,8.87,0,0,0,1.18-.07l0-2.7-2.08,0v-1.73l4.29,0,0,5.56a7,7,0,0,1-1.8.6,10.71,10.71,0,0,1-2.11.21,5.29,5.29,0,0,1-4-1.5,5.71,5.71,0,0,1-1.36-4.16,6,6,0,0,1,1.49-4.33,5.59,5.59,0,0,1,4.21-1.45,7.39,7.39,0,0,1,3.25.69l0,1.82a10.17,10.17,0,0,0-3-.56,3.44,3.44,0,0,0-2.62.87,4,4,0,0,0-.86,2.78v.29a3.91,3.91,0,0,0,.8,2.76A3.43,3.43,0,0,0,1709.27,726Z" transform="translate(-47 -458.98)"/>
      <path class="cls-9" d="M1721.5,727.8l-.75-2.54-3.8,0-.77,2.52-2.52,0,4-11.05,2.64,0,3.79,11.12Zm-4-4.3,2.79,0-1.37-4.66Z" transform="translate(-47 -458.98)"/>
      <path class="cls-9" d="M1731.64,716.81l2.4,0-.07,7a4.2,4.2,0,0,1-1.22,3.19,4.72,4.72,0,0,1-3.39,1.11A4.77,4.77,0,0,1,1726,727a4.25,4.25,0,0,1-1.16-3.23l.07-7,2.4,0-.07,7.12a2.39,2.39,0,0,0,.54,1.71,2.1,2.1,0,0,0,1.62.6,2.15,2.15,0,0,0,1.62-.56,2.39,2.39,0,0,0,.57-1.7Z" transform="translate(-47 -458.98)"/>
      <path class="cls-9" d="M1741.87,726.29a11.13,11.13,0,0,0,1.19-.07l0-2.71-2.08,0,0-1.73,4.29,0-.06,5.55a6.79,6.79,0,0,1-1.8.6,9.94,9.94,0,0,1-2.11.21,5.31,5.31,0,0,1-4-1.5,5.78,5.78,0,0,1-1.36-4.16,6,6,0,0,1,1.49-4.32,5.58,5.58,0,0,1,4.22-1.46,7.31,7.31,0,0,1,3.24.69l0,1.82a9.76,9.76,0,0,0-3-.55,3.37,3.37,0,0,0-2.62.86,4,4,0,0,0-.86,2.78v.29a3.91,3.91,0,0,0,.79,2.77A3.54,3.54,0,0,0,1741.87,726.29Z" transform="translate(-47 -458.98)"/>
      <path class="cls-9" d="M1754.25,717l2.4,0-.07,7a4.22,4.22,0,0,1-1.22,3.19,5.64,5.64,0,0,1-6.77-.06,4.24,4.24,0,0,1-1.16-3.24l.07-7,2.4,0-.07,7.12a2.38,2.38,0,0,0,.54,1.71,2.52,2.52,0,0,0,3.23,0,2.37,2.37,0,0,0,.58-1.7Z" transform="translate(-47 -458.98)"/>
      <path class="cls-9" d="M1758.94,728.17l.11-11.09,2.4,0-.11,11.09Z" transform="translate(-47 -458.98)"/>
      <path class="cls-9" d="M1766,720.54l-.07,7.69-2.12,0,.12-11.08,2.55,0,4.44,7.81.08-7.76,2.11,0L1773,728.3l-2.56,0Z" transform="translate(-47 -458.98)"/>
      <path class="cls-9" d="M1779.41,718.29a6.09,6.09,0,0,1,1.76-1,6,6,0,0,1,1.9-.28,3.43,3.43,0,0,1,2.43.88,2.88,2.88,0,0,1,.9,2.24,3.9,3.9,0,0,1-.48,1.73,10.8,10.8,0,0,1-1.5,2,36,36,0,0,1-2.73,2.63l5.09.05,0,1.86-7.74-.08,0-1.72c1.38-1.37,2.41-2.43,3.09-3.2a11.51,11.51,0,0,0,1.43-1.85,2.7,2.7,0,0,0,.4-1.29,1.19,1.19,0,0,0-.36-.95,1.37,1.37,0,0,0-1-.36,4.35,4.35,0,0,0-1.54.31,7.46,7.46,0,0,0-1.69.89Z" transform="translate(-47 -458.98)"/>
    </g>
    <g>
      <path class="cls-9" d="M537.58,1141.91l0-4.72-4.41,0-.05,4.72-2.4,0,.11-11.09,2.4,0,0,4.51,4.41,0,.05-4.51,2.4,0-.11,11.09Z" transform="translate(-47 -458.98)"/>
      <path class="cls-9" d="M542.38,1142l.11-11.09,7.29.08,0,1.85-4.89,0,0,2.63,4,0,0,1.85-4,0,0,2.9,4.9,0,0,1.85Z" transform="translate(-47 -458.98)"/>
      <path class="cls-9" d="M551.46,1142.05l.11-11.09,2.4,0-.09,9.16,4.87,0,0,1.92Z" transform="translate(-47 -458.98)"/>
      <path class="cls-9" d="M562.37,1138.11l0,4.05-2.34,0,.11-11.08,4.24,0a3.84,3.84,0,0,1,2.73,1,3.8,3.8,0,0,1-.05,5.15,3.88,3.88,0,0,1-2.75.92Zm0-1.79H564a1.58,1.58,0,0,0,1.22-.42,1.75,1.75,0,0,0,.44-1.29,1.77,1.77,0,0,0-.41-1.29,1.59,1.59,0,0,0-1.22-.45l-1.63,0Z" transform="translate(-47 -458.98)"/>
      <path class="cls-9" d="M530,1161l.11-11.09,4,0a5,5,0,0,1,3.8,1.47,7,7,0,0,1-.08,8.21,4.88,4.88,0,0,1-3.79,1.41Zm2.49-9.21-.07,7.38h1.38c1.93,0,2.9-1.15,2.93-3.51v-.32c0-2.34-.94-3.53-2.88-3.55Z" transform="translate(-47 -458.98)"/>
      <path class="cls-9" d="M541.23,1161.15l.11-11.09,7.29.07V1152l-4.9,0,0,2.63,4,0,0,1.85-4,0,0,2.9,4.89,0,0,1.85Z" transform="translate(-47 -458.98)"/>
      <path class="cls-9" d="M552.52,1156.41a4.64,4.64,0,0,1-2-1.31,3,3,0,0,1-.61-1.93,2.93,2.93,0,0,1,1.14-2.39,4.57,4.57,0,0,1,3-.86,8.6,8.6,0,0,1,3.07.6l0,1.83a9.84,9.84,0,0,0-2.88-.51c-1.25,0-1.89.38-1.9,1.2a.93.93,0,0,0,.33.73,3.85,3.85,0,0,0,1.21.62l1.18.45a5.09,5.09,0,0,1,2.11,1.29,2.75,2.75,0,0,1,.61,1.9,3.15,3.15,0,0,1-1.21,2.59,5,5,0,0,1-3.25.92,9.79,9.79,0,0,1-1.79-.18,6.58,6.58,0,0,1-1.53-.48v-1.82a12.23,12.23,0,0,0,1.71.4,10.4,10.4,0,0,0,1.65.16,2.55,2.55,0,0,0,1.46-.33,1.12,1.12,0,0,0,.52-1,1,1,0,0,0-.31-.78,3.92,3.92,0,0,0-1.24-.66Z" transform="translate(-47 -458.98)"/>
      <path class="cls-9" d="M559.51,1161.33l.11-11.09,2.4,0,0,4.75,4.06-4.71,2.7,0-4.56,5.11,4.84,6-2.87,0-4.18-5.31-.06,5.26Z" transform="translate(-47 -458.98)"/>
    </g>
    <g>
      <path class="cls-9" d="M1330.71,642.23l.11-11.08,4,0a3.94,3.94,0,0,1,2.58.84,2.79,2.79,0,0,1,.57,3.53,2.45,2.45,0,0,1-1.12.89,3,3,0,0,1,1.55,1,3,3,0,0,1-.58,4,4.51,4.51,0,0,1-2.89.81Zm2.32-4.81,0,3.12,1.88,0c1.09,0,1.64-.49,1.65-1.52s-.57-1.59-1.73-1.6Zm0-4.54,0,2.91,1.39,0c1,0,1.56-.47,1.57-1.43s-.46-1.48-1.41-1.48Z" transform="translate(-47 -458.98)"/>
      <path class="cls-9" d="M1340.66,642.33l.11-11.09,7.29.08,0,1.85-4.89,0,0,2.63,4,0,0,1.85-4,0,0,2.9,4.89,0,0,1.85Z" transform="translate(-47 -458.98)"/>
      <path class="cls-9" d="M1349.75,642.42l.11-11.09,2.4,0-.1,9.16,4.87.05,0,1.92Z" transform="translate(-47 -458.98)"/>
      <path class="cls-9" d="M1358.27,642.51l.11-11.09,2.4,0-.09,9.17,4.86,0v1.92Z" transform="translate(-47 -458.98)"/>
      <path class="cls-9" d="M1373.94,642.66l-.76-2.54-3.79,0-.78,2.52-2.51,0,4-11.05,2.64,0,3.79,11.13Zm-4-4.3,2.78,0-1.36-4.65Z" transform="translate(-47 -458.98)"/>
      <path class="cls-9" d="M1382.88,641a10.82,10.82,0,0,0,1.18-.07l0-2.71-2.08,0,0-1.72,4.29,0-.06,5.55a7.16,7.16,0,0,1-1.8.61,9.93,9.93,0,0,1-2.11.2,5.29,5.29,0,0,1-4-1.5,5.73,5.73,0,0,1-1.36-4.15,6,6,0,0,1,1.49-4.33,5.58,5.58,0,0,1,4.22-1.46,7.31,7.31,0,0,1,3.24.69l0,1.82a10.07,10.07,0,0,0-3-.55,3.41,3.41,0,0,0-2.62.86,4,4,0,0,0-.86,2.78v.29a3.91,3.91,0,0,0,.79,2.77A3.5,3.5,0,0,0,1382.88,641Z" transform="translate(-47 -458.98)"/>
      <path class="cls-9" d="M1388.53,642.8l.11-11.08,2.4,0-.11,11.09Z" transform="translate(-47 -458.98)"/>
      <path class="cls-9" d="M1393.13,637.3a7,7,0,0,1,.66-3.07,4.53,4.53,0,0,1,1.87-2,6.29,6.29,0,0,1,5.79,0,4.76,4.76,0,0,1,1.86,2,6.89,6.89,0,0,1,.63,3.13,7,7,0,0,1-.66,3.07,4.63,4.63,0,0,1-1.88,2,5.49,5.49,0,0,1-2.93.69,5.76,5.76,0,0,1-2.85-.71,4.61,4.61,0,0,1-1.86-2A6.7,6.7,0,0,1,1393.13,637.3Zm2.46,0a4.77,4.77,0,0,0,.72,2.89,2.93,2.93,0,0,0,4.39,0,4.79,4.79,0,0,0,.78-2.87,4.65,4.65,0,0,0-.73-2.88,2.55,2.55,0,0,0-2.18-1,2.59,2.59,0,0,0-2.2,1A4.62,4.62,0,0,0,1395.59,637.32Z" transform="translate(-47 -458.98)"/>
      <path class="cls-9" d="M1325.14,661.38l.11-11.09,4,0a3.92,3.92,0,0,1,2.58.84,2.64,2.64,0,0,1,1,2.14,2.47,2.47,0,0,1-.39,1.4,2.41,2.41,0,0,1-1.12.89,3,3,0,0,1,1.55,1,2.66,2.66,0,0,1,.52,1.71,2.77,2.77,0,0,1-1.09,2.28,4.53,4.53,0,0,1-2.89.82Zm2.32-4.81,0,3.12,1.89,0c1.09,0,1.64-.5,1.64-1.52s-.56-1.59-1.72-1.6Zm0-4.54,0,2.91h1.39c1,0,1.56-.46,1.57-1.42A1.29,1.29,0,0,0,1329,652Z" transform="translate(-47 -458.98)"/>
      <path class="cls-9" d="M1341.75,661.54,1341,659l-3.79,0-.78,2.52-2.51,0,4-11.05,2.64,0,3.8,11.13Zm-4-4.29,2.79,0-1.36-4.65Z" transform="translate(-47 -458.98)"/>
      <path class="cls-9" d="M1345.57,661.58l.11-11.09,2.4,0-.09,9.16,4.86.05,0,1.92Z" transform="translate(-47 -458.98)"/>
      <path class="cls-9" d="M1354.1,661.67l.11-11.09,2.4,0-.09,9.17,4.86.05,0,1.92Z" transform="translate(-47 -458.98)"/>
      <path class="cls-9" d="M1362.63,661.75l.11-11.09,4.27,0a4,4,0,0,1,2.72.94,3.18,3.18,0,0,1,1,2.49,3,3,0,0,1-.55,1.73,3.45,3.45,0,0,1-1.5,1.18l2.71,4.8-2.48,0-2.36-4.33H1365l0,4.3Zm2.36-6,1.66,0a1.5,1.5,0,0,0,1.7-1.68,1.46,1.46,0,0,0-1.63-1.68l-1.7,0Z" transform="translate(-47 -458.98)"/>
      <path class="cls-9" d="M1372.07,656.29a7,7,0,0,1,.66-3.06,4.58,4.58,0,0,1,1.88-2,5.7,5.7,0,0,1,2.93-.68,5.76,5.76,0,0,1,2.85.71,4.64,4.64,0,0,1,1.86,2,6.8,6.8,0,0,1,.64,3.14,7,7,0,0,1-.67,3.06,4.69,4.69,0,0,1-1.87,2,6.29,6.29,0,0,1-5.79,0,4.65,4.65,0,0,1-1.85-2A6.8,6.8,0,0,1,1372.07,656.29Zm2.47,0a4.62,4.62,0,0,0,.72,2.89,2.57,2.57,0,0,0,2.18,1,2.6,2.6,0,0,0,2.2-1,4.7,4.7,0,0,0,.78-2.88,4.58,4.58,0,0,0-.72-2.88,2.58,2.58,0,0,0-2.18-1,2.61,2.61,0,0,0-2.21,1A4.71,4.71,0,0,0,1374.54,656.31Z" transform="translate(-47 -458.98)"/>
      <path class="cls-9" d="M1384.65,656.41a7,7,0,0,1,.66-3.06,4.63,4.63,0,0,1,1.88-2,5.76,5.76,0,0,1,2.92-.68,5.7,5.7,0,0,1,2.86.72,4.59,4.59,0,0,1,1.86,2,6.89,6.89,0,0,1,.63,3.13,7,7,0,0,1-.66,3.07,4.63,4.63,0,0,1-1.88,2,5.66,5.66,0,0,1-2.92.69,5.8,5.8,0,0,1-2.86-.71,4.61,4.61,0,0,1-1.86-2A6.85,6.85,0,0,1,1384.65,656.41Zm2.46,0a4.77,4.77,0,0,0,.72,2.89,2.62,2.62,0,0,0,2.19,1,2.57,2.57,0,0,0,2.2-1,5.89,5.89,0,0,0,.06-5.75,2.62,2.62,0,0,0-2.19-1,2.57,2.57,0,0,0-2.2,1A4.62,4.62,0,0,0,1387.11,656.44Z" transform="translate(-47 -458.98)"/>
      <path class="cls-9" d="M1406.64,662.18l.07-7.68-2.49,5-2.15,0-2.39-5-.08,7.67-2.11,0,.11-11.08,2.62,0,3,6.34,3.11-6.28,2.57,0-.11,11.09Z" transform="translate(-47 -458.98)"/>
      <path class="cls-9" d="M1367.84,671.46a2.36,2.36,0,0,0-2,.8,4.56,4.56,0,0,0-.77,2.6,5.37,5.37,0,0,1,2.52-.65,3.31,3.31,0,0,1,2.39.92,3.11,3.11,0,0,1,.88,2.35,3.74,3.74,0,0,1-.51,2,3.45,3.45,0,0,1-1.43,1.32,4.5,4.5,0,0,1-2.16.47,3.57,3.57,0,0,1-3-1.38,6.63,6.63,0,0,1-1-4,8.94,8.94,0,0,1,.58-3.31,4.57,4.57,0,0,1,1.64-2.13,4.28,4.28,0,0,1,2.57-.73,6.57,6.57,0,0,1,1.44.17,4.67,4.67,0,0,1,1.25.45l0,1.66a5.63,5.63,0,0,0-1.16-.32A7.24,7.24,0,0,0,1367.84,671.46Zm-1,4.51a4.38,4.38,0,0,0-1.73.38,4.89,4.89,0,0,0,.44,2.32,1.48,1.48,0,0,0,1.37.74c1.09,0,1.63-.57,1.65-1.73a1.7,1.7,0,0,0-.44-1.26A1.75,1.75,0,0,0,1366.84,676Z" transform="translate(-47 -458.98)"/>
    </g>
    <g>
      <path class="cls-9" d="M1330.71,766.23l.11-11.08,4,0a3.94,3.94,0,0,1,2.58.84,2.79,2.79,0,0,1,.57,3.53,2.45,2.45,0,0,1-1.12.89,3,3,0,0,1,1.55,1,3,3,0,0,1-.58,4,4.51,4.51,0,0,1-2.89.81Zm2.32-4.81,0,3.12,1.88,0c1.09,0,1.64-.49,1.65-1.52s-.57-1.59-1.73-1.6Zm0-4.54,0,2.91,1.39,0c1,0,1.56-.47,1.57-1.43s-.46-1.48-1.41-1.48Z" transform="translate(-47 -458.98)"/>
      <path class="cls-9" d="M1340.66,766.33l.11-11.09,7.29.08,0,1.85-4.89,0,0,2.63,4,0,0,1.85-4,0,0,2.9,4.89,0,0,1.85Z" transform="translate(-47 -458.98)"/>
      <path class="cls-9" d="M1349.75,766.42l.11-11.09,2.4,0-.1,9.16,4.87.05,0,1.92Z" transform="translate(-47 -458.98)"/>
      <path class="cls-9" d="M1358.27,766.51l.11-11.09,2.4,0-.09,9.17,4.86,0v1.92Z" transform="translate(-47 -458.98)"/>
      <path class="cls-9" d="M1373.94,766.66l-.76-2.54-3.79,0-.78,2.52-2.51,0,4-11.05,2.64,0,3.79,11.13Zm-4-4.3,2.78,0-1.36-4.65Z" transform="translate(-47 -458.98)"/>
      <path class="cls-9" d="M1382.88,765a10.82,10.82,0,0,0,1.18-.07l0-2.71-2.08,0,0-1.72,4.29,0-.06,5.55a7.16,7.16,0,0,1-1.8.61,9.93,9.93,0,0,1-2.11.2,5.29,5.29,0,0,1-4-1.5,5.73,5.73,0,0,1-1.36-4.15,6,6,0,0,1,1.49-4.33,5.58,5.58,0,0,1,4.22-1.46,7.31,7.31,0,0,1,3.24.69l0,1.82a10.07,10.07,0,0,0-3-.55,3.41,3.41,0,0,0-2.62.86,4,4,0,0,0-.86,2.78v.29a3.91,3.91,0,0,0,.79,2.77A3.5,3.5,0,0,0,1382.88,765Z" transform="translate(-47 -458.98)"/>
      <path class="cls-9" d="M1388.53,766.8l.11-11.08,2.4,0-.11,11.09Z" transform="translate(-47 -458.98)"/>
      <path class="cls-9" d="M1393.13,761.3a7,7,0,0,1,.66-3.07,4.53,4.53,0,0,1,1.87-2,6.29,6.29,0,0,1,5.79,0,4.76,4.76,0,0,1,1.86,2,6.89,6.89,0,0,1,.63,3.13,7,7,0,0,1-.66,3.07,4.63,4.63,0,0,1-1.88,2,5.49,5.49,0,0,1-2.93.69,5.76,5.76,0,0,1-2.85-.71,4.61,4.61,0,0,1-1.86-2A6.7,6.7,0,0,1,1393.13,761.3Zm2.46,0a4.77,4.77,0,0,0,.72,2.89,2.93,2.93,0,0,0,4.39,0,4.79,4.79,0,0,0,.78-2.87,4.65,4.65,0,0,0-.73-2.88,2.55,2.55,0,0,0-2.18-1,2.59,2.59,0,0,0-2.2,1A4.62,4.62,0,0,0,1395.59,761.32Z" transform="translate(-47 -458.98)"/>
      <path class="cls-9" d="M1325.14,785.38l.11-11.09,4,0a3.92,3.92,0,0,1,2.58.84,2.64,2.64,0,0,1,1,2.14,2.47,2.47,0,0,1-.39,1.4,2.41,2.41,0,0,1-1.12.89,3,3,0,0,1,1.55,1,2.66,2.66,0,0,1,.52,1.71,2.77,2.77,0,0,1-1.09,2.28,4.53,4.53,0,0,1-2.89.82Zm2.32-4.81,0,3.12,1.89,0c1.09,0,1.64-.5,1.64-1.52s-.56-1.59-1.72-1.6Zm0-4.54,0,2.91h1.39c1,0,1.56-.46,1.57-1.42A1.29,1.29,0,0,0,1329,776Z" transform="translate(-47 -458.98)"/>
      <path class="cls-9" d="M1341.75,785.54,1341,783l-3.79,0-.78,2.52-2.51,0,4-11.05,2.64,0,3.8,11.13Zm-4-4.29,2.79,0-1.36-4.65Z" transform="translate(-47 -458.98)"/>
      <path class="cls-9" d="M1345.57,785.58l.11-11.09,2.4,0-.09,9.16,4.86.05,0,1.92Z" transform="translate(-47 -458.98)"/>
      <path class="cls-9" d="M1354.1,785.67l.11-11.09,2.4,0-.09,9.17,4.86.05,0,1.92Z" transform="translate(-47 -458.98)"/>
      <path class="cls-9" d="M1362.63,785.75l.11-11.09,4.27,0a4,4,0,0,1,2.72.94,3.18,3.18,0,0,1,1,2.49,3,3,0,0,1-.55,1.73,3.45,3.45,0,0,1-1.5,1.18l2.71,4.8-2.48,0-2.36-4.33H1365l0,4.3Zm2.36-6,1.66,0a1.5,1.5,0,0,0,1.7-1.68,1.46,1.46,0,0,0-1.63-1.68l-1.7,0Z" transform="translate(-47 -458.98)"/>
      <path class="cls-9" d="M1372.07,780.29a7,7,0,0,1,.66-3.06,4.58,4.58,0,0,1,1.88-2,5.7,5.7,0,0,1,2.93-.68,5.76,5.76,0,0,1,2.85.71,4.64,4.64,0,0,1,1.86,2,6.8,6.8,0,0,1,.64,3.14,7,7,0,0,1-.67,3.06,4.69,4.69,0,0,1-1.87,2,6.29,6.29,0,0,1-5.79,0,4.65,4.65,0,0,1-1.85-2A6.8,6.8,0,0,1,1372.07,780.29Zm2.47,0a4.62,4.62,0,0,0,.72,2.89,2.57,2.57,0,0,0,2.18,1,2.6,2.6,0,0,0,2.2-1,4.7,4.7,0,0,0,.78-2.88,4.58,4.58,0,0,0-.72-2.88,2.58,2.58,0,0,0-2.18-1,2.61,2.61,0,0,0-2.21,1A4.71,4.71,0,0,0,1374.54,780.31Z" transform="translate(-47 -458.98)"/>
      <path class="cls-9" d="M1384.65,780.41a7,7,0,0,1,.66-3.06,4.63,4.63,0,0,1,1.88-2,5.76,5.76,0,0,1,2.92-.68,5.7,5.7,0,0,1,2.86.72,4.59,4.59,0,0,1,1.86,2,6.89,6.89,0,0,1,.63,3.13,7,7,0,0,1-.66,3.07,4.63,4.63,0,0,1-1.88,2,5.66,5.66,0,0,1-2.92.69,5.8,5.8,0,0,1-2.86-.71,4.61,4.61,0,0,1-1.86-2A6.85,6.85,0,0,1,1384.65,780.41Zm2.46,0a4.77,4.77,0,0,0,.72,2.89,2.62,2.62,0,0,0,2.19,1,2.57,2.57,0,0,0,2.2-1,5.89,5.89,0,0,0,.06-5.75,2.62,2.62,0,0,0-2.19-1,2.57,2.57,0,0,0-2.2,1A4.62,4.62,0,0,0,1387.11,780.44Z" transform="translate(-47 -458.98)"/>
      <path class="cls-9" d="M1406.64,786.18l.07-7.68-2.49,5-2.15,0-2.39-5-.08,7.67-2.11,0,.11-11.08,2.62,0,3,6.34,3.11-6.28,2.57,0-.11,11.09Z" transform="translate(-47 -458.98)"/>
      <path class="cls-9" d="M1364.09,805l4.25-9.19-5.55,0v-1.86l7.92.08v1.75l-4.08,9.3Z" transform="translate(-47 -458.98)"/>
    </g>
    <g>
      <path class="cls-9" d="M1459.43,693a13.86,13.86,0,0,1-4.89.79q-4.56,0-6.88-2.51c-1.55-1.64-2.31-4-2.28-7.18s.88-5.51,2.53-7.21a9.1,9.1,0,0,1,6.93-2.49,13.38,13.38,0,0,1,4.49.8l0,3.18a19.9,19.9,0,0,0-4-.58,5.52,5.52,0,0,0-4.21,1.44,6.47,6.47,0,0,0-1.43,4.52v.62a6.44,6.44,0,0,0,1.31,4.5,5.29,5.29,0,0,0,4.11,1.51,22.36,22.36,0,0,0,4.4-.57Z" transform="translate(-47 -458.98)"/>
      <path class="cls-9" d="M1460.89,684.17A11.76,11.76,0,0,1,1462,679a7.71,7.71,0,0,1,3.16-3.38,10.66,10.66,0,0,1,9.75.06,7.91,7.91,0,0,1,3.13,3.39,11.5,11.5,0,0,1,1.07,5.28,11.76,11.76,0,0,1-1.12,5.17,7.74,7.74,0,0,1-3.16,3.39,9.48,9.48,0,0,1-4.93,1.17,9.65,9.65,0,0,1-4.82-1.21,7.82,7.82,0,0,1-3.13-3.4A11.61,11.61,0,0,1,1460.89,684.17Zm4.15,0a8,8,0,0,0,1.22,4.87,4.91,4.91,0,0,0,7.39.07,9.88,9.88,0,0,0,.1-9.69,4.94,4.94,0,0,0-7.39-.08A7.85,7.85,0,0,0,1465,684.21Z" transform="translate(-47 -458.98)"/>
      <path class="cls-9" d="M1486.22,680.81l-.13,13-3.56,0,.19-18.68,4.31,0,7.47,13.15.13-13.08,3.56,0L1498,693.9l-4.32,0Z" transform="translate(-47 -458.98)"/>
      <path class="cls-9" d="M1505.91,694l.15-15.45-5.69,0,0-3.24,15.43.15,0,3.24-5.69-.06L1510,694Z" transform="translate(-47 -458.98)"/>
      <path class="cls-9" d="M1517.85,694.09l.19-18.68,12.29.12,0,3.12-8.25-.08,0,4.43,6.71.06,0,3.13-6.71-.07,0,4.88,8.25.09,0,3.12Z" transform="translate(-47 -458.98)"/>
      <path class="cls-9" d="M1536.86,681.31l-.13,13-3.56,0,.18-18.68,4.32,0,7.47,13.15.13-13.08,3.56,0-.18,18.69-4.32,0Z" transform="translate(-47 -458.98)"/>
      <path class="cls-9" d="M1556.55,694.47l.15-15.45-5.69,0,0-3.24,15.43.15,0,3.24-5.68-.06-.16,15.45Z" transform="translate(-47 -458.98)"/>
      <path class="cls-9" d="M1490.58,720.79l.08-8-7.44-.07-.08,8-4.05,0,.19-18.69,4,0-.07,7.6,7.44.08.08-7.61,4,0-.18,18.69Z" transform="translate(-47 -458.98)"/>
      <path class="cls-9" d="M1510.13,702.29l4,0-.12,11.84a7.12,7.12,0,0,1-2.06,5.38,9.5,9.5,0,0,1-11.4-.1,7.13,7.13,0,0,1-2-5.46l.12-11.81,4,0-.12,12a4,4,0,0,0,.92,2.88,4.28,4.28,0,0,0,5.45.06,4,4,0,0,0,1-2.87Z" transform="translate(-47 -458.98)"/>
      <path class="cls-9" d="M1517.92,721.06l.19-18.69,6.71.07a6.58,6.58,0,0,1,4.34,1.42,4.45,4.45,0,0,1,1.63,3.6,4.24,4.24,0,0,1-.66,2.35,4.05,4.05,0,0,1-1.89,1.51,4.92,4.92,0,0,1,2.61,1.71,4.55,4.55,0,0,1,.88,2.88,4.66,4.66,0,0,1-1.85,3.84,7.59,7.59,0,0,1-4.86,1.38Zm3.91-8.1,0,5.25,3.18,0c1.84,0,2.76-.83,2.78-2.56s-1-2.68-2.91-2.7Zm.08-7.66-.05,4.9,2.35,0q2.61,0,2.64-2.4a2.17,2.17,0,0,0-2.38-2.51Z" transform="translate(-47 -458.98)"/>
      <path class="cls-9" d="M1416.61,739.26l.11-11.09,4,0a3.92,3.92,0,0,1,2.58.84,2.64,2.64,0,0,1,1,2.14,2.55,2.55,0,0,1-.39,1.4,2.46,2.46,0,0,1-1.12.89,3,3,0,0,1,1.55,1,2.67,2.67,0,0,1,.52,1.7,2.8,2.8,0,0,1-1.09,2.28,4.55,4.55,0,0,1-2.89.82Zm2.32-4.81,0,3.12,1.89,0c1.08,0,1.63-.5,1.64-1.52s-.56-1.59-1.73-1.6Zm0-4.54,0,2.91h1.4c1,0,1.55-.46,1.56-1.42a1.28,1.28,0,0,0-1.41-1.49Z" transform="translate(-47 -458.98)"/>
      <path class="cls-9" d="M1426.56,739.36l.11-11.09,7.29.07v1.86l-4.9-.05,0,2.62,4,0,0,1.86-4,0,0,2.9,4.89,0,0,1.86Z" transform="translate(-47 -458.98)"/>
      <path class="cls-9" d="M1435.65,739.45l.11-11.09,2.4,0-.1,9.17,4.87.05,0,1.92Z" transform="translate(-47 -458.98)"/>
      <path class="cls-9" d="M1444.17,739.53l.11-11.09,2.4,0-.09,9.17,4.87,0,0,1.92Z" transform="translate(-47 -458.98)"/>
      <path class="cls-9" d="M1459.84,739.69l-.76-2.54-3.79,0-.78,2.52-2.51,0,4-11.05,2.64,0,3.8,11.12Zm-4-4.3,2.78,0-1.36-4.65Z" transform="translate(-47 -458.98)"/>
      <path class="cls-9" d="M1468.78,738.06A10.84,10.84,0,0,0,1470,738l0-2.71-2.08,0,0-1.73,4.29,0-.06,5.56a6.79,6.79,0,0,1-1.8.6,9.94,9.94,0,0,1-2.11.21,5.31,5.31,0,0,1-4-1.5,5.8,5.8,0,0,1-1.36-4.16,6,6,0,0,1,1.5-4.33,5.59,5.59,0,0,1,4.21-1.45,7.31,7.31,0,0,1,3.24.69l0,1.82a10.11,10.11,0,0,0-3-.56,3.41,3.41,0,0,0-2.62.87,4,4,0,0,0-.86,2.78v.29a3.91,3.91,0,0,0,.79,2.77A3.5,3.5,0,0,0,1468.78,738.06Z" transform="translate(-47 -458.98)"/>
      <path class="cls-9" d="M1474.43,739.83l.11-11.09,2.4,0-.11,11.08Z" transform="translate(-47 -458.98)"/>
      <path class="cls-9" d="M1479,734.32a7,7,0,0,1,.66-3.06,4.61,4.61,0,0,1,1.87-2,5.8,5.8,0,0,1,2.93-.68,5.7,5.7,0,0,1,2.86.72,4.65,4.65,0,0,1,1.86,2,6.86,6.86,0,0,1,.63,3.13,7,7,0,0,1-.66,3.07,4.63,4.63,0,0,1-1.88,2,5.66,5.66,0,0,1-2.92.69,5.77,5.77,0,0,1-2.86-.71,4.61,4.61,0,0,1-1.86-2A6.72,6.72,0,0,1,1479,734.32Zm2.46,0a4.77,4.77,0,0,0,.72,2.89,2.62,2.62,0,0,0,2.19,1,2.57,2.57,0,0,0,2.2-1,4.74,4.74,0,0,0,.78-2.87,4.65,4.65,0,0,0-.73-2.88,2.93,2.93,0,0,0-4.38,0A4.67,4.67,0,0,0,1481.49,734.35Z" transform="translate(-47 -458.98)"/>
      <path class="cls-9" d="M1495.9,740,1496,729l4,0a3.92,3.92,0,0,1,2.58.84,2.79,2.79,0,0,1,.57,3.53,2.45,2.45,0,0,1-1.12.89,3,3,0,0,1,1.55,1,3,3,0,0,1-.58,4,4.51,4.51,0,0,1-2.89.81Zm2.32-4.81,0,3.12,1.89,0c1.09,0,1.64-.49,1.65-1.52s-.57-1.59-1.73-1.6Zm0-4.54,0,2.91,1.39,0c1,0,1.56-.47,1.57-1.43s-.46-1.48-1.41-1.48Z" transform="translate(-47 -458.98)"/>
      <path class="cls-9" d="M1512.5,740.21l-.75-2.54-3.8,0-.77,2.52-2.52,0,4-11,2.64,0,3.79,11.12Zm-4-4.3,2.79,0-1.37-4.65Z" transform="translate(-47 -458.98)"/>
      <path class="cls-9" d="M1516.33,740.25l.11-11.09,2.4,0-.09,9.17,4.86,0,0,1.92Z" transform="translate(-47 -458.98)"/>
      <path class="cls-9" d="M1524.86,740.33l.1-11.09,2.4,0-.09,9.16,4.87.05,0,1.92Z" transform="translate(-47 -458.98)"/>
      <path class="cls-9" d="M1533.38,740.41l.11-11.08,4.27,0a3.9,3.9,0,0,1,2.73.94,3.15,3.15,0,0,1,1,2.49,2.9,2.9,0,0,1-.54,1.72,3.59,3.59,0,0,1-1.5,1.19l2.7,4.79-2.48,0-2.35-4.33-1.57,0,0,4.31Zm2.36-5.94,1.67,0a1.49,1.49,0,0,0,1.69-1.68,1.46,1.46,0,0,0-1.63-1.68l-1.69,0Z" transform="translate(-47 -458.98)"/>
      <path class="cls-9" d="M1542.83,735a7,7,0,0,1,.66-3.06,4.57,4.57,0,0,1,1.88-2,5.76,5.76,0,0,1,2.92-.68,5.7,5.7,0,0,1,2.86.72,4.54,4.54,0,0,1,1.86,2,6.89,6.89,0,0,1,.63,3.13,7,7,0,0,1-.66,3.07,4.63,4.63,0,0,1-1.88,2,5.66,5.66,0,0,1-2.92.69,5.8,5.8,0,0,1-2.86-.71,4.61,4.61,0,0,1-1.86-2A7,7,0,0,1,1542.83,735Zm2.46,0a4.77,4.77,0,0,0,.72,2.89,2.62,2.62,0,0,0,2.19,1,2.57,2.57,0,0,0,2.2-1,5.85,5.85,0,0,0,0-5.75,2.93,2.93,0,0,0-4.38,0A4.67,4.67,0,0,0,1545.29,735Z" transform="translate(-47 -458.98)"/>
      <path class="cls-9" d="M1555.4,735.08a7,7,0,0,1,.66-3.07,4.61,4.61,0,0,1,1.88-2,5.7,5.7,0,0,1,2.93-.69,5.8,5.8,0,0,1,2.86.72,4.76,4.76,0,0,1,1.86,2,7.77,7.77,0,0,1,0,6.2,4.63,4.63,0,0,1-1.88,2,6.23,6.23,0,0,1-5.78,0,4.61,4.61,0,0,1-1.86-2A6.83,6.83,0,0,1,1555.4,735.08Zm2.47,0a4.7,4.7,0,0,0,.72,2.89,2.92,2.92,0,0,0,4.38,0,4.65,4.65,0,0,0,.78-2.87,4.58,4.58,0,0,0-.72-2.88,2.94,2.94,0,0,0-4.38,0A4.62,4.62,0,0,0,1557.87,735.1Z" transform="translate(-47 -458.98)"/>
      <path class="cls-9" d="M1577.4,740.85l.07-7.68-2.5,5-2.14,0-2.4-5-.07,7.68-2.12,0,.11-11.09,2.63,0,3,6.33,3.1-6.27,2.58,0-.11,11.09Z" transform="translate(-47 -458.98)"/>
      <path class="cls-9" d="M1589.78,734.51a3.63,3.63,0,0,1,2.4.93,2.85,2.85,0,0,1,.86,2.2,3.28,3.28,0,0,1-.54,1.87,3.46,3.46,0,0,1-1.52,1.26,5.59,5.59,0,0,1-2.32.43,7.53,7.53,0,0,1-3-.69l0-1.8a9.55,9.55,0,0,0,2.93.63,2.39,2.39,0,0,0,1.57-.42,1.59,1.59,0,0,0,.55-1.28,1.29,1.29,0,0,0-.49-1.12,2.68,2.68,0,0,0-1.53-.38c-.14,0-.38,0-.71,0l-.78.06,0-1.47,2.89-3.06-4.24,0,0-1.83,6.75.07,0,1.76Z" transform="translate(-47 -458.98)"/>
    </g>
    <g>
      <path class="cls-9" d="M996.52,895.21l.13-12.94-4.21,8.34-3.61,0-4.05-8.42-.12,12.94-3.56,0,.18-18.69,4.42,0,5,10.68,5.22-10.58,4.34,0-.18,18.68Z" transform="translate(-47 -458.98)"/>
      <path class="cls-9" d="M1004.13,895.28l.18-18.68,12.3.12,0,3.13-8.25-.09,0,4.43,6.71.06,0,3.13-6.71-.07,0,4.89,8.25.08,0,3.12Z" transform="translate(-47 -458.98)"/>
      <path class="cls-9" d="M1030.66,895.54l-1.28-4.27-6.39-.06-1.31,4.25-4.23-.05,6.76-18.62,4.45.05,6.39,18.75Zm-6.78-7.23,4.69,0-2.29-7.84Z" transform="translate(-47 -458.98)"/>
      <path class="cls-9" d="M1037.1,895.61l.19-18.69,4,0-.15,15.45,8.2.08,0,3.24Z" transform="translate(-47 -458.98)"/>
      <path class="cls-9" d="M1055.2,887.62a8,8,0,0,1-3.44-2.21,5.42,5.42,0,0,1,.9-7.28,7.69,7.69,0,0,1,5-1.46,14.09,14.09,0,0,1,5.17,1l0,3.07a16.89,16.89,0,0,0-4.84-.86c-2.13,0-3.19.66-3.21,2a1.61,1.61,0,0,0,.54,1.25,6.82,6.82,0,0,0,2.06,1l2,.75a8.63,8.63,0,0,1,3.56,2.18,4.73,4.73,0,0,1,1,3.21,5.33,5.33,0,0,1-2,4.36,8.55,8.55,0,0,1-5.49,1.55,17.19,17.19,0,0,1-3-.31,11.74,11.74,0,0,1-2.58-.8l0-3.07a21.71,21.71,0,0,0,2.88.67,16.15,16.15,0,0,0,2.78.27,4.4,4.4,0,0,0,2.46-.55,1.88,1.88,0,0,0,.88-1.65,1.73,1.73,0,0,0-.52-1.33,7,7,0,0,0-2.1-1.1Z" transform="translate(-47 -458.98)"/>
      <path class="cls-9" d="M949.49,912.23a9,9,0,0,0,1.19-.07l0-2.7-2.07,0v-1.73l4.29,0,0,5.56a7,7,0,0,1-1.8.6,10,10,0,0,1-2.12.2,5.24,5.24,0,0,1-4-1.49,5.71,5.71,0,0,1-1.36-4.16,6,6,0,0,1,1.49-4.33,5.59,5.59,0,0,1,4.21-1.45,7.31,7.31,0,0,1,3.24.69v1.82a10.23,10.23,0,0,0-3-.56,3.41,3.41,0,0,0-2.62.87,4,4,0,0,0-.86,2.78v.29a3.86,3.86,0,0,0,.8,2.76A3.42,3.42,0,0,0,949.49,912.23Z" transform="translate(-47 -458.98)"/>
      <path class="cls-9" d="M955.08,914l.11-11.09,4.27,0a4,4,0,0,1,2.72.94,3.18,3.18,0,0,1,1,2.49,3,3,0,0,1-.55,1.73,3.45,3.45,0,0,1-1.5,1.18l2.71,4.8-2.48,0L959,909.73h-1.57l0,4.3Zm2.36-6,1.66,0a1.5,1.5,0,0,0,1.7-1.68,1.46,1.46,0,0,0-1.63-1.68l-1.7,0Z" transform="translate(-47 -458.98)"/>
      <path class="cls-9" d="M972.24,914.17l-.76-2.54-3.79,0-.77,2.52-2.52,0,4-11.05,2.64,0,3.79,11.12Zm-4-4.3,2.78,0-1.36-4.65Z" transform="translate(-47 -458.98)"/>
      <path class="cls-9" d="M978.25,906.53l-.07,7.7-2.11,0,.1-11.09,2.56,0,4.44,7.8.08-7.76,2.11,0-.11,11.09-2.56,0Z" transform="translate(-47 -458.98)"/>
      <path class="cls-9" d="M987.65,914.32l.11-11.09,4,0a5,5,0,0,1,3.8,1.47,5.77,5.77,0,0,1,1.3,4.12,5.85,5.85,0,0,1-1.38,4.09,4.84,4.84,0,0,1-3.78,1.41Zm2.49-9.21-.07,7.38h1.37q2.89,0,2.93-3.5v-.32q0-3.52-2.88-3.55Z" transform="translate(-47 -458.98)"/>
      <path class="cls-9" d="M1002.9,914.47l.11-11.08,4,0a4,4,0,0,1,2.58.85,2.79,2.79,0,0,1,.57,3.53,2.45,2.45,0,0,1-1.12.89,3,3,0,0,1,1.55,1,2.78,2.78,0,0,1,.52,1.71,2.75,2.75,0,0,1-1.1,2.27,4.44,4.44,0,0,1-2.88.82Zm2.32-4.81,0,3.12,1.88,0c1.09,0,1.64-.49,1.65-1.52s-.57-1.59-1.73-1.6Zm0-4.54,0,2.91h1.4c1,0,1.55-.46,1.56-1.42a1.28,1.28,0,0,0-1.41-1.49Z" transform="translate(-47 -458.98)"/>
      <path class="cls-9" d="M1019.5,914.64l-.76-2.54-3.79,0-.77,2.52-2.52,0,4-11,2.64,0,3.79,11.12Zm-4-4.3,2.79,0-1.37-4.66Z" transform="translate(-47 -458.98)"/>
      <path class="cls-9" d="M1023.33,914.67l.11-11.08,2.39,0-.09,9.17,4.87.05,0,1.92Z" transform="translate(-47 -458.98)"/>
      <path class="cls-9" d="M1031.85,914.76l.11-11.09,2.4,0-.09,9.17,4.87,0,0,1.92Z" transform="translate(-47 -458.98)"/>
      <path class="cls-9" d="M1040.38,914.84l.11-11.08,4.27,0a3.9,3.9,0,0,1,2.73.94,3.15,3.15,0,0,1,1,2.49,2.9,2.9,0,0,1-.54,1.72,3.49,3.49,0,0,1-1.5,1.18l2.7,4.8-2.48,0-2.35-4.32-1.57,0,0,4.31Zm2.37-5.94h1.66a1.49,1.49,0,0,0,1.7-1.68,1.47,1.47,0,0,0-1.64-1.68h-1.69Z" transform="translate(-47 -458.98)"/>
      <path class="cls-9" d="M1049.83,909.38a7,7,0,0,1,.66-3.06,4.57,4.57,0,0,1,1.88-2,5.76,5.76,0,0,1,2.92-.68,5.7,5.7,0,0,1,2.86.72,4.54,4.54,0,0,1,1.86,2,6.73,6.73,0,0,1,.63,3.13,7,7,0,0,1-.66,3.07,4.63,4.63,0,0,1-1.88,2,6.27,6.27,0,0,1-5.78,0,4.54,4.54,0,0,1-1.86-2A7,7,0,0,1,1049.83,909.38Zm2.46,0a4.77,4.77,0,0,0,.72,2.89,2.62,2.62,0,0,0,2.19,1,2.57,2.57,0,0,0,2.2-1,5.89,5.89,0,0,0,.06-5.75,2.62,2.62,0,0,0-2.19-1,2.59,2.59,0,0,0-2.2,1A4.65,4.65,0,0,0,1052.29,909.41Z" transform="translate(-47 -458.98)"/>
      <path class="cls-9" d="M1062.4,909.51a7.12,7.12,0,0,1,.67-3.07,4.53,4.53,0,0,1,1.87-2,6.29,6.29,0,0,1,5.79,0,4.76,4.76,0,0,1,1.86,2,6.89,6.89,0,0,1,.63,3.13,7,7,0,0,1-.66,3.07,4.63,4.63,0,0,1-1.88,2,5.51,5.51,0,0,1-2.93.69,5.73,5.73,0,0,1-2.85-.71,4.61,4.61,0,0,1-1.86-2A6.83,6.83,0,0,1,1062.4,909.51Zm2.47,0a4.7,4.7,0,0,0,.72,2.89,2.92,2.92,0,0,0,4.38,0,4.65,4.65,0,0,0,.78-2.87,4.58,4.58,0,0,0-.72-2.88,2.55,2.55,0,0,0-2.18-1,2.59,2.59,0,0,0-2.2,1A4.62,4.62,0,0,0,1064.87,909.53Z" transform="translate(-47 -458.98)"/>
      <path class="cls-9" d="M1084.4,915.28l.07-7.68-2.5,4.95-2.14,0-2.4-5-.07,7.68-2.12,0,.11-11.09,2.63,0,3,6.33,3.1-6.27,2.58,0-.11,11.09Z" transform="translate(-47 -458.98)"/>
      <path class="cls-9" d="M1097.43,905.87a2.36,2.36,0,0,0-2,.8,4.69,4.69,0,0,0-.77,2.6,5.31,5.31,0,0,1,2.52-.65,3.27,3.27,0,0,1,2.39.91,3.09,3.09,0,0,1,.89,2.35,3.84,3.84,0,0,1-.51,2,3.47,3.47,0,0,1-1.43,1.33,4.64,4.64,0,0,1-2.16.47,3.61,3.61,0,0,1-3-1.39,6.53,6.53,0,0,1-1-4,8.91,8.91,0,0,1,.58-3.31,4.6,4.6,0,0,1,1.64-2.14,4.35,4.35,0,0,1,2.57-.73,7.27,7.27,0,0,1,1.44.18,5,5,0,0,1,1.24.44v1.67a5.78,5.78,0,0,0-1.16-.33A7.17,7.17,0,0,0,1097.43,905.87Zm-1,4.5a4.56,4.56,0,0,0-1.73.38,4.81,4.81,0,0,0,.44,2.33,1.47,1.47,0,0,0,1.37.73c1.08,0,1.63-.56,1.64-1.73a1.69,1.69,0,0,0-.43-1.26A1.83,1.83,0,0,0,1096.43,910.37Z" transform="translate(-47 -458.98)"/>
    </g>
    <g>
      <path class="cls-9" d="M867,738.36a17.09,17.09,0,0,0,2-.11l0-4.56-3.5,0,0-2.91,7.22.07-.09,9.35a11.7,11.7,0,0,1-3,1,17,17,0,0,1-3.56.35A8.92,8.92,0,0,1,859.4,739c-1.55-1.65-2.32-4-2.29-7,0-3.2.87-5.63,2.52-7.3s4-2.48,7.1-2.45a12.5,12.5,0,0,1,5.46,1.16l0,3.08a16.44,16.44,0,0,0-5-.94,5.74,5.74,0,0,0-4.41,1.45,6.67,6.67,0,0,0-1.45,4.69v.49a6.58,6.58,0,0,0,1.35,4.66A5.8,5.8,0,0,0,867,738.36Z" transform="translate(-47 -458.98)"/>
      <path class="cls-9" d="M876.41,741.34l.19-18.68,7.19.07a6.59,6.59,0,0,1,4.6,1.58,5.36,5.36,0,0,1,1.66,4.2,5,5,0,0,1-.92,2.9,5.87,5.87,0,0,1-2.53,2l4.56,8.08-4.18,0-4-7.3-2.65,0-.07,7.25Zm4-10,2.81,0a2.52,2.52,0,0,0,2.86-2.83,2.47,2.47,0,0,0-2.75-2.83l-2.86,0Z" transform="translate(-47 -458.98)"/>
      <path class="cls-9" d="M905.34,741.63l-1.28-4.28-6.39-.06-1.31,4.25-4.23,0,6.76-18.62,4.45,0,6.4,18.75Zm-6.78-7.24,4.7,0-2.3-7.84Z" transform="translate(-47 -458.98)"/>
      <path class="cls-9" d="M915.48,728.76l-.13,13-3.56,0L912,723l4.32,0,7.47,13.15.13-13.08,3.56,0-.18,18.68-4.32,0Z" transform="translate(-47 -458.98)"/>
      <path class="cls-9" d="M931.31,741.88l.18-18.68,6.72.06a8.41,8.41,0,0,1,6.41,2.48c1.48,1.62,2.21,3.94,2.18,6.94s-.8,5.28-2.32,6.89A8.18,8.18,0,0,1,938.1,742Zm4.2-15.51-.13,12.43,2.32,0c3.26,0,4.9-1.94,4.94-5.91v-.54c0-4-1.58-6-4.85-6Z" transform="translate(-47 -458.98)"/>
      <path class="cls-9" d="M957,742.14l.18-18.69,6.72.07a6.62,6.62,0,0,1,4.34,1.42,4.46,4.46,0,0,1,1.62,3.6,4.24,4.24,0,0,1-.66,2.35,4.11,4.11,0,0,1-1.89,1.51,5,5,0,0,1,2.62,1.71,4.61,4.61,0,0,1,.87,2.88,4.68,4.68,0,0,1-1.84,3.84,7.64,7.64,0,0,1-4.87,1.38Zm3.91-8.11-.06,5.26,3.19,0c1.83,0,2.75-.83,2.77-2.56s-1-2.68-2.91-2.7Zm.07-7.65,0,4.9,2.35,0c1.74,0,2.62-.79,2.64-2.41a2.16,2.16,0,0,0-2.38-2.5Z" transform="translate(-47 -458.98)"/>
      <path class="cls-9" d="M985,742.41l-1.28-4.27-6.39-.06L976,742.33l-4.24-.05,6.77-18.62,4.45.05,6.39,18.75Zm-6.78-7.24,4.69.05-2.3-7.84Z" transform="translate(-47 -458.98)"/>
      <path class="cls-9" d="M991.44,742.48l.19-18.69,4,0-.15,15.45,8.19.08,0,3.24Z" transform="translate(-47 -458.98)"/>
      <path class="cls-9" d="M1005.81,742.62l.19-18.69,4,0-.15,15.45,8.2.09,0,3.23Z" transform="translate(-47 -458.98)"/>
      <path class="cls-9" d="M1020.18,742.76l.19-18.68,7.2.07a6.63,6.63,0,0,1,4.6,1.58,5.35,5.35,0,0,1,1.65,4.2,5,5,0,0,1-.92,2.9,5.89,5.89,0,0,1-2.52,2l4.55,8.08-4.18,0-4-7.3-2.64,0-.07,7.25Zm4-10,2.8,0c1.89,0,2.84-.92,2.86-2.83a2.47,2.47,0,0,0-2.75-2.83l-2.86,0Z" transform="translate(-47 -458.98)"/>
      <path class="cls-9" d="M1036.11,733.56a11.85,11.85,0,0,1,1.11-5.16,7.72,7.72,0,0,1,3.16-3.38,9.71,9.71,0,0,1,4.94-1.16,9.61,9.61,0,0,1,4.81,1.21,7.93,7.93,0,0,1,3.14,3.39,11.5,11.5,0,0,1,1.06,5.28,11.9,11.9,0,0,1-1.11,5.17,7.8,7.8,0,0,1-3.16,3.39,9.51,9.51,0,0,1-4.94,1.17,9.61,9.61,0,0,1-4.81-1.21,7.84,7.84,0,0,1-3.14-3.4A11.49,11.49,0,0,1,1036.11,733.56Zm4.15,0a7.91,7.91,0,0,0,1.22,4.87,4.91,4.91,0,0,0,7.39.07,9.91,9.91,0,0,0,.09-9.69,4.93,4.93,0,0,0-7.39-.07A7.86,7.86,0,0,0,1040.26,733.6Z" transform="translate(-47 -458.98)"/>
      <path class="cls-9" d="M1057.3,733.77a11.76,11.76,0,0,1,1.12-5.17,7.71,7.71,0,0,1,3.16-3.38,10.66,10.66,0,0,1,9.75.06,7.91,7.91,0,0,1,3.13,3.39,11.5,11.5,0,0,1,1.07,5.28,11.9,11.9,0,0,1-1.12,5.17,7.8,7.8,0,0,1-3.16,3.39,9.48,9.48,0,0,1-4.93,1.17,9.62,9.62,0,0,1-4.82-1.21,7.82,7.82,0,0,1-3.13-3.4A11.49,11.49,0,0,1,1057.3,733.77Zm4.15,0a8,8,0,0,0,1.22,4.87,4.91,4.91,0,0,0,7.39.07,9.88,9.88,0,0,0,.1-9.69,4.94,4.94,0,0,0-7.39-.08A7.85,7.85,0,0,0,1061.45,733.81Z" transform="translate(-47 -458.98)"/>
      <path class="cls-9" d="M1094.36,743.5l.13-13-4.21,8.35-3.61,0-4-8.42-.13,12.94-3.56,0,.18-18.68,4.43,0,5,10.67,5.23-10.57,4.34,0-.19,18.69Z" transform="translate(-47 -458.98)"/>
      <path class="cls-9" d="M1108.18,739.88a17.72,17.72,0,0,0,5.33,1.08,3.74,3.74,0,0,0,2.54-.73,2.78,2.78,0,0,0,.89-2.2,2.6,2.6,0,0,0-.85-2.15,4.2,4.2,0,0,0-2.66-.72,39.58,39.58,0,0,0-4.42.23l0-2.43.56-8,10.6.1,0,3.08-7.28-.08-.34,4.42a9.77,9.77,0,0,1,2.32-.24,6.29,6.29,0,0,1,4.43,1.59,5.4,5.4,0,0,1,1.64,4.16,6,6,0,0,1-.9,3.17,5.82,5.82,0,0,1-2.53,2.17,8.74,8.74,0,0,1-3.83.76,13.54,13.54,0,0,1-5.52-1.19Z" transform="translate(-47 -458.98)"/>
    </g>
    <g>
      <path class="cls-9" d="M1254.34,1264.33l-.06,6.82-3.94,0,.18-18.68,7.15.07a6.47,6.47,0,0,1,4.59,1.63,6.39,6.39,0,0,1-.08,8.68,6.43,6.43,0,0,1-4.63,1.55Zm0-3,2.75,0a2.8,2.8,0,0,0,2.07-.72,3.67,3.67,0,0,0,0-4.35,2.76,2.76,0,0,0-2.06-.76l-2.75,0Z" transform="translate(-47 -458.98)"/>
      <path class="cls-9" d="M1266.31,1261.91a11.71,11.71,0,0,1,1.12-5.16,7.66,7.66,0,0,1,3.16-3.38,10.62,10.62,0,0,1,9.75.05,7.85,7.85,0,0,1,3.13,3.39,11.37,11.37,0,0,1,1.07,5.28,11.76,11.76,0,0,1-1.12,5.17,7.68,7.68,0,0,1-3.16,3.39,9.48,9.48,0,0,1-4.93,1.17,9.65,9.65,0,0,1-4.82-1.21,7.88,7.88,0,0,1-3.13-3.4A11.61,11.61,0,0,1,1266.31,1261.91Zm4.15,0a8,8,0,0,0,1.22,4.87,4.91,4.91,0,0,0,7.39.07,9.88,9.88,0,0,0,.1-9.69,4.93,4.93,0,0,0-7.39-.07A7.86,7.86,0,0,0,1270.46,1262Z" transform="translate(-47 -458.98)"/>
      <path class="cls-9" d="M1287.51,1262.12a11.82,11.82,0,0,1,1.11-5.16,7.76,7.76,0,0,1,3.17-3.39,10.64,10.64,0,0,1,9.74.06,7.87,7.87,0,0,1,3.14,3.39,11.63,11.63,0,0,1,1.07,5.28,11.9,11.9,0,0,1-1.12,5.17,7.8,7.8,0,0,1-3.16,3.39,10.58,10.58,0,0,1-9.75,0,7.84,7.84,0,0,1-3.14-3.4A11.62,11.62,0,0,1,1287.51,1262.12Zm4.15,0a7.91,7.91,0,0,0,1.22,4.87,4.91,4.91,0,0,0,7.39.07,8,8,0,0,0,1.31-4.84,7.82,7.82,0,0,0-1.22-4.85,4.36,4.36,0,0,0-3.68-1.7,4.41,4.41,0,0,0-3.71,1.62A7.92,7.92,0,0,0,1291.66,1262.16Z" transform="translate(-47 -458.98)"/>
      <path class="cls-9" d="M1309.15,1271.69l.18-18.68,4.05,0-.16,15.45,8.2.08,0,3.23Z" transform="translate(-47 -458.98)"/>
    </g>
    <g>
      <path class="cls-9" d="M1132.34,538.7a17.19,17.19,0,0,0,2-.12l.05-4.55-3.51,0,0-2.91,7.23.07-.09,9.36a11.65,11.65,0,0,1-3,1,16.92,16.92,0,0,1-3.56.34,8.91,8.91,0,0,1-6.7-2.52q-2.34-2.48-2.29-7,0-4.8,2.51-7.29c1.64-1.67,4-2.48,7.1-2.45a12.4,12.4,0,0,1,5.47,1.16l0,3.07a16.86,16.86,0,0,0-5-.94,5.77,5.77,0,0,0-4.41,1.45,6.79,6.79,0,0,0-1.45,4.69v.49a6.61,6.61,0,0,0,1.34,4.66A5.83,5.83,0,0,0,1132.34,538.7Z" transform="translate(-47 -458.98)"/>
      <path class="cls-9" d="M1141.75,541.68l.18-18.69,7.2.07a6.67,6.67,0,0,1,4.6,1.58,5.37,5.37,0,0,1,1.65,4.2,4.93,4.93,0,0,1-.92,2.9,5.82,5.82,0,0,1-2.52,2l4.56,8.08-4.18,0-4-7.29-2.64,0-.07,7.25Zm4-10,2.8,0a2.52,2.52,0,0,0,2.86-2.84,2.47,2.47,0,0,0-2.75-2.83l-2.86,0Z" transform="translate(-47 -458.98)"/>
      <path class="cls-9" d="M1170.68,542l-1.28-4.27-6.39-.06-1.31,4.24-4.24,0,6.77-18.62,4.45,0,6.39,18.76Zm-6.78-7.24,4.69,0-2.29-7.85Z" transform="translate(-47 -458.98)"/>
      <path class="cls-9" d="M1180.81,529.09l-.13,13-3.56,0,.19-18.69,4.31,0,7.48,13.16.13-13.08,3.55,0-.18,18.69-4.31,0Z" transform="translate(-47 -458.98)"/>
      <path class="cls-9" d="M1196.64,542.22l.19-18.69,6.71.07a8.36,8.36,0,0,1,6.41,2.48q2.22,2.43,2.18,6.93t-2.32,6.9a8.23,8.23,0,0,1-6.37,2.38Zm4.2-15.52-.12,12.43,2.32,0q4.88.06,4.94-5.91v-.54c0-4-1.57-6-4.85-6Z" transform="translate(-47 -458.98)"/>
      <path class="cls-9" d="M1096.47,568.2l.19-18.69,6.71.07a6.53,6.53,0,0,1,4.34,1.42,4.42,4.42,0,0,1,1.63,3.6,4.27,4.27,0,0,1-.66,2.35,4.18,4.18,0,0,1-1.89,1.51,4.92,4.92,0,0,1,2.61,1.71,4.55,4.55,0,0,1,.88,2.88,4.67,4.67,0,0,1-1.85,3.84,7.59,7.59,0,0,1-4.86,1.38Zm3.91-8.11-.05,5.26,3.18,0c1.84,0,2.76-.84,2.78-2.56s-1-2.68-2.91-2.7Zm.08-7.66,0,4.91,2.35,0q2.61,0,2.64-2.4a2.16,2.16,0,0,0-2.38-2.5Z" transform="translate(-47 -458.98)"/>
      <path class="cls-9" d="M1124.46,568.47l-1.28-4.27-6.39-.06-1.31,4.24-4.23,0,6.76-18.62,4.45,0,6.4,18.75Zm-6.78-7.24,4.7,0-2.3-7.84Z" transform="translate(-47 -458.98)"/>
      <path class="cls-9" d="M1130.91,568.54l.18-18.69,4.05,0-.16,15.45,8.2.08,0,3.24Z" transform="translate(-47 -458.98)"/>
      <path class="cls-9" d="M1145.28,568.68l.18-18.69,4,0-.15,15.45,8.19.08,0,3.24Z" transform="translate(-47 -458.98)"/>
      <path class="cls-9" d="M1159.65,568.82l.19-18.69,7.2.08a6.54,6.54,0,0,1,4.59,1.58,5.34,5.34,0,0,1,1.66,4.19,5.05,5.05,0,0,1-.92,2.91,5.87,5.87,0,0,1-2.53,2l4.56,8.08-4.18,0-4-7.3-2.64,0-.08,7.25Zm4-10,2.81,0a2.52,2.52,0,0,0,2.86-2.83,2.47,2.47,0,0,0-2.75-2.83l-2.86,0Z" transform="translate(-47 -458.98)"/>
      <path class="cls-9" d="M1175.57,559.62a11.76,11.76,0,0,1,1.12-5.17,7.77,7.77,0,0,1,3.16-3.38,10.66,10.66,0,0,1,9.75.06,7.85,7.85,0,0,1,3.13,3.39,11.5,11.5,0,0,1,1.07,5.28,11.76,11.76,0,0,1-1.12,5.17,7.74,7.74,0,0,1-3.16,3.39,9.55,9.55,0,0,1-4.93,1.17,9.75,9.75,0,0,1-4.82-1.21,7.88,7.88,0,0,1-3.13-3.4A11.61,11.61,0,0,1,1175.57,559.62Zm4.15,0a8,8,0,0,0,1.22,4.87,4.91,4.91,0,0,0,7.39.07,9.88,9.88,0,0,0,.1-9.69,4.94,4.94,0,0,0-7.39-.08A7.92,7.92,0,0,0,1179.72,559.66Z" transform="translate(-47 -458.98)"/>
      <path class="cls-9" d="M1196.77,559.83a11.9,11.9,0,0,1,1.11-5.17,7.83,7.83,0,0,1,3.16-3.38,10.66,10.66,0,0,1,9.75.06,7.82,7.82,0,0,1,3.14,3.39A11.5,11.5,0,0,1,1215,560a11.9,11.9,0,0,1-1.11,5.17,7.91,7.91,0,0,1-3.16,3.39,9.61,9.61,0,0,1-4.94,1.17,9.72,9.72,0,0,1-4.81-1.21,7.84,7.84,0,0,1-3.14-3.4A11.64,11.64,0,0,1,1196.77,559.83Zm4.15,0a7.93,7.93,0,0,0,1.22,4.87,4.91,4.91,0,0,0,7.39.07,8,8,0,0,0,1.31-4.84,7.82,7.82,0,0,0-1.22-4.85,4.35,4.35,0,0,0-3.67-1.7,4.42,4.42,0,0,0-3.72,1.62A7.92,7.92,0,0,0,1200.92,559.87Z" transform="translate(-47 -458.98)"/>
      <path class="cls-9" d="M1233.83,569.55l.13-12.94-4.21,8.35-3.61,0-4.05-8.43-.12,13-3.56,0,.18-18.69,4.42,0,5,10.67,5.22-10.57,4.35,0-.19,18.69Z" transform="translate(-47 -458.98)"/>
      <path class="cls-9" d="M1166.07,595.85l.15-14.75-4.82,1.46,0-3.07,5.29-2.32,3.53,0-.19,18.69Z" transform="translate(-47 -458.98)"/>
    </g>
    <g>
      <path class="cls-9" d="M1486.21,936.63l.13-12.94-4.21,8.34-3.61,0-4-8.43-.13,12.94-3.56,0,.19-18.69,4.42.05,5,10.67,5.23-10.57,4.34,0-.19,18.69Z" transform="translate(-47 -458.98)"/>
      <path class="cls-9" d="M1493.37,927.34a11.74,11.74,0,0,1,1.12-5.16,7.66,7.66,0,0,1,3.16-3.38,9.57,9.57,0,0,1,4.93-1.15,9.75,9.75,0,0,1,4.82,1.2,7.85,7.85,0,0,1,3.13,3.39,11.53,11.53,0,0,1,1.07,5.28,11.9,11.9,0,0,1-1.11,5.17,7.84,7.84,0,0,1-3.17,3.4,10.62,10.62,0,0,1-9.75-.05,7.83,7.83,0,0,1-3.13-3.4A11.61,11.61,0,0,1,1493.37,927.34Zm4.16,0a7.81,7.81,0,0,0,1.22,4.86,4.9,4.9,0,0,0,7.38.07,9.88,9.88,0,0,0,.1-9.69,5,5,0,0,0-7.39-.07A7.9,7.9,0,0,0,1497.53,927.39Z" transform="translate(-47 -458.98)"/>
      <path class="cls-9" d="M1518.7,924l-.13,13-3.56,0,.19-18.69,4.31,0,7.48,13.16.13-13.08,3.56,0-.19,18.69-4.31,0Z" transform="translate(-47 -458.98)"/>
      <path class="cls-9" d="M1534.54,937.11l.18-18.69,12.3.12,0,3.13-8.25-.08,0,4.42,6.72.07,0,3.13-6.71-.07-.05,4.88,8.25.08,0,3.13Z" transform="translate(-47 -458.98)"/>
      <path class="cls-9" d="M1553.71,937.3l.15-15.45-5.69-.06,0-3.23,15.43.15,0,3.23-5.68-.05-.16,15.45Z" transform="translate(-47 -458.98)"/>
      <path class="cls-9" d="M1445.47,963.2l.19-18.69,6.71.07a6.53,6.53,0,0,1,4.34,1.42,4.42,4.42,0,0,1,1.63,3.6,4.27,4.27,0,0,1-.66,2.35,4.18,4.18,0,0,1-1.89,1.51,4.92,4.92,0,0,1,2.61,1.71,4.55,4.55,0,0,1,.88,2.88,4.67,4.67,0,0,1-1.85,3.84,7.59,7.59,0,0,1-4.86,1.38Zm3.91-8.11-.05,5.26,3.18,0c1.84,0,2.76-.84,2.78-2.56s-1-2.68-2.91-2.7Zm.08-7.66,0,4.91,2.35,0q2.61,0,2.64-2.4a2.16,2.16,0,0,0-2.38-2.5Z" transform="translate(-47 -458.98)"/>
      <path class="cls-9" d="M1473.46,963.47l-1.28-4.27-6.39-.06-1.31,4.24-4.23,0,6.76-18.62,4.45,0,6.4,18.75Zm-6.78-7.24,4.7,0-2.3-7.84Z" transform="translate(-47 -458.98)"/>
      <path class="cls-9" d="M1479.91,963.54l.18-18.69,4.05,0-.16,15.45,8.2.08,0,3.24Z" transform="translate(-47 -458.98)"/>
      <path class="cls-9" d="M1494.28,963.68l.18-18.69,4,0-.15,15.45,8.19.08,0,3.24Z" transform="translate(-47 -458.98)"/>
      <path class="cls-9" d="M1508.65,963.82l.19-18.69,7.2.08a6.54,6.54,0,0,1,4.59,1.58,5.34,5.34,0,0,1,1.66,4.19,5.05,5.05,0,0,1-.92,2.91,5.87,5.87,0,0,1-2.53,2l4.56,8.08-4.18,0-4-7.3-2.64,0-.08,7.25Zm4-10,2.81,0a2.52,2.52,0,0,0,2.86-2.83,2.47,2.47,0,0,0-2.75-2.83l-2.86,0Z" transform="translate(-47 -458.98)"/>
      <path class="cls-9" d="M1524.57,954.62a11.76,11.76,0,0,1,1.12-5.17,7.77,7.77,0,0,1,3.16-3.38,10.66,10.66,0,0,1,9.75.06,7.85,7.85,0,0,1,3.13,3.39,11.5,11.5,0,0,1,1.07,5.28,11.76,11.76,0,0,1-1.12,5.17,7.74,7.74,0,0,1-3.16,3.39,9.55,9.55,0,0,1-4.93,1.17,9.75,9.75,0,0,1-4.82-1.21,7.88,7.88,0,0,1-3.13-3.4A11.61,11.61,0,0,1,1524.57,954.62Zm4.15,0a8,8,0,0,0,1.22,4.87,4.91,4.91,0,0,0,7.39.07,9.88,9.88,0,0,0,.1-9.69,4.94,4.94,0,0,0-7.39-.08A7.92,7.92,0,0,0,1528.72,954.66Z" transform="translate(-47 -458.98)"/>
      <path class="cls-9" d="M1545.77,954.83a11.9,11.9,0,0,1,1.11-5.17,7.83,7.83,0,0,1,3.16-3.38,10.66,10.66,0,0,1,9.75.06,7.82,7.82,0,0,1,3.14,3.39A11.5,11.5,0,0,1,1564,955a11.9,11.9,0,0,1-1.11,5.17,7.91,7.91,0,0,1-3.16,3.39,9.61,9.61,0,0,1-4.94,1.17,9.72,9.72,0,0,1-4.81-1.21,7.84,7.84,0,0,1-3.14-3.4A11.64,11.64,0,0,1,1545.77,954.83Zm4.15,0a7.93,7.93,0,0,0,1.22,4.87,4.91,4.91,0,0,0,7.39.07,8,8,0,0,0,1.31-4.84,7.82,7.82,0,0,0-1.22-4.85,4.35,4.35,0,0,0-3.67-1.7,4.42,4.42,0,0,0-3.72,1.62A7.92,7.92,0,0,0,1549.92,954.87Z" transform="translate(-47 -458.98)"/>
      <path class="cls-9" d="M1582.83,964.55l.13-12.94-4.21,8.35-3.61,0-4.05-8.43-.12,13-3.56,0,.18-18.69,4.42,0,5,10.67,5.22-10.57,4.35,0-.19,18.69Z" transform="translate(-47 -458.98)"/>
      <path class="cls-9" d="M1516.39,980a6.17,6.17,0,0,1,4.06,1.58,4.86,4.86,0,0,1,1.45,3.71,5.59,5.59,0,0,1-3.48,5.26,9.36,9.36,0,0,1-3.92.73,12.71,12.71,0,0,1-5.08-1.16l0-3a16.09,16.09,0,0,0,5,1.07,4.13,4.13,0,0,0,2.64-.71,2.68,2.68,0,0,0,.92-2.17,2.14,2.14,0,0,0-.82-1.88,4.4,4.4,0,0,0-2.58-.63l-1.2,0-1.31.11,0-2.48,4.87-5.15-7.14-.07,0-3.08,11.38.11,0,3Z" transform="translate(-47 -458.98)"/>
    </g>
    <g>
      <path class="cls-9" d="M1659.21,936.63l.13-12.94-4.21,8.34-3.61,0-4-8.43-.13,12.94-3.56,0,.19-18.69,4.42.05,5,10.67,5.23-10.57,4.34,0-.19,18.69Z" transform="translate(-47 -458.98)"/>
      <path class="cls-9" d="M1666.37,927.34a11.74,11.74,0,0,1,1.12-5.16,7.66,7.66,0,0,1,3.16-3.38,9.57,9.57,0,0,1,4.93-1.15,9.75,9.75,0,0,1,4.82,1.2,7.85,7.85,0,0,1,3.13,3.39,11.53,11.53,0,0,1,1.07,5.28,11.9,11.9,0,0,1-1.11,5.17,7.84,7.84,0,0,1-3.17,3.4,10.62,10.62,0,0,1-9.75-.05,7.83,7.83,0,0,1-3.13-3.4A11.61,11.61,0,0,1,1666.37,927.34Zm4.16,0a7.81,7.81,0,0,0,1.22,4.86,4.9,4.9,0,0,0,7.38.07,9.88,9.88,0,0,0,.1-9.69,5,5,0,0,0-7.39-.07A7.9,7.9,0,0,0,1670.53,927.39Z" transform="translate(-47 -458.98)"/>
      <path class="cls-9" d="M1691.7,924l-.13,13-3.56,0,.19-18.69,4.31,0,7.48,13.16.13-13.08,3.56,0-.19,18.69-4.31,0Z" transform="translate(-47 -458.98)"/>
      <path class="cls-9" d="M1707.54,937.11l.18-18.69,12.3.12,0,3.13-8.25-.08,0,4.42,6.72.07,0,3.13-6.71-.07-.05,4.88,8.25.08,0,3.13Z" transform="translate(-47 -458.98)"/>
      <path class="cls-9" d="M1726.71,937.3l.15-15.45-5.69-.06,0-3.23,15.43.15,0,3.23-5.68-.05-.16,15.45Z" transform="translate(-47 -458.98)"/>
      <path class="cls-9" d="M1618.47,963.2l.19-18.69,6.71.07a6.53,6.53,0,0,1,4.34,1.42,4.42,4.42,0,0,1,1.63,3.6,4.27,4.27,0,0,1-.66,2.35,4.18,4.18,0,0,1-1.89,1.51,4.92,4.92,0,0,1,2.61,1.71,4.55,4.55,0,0,1,.88,2.88,4.67,4.67,0,0,1-1.85,3.84,7.59,7.59,0,0,1-4.86,1.38Zm3.91-8.11-.05,5.26,3.18,0c1.84,0,2.76-.84,2.78-2.56s-1-2.68-2.91-2.7Zm.08-7.66,0,4.91,2.35,0q2.61,0,2.64-2.4a2.16,2.16,0,0,0-2.38-2.5Z" transform="translate(-47 -458.98)"/>
      <path class="cls-9" d="M1646.46,963.47l-1.28-4.27-6.39-.06-1.31,4.24-4.23,0,6.76-18.62,4.45,0,6.4,18.75Zm-6.78-7.24,4.7,0-2.3-7.84Z" transform="translate(-47 -458.98)"/>
      <path class="cls-9" d="M1652.91,963.54l.18-18.69,4.05,0-.16,15.45,8.2.08,0,3.24Z" transform="translate(-47 -458.98)"/>
      <path class="cls-9" d="M1667.28,963.68l.18-18.69,4,0-.15,15.45,8.19.08,0,3.24Z" transform="translate(-47 -458.98)"/>
      <path class="cls-9" d="M1681.65,963.82l.19-18.69,7.2.08a6.54,6.54,0,0,1,4.59,1.58,5.34,5.34,0,0,1,1.66,4.19,5.05,5.05,0,0,1-.92,2.91,5.87,5.87,0,0,1-2.53,2l4.56,8.08-4.18,0-4-7.3-2.64,0-.08,7.25Zm4-10,2.81,0a2.52,2.52,0,0,0,2.86-2.83,2.47,2.47,0,0,0-2.75-2.83l-2.86,0Z" transform="translate(-47 -458.98)"/>
      <path class="cls-9" d="M1697.57,954.62a11.76,11.76,0,0,1,1.12-5.17,7.77,7.77,0,0,1,3.16-3.38,10.66,10.66,0,0,1,9.75.06,7.85,7.85,0,0,1,3.13,3.39,11.5,11.5,0,0,1,1.07,5.28,11.76,11.76,0,0,1-1.12,5.17,7.74,7.74,0,0,1-3.16,3.39,9.55,9.55,0,0,1-4.93,1.17,9.75,9.75,0,0,1-4.82-1.21,7.88,7.88,0,0,1-3.13-3.4A11.61,11.61,0,0,1,1697.57,954.62Zm4.15,0a8,8,0,0,0,1.22,4.87,4.91,4.91,0,0,0,7.39.07,9.88,9.88,0,0,0,.1-9.69,4.94,4.94,0,0,0-7.39-.08A7.92,7.92,0,0,0,1701.72,954.66Z" transform="translate(-47 -458.98)"/>
      <path class="cls-9" d="M1718.77,954.83a11.9,11.9,0,0,1,1.11-5.17,7.83,7.83,0,0,1,3.16-3.38,10.66,10.66,0,0,1,9.75.06,7.82,7.82,0,0,1,3.14,3.39A11.5,11.5,0,0,1,1737,955a11.9,11.9,0,0,1-1.11,5.17,7.91,7.91,0,0,1-3.16,3.39,9.61,9.61,0,0,1-4.94,1.17,9.72,9.72,0,0,1-4.81-1.21,7.84,7.84,0,0,1-3.14-3.4A11.64,11.64,0,0,1,1718.77,954.83Zm4.15,0a7.93,7.93,0,0,0,1.22,4.87,4.91,4.91,0,0,0,7.39.07,8,8,0,0,0,1.31-4.84,7.82,7.82,0,0,0-1.22-4.85,4.35,4.35,0,0,0-3.67-1.7,4.42,4.42,0,0,0-3.72,1.62A7.92,7.92,0,0,0,1722.92,954.87Z" transform="translate(-47 -458.98)"/>
      <path class="cls-9" d="M1755.83,964.55l.13-12.94-4.21,8.35-3.61,0-4.05-8.43-.12,13-3.56,0,.18-18.69,4.42,0,5,10.67,5.22-10.57,4.35,0-.19,18.69Z" transform="translate(-47 -458.98)"/>
      <path class="cls-9" d="M1688.07,990.85l.15-14.75-4.82,1.46,0-3.07,5.29-2.32,3.53,0-.19,18.69Z" transform="translate(-47 -458.98)"/>
    </g>
    <g>
      <path class="cls-9" d="M890.22,550.72a19.76,19.76,0,0,0,2-.12l0-4.56-3.51,0,0-2.91,7.23.07-.09,9.36a11.65,11.65,0,0,1-3,1,16.92,16.92,0,0,1-3.56.34,8.91,8.91,0,0,1-6.7-2.52q-2.34-2.48-2.29-7,0-4.8,2.51-7.29t7.1-2.46a12.69,12.69,0,0,1,5.47,1.16l0,3.08a16.86,16.86,0,0,0-5-.94,5.77,5.77,0,0,0-4.41,1.45,6.72,6.72,0,0,0-1.45,4.69v.49a6.62,6.62,0,0,0,1.34,4.66A5.83,5.83,0,0,0,890.22,550.72Z" transform="translate(-47 -458.98)"/>
      <path class="cls-9" d="M899.63,553.69l.18-18.68,7.2.07a6.67,6.67,0,0,1,4.6,1.58,5.37,5.37,0,0,1,1.65,4.2,5,5,0,0,1-.92,2.9,5.89,5.89,0,0,1-2.52,2l4.56,8.08-4.18,0-4-7.29-2.64,0-.07,7.25Zm4-10,2.8,0c1.89,0,2.84-.92,2.86-2.83a2.47,2.47,0,0,0-2.75-2.83l-2.86,0Z" transform="translate(-47 -458.98)"/>
      <path class="cls-9" d="M928.56,554l-1.28-4.27-6.39-.07-1.31,4.25-4.23,0,6.76-18.62,4.45,0L933,554Zm-6.78-7.24,4.69,0-2.29-7.85Z" transform="translate(-47 -458.98)"/>
      <path class="cls-9" d="M938.69,541.11l-.13,13L935,554l.19-18.68,4.31,0L947,548.55l.13-13.07,3.56,0-.19,18.69-4.31-.05Z" transform="translate(-47 -458.98)"/>
      <path class="cls-9" d="M954.52,554.24l.19-18.69,6.71.07a8.34,8.34,0,0,1,6.41,2.47q2.22,2.45,2.18,6.94c0,3-.8,5.28-2.32,6.9a8.19,8.19,0,0,1-6.37,2.37Zm4.2-15.52-.12,12.43,2.32,0q4.88,0,4.94-5.91v-.54c0-4-1.57-6-4.85-6Z" transform="translate(-47 -458.98)"/>
      <path class="cls-9" d="M843.19,580.1l.19-18.68,6.71.06a6.65,6.65,0,0,1,4.34,1.42,4.42,4.42,0,0,1,1.62,3.61,4.26,4.26,0,0,1-.65,2.35,4.1,4.1,0,0,1-1.89,1.5,5,5,0,0,1,2.61,1.72A4.57,4.57,0,0,1,857,575a4.68,4.68,0,0,1-1.85,3.83,7.56,7.56,0,0,1-4.87,1.38Zm3.91-8.1-.05,5.26,3.18,0c1.83,0,2.76-.84,2.78-2.56s-1-2.68-2.92-2.7Zm.08-7.66,0,4.91,2.34,0q2.63,0,2.64-2.4a2.15,2.15,0,0,0-2.37-2.5Z" transform="translate(-47 -458.98)"/>
      <path class="cls-9" d="M871.18,580.38l-1.28-4.27-6.39-.07-1.31,4.25-4.23,0,6.76-18.62,4.45,0,6.4,18.75Zm-6.78-7.24,4.69.05-2.29-7.85Z" transform="translate(-47 -458.98)"/>
      <path class="cls-9" d="M877.63,580.45l.18-18.69,4,0-.15,15.45,8.2.08,0,3.24Z" transform="translate(-47 -458.98)"/>
      <path class="cls-9" d="M892,580.59l.18-18.69,4.05,0-.16,15.45,8.2.08,0,3.24Z" transform="translate(-47 -458.98)"/>
      <path class="cls-9" d="M906.37,580.73l.18-18.69,7.2.07a6.61,6.61,0,0,1,4.6,1.59,5.37,5.37,0,0,1,1.66,4.19,5.05,5.05,0,0,1-.92,2.91,5.91,5.91,0,0,1-2.53,2l4.56,8.09-4.18,0-4-7.29-2.64,0-.07,7.26Zm4-10,2.81,0a2.52,2.52,0,0,0,2.86-2.83c0-1.87-.9-2.82-2.76-2.83l-2.85,0Z" transform="translate(-47 -458.98)"/>
      <path class="cls-9" d="M922.29,571.53a11.76,11.76,0,0,1,1.12-5.17,7.71,7.71,0,0,1,3.16-3.38,10.66,10.66,0,0,1,9.75.06,7.8,7.8,0,0,1,3.13,3.39,11.5,11.5,0,0,1,1.07,5.28,11.76,11.76,0,0,1-1.12,5.17,7.85,7.85,0,0,1-3.16,3.39,10.66,10.66,0,0,1-9.75,0,7.79,7.79,0,0,1-3.13-3.41A11.57,11.57,0,0,1,922.29,571.53Zm4.15,0a8,8,0,0,0,1.22,4.87,4.93,4.93,0,0,0,7.39.07,8,8,0,0,0,1.32-4.84,7.87,7.87,0,0,0-1.23-4.86,4.94,4.94,0,0,0-7.38-.07A7.85,7.85,0,0,0,926.44,571.57Z" transform="translate(-47 -458.98)"/>
      <path class="cls-9" d="M943.48,571.74a11.9,11.9,0,0,1,1.12-5.17,7.77,7.77,0,0,1,3.16-3.38,10.66,10.66,0,0,1,9.75.06,7.74,7.74,0,0,1,3.13,3.39,11.37,11.37,0,0,1,1.07,5.28,11.82,11.82,0,0,1-1.11,5.16,7.84,7.84,0,0,1-3.17,3.4,10.64,10.64,0,0,1-9.74,0,7.81,7.81,0,0,1-3.14-3.41A11.57,11.57,0,0,1,943.48,571.74Zm4.16,0a7.93,7.93,0,0,0,1.22,4.87,4.92,4.92,0,0,0,7.38.07,9.9,9.9,0,0,0,.1-9.7A5,5,0,0,0,949,567,7.92,7.92,0,0,0,947.64,571.78Z" transform="translate(-47 -458.98)"/>
      <path class="cls-9" d="M980.55,581.46l.13-12.94-4.21,8.34-3.62,0-4-8.43-.13,12.94-3.55,0,.18-18.69,4.42,0,5,10.67L980,562.77l4.34,0-.18,18.69Z" transform="translate(-47 -458.98)"/>
      <path class="cls-9" d="M1007,567.57a4.55,4.55,0,0,1-.8,2.55,5.46,5.46,0,0,1-2.15,1.81,7.78,7.78,0,0,1,2.73,2,4.18,4.18,0,0,1,.81,2.67,5,5,0,0,1-1.85,4,7.87,7.87,0,0,1-5.11,1.4,8.29,8.29,0,0,1-5-1.39,4.31,4.31,0,0,1-1.8-3.71,5.09,5.09,0,0,1,.93-2.92,5.87,5.87,0,0,1,2.52-2,5.69,5.69,0,0,1-2-1.81,4.43,4.43,0,0,1-.62-2.42,4.87,4.87,0,0,1,1.72-3.84,6.6,6.6,0,0,1,4.48-1.41,6.85,6.85,0,0,1,4.46,1.43A4.4,4.4,0,0,1,1007,567.57Zm-7.6,5.45a4.54,4.54,0,0,0-1.31,1.43,3.66,3.66,0,0,0-.48,1.79,2.68,2.68,0,0,0,.78,2.12,3.38,3.38,0,0,0,2.32.74,3.47,3.47,0,0,0,2.29-.65,2.4,2.4,0,0,0,.81-1.91,2,2,0,0,0-.67-1.57,9.89,9.89,0,0,0-2.59-1.45Zm-1.08-5.43a2.38,2.38,0,0,0,.62,1.66,5.27,5.27,0,0,0,2,1.3l1,.44a4,4,0,0,0,1.4-3,2.7,2.7,0,0,0-.64-2,2.54,2.54,0,0,0-1.92-.71,2.45,2.45,0,0,0-1.81.58A2.23,2.23,0,0,0,998.35,567.59Z" transform="translate(-47 -458.98)"/>
    </g>
  </g>
</svg>
