<svg id="map" xmlns="http://www.w3.org/2000/svg" width="1854" height="814" viewBox="0 0 1854 814">
  <defs>
    <style>
      .cls-1 {
        fill: #7a797a;
      }

      .cls-2 {
        fill: #c0539f;
      }

      .cls-3 {
        fill: #949393;
      }

      .cls-4 {
        fill: #ff2939;
      }

      .cls-5 {
        opacity: 0.2;
      }

      .cls-10, .cls-6, .cls-7 {
        fill: none;
        stroke-miterlimit: 10;
      }

      .cls-6 {
        stroke: #3f3f3f;
      }

      .cls-6, .cls-7 {
        stroke-width: 2px;
      }

      .cls-7 {
        stroke: #231f20;
      }

      .cls-8 {
        fill: #fff;
      }

      .cls-9 {
        fill: #454546;
      }

      .cls-10 {
        stroke: #fff;
        stroke-linecap: round;
        stroke-width: 0.8px;
      }
    </style>
  </defs>
  <title>MGM_2F</title>
  <g id="ground">
    <path class="cls-1" d="M40,1208l2,134-8,18s170-32,296,0l-2-22h80l-12,24s100-18,148,42l8-18s98,22,140-2l8,20s56-60,152-42l-12-24h78l-6,22s150-30,242-8h54v34h126v-34h446v-26l54-2,54-104V1068h-52V696H1446l2-72-260,2V590H1054v62h110v34H94v336H64v186Z" transform="translate(-34 -590)"/>
  </g>
  <g id="footprint">
    <g id="programming">
      <rect class="cls-2" x="1300" y="606" width="218" height="156"/>
      <rect class="cls-2" x="1524" y="606" width="222" height="156"/>
    </g>
    <g id="reflection_room">
      <rect id="_MGM_724" class="cls-2" x="1592" y="484" width="72" height="86"/>
    </g>
    <g id="restrooms">
      <rect class="cls-3" x="1152" y="396" width="112" height="170"/>
      <polygon class="cls-3" points="168 532 168 652 100 652 100 618 58 618 58 532 168 532"/>
    </g>
    <g id="building">
      <rect id="_MGM_724-2" data-name="_MGM_724" class="cls-3" x="1300" y="484" width="288" height="86"/>
      <rect id="_MGM_724-3" data-name="_MGM_724" class="cls-3" x="1302" y="106" width="500" height="372"/>
      <polygon class="cls-3" points="968 96 968 654 884 654 884 672 660 672 660 608 514 608 514 672 290 672 290 654 206 654 206 608 172 608 172 528 60 528 60 96 968 96"/>
      <rect id="_MGM_724-4" data-name="_MGM_724" class="cls-3" x="1668" y="484" width="186" height="86"/>
      <rect id="_MGM_723" class="cls-3" x="1152" y="92" width="112" height="298"/>
      <polygon class="cls-3" points="1120 170 1120 616 1080 616 1080 654 1006 654 1006 568 1032 568 1032 530 1016 530 1002 484 1014 484 1014 436 1002 436 1016 388 1004 388 1004 358 1018 360 1018 340 1008 340 1008 312 1020 312 1004 262 1016 262 1016 218 1002 218 1009 176 1006 176 1006 92 1118 92 1118 170 1120 170"/>
      <path class="cls-3" d="M396,1362l12-24v-50H840v50l12,24s-100-16-152,42l-8-20s-34,20-140,2l-8,18S486,1342,396,1362Z" transform="translate(-34 -590)"/>
    </g>
  </g>
  <g id="points">
    <rect id="MGM_433" class="cls-4" x="1252.79" y="668.28" width="40" height="40"/>
    <rect id="MGM_723" class="cls-4" x="1152" y="396" width="112" height="170"/>
    <rect id="MGM_724" class="cls-4" x="1300" y="606" width="218" height="156"/>
    <rect id="MGM_725" class="cls-4" x="1524" y="606" width="222" height="156"/>
    <rect id="MGM_726" class="cls-4" x="1592" y="484" width="72" height="86"/>
    <rect id="MGM_430" class="cls-4" x="1082.72" y="613.63" width="36" height="38"/>
    <rect id="MGM_854" class="cls-4" x="514" y="608" width="146" height="64"/>
  </g>
  <g id="bounds" class="cls-5">
    <rect id="_MGM_433" class="cls-4" x="1252.79" y="668.28" width="40" height="40"/>
    <rect id="_MGM_723-2" data-name="_MGM_723" class="cls-4" x="1152" y="396" width="112" height="170"/>
    <rect id="_MGM_724-5" data-name="_MGM_724" class="cls-4" x="1300" y="606" width="218" height="156"/>
    <rect id="_MGM_725" class="cls-4" x="1524" y="606" width="222" height="156"/>
    <rect id="_MGM_726" class="cls-4" x="1592" y="484" width="72" height="86"/>
    <rect id="_MGM_430" class="cls-4" x="1082.72" y="613.63" width="36" height="38"/>
    <rect id="_MGM_854" class="cls-4" x="514" y="608" width="146" height="64"/>
  </g>
  <g id="paths">
    <g id="MGM_430-2" data-name="MGM_430">
      <polyline id="MGM_430-MGM_433" class="cls-6" points="1252 690 1192 690 1192 634 1122 634"/>
      <polyline id="MGM_430-MGM_723" class="cls-6" points="1264 418 1282 418 1282 634 1120 634"/>
      <polyline id="MGM_430-MGM_724" class="cls-6" points="1480 606 1480 594 1178 594 1178 636 1120 636"/>
      <polyline id="MGM_430-MGM_725" class="cls-6" points="1698 606 1698 594 1178 594 1178 636 1120 636"/>
      <polyline id="MGM_430-MGM_726" class="cls-6" points="1630 570 1630 594 1178 594 1178 636 1120 636"/>
      <polyline id="MGM_430-MGM_854" class="cls-6" points="1104 652 1104 688 576 688 576 670"/>
    </g>
    <g id="MGM_433-2" data-name="MGM_433">
      <polyline id="MGM_433-MGM_430" class="cls-6" points="1122 636 1182 636 1181 690.23 1251 690.23"/>
      <polyline id="MGM_433-MGM_723" class="cls-6" points="1264 418 1276 418 1276 669"/>
      <polyline id="MGM_433-MGM_724" class="cls-6" points="1480 606 1480 594 1270 594 1270 675"/>
      <polyline id="MGM_433-MGM_725" class="cls-6" points="1698 606 1698 594 1270 594 1270 675"/>
      <polyline id="MGM_433-MGM_726" class="cls-6" points="1630 570 1630 594 1272 594 1272 675"/>
      <polyline id="MGM_433-MGM_854" class="cls-7" points="584 666 584 682 1257 682"/>
    </g>
  </g>
  <g id="icons">
    <g>
      <g>
        <rect x="162.77" y="1295.33" width="40.55" height="40.55" transform="translate(-37.4 -589.52) rotate(-0.15)"/>
        <path class="cls-8" d="M201.67,1296.89l.09,37.34-37.33.09-.1-37.34,37.34-.09m1.6-1.61-40.55.1.1,40.55,40.55-.1-.1-40.55Z" transform="translate(-34 -590)"/>
      </g>
      <g>
        <path class="cls-8" d="M195.06,1317.54c-.94,0-1.88,0-2.81,0a.85.85,0,0,1-.67-.27l-3.78-3.68c0-1.7,0-3.4,0-5.1,0-1.27-.52-2-1.43-2-.42,0-.83,0-1.25,0-.81,0-1.32.76-1.32,1.87,0,.41,0,.85-.05,1.27l-6.17-6a.92.92,0,0,0-.7-.28c-1.92,0-3.85,0-5.77,0a3.64,3.64,0,0,0-1.19,7,5.1,5.1,0,0,0,1.4.26c.89,0,1.78,0,2.66,0a1,1,0,0,1,.59.24q7,6.79,14,13.61a1,1,0,0,0,.76.32c.92,0,1.85,0,2.77,0v-.06a28.42,28.42,0,0,0,3.33,0,3.57,3.57,0,0,0,3.06-3.89A3.63,3.63,0,0,0,195.06,1317.54Z" transform="translate(-34 -590)"/>
        <path class="cls-8" d="M185.76,1302.67a1.61,1.61,0,0,0,0,3.22,1.61,1.61,0,0,0,0-3.22Z" transform="translate(-34 -590)"/>
        <path class="cls-8" d="M183.43,1329.53a.36.36,0,0,1-.26-.11l-15.28-14.49a.38.38,0,0,1,0-.53.37.37,0,0,1,.53,0l15.27,14.49a.38.38,0,0,1,0,.53A.37.37,0,0,1,183.43,1329.53Z" transform="translate(-34 -590)"/>
        <path class="cls-8" d="M168.13,1318.31a.38.38,0,0,1-.38-.37l-.1-3.39a.37.37,0,0,1,.36-.38l3.39-.11a.39.39,0,0,1,.39.37.38.38,0,0,1-.36.38l-3,.09.09,3a.38.38,0,0,1-.36.39Z" transform="translate(-34 -590)"/>
        <path class="cls-8" d="M180.14,1329.76a.37.37,0,0,1-.37-.36.36.36,0,0,1,.36-.38l3-.1-.09-3a.37.37,0,0,1,.36-.38h0a.37.37,0,0,1,.37.36l.11,3.39a.39.39,0,0,1-.36.39l-3.4.1Z" transform="translate(-34 -590)"/>
      </g>
    </g>
    <g>
      <g>
        <rect x="1042.77" y="1295.33" width="40.55" height="40.55" transform="translate(-37.4 -587.25) rotate(-0.15)"/>
        <path class="cls-8" d="M1081.67,1296.89l.09,37.34-37.33.09-.1-37.34,37.34-.09m1.6-1.61-40.55.1.1,40.55,40.55-.1-.1-40.55Z" transform="translate(-34 -590)"/>
      </g>
      <g>
        <path class="cls-8" d="M1075.06,1317.54c-.94,0-1.88,0-2.81,0a.85.85,0,0,1-.67-.27l-3.78-3.68c0-1.7,0-3.4,0-5.1,0-1.27-.52-2-1.43-2-.42,0-.83,0-1.25,0-.81,0-1.32.76-1.32,1.87,0,.41,0,.85,0,1.27l-6.17-6a.92.92,0,0,0-.7-.28c-1.92,0-3.85,0-5.77,0a3.64,3.64,0,0,0-1.19,7,5.1,5.1,0,0,0,1.4.26c.89,0,1.78,0,2.66,0a1,1,0,0,1,.59.24q7,6.79,14,13.61a1,1,0,0,0,.76.32c.92,0,1.85,0,2.77,0v-.06a28.42,28.42,0,0,0,3.33,0,3.57,3.57,0,0,0,3.06-3.89A3.63,3.63,0,0,0,1075.06,1317.54Z" transform="translate(-34 -590)"/>
        <path class="cls-8" d="M1065.76,1302.67a1.61,1.61,0,0,0,0,3.22,1.61,1.61,0,0,0,0-3.22Z" transform="translate(-34 -590)"/>
        <path class="cls-8" d="M1063.43,1329.53a.36.36,0,0,1-.26-.11l-15.28-14.49a.38.38,0,0,1,0-.53.37.37,0,0,1,.53,0l15.27,14.49a.38.38,0,0,1,0,.53A.37.37,0,0,1,1063.43,1329.53Z" transform="translate(-34 -590)"/>
        <path class="cls-8" d="M1048.13,1318.31a.38.38,0,0,1-.38-.37l-.1-3.39a.37.37,0,0,1,.36-.38l3.39-.11a.39.39,0,0,1,.39.37.38.38,0,0,1-.36.38l-3,.09.09,3a.38.38,0,0,1-.36.39Z" transform="translate(-34 -590)"/>
        <path class="cls-8" d="M1060.14,1329.76a.37.37,0,0,1-.37-.36.36.36,0,0,1,.36-.38l3-.1-.09-3a.37.37,0,0,1,.36-.38h0a.37.37,0,0,1,.37.36l.11,3.39a.39.39,0,0,1-.36.39l-3.4.1Z" transform="translate(-34 -590)"/>
      </g>
    </g>
    <g>
      <g>
        <rect x="1097.19" y="600.33" width="40.55" height="40.55" transform="translate(-30.8 -595.73) rotate(0.29)"/>
        <path class="cls-8" d="M1136.23,602l-.19,37.34-37.34-.19.19-37.34,37.34.19m1.62-1.6-40.55-.2-.21,40.55,40.55.21.21-40.56Z" transform="translate(-34 -590)"/>
      </g>
      <path class="cls-8" d="M1112.79,632.88l-8.55,0a1.65,1.65,0,0,1,0-3.3l5.25,0,0-7.93,6.78,0,0-7.52,6.42,0,0-5.87,7.88,0a1.65,1.65,0,0,1,0,3.3l-4.58,0,0,5.87-6.42,0,0,7.52-6.78,0Z" transform="translate(-34 -590)"/>
    </g>
    <g>
      <g>
        <rect x="861.19" y="1292.33" width="40.55" height="40.55" transform="translate(-27.25 -594.51) rotate(0.29)"/>
        <path class="cls-8" d="M900.23,1294l-.19,37.34-37.34-.19.19-37.34,37.34.19m1.62-1.6-40.55-.2-.21,40.55,40.55.21.21-40.56Z" transform="translate(-34 -590)"/>
      </g>
      <path class="cls-8" d="M876.79,1324.88l-8.55,0a1.65,1.65,0,0,1,0-3.3l5.25,0,0-7.93,6.78,0,0-7.52,6.42,0,0-5.87,7.88,0a1.65,1.65,0,0,1,0,3.3l-4.58,0,0,5.87-6.42,0,0,7.52-6.78,0Z" transform="translate(-34 -590)"/>
    </g>
    <g>
      <g>
        <rect x="345.19" y="1292.33" width="40.55" height="40.55" transform="translate(-27.26 -591.86) rotate(0.29)"/>
        <path class="cls-8" d="M384.23,1294l-.19,37.34-37.34-.19.19-37.34,37.34.19m1.62-1.6-40.55-.2-.21,40.55,40.55.21.21-40.56Z" transform="translate(-34 -590)"/>
      </g>
      <path class="cls-8" d="M360.79,1324.88l-8.55,0a1.65,1.65,0,0,1,0-3.3l5.25,0,0-7.93,6.78,0,0-7.52,6.42,0,0-5.87,7.88,0a1.65,1.65,0,0,1,0,3.3l-4.58,0,0,5.87-6.42,0,0,7.52-6.78,0Z" transform="translate(-34 -590)"/>
    </g>
    <g>
      <g>
        <rect x="1793.19" y="1252.33" width="40.55" height="40.55" transform="translate(-27.44 -599.29) rotate(0.29)"/>
        <path class="cls-8" d="M1832.23,1254l-.19,37.34-37.34-.19.19-37.34,37.34.19m1.62-1.6-40.55-.2-.21,40.55,40.55.21.21-40.56Z" transform="translate(-34 -590)"/>
      </g>
      <path class="cls-8" d="M1808.79,1284.88l-8.55,0a1.65,1.65,0,0,1,0-3.3l5.25,0,0-7.93,6.78,0,0-7.52,6.42,0,0-5.87,7.88,0a1.65,1.65,0,0,1,0,3.3l-4.58,0,0,5.87-6.42,0,0,7.52-6.78,0Z" transform="translate(-34 -590)"/>
    </g>
    <g>
      <g>
        <rect x="1187.72" y="460.72" width="40.55" height="40.55"/>
        <path class="cls-8" d="M1260.67,1052.33v37.34h-37.34v-37.34h37.34m1.61-1.61h-40.56v40.56h40.56v-40.56Z" transform="translate(-34 -590)"/>
      </g>
      <g>
        <path class="cls-8" d="M1241.4,1061.85v0h.17v0a2.08,2.08,0,0,0,0-4.14v0h-.17v0a2.08,2.08,0,0,0,0,4.16Z" transform="translate(-34 -590)"/>
        <path class="cls-8" d="M1247.32,1070.05l-1.8-5.91a2.8,2.8,0,0,0-2.54-1.87h-3.66a2.7,2.7,0,0,0-2.69,2.72v6.45a.92.92,0,1,0,1.84,0v-5.88h.44v16.12a1.22,1.22,0,1,0,2.43,0v-9.36h.23v2.46h.28v7.12a1,1,0,0,0,1.93,0v-7.08h2.62l-2.81-9.66h.47l1.61,5.44C1246.06,1071.84,1247.67,1071.32,1247.32,1070.05Z" transform="translate(-34 -590)"/>
      </g>
    </g>
    <g>
      <g>
        <rect x="1285.56" y="1257.61" width="40.55" height="40.55" transform="translate(-37.3 -586.62) rotate(-0.15)"/>
        <path class="cls-8" d="M1324.45,1259.17l.1,37.34-37.34.09-.1-37.33,37.34-.1m1.61-1.61-40.56.1.11,40.56,40.55-.11-.1-40.55Z" transform="translate(-34 -590)"/>
      </g>
      <g>
        <path class="cls-8" d="M1317.84,1279.82c-.93,0-1.87,0-2.81,0a.83.83,0,0,1-.66-.27l-3.79-3.68c0-1.7,0-3.4,0-5.1,0-1.27-.52-2-1.44-2h-1.25c-.8,0-1.31.76-1.32,1.87,0,.42,0,.85,0,1.27l-6.18-6a.9.9,0,0,0-.69-.28c-1.93,0-3.85,0-5.78,0a3.64,3.64,0,0,0-1.19,7,4.81,4.81,0,0,0,1.41.26c.88,0,1.77,0,2.66,0a1,1,0,0,1,.59.24q7,6.8,14,13.62a1,1,0,0,0,.76.31c.93,0,1.85,0,2.77,0v0a31,31,0,0,0,3.34,0,3.55,3.55,0,0,0,3-3.89A3.61,3.61,0,0,0,1317.84,1279.82Z" transform="translate(-34 -590)"/>
        <path class="cls-8" d="M1308.55,1265a1.59,1.59,0,0,0-1.61,1.59,1.61,1.61,0,1,0,1.61-1.59Z" transform="translate(-34 -590)"/>
        <path class="cls-8" d="M1306.21,1291.81a.4.4,0,0,1-.26-.11l-15.27-14.49a.38.38,0,0,1,0-.53.37.37,0,0,1,.53,0l15.28,14.49a.38.38,0,0,1,0,.53A.36.36,0,0,1,1306.21,1291.81Z" transform="translate(-34 -590)"/>
        <path class="cls-8" d="M1290.91,1280.59a.37.37,0,0,1-.37-.36l-.1-3.4a.37.37,0,0,1,.36-.38l3.39-.1a.37.37,0,0,1,.38.36.36.36,0,0,1-.36.38l-3,.09.09,3a.37.37,0,0,1-.36.39Z" transform="translate(-34 -590)"/>
        <path class="cls-8" d="M1302.93,1292a.38.38,0,0,1-.38-.36.38.38,0,0,1,.37-.38l3-.1-.1-3a.38.38,0,0,1,.36-.38h0a.38.38,0,0,1,.38.36l.1,3.4a.37.37,0,0,1-.36.38l-3.39.1Z" transform="translate(-34 -590)"/>
      </g>
    </g>
    <g>
      <g>
        <rect x="97.22" y="551.87" width="40.55" height="40.55"/>
        <path class="cls-8" d="M170.16,1143.47v37.34H132.82v-37.34h37.34m1.61-1.6H131.22v40.55h40.55v-40.55Z" transform="translate(-34 -590)"/>
      </g>
      <g>
        <g>
          <g>
            <path class="cls-8" d="M140.94,1154.14a2,2,0,1,0-2-2A2,2,0,0,0,140.94,1154.14Z" transform="translate(-34 -590)"/>
            <path class="cls-9" d="M140.94,1152.13" transform="translate(-34 -590)"/>
          </g>
          <path class="cls-8" d="M138.8,1154.58a2.58,2.58,0,0,0-2.57,2.6v6.16a.88.88,0,1,0,1.76,0v-5.63h.41v15.42a1.17,1.17,0,1,0,2.33,0v-9h.41v9a1.17,1.17,0,1,0,2.34,0v-15.42h.41v5.63a.87.87,0,1,0,1.74,0v-6.12a2.62,2.62,0,0,0-2.6-2.64Z" transform="translate(-34 -590)"/>
        </g>
        <g>
          <g>
            <path class="cls-8" d="M161.22,1154.05a2,2,0,1,0-2-2A2,2,0,0,0,161.22,1154.05Z" transform="translate(-34 -590)"/>
            <path class="cls-9" d="M161.22,1152.09" transform="translate(-34 -590)"/>
          </g>
          <path class="cls-8" d="M160.93,1166.52v6.81a.93.93,0,1,1-1.85,0v-6.76h-2.49l2.66-9.23h-.41l-1.55,5.21a.84.84,0,1,1-1.57-.55l1.72-5.66a2.6,2.6,0,0,1,2.41-1.79h2.7a2.69,2.69,0,0,1,2.43,1.79l1.72,5.65c.35,1.22-1.2,1.72-1.57.54l-1.55-5.19h-.44l2.68,9.23h-2.49v6.77a.93.93,0,0,1-1.85,0v-6.82Z" transform="translate(-34 -590)"/>
        </g>
        <line class="cls-10" x1="117.07" y1="584.52" x2="117.07" y2="560.12"/>
      </g>
    </g>
    <g>
      <g>
        <rect x="1609.61" y="505.86" width="40.55" height="40.55"/>
        <path class="cls-8" d="M1682.55,1097.46v37.34h-37.34v-37.34h37.34m1.61-1.6h-40.55v40.55h40.55v-40.55Z" transform="translate(-34 -590)"/>
      </g>
      <g>
        <path class="cls-8" d="M1648.4,1123.3a.53.53,0,0,0,.47.28h2.65a.52.52,0,0,0,.46-.27l3.36-5.7h1.8V1123a.54.54,0,0,0,.54.54h2.65a.54.54,0,0,0,.54-.54v-15a.55.55,0,0,0-.54-.55h-5.62a5.63,5.63,0,0,0-3.91,1.35,4.67,4.67,0,0,0-1.52,3.65,4.87,4.87,0,0,0,.85,2.85,5,5,0,0,0,1.84,1.56l-3.57,5.9A.52.52,0,0,0,1648.4,1123.3Zm8.74-8.81h-2.09c-1.4,0-2-.59-2-2s.57-2,1.92-2h2.16Z" transform="translate(-34 -590)"/>
        <path class="cls-8" d="M1679.36,1122.76l-3.57-5.9a5.08,5.08,0,0,0,1.85-1.56,4.86,4.86,0,0,0,.84-2.85,4.69,4.69,0,0,0-1.51-3.65,5.65,5.65,0,0,0-3.91-1.35h-5.62a.55.55,0,0,0-.55.55v15a.55.55,0,0,0,.55.54h2.64a.55.55,0,0,0,.55-.54v-5.43h1.79l3.36,5.7a.55.55,0,0,0,.47.27h2.65a.56.56,0,0,0,.47-.28A.55.55,0,0,0,1679.36,1122.76Zm-8.73-12.18h2.15c1.35,0,1.93.58,1.93,2s-.6,2-2,2h-2.09Z" transform="translate(-34 -590)"/>
        <path class="cls-8" d="M1663.72,1123.85a.27.27,0,0,1-.27-.27v-16.13a.27.27,0,0,1,.54,0v16.13A.27.27,0,0,1,1663.72,1123.85Z" transform="translate(-34 -590)"/>
      </g>
    </g>
    <g>
      <g>
        <rect x="1018.89" y="606.42" width="40.55" height="40.55"/>
        <path class="cls-8" d="M1091.84,1198v37.34H1054.5V1198h37.34m1.6-1.61h-40.55V1237h40.55v-40.56Z" transform="translate(-34 -590)"/>
      </g>
      <g>
        <g>
          <g>
            <path class="cls-8" d="M1062.62,1208.69a2,2,0,1,0-2-2A2,2,0,0,0,1062.62,1208.69Z" transform="translate(-34 -590)"/>
            <path class="cls-9" d="M1062.62,1206.69" transform="translate(-34 -590)"/>
          </g>
          <path class="cls-8" d="M1060.47,1209.14a2.57,2.57,0,0,0-2.56,2.6v6.16a.88.88,0,1,0,1.75,0v-5.63h.41v15.41a1.17,1.17,0,1,0,2.34,0v-9h.4v9a1.17,1.17,0,1,0,2.34,0v-15.41h.41v5.63a.87.87,0,1,0,1.74,0v-6.12a2.61,2.61,0,0,0-2.59-2.64Z" transform="translate(-34 -590)"/>
        </g>
        <g>
          <g>
            <path class="cls-8" d="M1082.89,1208.61a2,2,0,1,0-2-2A2,2,0,0,0,1082.89,1208.61Z" transform="translate(-34 -590)"/>
            <path class="cls-9" d="M1082.89,1206.65" transform="translate(-34 -590)"/>
          </g>
          <path class="cls-8" d="M1082.6,1221.08v6.81a.93.93,0,1,1-1.85,0v-6.76h-2.49l2.66-9.23h-.41l-1.55,5.21a.84.84,0,1,1-1.57-.55l1.72-5.66a2.6,2.6,0,0,1,2.41-1.79h2.71a2.71,2.71,0,0,1,2.43,1.79l1.72,5.65c.34,1.22-1.21,1.72-1.58.54l-1.54-5.19h-.45l2.68,9.23H1085v6.77a.93.93,0,0,1-1.85,0v-6.82Z" transform="translate(-34 -590)"/>
        </g>
        <line class="cls-10" x1="1038.74" y1="639.08" x2="1038.74" y2="614.68"/>
      </g>
    </g>
    <g>
      <g>
        <rect x="1080.26" y="612.42" width="40.55" height="40.55"/>
        <path class="cls-8" d="M1153.21,1204v37.34h-37.34V1204h37.34m1.6-1.61h-40.55V1243h40.55v-40.56Z" transform="translate(-34 -590)"/>
      </g>
      <g>
        <g>
          <path class="cls-8" d="M1144.27,1219.38v4.38c0,.1,0,.22,0,.32a.55.55,0,0,1-.48.4,2,2,0,0,1-.35,0v-4.42a1.28,1.28,0,0,0,0-.19.34.34,0,0,0-.34-.29.33.33,0,0,0-.32.32v9.64a1.78,1.78,0,0,1-.08.45.58.58,0,0,1-1.09-.21.91.91,0,0,1,0-.17v-4.68a1.09,1.09,0,0,0,0-.18.35.35,0,0,0-.32-.27.32.32,0,0,0-.32.27.55.55,0,0,0,0,.18v4.74a.59.59,0,0,1-.66.62.62.62,0,0,1-.51-.55v-9.68a1.41,1.41,0,0,0,0-.21.34.34,0,0,0-.36-.27.34.34,0,0,0-.3.33v4.55a.63.63,0,0,1-.85-.64c0-1.48,0-3,0-4.46a1.51,1.51,0,0,1,1.58-1.57h2.92A1.52,1.52,0,0,1,1144.27,1219.38Z" transform="translate(-34 -590)"/>
          <path class="cls-8" d="M1135.46,1223.45c-.35-1.48-.71-3-1.07-4.43a1.5,1.5,0,0,0-1.55-1.22h-1.69a1.51,1.51,0,0,0-1.57,1.22l-1.08,4.49a.55.55,0,0,0,.32.67,2.69,2.69,0,0,0,.4.13l.58-2.45.48-2a.36.36,0,0,1,.25-.28c.27,0,.45.17.39.45-.41,1.7-.81,3.39-1.21,5.09-.08.29-.14.58-.21.89h1v3.64a.62.62,0,0,0,.3.57.51.51,0,0,0,.57,0,.57.57,0,0,0,.3-.52v-3.25a.47.47,0,0,1,0-.17.29.29,0,0,1,.3-.27.33.33,0,0,1,.32.28,1.27,1.27,0,0,1,0,.2v3.2a.56.56,0,0,0,.37.56.58.58,0,0,0,.8-.56V1226h1a.34.34,0,0,1,0-.09c-.28-1.22-.58-2.43-.86-3.64-.17-.77-.36-1.53-.53-2.3a.3.3,0,0,1,.25-.39.31.31,0,0,1,.37.24.19.19,0,0,1,0,.08c.28,1.17.56,2.36.83,3.53l.21.88.25-.06A.61.61,0,0,0,1135.46,1223.45Z" transform="translate(-34 -590)"/>
          <path class="cls-8" d="M1135,1224.25l-.25.06-.21-.88c-.27-1.17-.55-2.36-.83-3.53a.19.19,0,0,0,0-.08.31.31,0,0,0-.37-.24.3.3,0,0,0-.25.39c.17.77.36,1.53.53,2.3.28,1.21.58,2.42.86,3.64a.34.34,0,0,0,0,.09h-1v3.7a.58.58,0,0,1-.8.56.56.56,0,0,1-.37-.56v-3.2a1.27,1.27,0,0,0,0-.2.33.33,0,0,0-.32-.28.29.29,0,0,0-.3.27.47.47,0,0,0,0,.17v3.25a.57.57,0,0,1-.3.52.51.51,0,0,1-.57,0,.62.62,0,0,1-.3-.57V1226h-1c.07-.31.13-.6.21-.89.4-1.7.8-3.39,1.21-5.09.06-.28-.12-.5-.39-.45a.36.36,0,0,0-.25.28l-.48,2-.58,2.45a2.69,2.69,0,0,1-.4-.13.55.55,0,0,1-.32-.67l1.08-4.49a1.51,1.51,0,0,1,1.57-1.22h1.69a1.5,1.5,0,0,1,1.55,1.22c.36,1.47.72,3,1.07,4.43A.61.61,0,0,1,1135,1224.25Z" transform="translate(-34 -590)"/>
          <path class="cls-8" d="M1133,1216.05a1.06,1.06,0,0,1-1,1,1,1,0,0,1,0-2.07A1,1,0,0,1,1133,1216.05Z" transform="translate(-34 -590)"/>
          <path class="cls-8" d="M1142.27,1216a1.06,1.06,0,0,1-1,1,1,1,0,0,1-1.06-1,1,1,0,0,1,1-1A1,1,0,0,1,1142.27,1216Z" transform="translate(-34 -590)"/>
          <path class="cls-8" d="M1125.9,1219.38v4.38a1.77,1.77,0,0,1-.05.32.53.53,0,0,1-.47.4,2.1,2.1,0,0,1-.36,0v-4.42a1.28,1.28,0,0,0,0-.19.33.33,0,0,0-.66,0v9.64a1.42,1.42,0,0,1-.08.45.55.55,0,0,1-.63.3.56.56,0,0,1-.46-.51.91.91,0,0,1,0-.17v-4.68a1.09,1.09,0,0,0,0-.18.34.34,0,0,0-.32-.27.33.33,0,0,0-.32.27.55.55,0,0,0,0,.18v4.74a.59.59,0,0,1-.66.62.6.6,0,0,1-.5-.55.75.75,0,0,1,0-.15q0-4.77,0-9.53a1.41,1.41,0,0,0,0-.21.33.33,0,0,0-.36-.27.35.35,0,0,0-.3.33v4.55a.64.64,0,0,1-.85-.64c0-1.48,0-3,0-4.46a1.51,1.51,0,0,1,1.58-1.57h2.92A1.52,1.52,0,0,1,1125.9,1219.38Z" transform="translate(-34 -590)"/>
          <path class="cls-8" d="M1123.9,1216a1.05,1.05,0,0,1-1,1,1,1,0,0,1-1.06-1,1,1,0,0,1,1-1A1,1,0,0,1,1123.9,1216Z" transform="translate(-34 -590)"/>
        </g>
        <path class="cls-8" d="M1147.1,1216.31v12.76l-.91-.91a.34.34,0,0,0-.48.48l1.73,1.72,1.73-1.72a.34.34,0,0,0-.48-.48l-.91.91v-12.76h0l.91.85a.34.34,0,0,0,.48-.48l-1.73-1.72-1.73,1.72a.34.34,0,0,0,0,.48.34.34,0,0,0,.48,0" transform="translate(-34 -590)"/>
      </g>
    </g>
  </g>
  <g id="labels">
    <g>
      <path class="cls-8" d="M1421.19,1259.9a10.69,10.69,0,0,1-3.81.62,7.13,7.13,0,0,1-5.35-2,7.69,7.69,0,0,1-1.77-5.59,7.83,7.83,0,0,1,2-5.61,7.07,7.07,0,0,1,5.4-1.94,10.43,10.43,0,0,1,3.5.62l0,2.48a15.49,15.49,0,0,0-3.12-.45,4.26,4.26,0,0,0-3.28,1.12,5,5,0,0,0-1.11,3.52v.48a5,5,0,0,0,1,3.51,4.13,4.13,0,0,0,3.2,1.17,17,17,0,0,0,3.43-.45Z" transform="translate(-34 -590)"/>
      <path class="cls-8" d="M1423.52,1260.3l.14-14.55,9.58.09,0,2.44-6.42-.06,0,3.44,5.23,0,0,2.44-5.23-.05,0,3.8,6.43.06,0,2.44Z" transform="translate(-34 -590)"/>
      <path class="cls-8" d="M1435.66,1260.42l.14-14.55,5.23.05a6.53,6.53,0,0,1,5,1.93,9.14,9.14,0,0,1-.11,10.77,6.37,6.37,0,0,1-5,1.86Zm3.27-12.08-.1,9.68,1.81,0c2.53,0,3.81-1.51,3.84-4.61V1253q0-4.62-3.78-4.66Z" transform="translate(-34 -590)"/>
      <path class="cls-8" d="M1458.69,1260.65l-1-3.33-5,0-1,3.31-3.3,0,5.27-14.5,3.46,0,5,14.6Zm-5.28-5.64,3.66,0-1.79-6.11Z" transform="translate(-34 -590)"/>
      <path class="cls-8" d="M1463.92,1260.7l.14-14.55,5.61.06a5.11,5.11,0,0,1,3.58,1.23,4.18,4.18,0,0,1,1.29,3.27,4,4,0,0,1-.71,2.26,4.67,4.67,0,0,1-2,1.55l3.55,6.3-3.26,0-3.09-5.68-2.06,0-.06,5.65Zm3.1-7.8,2.19,0a2,2,0,0,0,2.22-2.2,1.92,1.92,0,0,0-2.14-2.21l-2.22,0Z" transform="translate(-34 -590)"/>
      <path class="cls-8" d="M1386.48,1278.94l.14-14.56,5.23.06a5.12,5.12,0,0,1,3.38,1.1,3.45,3.45,0,0,1,1.27,2.81,3.31,3.31,0,0,1-.52,1.83,3.11,3.11,0,0,1-1.47,1.17,4,4,0,0,1,2,1.33,3.92,3.92,0,0,1-.76,5.24A5.91,5.91,0,0,1,1392,1279Zm3-6.31,0,4.09,2.48,0c1.43,0,2.15-.66,2.16-2s-.74-2.09-2.27-2.1Zm.06-6,0,3.82,1.83,0c1.36,0,2-.61,2.06-1.87a1.68,1.68,0,0,0-1.85-2Z" transform="translate(-34 -590)"/>
      <path class="cls-8" d="M1408.49,1279.16l-1-3.33-5,0-1,3.31-3.29,0,5.26-14.5,3.47,0,5,14.6Zm-5.28-5.64,3.65,0-1.79-6.1Z" transform="translate(-34 -590)"/>
      <path class="cls-8" d="M1413.71,1279.21l.15-14.56,3.15,0-.12,12,6.38.06,0,2.52Z" transform="translate(-34 -590)"/>
      <path class="cls-8" d="M1425.12,1279.32l.14-14.55,3.15,0-.12,12,6.38.06,0,2.52Z" transform="translate(-34 -590)"/>
      <path class="cls-8" d="M1436.52,1279.43l.14-14.55,5.61,0a5.18,5.18,0,0,1,3.58,1.24,4.18,4.18,0,0,1,1.29,3.27,3.92,3.92,0,0,1-.72,2.26,4.58,4.58,0,0,1-2,1.55l3.54,6.3-3.25,0-3.09-5.68-2.06,0-.06,5.65Zm3.1-7.8,2.18,0a2,2,0,0,0,2.23-2.2,1.93,1.93,0,0,0-2.14-2.21l-2.23,0Z" transform="translate(-34 -590)"/>
      <path class="cls-8" d="M1449.13,1272.27a9,9,0,0,1,.87-4,6,6,0,0,1,2.46-2.64,7.47,7.47,0,0,1,3.84-.89,7.4,7.4,0,0,1,3.75.94,6.07,6.07,0,0,1,2.44,2.64,8.85,8.85,0,0,1,.83,4.11,9,9,0,0,1-.87,4,6,6,0,0,1-2.46,2.65,8.28,8.28,0,0,1-7.59,0,6,6,0,0,1-2.44-2.65A8.92,8.92,0,0,1,1449.13,1272.27Zm3.23,0a6.14,6.14,0,0,0,1,3.79,3.83,3.83,0,0,0,5.75.06,6.18,6.18,0,0,0,1-3.77,6.11,6.11,0,0,0-.95-3.78,3.39,3.39,0,0,0-2.87-1.32,3.42,3.42,0,0,0-2.89,1.26A6.21,6.21,0,0,0,1452.36,1272.3Z" transform="translate(-34 -590)"/>
      <path class="cls-8" d="M1465.84,1272.43a9.33,9.33,0,0,1,.87-4,6.08,6.08,0,0,1,2.46-2.63,8.28,8.28,0,0,1,7.59,0,6.09,6.09,0,0,1,2.45,2.64,9,9,0,0,1,.83,4.11,9.31,9.31,0,0,1-.87,4,6.16,6.16,0,0,1-2.46,2.64,7.49,7.49,0,0,1-3.85.91,7.61,7.61,0,0,1-3.75-.94,6.15,6.15,0,0,1-2.44-2.65A9.09,9.09,0,0,1,1465.84,1272.43Zm3.24,0a6.16,6.16,0,0,0,1,3.79,3.82,3.82,0,0,0,5.75,0,7.73,7.73,0,0,0,.07-7.55,3.84,3.84,0,0,0-5.75,0A6,6,0,0,0,1469.08,1272.47Z" transform="translate(-34 -590)"/>
      <path class="cls-8" d="M1494.92,1280l.1-10.08-3.28,6.5-2.82,0-3.14-6.56-.1,10.08-2.78,0,.15-14.55,3.44,0,3.89,8.32,4.07-8.24,3.38,0-.14,14.56Z" transform="translate(-34 -590)"/>
      <path class="cls-8" d="M1425.1,1285.09a8.34,8.34,0,0,1,2.31-1.27,7.63,7.63,0,0,1,2.5-.36,4.52,4.52,0,0,1,3.19,1.14,3.84,3.84,0,0,1,1.18,3,4.93,4.93,0,0,1-.64,2.27,13.32,13.32,0,0,1-2,2.63c-.9,1-2.09,2.13-3.59,3.46l6.68.07,0,2.44-10.17-.1,0-2.27q2.72-2.68,4.07-4.19a16,16,0,0,0,1.87-2.43,3.48,3.48,0,0,0,.53-1.7,1.59,1.59,0,0,0-.47-1.25,1.83,1.83,0,0,0-1.3-.47,5.87,5.87,0,0,0-2,.4,10.58,10.58,0,0,0-2.21,1.18Z" transform="translate(-34 -590)"/>
      <path class="cls-8" d="M1437,1295.52a14,14,0,0,0,4.15.84,2.89,2.89,0,0,0,2-.57,2.19,2.19,0,0,0,.69-1.72,2,2,0,0,0-.66-1.67,3.3,3.3,0,0,0-2.07-.56,31,31,0,0,0-3.45.18l0-1.89.44-6.24,8.25.09,0,2.39-5.67-.06-.26,3.45a7.53,7.53,0,0,1,1.8-.2,4.92,4.92,0,0,1,3.46,1.25,4.18,4.18,0,0,1,1.27,3.23,4.66,4.66,0,0,1-.7,2.47,4.57,4.57,0,0,1-2,1.7,6.71,6.71,0,0,1-3,.58,10.52,10.52,0,0,1-4.29-.92Z" transform="translate(-34 -590)"/>
      <path class="cls-8" d="M1449.71,1285.33a8.61,8.61,0,0,1,2.31-1.27,7.67,7.67,0,0,1,2.5-.36,4.52,4.52,0,0,1,3.19,1.14,3.82,3.82,0,0,1,1.18,3,4.92,4.92,0,0,1-.64,2.26,13.35,13.35,0,0,1-2,2.64c-.89,1-2.09,2.13-3.59,3.46l6.68.06,0,2.44-10.17-.1,0-2.27c1.81-1.79,3.16-3.18,4.06-4.19a16,16,0,0,0,1.87-2.43,3.47,3.47,0,0,0,.53-1.69,1.62,1.62,0,0,0-.47-1.26,1.82,1.82,0,0,0-1.3-.46,5.44,5.44,0,0,0-2,.4,10.07,10.07,0,0,0-2.21,1.17Z" transform="translate(-34 -590)"/>
    </g>
    <g>
      <path class="cls-8" d="M1641.19,1259.9a10.69,10.69,0,0,1-3.81.62,7.13,7.13,0,0,1-5.35-2,7.69,7.69,0,0,1-1.77-5.59,7.83,7.83,0,0,1,2-5.61,7.07,7.07,0,0,1,5.4-1.94,10.43,10.43,0,0,1,3.5.62l0,2.48a15.49,15.49,0,0,0-3.12-.45,4.26,4.26,0,0,0-3.28,1.12,5,5,0,0,0-1.11,3.52v.48a5,5,0,0,0,1,3.51,4.13,4.13,0,0,0,3.2,1.17,17,17,0,0,0,3.43-.45Z" transform="translate(-34 -590)"/>
      <path class="cls-8" d="M1643.52,1260.3l.14-14.55,9.58.09,0,2.44-6.42-.06,0,3.44,5.23,0,0,2.44-5.23-.05,0,3.8,6.43.06,0,2.44Z" transform="translate(-34 -590)"/>
      <path class="cls-8" d="M1655.66,1260.42l.14-14.55,5.23.05a6.53,6.53,0,0,1,5,1.93,9.14,9.14,0,0,1-.11,10.77,6.37,6.37,0,0,1-5,1.86Zm3.27-12.08-.1,9.68,1.81,0c2.53,0,3.81-1.51,3.84-4.61V1253q0-4.62-3.78-4.66Z" transform="translate(-34 -590)"/>
      <path class="cls-8" d="M1678.69,1260.65l-1-3.33-5,0-1,3.31-3.3,0,5.27-14.5,3.46,0,5,14.6Zm-5.28-5.64,3.66,0-1.79-6.11Z" transform="translate(-34 -590)"/>
      <path class="cls-8" d="M1683.92,1260.7l.14-14.55,5.61.06a5.11,5.11,0,0,1,3.58,1.23,4.18,4.18,0,0,1,1.29,3.27,4,4,0,0,1-.71,2.26,4.67,4.67,0,0,1-2,1.55l3.55,6.3-3.26,0-3.09-5.68-2.06,0-.06,5.65Zm3.1-7.8,2.19,0a2,2,0,0,0,2.22-2.2,1.92,1.92,0,0,0-2.14-2.21l-2.22,0Z" transform="translate(-34 -590)"/>
      <path class="cls-8" d="M1606.48,1278.94l.14-14.56,5.23.06a5.12,5.12,0,0,1,3.38,1.1,3.45,3.45,0,0,1,1.27,2.81,3.31,3.31,0,0,1-.52,1.83,3.11,3.11,0,0,1-1.47,1.17,4,4,0,0,1,2,1.33,3.92,3.92,0,0,1-.76,5.24A5.91,5.91,0,0,1,1612,1279Zm3-6.31,0,4.09,2.48,0c1.43,0,2.15-.66,2.16-2s-.74-2.09-2.27-2.1Zm.06-6,0,3.82,1.83,0c1.36,0,2-.61,2.06-1.87a1.68,1.68,0,0,0-1.85-2Z" transform="translate(-34 -590)"/>
      <path class="cls-8" d="M1628.49,1279.16l-1-3.33-5,0-1,3.31-3.29,0,5.26-14.5,3.47,0,5,14.6Zm-5.28-5.64,3.65,0-1.79-6.1Z" transform="translate(-34 -590)"/>
      <path class="cls-8" d="M1633.71,1279.21l.15-14.56,3.15,0-.12,12,6.38.06,0,2.52Z" transform="translate(-34 -590)"/>
      <path class="cls-8" d="M1645.12,1279.32l.14-14.55,3.15,0-.12,12,6.38.06,0,2.52Z" transform="translate(-34 -590)"/>
      <path class="cls-8" d="M1656.52,1279.43l.14-14.55,5.61,0a5.18,5.18,0,0,1,3.58,1.24,4.18,4.18,0,0,1,1.29,3.27,3.92,3.92,0,0,1-.72,2.26,4.58,4.58,0,0,1-2,1.55l3.54,6.3-3.25,0-3.09-5.68-2.06,0-.06,5.65Zm3.1-7.8,2.18,0a2,2,0,0,0,2.23-2.2,1.93,1.93,0,0,0-2.14-2.21l-2.23,0Z" transform="translate(-34 -590)"/>
      <path class="cls-8" d="M1669.13,1272.27a9,9,0,0,1,.87-4,6,6,0,0,1,2.46-2.64,7.47,7.47,0,0,1,3.84-.89,7.4,7.4,0,0,1,3.75.94,6.07,6.07,0,0,1,2.44,2.64,8.85,8.85,0,0,1,.83,4.11,9,9,0,0,1-.87,4,6,6,0,0,1-2.46,2.65,8.28,8.28,0,0,1-7.59,0,6,6,0,0,1-2.44-2.65A8.92,8.92,0,0,1,1669.13,1272.27Zm3.23,0a6.14,6.14,0,0,0,1,3.79,3.83,3.83,0,0,0,5.75.06,6.18,6.18,0,0,0,1-3.77,6.11,6.11,0,0,0-.95-3.78,3.39,3.39,0,0,0-2.87-1.32,3.42,3.42,0,0,0-2.89,1.26A6.21,6.21,0,0,0,1672.36,1272.3Z" transform="translate(-34 -590)"/>
      <path class="cls-8" d="M1685.84,1272.43a9.33,9.33,0,0,1,.87-4,6.08,6.08,0,0,1,2.46-2.63,8.28,8.28,0,0,1,7.59,0,6.09,6.09,0,0,1,2.45,2.64,9,9,0,0,1,.83,4.11,9.31,9.31,0,0,1-.87,4,6.16,6.16,0,0,1-2.46,2.64,7.49,7.49,0,0,1-3.85.91,7.61,7.61,0,0,1-3.75-.94,6.15,6.15,0,0,1-2.44-2.65A9.09,9.09,0,0,1,1685.84,1272.43Zm3.24,0a6.16,6.16,0,0,0,1,3.79,3.82,3.82,0,0,0,5.75,0,7.73,7.73,0,0,0,.07-7.55,3.84,3.84,0,0,0-5.75,0A6,6,0,0,0,1689.08,1272.47Z" transform="translate(-34 -590)"/>
      <path class="cls-8" d="M1714.92,1280l.1-10.08-3.28,6.5-2.82,0-3.14-6.56-.1,10.08-2.78,0,.15-14.55,3.44,0,3.89,8.32,4.07-8.24,3.38,0-.14,14.56Z" transform="translate(-34 -590)"/>
      <path class="cls-8" d="M1645.1,1285.09a8.34,8.34,0,0,1,2.31-1.27,7.63,7.63,0,0,1,2.5-.36,4.52,4.52,0,0,1,3.19,1.14,3.84,3.84,0,0,1,1.18,3,4.93,4.93,0,0,1-.64,2.27,13.32,13.32,0,0,1-2,2.63c-.9,1-2.09,2.13-3.59,3.46l6.68.07,0,2.44-10.17-.1,0-2.27q2.72-2.68,4.07-4.19a16,16,0,0,0,1.87-2.43,3.48,3.48,0,0,0,.53-1.7,1.59,1.59,0,0,0-.47-1.25,1.83,1.83,0,0,0-1.3-.47,5.87,5.87,0,0,0-2,.4,10.58,10.58,0,0,0-2.21,1.18Z" transform="translate(-34 -590)"/>
      <path class="cls-8" d="M1657,1295.52a14,14,0,0,0,4.15.84,2.89,2.89,0,0,0,2-.57,2.19,2.19,0,0,0,.69-1.72,2,2,0,0,0-.66-1.67,3.3,3.3,0,0,0-2.07-.56,31,31,0,0,0-3.45.18l0-1.89.44-6.24,8.25.09,0,2.39-5.67-.06-.26,3.45a7.53,7.53,0,0,1,1.8-.2,4.92,4.92,0,0,1,3.46,1.25,4.18,4.18,0,0,1,1.27,3.23,4.66,4.66,0,0,1-.7,2.47,4.57,4.57,0,0,1-2,1.7,6.71,6.71,0,0,1-3,.58,10.52,10.52,0,0,1-4.29-.92Z" transform="translate(-34 -590)"/>
      <path class="cls-8" d="M1675.29,1298.62l0-2.88-6.78-.07,0-2.24,6.69-9.37,2.85,0-.09,9.33h1.85l0,2.36-1.85,0,0,2.88Zm0-5.23.06-5.59-4,5.55Z" transform="translate(-34 -590)"/>
    </g>
  </g>
</svg>
