<svg id="map" xmlns="http://www.w3.org/2000/svg" width="1773.91" height="1342" viewBox="0 0 1773.91 1342">
  <defs>
    <style>
      .cls-1 {
        fill: #7a797a;
      }

      .cls-2 {
        fill: #82589f;
      }

      .cls-3 {
        fill: #6fccdd;
      }

      .cls-4 {
        fill: #c0539f;
      }

      .cls-5 {
        fill: #949393;
      }

      .cls-6, .cls-7 {
        fill: #ff2939;
      }

      .cls-15, .cls-7 {
        fill-rule: evenodd;
      }

      .cls-8 {
        opacity: 0.2;
      }

      .cls-10, .cls-14, .cls-9 {
        fill: none;
      }

      .cls-9 {
        stroke: #3f3f3f;
      }

      .cls-10, .cls-14, .cls-16, .cls-9 {
        stroke-miterlimit: 10;
      }

      .cls-10, .cls-9 {
        stroke-width: 2px;
      }

      .cls-10 {
        stroke: #231f20;
      }

      .cls-11 {
        fill: #231f20;
      }

      .cls-12 {
        fill: #fff;
      }

      .cls-13 {
        fill: #454546;
      }

      .cls-14, .cls-16 {
        stroke: #fff;
      }

      .cls-14 {
        stroke-linecap: round;
        stroke-width: 0.8px;
      }

      .cls-16 {
        fill: #fc427b;
        stroke-width: 2.17px;
      }
    </style>
  </defs>
  <title>MIR_1F</title>
  <g id="ground">
    <path class="cls-1" d="M1462,1355v21h258v106h-20v52h20v54H1588l-74,75.87V1710H1316l.28-334H1384v-54H1106V1160h278v-40h-82v-34H930l.38,34H704v-32H686c-38,58-108,50-120,50h-4l-15.65,38.24L478,1146l14-28-38-16-54.14,116.39L86,1074,416,368,732,518.78,652,694l40,16L600,890l66,30-21.64,48.1L666,992V982h12V948h10V938h80v10h16V808h454V948h148V734h90l0-26,132-.41V734h117l1,340.27V1090h22v266Z" transform="translate(-86 -368)"/>
  </g>
  <g id="footprint">
    <g id="registration">
      <rect class="cls-2" x="1188" y="674" width="28" height="44"/>
      <rect class="cls-2" x="704" y="674" width="86" height="12"/>
    </g>
    <g id="information">
      <rect class="cls-2" x="1254" y="792" width="44" height="49"/>
    </g>
    <g id="meals">
      <polygon class="cls-3" points="423.86 612.88 382 704 222 630 154 778 0 706 112 468 169.08 494.88 169.11 494.82 423.86 612.88"/>
    </g>
    <g id="programming">
      <polygon class="cls-4" points="559.05 344 240 192 330 0 646 150.78 559.05 344"/>
      <polygon class="cls-4" points="458.88 537.67 146.93 393.55 218.2 237.56 532 381.63 458.88 537.67"/>
      <polygon class="cls-4" points="313.78 850.38 158.19 779.4 223.78 635.77 379.68 708.1 313.78 850.38"/>
      <rect class="cls-4" x="698" y="440" width="164" height="186"/>
      <polygon class="cls-4" points="1640 366.41 1640.03 706 1300 706 1300 366 1390 366 1390 340 1522 340 1522 366 1640 366.41"/>
      <rect class="cls-4" x="896" y="440" width="100" height="128"/>
      <rect class="cls-4" x="1000" y="440" width="152" height="62"/>
      <rect class="cls-4" x="1000" y="506" width="62" height="120"/>
      <rect class="cls-4" x="1020" y="792" width="100" height="162"/>
      <rect class="cls-4" x="1134" y="792" width="94" height="49"/>
      <rect class="cls-4" x="1156" y="674" width="28" height="44"/>
      <rect class="cls-4" x="1135" y="905" width="95" height="49"/>
      <rect class="cls-4" x="1234" y="887" width="64" height="67"/>
      <rect class="cls-4" x="1230" y="1166" width="150" height="104"/>
      <rect class="cls-4" x="1428" y="1296" width="80" height="46"/>
      <polygon class="cls-4" points="1152 626 1096 625.78 1096 506 1152 506.01 1152 626"/>
      <rect class="cls-4" x="896" y="572" width="100" height="54"/>
    </g>
    <g id="restrooms">
      <polygon class="cls-5" points="1324 1008 1324.1 1062 1274 1061.82 1274.18 1120 1230 1120.31 1230 1008 1324 1008"/>
      <path class="cls-5" d="M578,1102l-6,14.8-25.61,59.44L478,1146l28.21-63.9L511.8,1070l10.2-26c16.85,37.44,48,44,48,44l-4,10Z" transform="translate(-86 -368)"/>
      <polygon class="cls-5" points="844 674 844 752 704 752 704 690 794 690 794 674 844 674"/>
      <polygon class="cls-5" points="558.36 600.1 492 570 514 522 580 552 558.36 600.1"/>
    </g>
    <g id="building">
      <path class="cls-5" d="M1720,1376v106h-20v52H1564c-20-54.44-89.31-51.25-102-50.2V1376Z" transform="translate(-86 -368)"/>
      <path class="cls-5" d="M1748,1142v214H1462l.41-42H1514v-24h12v-12c4-6,2-14,0-18s-10-22-10-26,2-18,8-26,6-24,6-24h-4v-10h-14v-28h-50v-30h234v26Z" transform="translate(-86 -368)"/>
      <polygon class="cls-5" points="694 580 694 626 606 626 606 614 592 614 592 580 602 580 602 570 682 570 682 580 694 580"/>
      <circle class="cls-5" cx="504" cy="652" r="24"/>
      <polygon class="cls-5" points="425.86 606.17 114 461.88 142 399.33 455.51 544.02 425.86 606.17"/>
      <rect class="cls-5" x="1232" y="792" width="18" height="49"/>
      <rect class="cls-5" x="848" y="674" width="304" height="44"/>
      <path class="cls-5" d="M786,1042v78H704v-32H686c-36.54,59.74-120,50-120,50l16-38-12-4,2-6c68,6,84-48,84-48Z" transform="translate(-86 -368)"/>
      <rect class="cls-5" x="1278" y="1066" width="46" height="54"/>
    </g>
  </g>
  <g id="points">
    <polygon id="MIR_753" class="cls-6" points="313.78 850.38 158.19 779.4 223.78 635.77 379.68 708.1 313.78 850.38"/>
    <polygon id="MIR_754" class="cls-6" points="423.86 612.88 382 704 222 630 154 778 0 706 112 468 169.08 494.88 169.11 494.82 423.86 612.88"/>
    <polygon id="MIR_755" class="cls-6" points="458.88 537.67 146.93 393.55 218.2 237.56 532 381.63 458.88 537.67"/>
    <polygon id="MIR_756" class="cls-6" points="559.05 344 468 300 560 110 646 150.78 559.05 344"/>
    <polygon id="MIR_757" class="cls-6" points="458 296 334 236 422 44 548 104 458 296"/>
    <polygon id="MIR_758" class="cls-6" points="324 232 240 192 330 0 414 40 324 232"/>
    <rect id="MIR_760" class="cls-6" x="1188" y="674" width="28" height="44"/>
    <rect id="MIR_761" class="cls-6" x="1156" y="674" width="28" height="44"/>
    <rect id="MIR_762" class="cls-6" x="704" y="674" width="86" height="12"/>
    <rect id="MIR_763" class="cls-6" x="698" y="538" width="164" height="88"/>
    <rect id="MIR_764" class="cls-6" x="698" y="440" width="164" height="92"/>
    <rect id="MIR_765" class="cls-6" x="896" y="440" width="100" height="64"/>
    <rect id="MIR_766" class="cls-6" x="1000" y="440" width="76" height="62"/>
    <rect id="MIR_767" class="cls-6" x="1082" y="440" width="70" height="62"/>
    <rect id="MIR_768" class="cls-6" x="1300" y="366" width="68" height="162"/>
    <rect id="MIR_769" class="cls-6" x="1300" y="534" width="68" height="172"/>
    <rect id="MIR_770" class="cls-6" x="1390" y="340" width="132" height="366"/>
    <rect id="MIR_771" class="cls-6" x="1528" y="366" width="112" height="340"/>
    <rect id="MIR_772" class="cls-6" x="1254" y="792" width="44" height="49"/>
    <rect id="MIR_773" class="cls-6" x="1020" y="874" width="100" height="80"/>
    <rect id="MIR_774" class="cls-6" x="1304" y="1166" width="76" height="104"/>
    <rect id="MIR_775" class="cls-6" x="1428" y="1296" width="80" height="46"/>
    <polygon id="MIR_776" class="cls-6" points="1324 1008 1324.1 1062 1274 1061.82 1274.18 1120 1230 1120.31 1230 1008 1324 1008"/>
    <polygon id="MIR_404" class="cls-6" points="504 646 492 672 516 672 504 646"/>
    <polygon id="MIR_405" class="cls-6" points="504 646 492 672 516 672 504 646"/>
    <polygon id="MIR_406" class="cls-6" points="1266.5 622.18 1290.08 604.38 1269.09 592.75 1266.5 622.18"/>
    <polygon id="MIR_407" class="cls-6" points="1266.5 622.18 1290.08 604.38 1269.09 592.75 1266.5 622.18"/>
    <rect id="MIR_842" class="cls-6" x="1472" y="1192" width="10" height="10"/>
    <path id="MIR_454" class="cls-7" d="M592.75,1170.8a4.5,4.5,0,0,0-1.18-2.27,8.13,8.13,0,0,0-2.44-1.41,22.32,22.32,0,0,0-4.59-1.28,26.9,26.9,0,0,0-10.92,0,22,22,0,0,0-4.59,1.28,7.92,7.92,0,0,0-2.44,1.42,3.9,3.9,0,0,0-1.11,2.26l-1.39,11.33v15.79h1.49v1.44a2.25,2.25,0,0,0,4.49,0v-1.44H588v1.44a2.24,2.24,0,0,0,4.48,0v-1.44H594v-15.79Zm-26.16,11,1.18-8.64c.1-.47.49-.71,1.19-.71h20.38c.69,0,1.09.24,1.18.71l1.19,8.78a1.27,1.27,0,0,1,.06.28,1.06,1.06,0,0,1-.34.82,1.33,1.33,0,0,1-.91.32H567.77a1.23,1.23,0,0,1-.9-.36,1.27,1.27,0,0,1-.35-.92A.58.58,0,0,1,566.59,1181.85Zm3.69,10.58a2.33,2.33,0,0,1-3.27,0,2.25,2.25,0,0,1,0-3.26,2.33,2.33,0,0,1,3.27,0,2.27,2.27,0,0,1,0,3.26Zm21,0a2.33,2.33,0,0,1-3.27,0,2.15,2.15,0,0,1-.7-1.63,2.18,2.18,0,0,1,.7-1.63,2.3,2.3,0,0,1,1.63-.67,2.32,2.32,0,0,1,1.64.67,2.27,2.27,0,0,1,0,3.26Z" transform="translate(-86 -368)"/>
    <rect id="MIR_855" class="cls-6" x="896" y="572" width="100" height="54"/>
  </g>
  <g id="bounds" class="cls-8">
    <polygon id="_MIR_753" class="cls-6" points="380 850 158 850 160 636 380 635.87 380 850"/>
    <polygon id="_MIR_754" class="cls-6" points="424 778 0.16 778 0 468.13 424 468 424 778"/>
    <rect id="_MIR_755" class="cls-6" x="146" y="238" width="386" height="300"/>
    <rect id="_MIR_756" class="cls-6" x="468" y="110" width="178" height="234"/>
    <rect id="_MIR_757" class="cls-6" x="334" y="44" width="214" height="252"/>
    <rect id="_MIR_758" class="cls-6" x="240" width="174" height="232"/>
    <rect id="_MIR_760" class="cls-6" x="1188" y="674" width="28" height="44"/>
    <rect id="_MIR_762" class="cls-6" x="704" y="674" width="86" height="12"/>
    <rect id="_MIR_763" class="cls-6" x="698" y="538" width="164" height="88"/>
    <rect id="_MIR_764" class="cls-6" x="698" y="440" width="164" height="92"/>
    <rect id="_MIR_765" class="cls-6" x="896" y="440" width="100" height="64"/>
    <rect id="_MIR_766" class="cls-6" x="1000" y="440" width="76" height="62"/>
    <rect id="_MIR_767" class="cls-6" x="1082" y="440" width="70" height="62"/>
    <rect id="_MIR_768" class="cls-6" x="1300" y="366" width="68" height="162"/>
    <rect id="_MIR_769" class="cls-6" x="1300" y="534" width="68" height="172"/>
    <rect id="_MIR_770" class="cls-6" x="1390" y="340" width="132" height="366"/>
    <rect id="_MIR_771" class="cls-6" x="1528" y="366" width="112" height="340"/>
    <rect id="_MIR_772" class="cls-6" x="1254" y="792" width="44" height="49"/>
    <rect id="_MIR_773" class="cls-6" x="1020" y="874" width="100" height="80"/>
    <rect id="_MIR_774" class="cls-6" x="1304" y="1166" width="76" height="104"/>
    <rect id="_MIR_404" class="cls-6" x="482.77" y="628" width="42.46" height="54"/>
    <rect id="_MIR_405" class="cls-6" x="482.77" y="628" width="42.46" height="54"/>
    <rect id="_MIR_775" class="cls-6" x="1428" y="1296" width="80" height="46"/>
    <rect id="_MIR_776" class="cls-6" x="1230" y="1008" width="94" height="112"/>
    <rect id="_MIR_842" class="cls-6" x="1472" y="1192" width="10" height="10"/>
    <rect id="_MIR_454" class="cls-6" x="477.97" y="796" width="30" height="38"/>
    <rect id="_MIR_407" class="cls-6" x="1250" y="582" width="47.5" height="54"/>
    <rect id="_MIR_406" class="cls-6" x="1250" y="582" width="47.5" height="54"/>
    <rect id="_MIR_855" class="cls-6" x="896" y="572" width="100" height="54"/>
  </g>
  <g id="paths">
    <g id="MIR_406-2" data-name="MIR_406">
      <polyline id="MIR_406-MIR_774" class="cls-9" points="1334 1164 1334 726 1266 726 1266 622.18"/>
      <polyline id="MIR_406-MIR_776" class="cls-9" points="1324 1034 1334 1034 1334 728 1268 728 1268 622.18"/>
      <polyline id="MIR_406-MIR_768" class="cls-9" points="1368 402 1378 402 1378 720 1266 720 1266 622.18"/>
      <polyline id="MIR_406-MIR_769" class="cls-9" points="1366 564 1378 564 1378 724 1270 724 1270 622.18"/>
      <polyline id="MIR_406-MIR_770" class="cls-9" points="1458 706 1458 722 1268 722 1268 622.18"/>
      <polyline id="MIR_406-MIR_771" class="cls-9" points="1586 706 1586 722 1266 722 1266 622.18"/>
      <path id="MIR_406-MIR_753" class="cls-9" d="M384,1040l32-68,116,50s54,96,102-2h714V990.18" transform="translate(-86 -368)"/>
      <path id="MIR_406-MIR_754" class="cls-9" d="M496,1006l36,16s54,96,102-2h714V990.18" transform="translate(-86 -368)"/>
      <path id="MIR_406-MIR_755" class="cls-9" d="M570,726l8-14,68,32L550,952s76,4,94,62h708V990.18" transform="translate(-86 -368)"/>
      <path id="MIR_406-MIR_756" class="cls-9" d="M590,688l-12,24,68,32L550,952s76,4,94,62h708V990.18" transform="translate(-86 -368)"/>
      <path id="MIR_406-MIR_757" class="cls-9" d="M468,628l-12,24,190,92L550,952s76,4,94,62h708V990.18" transform="translate(-86 -368)"/>
      <path id="MIR_406-MIR_758" class="cls-9" d="M364,578l-12,24L646,744,550,952s76,4,94,62h708V990.18" transform="translate(-86 -368)"/>
      <polyline id="MIR_406-MIR_763" class="cls-9" points="724 624 724 640 1266 640 1266 622.18"/>
      <polyline id="MIR_406-MIR_764" class="cls-9" points="860 462 878 462 878 644 1264 644 1264 622.18"/>
      <polyline id="MIR_406-MIR_772" class="cls-9" points="1296 814 1316 814 1316 728 1268 728 1268 622.18"/>
      <polyline id="MIR_406-MIR_760" class="cls-9" points="1214 694 1268 694 1268 622.18"/>
      <polyline id="MIR_406-MIR_761" class="cls-9" points="1166 672 1166 626 1266.5 626"/>
      <polyline id="MIR_406-MIR_762" class="cls-9" points="786 670 786 648 1266 648 1266 622.18"/>
      <polyline id="MIR_406-MIR_773" class="cls-9" points="1118 880 1140 880 1140 864 1324 864 1324 732 1266 732 1266 622.18"/>
      <polyline id="MIR_406-MIR_765" class="cls-9" points="894 470 880 470 880 642 1266 642 1266 622.18"/>
      <polyline id="MIR_406-MIR_775" class="cls-9" points="1426 1320 1404 1320 1404 1146 1350 1146 1350 730 1266 730 1266 622.18"/>
      <polyline id="MIR_406-MIR_766" class="cls-9" points="1068 502 1068 644 1266 644 1266 622.18"/>
      <path id="MIR_406-MIR_454" class="cls-9" d="M586,1118l48-98h714V990.18" transform="translate(-86 -368)"/>
      <polyline id="MIR_406-MIR_855" class="cls-9" points="946 626 946 644 1266 644 1266 622.18"/>
      <polyline id="MIR_406-MIR_767" class="cls-9" points="1088 502 1088 636 1252 636"/>
    </g>
    <g id="MIR_407-2" data-name="MIR_407">
      <polyline id="MIR_407-MIR_775" class="cls-9" points="1426 1320 1404 1320 1404 1146 1350 1146 1350 730 1266 730 1266 622.18"/>
      <polyline id="MIR_407-MIR_766" class="cls-9" points="1068 502 1068 644 1266 644 1266 622.18"/>
      <polyline id="MIR_407-MIR_774" class="cls-9" points="1334 1164 1334 726 1266 726 1266 622.18"/>
      <polyline id="MIR_407-MIR_776" class="cls-9" points="1324 1034 1334 1034 1334 728 1268 728 1268 622.18"/>
      <polyline id="MIR_407-MIR_768" class="cls-9" points="1368 402 1378 402 1378 720 1266 720 1266 622.18"/>
      <polyline id="MIR_407-MIR_769" class="cls-9" points="1366 564 1378 564 1378 724 1270 724 1270 622.18"/>
      <polyline id="MIR_407-MIR_770" class="cls-9" points="1458 706 1458 722 1268 722 1268 622.18"/>
      <polyline id="MIR_407-MIR_771" class="cls-9" points="1586 706 1586 722 1266 722 1266 622.18"/>
      <path id="MIR_407-MIR_753" class="cls-9" d="M384,1040l32-68,116,50s54,96,102-2h714V990.18" transform="translate(-86 -368)"/>
      <path id="MIR_407-MIR_754" class="cls-9" d="M496,1006l36,16s54,96,102-2h714V990.18" transform="translate(-86 -368)"/>
      <path id="MIR_407-MIR_755" class="cls-9" d="M570,726l8-14,68,32L550,952s76,4,94,62h708V990.18" transform="translate(-86 -368)"/>
      <path id="MIR_407-MIR_756" class="cls-9" d="M590,688l-12,24,68,32L550,952s76,4,94,62h708V990.18" transform="translate(-86 -368)"/>
      <path id="MIR_407-MIR_757" class="cls-9" d="M468,628l-12,24,190,92L550,952s76,4,94,62h708V990.18" transform="translate(-86 -368)"/>
      <path id="MIR_407-MIR_758" class="cls-9" d="M364,578l-12,24L646,744,550,952s76,4,94,62h708V990.18" transform="translate(-86 -368)"/>
      <polyline id="MIR_407-MIR_763" class="cls-9" points="724 624 724 640 1266 640 1266 622.18"/>
      <polyline id="MIR_407-MIR_764" class="cls-9" points="860 462 878 462 878 644 1264 644 1264 622.18"/>
      <polyline id="MIR_407-MIR_772" class="cls-9" points="1296 814 1316 814 1316 728 1268 728 1268 622.18"/>
      <polyline id="MIR_407-MIR_760" class="cls-9" points="1214 694 1268 694 1268 622.18"/>
      <polyline id="MIR_407-MIR_761" class="cls-9" points="1166 672 1166 626 1266.5 626"/>
      <polyline id="MIR_407-MIR_762" class="cls-9" points="786 670 786 648 1266 648 1266 622.18"/>
      <polyline id="MIR_407-MIR_773" class="cls-9" points="1118 880 1140 880 1140 864 1324 864 1324 732 1266 732 1266 622.18"/>
      <polyline id="MIR_407-MIR_765" class="cls-9" points="894 470 880 470 880 642 1266 642 1266 622.18"/>
      <path id="MIR_407-MIR_454" class="cls-9" d="M590,1112s-4,6,44-92h714V990.18" transform="translate(-86 -368)"/>
      <polyline id="MIR_407-MIR_855" class="cls-9" points="946 626 946 644 1266 644 1266 622.18"/>
      <polyline id="MIR_407-MIR_767" class="cls-9" points="1088 502 1088 636 1252 636"/>
    </g>
    <g id="MIR_405-2" data-name="MIR_405">
      <polyline id="MIR_405-MIR_775" class="cls-9" points="1426 1320 1408 1320 1408 1144 1354 1144 1354 726 1278 726 1278 644 504 644"/>
      <polyline id="MIR_405-MIR_766" class="cls-9" points="1068 502 1068 640 504 640"/>
      <polyline id="MIR_405-MIR_767" class="cls-9" points="1088 502 1088 640 504 640"/>
      <polyline id="MIR_405-MIR_774" class="cls-9" points="1336 1164 1336 732 1280 732 1280 646 504 646"/>
      <polyline id="MIR_405-MIR_776" class="cls-9" points="1324 1036 1336 1036 1336 728 1280 728 1280 648 504 648"/>
      <polyline id="MIR_405-MIR_768" class="cls-9" points="1368 394 1376 394 1376 724 1278 724 1278 646 504 646"/>
      <polyline id="MIR_405-MIR_769" class="cls-9" points="1368 562 1376 562 1376 724 1278 724 1278 646 504 646"/>
      <polyline id="MIR_405-MIR_770" class="cls-9" points="1456 704 1456 722 1282 722 1282 646 504 646"/>
      <polyline id="MIR_405-MIR_771" class="cls-9" points="1584 704 1584 722 1282 722 1282 646 504 646"/>
      <polyline id="MIR_405-MIR_753" class="cls-9" points="338 688 362 636 422 664 504 646"/>
      <polyline id="MIR_405-MIR_754" class="cls-9" points="400 654 422 664 504 646"/>
      <polyline id="MIR_405-MIR_755" class="cls-9" points="490 360 498 344 562 372 446 628 504 646"/>
      <polyline id="MIR_405-MIR_756" class="cls-9" points="508 322 498 344 562 372 446 628 504 646"/>
      <polyline id="MIR_405-MIR_757" class="cls-9" points="396 266 386 288 562 372 446 628 504 646"/>
      <polyline id="MIR_405-MIR_758" class="cls-9" points="282 214 272 236 562 372 446 628 504 646"/>
      <polyline id="MIR_405-MIR_454" class="cls-9" points="506 740 470 678 504 646"/>
      <polyline id="MIR_405-MIR_763" class="cls-9" points="722 626 722 644 504 644"/>
      <polyline id="MIR_405-MIR_764" class="cls-9" points="862 458 876 458 876 640 504 640"/>
      <polyline id="MIR_405-MIR_772" class="cls-9" points="1296 812 1314 812 1314 730 1276 730 1276 644 504 644"/>
      <polyline id="MIR_405-MIR_760" class="cls-9" points="1214 688 1266 688 1266 648 504 648"/>
      <polyline id="MIR_405-MIR_761" class="cls-9" points="1166 672 1166 646 500 646"/>
      <polyline id="MIR_405-MIR_762" class="cls-9" points="710.5 672 710.5 650 504 650"/>
      <polyline id="MIR_405-MIR_773" class="cls-9" points="1118 882 1140 882 1140 864 1320 864 1320 732 1274 732 1274 646 504 646"/>
      <polyline id="MIR_405-MIR_765" class="cls-9" points="894 462 880 462 880 640 504 640"/>
      <polyline id="MIR_405-MIR_855" class="cls-9" points="952 624 952 640 504 640"/>
    </g>
    <g id="MIR_404-2" data-name="MIR_404">
      <polyline id="MIR_404-MIR_775" class="cls-9" points="1426 1320 1408 1320 1408 1144 1354 1144 1354 726 1278 726 1278 644 504 644"/>
      <polyline id="MIR_404-MIR_766" class="cls-9" points="1068 502 1068 640 504 640"/>
      <polyline id="MIR_404-MIR_767" class="cls-9" points="1088 502 1088 640 504 640"/>
      <polyline id="MIR_404-MIR_774" class="cls-9" points="1336 1164 1336 732 1280 732 1280 646 504 646"/>
      <polyline id="MIR_404-MIR_776" class="cls-9" points="1324 1036 1336 1036 1336 728 1280 728 1280 648 504 648"/>
      <polyline id="MIR_404-MIR_768" class="cls-9" points="1368 394 1376 394 1376 724 1278 724 1278 646 504 646"/>
      <polyline id="MIR_404-MIR_769" class="cls-9" points="1368 562 1376 562 1376 724 1278 724 1278 646 504 646"/>
      <polyline id="MIR_404-MIR_770" class="cls-9" points="1456 704 1456 722 1282 722 1282 646 504 646"/>
      <polyline id="MIR_404-MIR_771" class="cls-9" points="1584 704 1584 722 1282 722 1282 646 504 646"/>
      <polyline id="MIR_404-MIR_753" class="cls-9" points="338 688 362 636 422 664 504 646"/>
      <polyline id="MIR_404-MIR_754" class="cls-9" points="400 654 422 664 504 646"/>
      <polyline id="MIR_404-MIR_755" class="cls-9" points="490 360 498 344 562 372 446 628 504 646"/>
      <polyline id="MIR_404-MIR_756" class="cls-9" points="508 322 498 344 562 372 446 628 504 646"/>
      <polyline id="MIR_404-MIR_757" class="cls-9" points="396 266 386 288 562 372 446 628 504 646"/>
      <polyline id="MIR_404-MIR_758" class="cls-9" points="282 214 272 236 562 372 446 628 504 646"/>
      <polyline id="MIR_404-MIR_454" class="cls-9" points="504 750 478 674 504 646"/>
      <polyline id="MIR_404-MIR_763" class="cls-9" points="722 626 722 644 504 644"/>
      <polyline id="MIR_404-MIR_764" class="cls-9" points="862 458 876 458 876 640 504 640"/>
      <polyline id="MIR_404-MIR_772" class="cls-9" points="1296 812 1314 812 1314 730 1276 730 1276 644 504 644"/>
      <polyline id="MIR_404-MIR_760" class="cls-9" points="1214 688 1266 688 1266 648 504 648"/>
      <polyline id="MIR_404-MIR_761" class="cls-9" points="1166 672 1166 646 500 646"/>
      <polyline id="MIR_404-MIR_762" class="cls-9" points="710.5 672 710.5 650 504 650"/>
      <polyline id="MIR_404-MIR_773" class="cls-9" points="1118 882 1140 882 1140 864 1320 864 1320 732 1274 732 1274 646 504 646"/>
      <polyline id="MIR_404-MIR_765" class="cls-9" points="894 462 880 462 880 640 504 640"/>
      <polyline id="MIR_404-MIR_855" class="cls-9" points="946 624 946 640 504 640"/>
    </g>
    <g id="MIR_454-2" data-name="MIR_454">
      <path id="MIR_454-MIR_775" class="cls-9" d="M1514,1688h-20V1514h-58V1102h-78v-86H644s-28,50-52,92" transform="translate(-86 -368)"/>
      <path id="MIR_454-MIR_766" class="cls-9" d="M1154,870v140H646s-22,44-56,102" transform="translate(-86 -368)"/>
      <path id="MIR_454-MIR_767" class="cls-9" d="M1176,870v140H646s-28,54-56,102" transform="translate(-86 -368)"/>
      <path id="MIR_454-MIR_774" class="cls-9" d="M1422,1532V1098h-60v-84H642s-16,32-52,94" transform="translate(-86 -368)"/>
      <path id="MIR_454-MIR_776" class="cls-9" d="M1408,1402h14V1098h-60v-84H640s-16,38-46,94" transform="translate(-86 -368)"/>
      <path id="MIR_454-MIR_768" class="cls-9" d="M1454,762h8v330H1362v-78H640s-18,42-46,94" transform="translate(-86 -368)"/>
      <path id="MIR_454-MIR_769" class="cls-9" d="M1454,928h8v164H1362v-78H640s-14,40-50,96" transform="translate(-86 -368)"/>
      <path id="MIR_454-MIR_770" class="cls-9" d="M1540,1072v20H1362v-78H640s-22,50-50,98" transform="translate(-86 -368)"/>
      <path id="MIR_454-MIR_771" class="cls-9" d="M1680,1072v20H1362v-78H640s-16,38-50,92" transform="translate(-86 -368)"/>
      <polyline id="MIR_454-MIR_753" class="cls-9" points="340 688 364 636 480 686 506 744"/>
      <polyline id="MIR_454-MIR_754" class="cls-9" points="402 656 486 686 506 746"/>
      <path id="MIR_454-MIR_755" class="cls-9" d="M572,730l10-20,66,32L528,1002s4,54,48,68,14,44,14,44" transform="translate(-86 -368)"/>
      <path id="MIR_454-MIR_756" class="cls-9" d="M592,690l-10,20,66,32L528,1004s-6,44,42,60,22,52,22,52" transform="translate(-86 -368)"/>
      <path id="MIR_454-MIR_757" class="cls-9" d="M500,644l-10,20,158,78L528,1002s-2,42,34,58,30,54,30,54" transform="translate(-86 -368)"/>
      <path id="MIR_454-MIR_758" class="cls-9" d="M384,586l-10,20L648,742,534,988s-14,68,38,82,18,44,18,44" transform="translate(-86 -368)"/>
      <path id="MIR_454-MIR_763" class="cls-9" d="M816,994v16H640s-18,40-48,100" transform="translate(-86 -368)"/>
      <path id="MIR_454-MIR_764" class="cls-9" d="M946,822h14v188H652s-24,42-62,100" transform="translate(-86 -368)"/>
      <path id="MIR_454-MIR_765" class="cls-9" d="M980,822H960v188H652s-32,54-62,102" transform="translate(-86 -368)"/>
      <path id="MIR_454-MIR_772" class="cls-9" d="M1384,1174h18v-78h-38v-86H640s-20,44-50,104" transform="translate(-86 -368)"/>
      <path id="MIR_454-MIR_760" class="cls-9" d="M1300,1056h50v-42H644s-22,44-52,98" transform="translate(-86 -368)"/>
      <path id="MIR_454-MIR_761" class="cls-9" d="M1252,1040v-22H642s-10,24-52,96" transform="translate(-86 -368)"/>
      <path id="MIR_454-MIR_762" class="cls-9" d="M796.5,1040v-14H640s-22,38-50,84" transform="translate(-86 -368)"/>
      <path id="MIR_454-MIR_855" class="cls-9" d="M1032,994v16H646s-22,44-56,102" transform="translate(-86 -368)"/>
      <path id="MIR_454-MIR_773" class="cls-9" d="M590,1110c28-46,50-84,50-84h730v80h48v142H1204" transform="translate(-86 -368)"/>
      <path id="MIR_454-MIR_842" class="cls-9" d="M1558,1568h-64v-54h-58V1102h-78v-86H644s-28,50-52,92" transform="translate(-86 -368)"/>
    </g>
    <g id="MIR_842-2" data-name="MIR_842">
      <polyline id="MIR_842-MIR_775" class="cls-9" points="1470 1196 1408 1196 1408 1316 1426 1316"/>
      <polyline id="MIR_842-MIR_766" class="cls-9" points="1066 502 1066 644 1272 644 1272 726 1356 726 1356 1144 1470 1196"/>
      <polyline id="MIR_842-MIR_767" class="cls-9" points="1090 502 1090 644 1272 644 1272 726 1356 726 1356 1144 1470 1196"/>
      <polyline id="MIR_842-MIR_774" class="cls-9" points="1320 1164 1320 1146 1398 1146 1472 1196"/>
      <polyline id="MIR_842-MIR_776" class="cls-9" points="1322 1030 1342 1030 1344 1140 1477 1197"/>
      <polyline id="MIR_842-MIR_768" class="cls-9" points="1366 402 1376 402 1376 726 1354 726 1354 1140 1472 1196"/>
      <polyline id="MIR_842-MIR_769" class="cls-9" points="1366 564 1376 564 1376 726 1354 726 1354 1140 1472 1196"/>
      <polyline id="MIR_842-MIR_770" class="cls-9" points="1460 704 1460 726 1354 726 1354 1140 1472 1196"/>
      <polyline id="MIR_842-MIR_771" class="cls-9" points="1596 704 1596 726 1354 726 1354 1140 1472 1196"/>
      <path id="MIR_842-MIR_753" class="cls-9" d="M416,1054l30-60,68,28s78,98,120,4h728v72h78v410l120,56" transform="translate(-86 -368)"/>
      <path id="MIR_842-MIR_754" class="cls-9" d="M492,1014l22,8s78,98,120,4h728v72h78v410l120,56" transform="translate(-86 -368)"/>
      <path id="MIR_842-MIR_755" class="cls-9" d="M574,728l10-20,68,34L544,962s92,14,98,46h722v88h64v414l130,60" transform="translate(-86 -368)"/>
      <path id="MIR_842-MIR_756" class="cls-9" d="M594,688l-10,20,68,34L544,962s92,14,98,46h722v88h64v414l130,60" transform="translate(-86 -368)"/>
      <path id="MIR_842-MIR_757" class="cls-9" d="M486,636l-10,20,176,86L544,962s92,14,98,46h722v88h64v414l130,60" transform="translate(-86 -368)"/>
      <path id="MIR_842-MIR_758" class="cls-9" d="M374,582l-10,20L652,742,544,962s92,14,98,46h722v88h64v414l130,60" transform="translate(-86 -368)"/>
      <polyline id="MIR_842-MIR_763" class="cls-9" points="718 626 718 644 1276 644 1276 726 1346 726 1346 1138 1472 1202"/>
      <polyline id="MIR_842-MIR_764" class="cls-9" points="860 468 878 468 878 642 1278 642 1278 726 1346 726 1346 1144 1477 1197"/>
      <polyline id="MIR_842-MIR_765" class="cls-9" points="894 468 878 468 878 642 1278 642 1278 726 1346 726 1346 1144 1477 1197"/>
      <polyline id="MIR_842-MIR_772" class="cls-9" points="1298 806 1350 806 1350 1138 1477 1197"/>
      <polyline id="MIR_842-MIR_760" class="cls-9" points="1214 682 1266 682 1266 724 1350 724 1350 1132 1472 1196"/>
      <polyline id="MIR_842-MIR_761" class="cls-9" points="1172 674 1172 646 1280 646 1280 726 1362 726 1362 1140 1472 1192"/>
      <polyline id="MIR_842-MIR_773" class="cls-9" points="1118 882 1154 882 1154 862 1350 862 1350 1138 1472 1192"/>
      <polyline id="MIR_842-MIR_855" class="cls-9" points="946 626 946 644 1272 644 1272 726 1356 726 1356 1144 1470 1196"/>
      <polyline id="MIR_842-MIR_762" class="cls-9" points="786.5 676 786.5 644 1276 644 1276 726 1346 726 1346 1138 1472 1202"/>
    </g>
  </g>
  <g id="icons">
    <g>
      <line class="cls-10" x1="1616" y1="1194" x2="1640.82" y2="1194"/>
      <polygon class="cls-11" points="1639.37 1198.99 1648 1194 1639.37 1189.01 1639.37 1198.99"/>
    </g>
    <g>
      <line class="cls-10" x1="500" y1="758" x2="496.78" y2="782.61"/>
      <polygon class="cls-11" points="492.02 780.52 495.85 789.73 501.91 781.81 492.02 780.52"/>
    </g>
    <g>
      <g>
        <rect class="cls-11" x="750.06" y="698.32" width="40.55" height="40.55"/>
        <path class="cls-12" d="M875,1067.93v37.33H837.66v-37.33H875m1.61-1.61H836.06v40.55h40.55v-40.55Z" transform="translate(-86 -368)"/>
      </g>
      <g>
        <g>
          <g>
            <path class="cls-12" d="M845.78,1078.59a2,2,0,1,0-2-2A2,2,0,0,0,845.78,1078.59Z" transform="translate(-86 -368)"/>
            <path class="cls-13" d="M845.78,1076.58" transform="translate(-86 -368)"/>
          </g>
          <path class="cls-12" d="M843.64,1079a2.58,2.58,0,0,0-2.57,2.6v6.16a.88.88,0,1,0,1.76,0v-5.63h.41v15.42a1.17,1.17,0,1,0,2.33,0v-8.95h.4v8.95a1.18,1.18,0,1,0,2.35,0v-15.42h.41v5.63a.87.87,0,1,0,1.74,0v-6.12a2.62,2.62,0,0,0-2.6-2.64Z" transform="translate(-86 -368)"/>
        </g>
        <g>
          <g>
            <path class="cls-12" d="M866.06,1078.51a2,2,0,1,0-2-2A2,2,0,0,0,866.06,1078.51Z" transform="translate(-86 -368)"/>
            <path class="cls-13" d="M866.06,1076.54" transform="translate(-86 -368)"/>
          </g>
          <path class="cls-12" d="M865.77,1091v6.8a.93.93,0,1,1-1.85,0V1091h-2.49l2.66-9.23h-.41l-1.55,5.21a.84.84,0,1,1-1.57-.55l1.71-5.65a2.61,2.61,0,0,1,2.42-1.79h2.7a2.67,2.67,0,0,1,2.43,1.79l1.72,5.65c.35,1.21-1.2,1.72-1.57.53l-1.55-5.19H868l2.68,9.23h-2.5v6.77a.92.92,0,1,1-1.84,0V1091Z" transform="translate(-86 -368)"/>
        </g>
        <line class="cls-14" x1="769.91" y1="730.98" x2="769.91" y2="706.58"/>
      </g>
    </g>
    <g>
      <g>
        <rect class="cls-11" x="431.34" y="736" width="25.88" height="36.79"/>
        <path class="cls-12" d="M542.2,1105.46v33.87H518.37v-33.87H542.2m1-1.46H517.34v36.79h25.88V1104Z" transform="translate(-86 -368)"/>
      </g>
      <g>
        <g>
          <path class="cls-12" d="M530.9,1114.31a2,2,0,1,0-2-2A2,2,0,0,0,530.9,1114.31Z" transform="translate(-86 -368)"/>
          <path class="cls-13" d="M530.9,1112.34" transform="translate(-86 -368)"/>
        </g>
        <path class="cls-12" d="M530.61,1126.78v6.8a.93.93,0,1,1-1.86,0v-6.76h-2.49l2.66-9.23h-.41L527,1122.8a.84.84,0,1,1-1.57-.55l1.72-5.65a2.6,2.6,0,0,1,2.41-1.79h2.71a2.67,2.67,0,0,1,2.43,1.79l1.72,5.65c.34,1.21-1.21,1.72-1.57.53l-1.55-5.19h-.45l2.68,9.23H533v6.77a.92.92,0,1,1-1.84,0v-6.81Z" transform="translate(-86 -368)"/>
      </g>
    </g>
    <g>
      <g>
        <rect class="cls-11" x="522.47" y="544" width="26.71" height="33.98"/>
        <path class="cls-12" d="M634.12,913.35v31.28H609.53V913.35h24.59m1.06-1.35H608.47v34h26.71V912Z" transform="translate(-86 -368)"/>
      </g>
      <g>
        <g>
          <path class="cls-12" d="M622.49,921a2,2,0,1,0-2-2A2,2,0,0,0,622.49,921Z" transform="translate(-86 -368)"/>
          <path class="cls-13" d="M622.49,919" transform="translate(-86 -368)"/>
        </g>
        <path class="cls-12" d="M620.35,921.43a2.58,2.58,0,0,0-2.57,2.6v6.16a.88.88,0,1,0,1.76,0v-5.63H620V940a1.17,1.17,0,1,0,2.33,0v-9h.4v9a1.18,1.18,0,1,0,2.35,0V924.56h.41v5.63a.87.87,0,1,0,1.74,0v-6.12a2.61,2.61,0,0,0-2.6-2.64Z" transform="translate(-86 -368)"/>
      </g>
    </g>
    <g>
      <g>
        <rect class="cls-11" x="1158" y="683.72" width="24" height="24"/>
        <path class="cls-12" d="M1267.05,1052.67v22.1H1245v-22.1h22.1m1-1h-24v24h24v-24Z" transform="translate(-86 -368)"/>
      </g>
      <g>
        <path class="cls-12" d="M1256,1060.18a2.3,2.3,0,1,0-2.3-2.3A2.3,2.3,0,0,0,1256,1060.18Z" transform="translate(-86 -368)"/>
        <path class="cls-12" d="M1256,1065h-2.43v-1.76l-1.86,1.88c-.84.84-2-.24-1.14-1.08l3.08-3.09a1.27,1.27,0,0,1,.95-.4h2.76a1.32,1.32,0,0,1,1,.4l3.11,3.12a.79.79,0,1,1-1.14,1.08l-1.91-1.91V1065Z" transform="translate(-86 -368)"/>
        <path class="cls-12" d="M1258.4,1065.9l-1.82,1.83,1.34,1.34-1.38,1.37a.81.81,0,1,0,1.15,1.13l2.17-2.26a1.36,1.36,0,0,0,.1-1.85Z" transform="translate(-86 -368)"/>
        <path class="cls-12" d="M1253.57,1065.9l1.82,1.83-1.34,1.34,1.38,1.37a.81.81,0,1,1-1.15,1.13l-2.17-2.26a1.36,1.36,0,0,1-.1-1.85Z" transform="translate(-86 -368)"/>
      </g>
    </g>
    <g>
      <g>
        <rect class="cls-11" x="1278.4" y="1014.68" width="40.55" height="40.55"/>
        <path class="cls-12" d="M1403.35,1384.28v37.34H1366v-37.34h37.34m1.6-1.6H1364.4v40.55H1405v-40.55Z" transform="translate(-86 -368)"/>
      </g>
      <g>
        <path class="cls-12" d="M1384.08,1393.8v0l.06,0,.06,0h0v0a2.07,2.07,0,0,0,0-4.14v0h-.16v0a2.08,2.08,0,0,0,0,4.16Z" transform="translate(-86 -368)"/>
        <path class="cls-12" d="M1390,1402l-1.81-5.91a2.78,2.78,0,0,0-2.54-1.87h-1.41v0H1382a2.7,2.7,0,0,0-2.69,2.72v6.44a.92.92,0,1,0,1.84,0v-5.88h.44v16.12a1.22,1.22,0,1,0,2.43,0v-9.36h.23v2.46h.29v7.13a1,1,0,0,0,1.93,0v-7.08h2.61l-2.81-9.67h.47l1.61,5.44C1388.74,1403.79,1390.35,1403.28,1390,1402Z" transform="translate(-86 -368)"/>
      </g>
    </g>
    <g>
      <path class="cls-12" d="M1339.63,1383.76A20.27,20.27,0,1,0,1359.9,1404,20.26,20.26,0,0,0,1339.63,1383.76Zm0,37.59A17.33,17.33,0,1,1,1357,1404,17.31,17.31,0,0,1,1339.63,1421.35Z" transform="translate(-86 -368)"/>
      <path class="cls-12" d="M1348.66,1394.48a2.52,2.52,0,1,1-2.51-2.52A2.51,2.51,0,0,1,1348.66,1394.48Zm-11.21,20.67a5.49,5.49,0,0,1-4.31-8.9l-1.65-1.65a7.78,7.78,0,0,0,11,11l-1.61-1.61A5.49,5.49,0,0,1,1337.45,1415.15Zm12.37-12.3a1.59,1.59,0,0,0-1.16-.5h-5L1346,1400a1.6,1.6,0,0,0,.45-1.33,1.58,1.58,0,0,0-.79-1.15l-7.24-4.09a1.57,1.57,0,0,0-1.79.16l-4.09,3.47a1.57,1.57,0,1,0,2,2.4l3.26-2.76,4.48,2.54-2.87,2.87a7.92,7.92,0,0,0-2-.27,7.79,7.79,0,0,0-5,1.85l1.65,1.65a5.48,5.48,0,0,1,3.41-1.18,6.13,6.13,0,0,1,.87.07,5.57,5.57,0,0,1,2.72,1.27,5.5,5.5,0,0,1,.72,7.56l1.61,1.61a7.79,7.79,0,0,0,1.85-5,7.68,7.68,0,0,0-1.2-4.13h3l-.5,7.12a1.58,1.58,0,0,0,1.45,1.69h.12a1.56,1.56,0,0,0,1.56-1.46l.63-8.81A1.57,1.57,0,0,0,1349.82,1402.85Z" transform="translate(-86 -368)"/>
    </g>
    <g>
      <g>
        <rect class="cls-11" x="924.47" y="578.25" width="40.55" height="40.55"/>
        <path class="cls-12" d="M1049.41,947.85v37.34h-37.34V947.85h37.34m1.61-1.6h-40.55V986.8H1051V946.25Z" transform="translate(-86 -368)"/>
      </g>
      <g>
        <path class="cls-12" d="M1015.26,973.69a.53.53,0,0,0,.47.28h2.65a.55.55,0,0,0,.47-.27l3.35-5.7h1.8v5.43a.54.54,0,0,0,.54.54h2.65a.54.54,0,0,0,.54-.54v-15a.55.55,0,0,0-.54-.55h-5.62a5.58,5.58,0,0,0-3.91,1.35,4.66,4.66,0,0,0-1.52,3.64,4.7,4.7,0,0,0,2.69,4.41l-3.56,5.91A.52.52,0,0,0,1015.26,973.69Zm8.74-8.82h-2.09c-1.4,0-2-.58-2-2s.58-1.95,1.92-1.95H1024Z" transform="translate(-86 -368)"/>
        <path class="cls-12" d="M1046.22,973.15l-3.57-5.91a4.69,4.69,0,0,0,2.7-4.41,4.66,4.66,0,0,0-1.52-3.64,5.6,5.6,0,0,0-3.91-1.35h-5.62a.55.55,0,0,0-.54.55v15a.54.54,0,0,0,.54.54H1037a.54.54,0,0,0,.54-.54V968h1.79l3.36,5.7a.55.55,0,0,0,.47.27h2.65a.56.56,0,0,0,.47-.28A.52.52,0,0,0,1046.22,973.15ZM1037.49,961h2.15c1.35,0,1.93.58,1.93,1.95s-.6,2-2,2h-2.09Z" transform="translate(-86 -368)"/>
        <path class="cls-12" d="M1030.58,974.24a.27.27,0,0,1-.27-.27V957.84a.27.27,0,0,1,.27-.27.28.28,0,0,1,.28.27V974A.28.28,0,0,1,1030.58,974.24Z" transform="translate(-86 -368)"/>
      </g>
    </g>
    <path d="M1780.54,1561l-2.09-11a4.25,4.25,0,0,0-4.18-3.47h-20.54a4.28,4.28,0,0,0-4.17,3.47l-2,11h-.09a4.38,4.38,0,0,0-3.42,4.36v9.42h3.07v3.29a2.85,2.85,0,1,0,5.69,0v-3.29h22.49v3.29a2.87,2.87,0,1,0,5.73,0v-3.29h3.07v-9.38A4.48,4.48,0,0,0,1780.54,1561Zm-30.45,7.64a2.09,2.09,0,1,1,0-4.17,2.08,2.08,0,0,1,2.09,2.09A2.06,2.06,0,0,1,1750.09,1568.67Zm24.22-7.64-.17-.93a3.49,3.49,0,0,0-1.74-2.58,4,4,0,0,0-1.24-.45,4.3,4.3,0,0,0-1.07-.09,9.47,9.47,0,0,0-1.06.09,5.49,5.49,0,0,0-1.25.45,3.46,3.46,0,0,0-1.73,2.58l-.18.93H1762l-.18-.93a3.46,3.46,0,0,0-1.73-2.58,4,4,0,0,0-1.25-.45,4.22,4.22,0,0,0-1.06-.09,9.45,9.45,0,0,0-1.07.09,5.66,5.66,0,0,0-1.25.45,3.46,3.46,0,0,0-1.73,2.58l-.22.93h-3.11l1.78-9.47a3,3,0,0,1,3-2.49h17.78a3.1,3.1,0,0,1,3,2.49l1.78,9.47Zm3.69,7.64a2.16,2.16,0,0,1-2.13-2.08,2.06,2.06,0,0,1,2.13-2.09,2.09,2.09,0,0,1,2.1,2.09A2.12,2.12,0,0,1,1778,1568.67Zm-17.64-15a2.67,2.67,0,1,1-2.67-2.67A2.64,2.64,0,0,1,1760.36,1553.7Zm12.4,0a2.67,2.67,0,1,1-2.67-2.67A2.64,2.64,0,0,1,1772.76,1553.7Z" transform="translate(-86 -368)"/>
    <path class="cls-15" d="M1858.66,1551.21a4.43,4.43,0,0,0-1.18-2.27,7.92,7.92,0,0,0-2.44-1.41,22,22,0,0,0-4.59-1.28,26.9,26.9,0,0,0-10.92,0,22.32,22.32,0,0,0-4.59,1.28,7.73,7.73,0,0,0-2.44,1.41,4.09,4.09,0,0,0-1.11,2.27l-1.39,11.33v15.79h1.5v1.44a2.24,2.24,0,0,0,4.48,0v-1.44h18v1.44a2.25,2.25,0,0,0,4.49,0v-1.44h1.49v-15.79Zm-26.16,11,1.19-8.63c.09-.47.48-.71,1.18-.71h20.38c.7,0,1.09.23,1.18.71l1.19,8.78a1.28,1.28,0,0,1,.07.28,1,1,0,0,1-.35.81,1.27,1.27,0,0,1-.91.32h-22.74a1.19,1.19,0,0,1-.91-.35,1.26,1.26,0,0,1-.34-.92A.75.75,0,0,1,1832.5,1562.25Zm3.69,10.59a2.33,2.33,0,0,1-3.27,0,2.27,2.27,0,0,1,0-3.26,2.33,2.33,0,0,1,3.27,0,2.25,2.25,0,0,1,0,3.26Zm21,0a2.33,2.33,0,0,1-3.27,0,2.25,2.25,0,0,1,0-3.26,2.33,2.33,0,0,1,3.27,0,2.25,2.25,0,0,1,0,3.26Z" transform="translate(-86 -368)"/>
    <path class="cls-15" d="M1810.08,1553a3.4,3.4,0,1,1,3.52-3.4A3.46,3.46,0,0,1,1810.08,1553Zm8.84,10.52a1.53,1.53,0,0,1,.3,2.2,1.64,1.64,0,0,1-1.29.61,1.74,1.74,0,0,1-1-.32l-5-3.29a1.55,1.55,0,0,1-.54-.72s-.66-2.08-1.36-3.81l-1.71,6.83,5.65,6a1.51,1.51,0,0,1,.44.81l1.26,7.85a1.57,1.57,0,0,1-1.3,1.83l-.3,0a1.61,1.61,0,0,1-1.59-1.28l-1.44-7.35-5.26-5.16-1.33,6a1.61,1.61,0,0,1-.22.48l-4.44,6.54a1.67,1.67,0,0,1-2.25.48,1.59,1.59,0,0,1-.54-2.2l4.21-6.27,1.37-8.55,1.8-5.53-5.47,6.53a1.66,1.66,0,0,1-2.28.3,1.53,1.53,0,0,1-.36-2.13l0-.06,7.21-8.62.07-.07a4.39,4.39,0,0,1,4.15-1.44c2.2.45,3.91.76,4.68,2.35s1.52,4,1.86,4.92l4.62,3Z" transform="translate(-86 -368)"/>
    <path class="cls-15" d="M592.75,1170.8a4.5,4.5,0,0,0-1.18-2.27,8.13,8.13,0,0,0-2.44-1.41,22.32,22.32,0,0,0-4.59-1.28,26.9,26.9,0,0,0-10.92,0,22,22,0,0,0-4.59,1.28,7.92,7.92,0,0,0-2.44,1.42,3.9,3.9,0,0,0-1.11,2.26l-1.39,11.33v15.79h1.49v1.44a2.25,2.25,0,0,0,4.49,0v-1.44H588v1.44a2.24,2.24,0,0,0,4.48,0v-1.44H594v-15.79Zm-26.16,11,1.18-8.64c.1-.47.49-.71,1.19-.71h20.38c.69,0,1.09.24,1.18.71l1.19,8.78a1.27,1.27,0,0,1,.06.28,1.06,1.06,0,0,1-.34.82,1.33,1.33,0,0,1-.91.32H567.77a1.23,1.23,0,0,1-.9-.36,1.27,1.27,0,0,1-.35-.92A.58.58,0,0,1,566.59,1181.85Zm3.69,10.58a2.33,2.33,0,0,1-3.27,0,2.25,2.25,0,0,1,0-3.26,2.33,2.33,0,0,1,3.27,0,2.27,2.27,0,0,1,0,3.26Zm21,0a2.33,2.33,0,0,1-3.27,0,2.15,2.15,0,0,1-.7-1.63,2.18,2.18,0,0,1,.7-1.63,2.3,2.3,0,0,1,1.63-.67,2.32,2.32,0,0,1,1.64.67,2.27,2.27,0,0,1,0,3.26Z" transform="translate(-86 -368)"/>
    <polygon id="_Path_" data-name="&lt;Path&gt;" class="cls-16" points="1254 632 1294.79 608.41 1265.11 586.22 1254 632"/>
    <polygon id="_Path_2" data-name="&lt;Path&gt;" class="cls-16" points="504.53 632.68 486 676 523.06 676 504.53 632.68"/>
    <g>
      <g>
        <rect class="cls-11" x="1617.72" y="725.72" width="40.55" height="40.55"/>
        <path class="cls-12" d="M1742.67,1095.33v37.34h-37.34v-37.34h37.34m1.61-1.61h-40.56v40.56h40.56v-40.56Z" transform="translate(-86 -368)"/>
      </g>
      <g>
        <g>
          <g>
            <path class="cls-12" d="M1713.45,1106a2,2,0,1,0-2-2A2,2,0,0,0,1713.45,1106Z" transform="translate(-86 -368)"/>
            <path class="cls-13" d="M1713.45,1104" transform="translate(-86 -368)"/>
          </g>
          <path class="cls-12" d="M1711.3,1106.44a2.57,2.57,0,0,0-2.56,2.6v6.16a.88.88,0,1,0,1.75,0v-5.63h.42V1125a1.17,1.17,0,1,0,2.33,0v-9h.4v9a1.18,1.18,0,1,0,2.35,0v-15.41h.4v5.63a.87.87,0,1,0,1.74,0v-6.12a2.61,2.61,0,0,0-2.59-2.64Z" transform="translate(-86 -368)"/>
        </g>
        <g>
          <g>
            <path class="cls-12" d="M1733.73,1105.91a2,2,0,1,0-2-2A2,2,0,0,0,1733.73,1105.91Z" transform="translate(-86 -368)"/>
            <path class="cls-13" d="M1733.73,1104" transform="translate(-86 -368)"/>
          </g>
          <path class="cls-12" d="M1733.44,1118.38v6.81a.93.93,0,1,1-1.85,0v-6.76h-2.48l2.66-9.23h-.42l-1.54,5.21a.84.84,0,1,1-1.58-.55l1.72-5.66a2.61,2.61,0,0,1,2.42-1.79h2.7a2.69,2.69,0,0,1,2.43,1.79l1.72,5.65c.34,1.22-1.2,1.72-1.57.54l-1.55-5.19h-.45l2.69,9.23h-2.5v6.77a.92.92,0,0,1-1.84,0v-6.82Z" transform="translate(-86 -368)"/>
        </g>
        <line class="cls-14" x1="1637.58" y1="758.38" x2="1637.58" y2="733.98"/>
      </g>
    </g>
  </g>
  <g id="labels">
    <g>
      <path class="cls-12" d="M797.28,1037.84v-11.09h4.27a4,4,0,0,1,2.74.91,3.19,3.19,0,0,1,1,2.48,3,3,0,0,1-.52,1.73,3.58,3.58,0,0,1-1.49,1.2l2.75,4.77h-2.48l-2.4-4.3h-1.57v4.3Zm2.3-6h1.67a1.49,1.49,0,0,0,1.68-1.69,1.47,1.47,0,0,0-1.65-1.67h-1.7Z" transform="translate(-86 -368)"/>
      <path class="cls-12" d="M807.47,1037.84v-11.09h7.3v1.86h-4.9v2.62h4v1.86h-4V1036h4.9v1.86Z" transform="translate(-86 -368)"/>
      <path class="cls-12" d="M822,1036.13a11.45,11.45,0,0,0,1.19-.08v-2.71h-2.08v-1.72h4.28v5.55a7.07,7.07,0,0,1-1.79.62,9.88,9.88,0,0,1-2.11.23,5.27,5.27,0,0,1-4-1.46,5.7,5.7,0,0,1-1.4-4.14,6,6,0,0,1,1.45-4.35,5.55,5.55,0,0,1,4.2-1.49,7.32,7.32,0,0,1,3.24.65v1.83a9.69,9.69,0,0,0-3-.53,3.41,3.41,0,0,0-2.61.89,4,4,0,0,0-.83,2.79v.29a3.94,3.94,0,0,0,.83,2.76A3.45,3.45,0,0,0,822,1036.13Z" transform="translate(-86 -368)"/>
      <path class="cls-12" d="M828.73,1038.05a1.37,1.37,0,0,1-1.44-1.44,1.37,1.37,0,0,1,1.44-1.44,1.37,1.37,0,0,1,1.44,1.44,1.37,1.37,0,0,1-1.44,1.44Z" transform="translate(-86 -368)"/>
      <path class="cls-12" d="M836.48,1037.84v-11.09h4a5,5,0,0,1,3.82,1.43,7,7,0,0,1,0,8.21,4.86,4.86,0,0,1-3.77,1.45Zm2.4-9.23V1036h1.37c1.93,0,2.9-1.17,2.9-3.53v-.32q0-3.53-2.91-3.52Z" transform="translate(-86 -368)"/>
      <path class="cls-12" d="M847.85,1037.84v-11.09h7.3v1.86h-4.9v2.62h4v1.86h-4V1036h4.9v1.86Z" transform="translate(-86 -368)"/>
      <path class="cls-12" d="M859.26,1033a4.7,4.7,0,0,1-2-1.29,3,3,0,0,1-.62-1.92,2.91,2.91,0,0,1,1.11-2.4,4.62,4.62,0,0,1,3-.9,8.44,8.44,0,0,1,3.07.58v1.82a9.85,9.85,0,0,0-2.88-.48c-1.26,0-1.89.41-1.89,1.22a.92.92,0,0,0,.33.73,4,4,0,0,0,1.22.61l1.19.43a5.2,5.2,0,0,1,2.12,1.27,2.81,2.81,0,0,1,.63,1.9,3.15,3.15,0,0,1-1.19,2.6,5.06,5.06,0,0,1-3.24.95,9.14,9.14,0,0,1-1.8-.17,6.79,6.79,0,0,1-1.53-.45v-1.83a13.45,13.45,0,0,0,1.71.39,11.47,11.47,0,0,0,1.65.14,2.57,2.57,0,0,0,1.45-.34,1.11,1.11,0,0,0,.52-1,1,1,0,0,0-.32-.78,3.94,3.94,0,0,0-1.25-.64Z" transform="translate(-86 -368)"/>
      <path class="cls-12" d="M866.46,1037.84v-11.09h2.4v4.75l4-4.75h2.7l-4.51,5.15,4.9,5.94H873.1l-4.24-5.26v5.26Z" transform="translate(-86 -368)"/>
      <path class="cls-12" d="M885.18,1031.38a3.63,3.63,0,0,1,2.42.91,2.88,2.88,0,0,1,.88,2.19,3.46,3.46,0,0,1-.52,1.87,3.39,3.39,0,0,1-1.51,1.27,5.46,5.46,0,0,1-2.32.46,7.53,7.53,0,0,1-3-.66v-1.8a9.77,9.77,0,0,0,2.95.6,2.38,2.38,0,0,0,1.56-.44,1.57,1.57,0,0,0,.53-1.28,1.29,1.29,0,0,0-.49-1.12,2.67,2.67,0,0,0-1.54-.36l-.71,0c-.34,0-.6,0-.78.08v-1.48l2.87-3.08h-4.24v-1.83H888v1.76Z" transform="translate(-86 -368)"/>
    </g>
    <g>
      <path class="cls-12" d="M1261.53,1037.84v-11.09h4.27a4,4,0,0,1,2.74.91,3.19,3.19,0,0,1,1,2.48,3,3,0,0,1-.52,1.73,3.58,3.58,0,0,1-1.49,1.2l2.75,4.77h-2.48l-2.4-4.3h-1.57v4.3Zm2.3-6h1.67a1.49,1.49,0,0,0,1.68-1.69,1.47,1.47,0,0,0-1.65-1.67h-1.7Z" transform="translate(-86 -368)"/>
      <path class="cls-12" d="M1271.72,1037.84v-11.09h7.3v1.86h-4.9v2.62h4v1.86h-4V1036h4.9v1.86Z" transform="translate(-86 -368)"/>
      <path class="cls-12" d="M1286.23,1036.13a11.45,11.45,0,0,0,1.19-.08v-2.71h-2.08v-1.72h4.28v5.55a7.07,7.07,0,0,1-1.79.62,9.88,9.88,0,0,1-2.11.23,5.27,5.27,0,0,1-4-1.46,5.7,5.7,0,0,1-1.4-4.14,6,6,0,0,1,1.45-4.35,5.55,5.55,0,0,1,4.2-1.49,7.32,7.32,0,0,1,3.24.65v1.83a9.69,9.69,0,0,0-3-.53,3.41,3.41,0,0,0-2.61.89,4,4,0,0,0-.83,2.79v.29a3.94,3.94,0,0,0,.83,2.76A3.45,3.45,0,0,0,1286.23,1036.13Z" transform="translate(-86 -368)"/>
      <path class="cls-12" d="M1293,1038.05a1.37,1.37,0,0,1-1.44-1.44,1.37,1.37,0,0,1,1.44-1.44,1.37,1.37,0,0,1,1.44,1.44,1.37,1.37,0,0,1-1.44,1.44Z" transform="translate(-86 -368)"/>
      <path class="cls-12" d="M1300.73,1037.84v-11.09h4a5,5,0,0,1,3.82,1.43,7,7,0,0,1,0,8.21,4.86,4.86,0,0,1-3.77,1.45Zm2.4-9.23V1036h1.37c1.93,0,2.9-1.17,2.9-3.53v-.32q0-3.53-2.91-3.52Z" transform="translate(-86 -368)"/>
      <path class="cls-12" d="M1312.1,1037.84v-11.09h7.3v1.86h-4.9v2.62h4v1.86h-4V1036h4.9v1.86Z" transform="translate(-86 -368)"/>
      <path class="cls-12" d="M1323.51,1033a4.7,4.7,0,0,1-2-1.29,3,3,0,0,1-.62-1.92,2.91,2.91,0,0,1,1.11-2.4,4.62,4.62,0,0,1,3-.9,8.44,8.44,0,0,1,3.07.58v1.82a9.85,9.85,0,0,0-2.88-.48c-1.26,0-1.89.41-1.89,1.22a.92.92,0,0,0,.33.73,4,4,0,0,0,1.22.61l1.19.43a5.2,5.2,0,0,1,2.12,1.27,2.81,2.81,0,0,1,.63,1.9,3.15,3.15,0,0,1-1.19,2.6,5.06,5.06,0,0,1-3.24.95,9.14,9.14,0,0,1-1.8-.17,6.79,6.79,0,0,1-1.53-.45v-1.83a13.45,13.45,0,0,0,1.71.39,11.47,11.47,0,0,0,1.65.14,2.57,2.57,0,0,0,1.45-.34,1.11,1.11,0,0,0,.52-1,1,1,0,0,0-.32-.78,3.94,3.94,0,0,0-1.25-.64Z" transform="translate(-86 -368)"/>
      <path class="cls-12" d="M1330.71,1037.84v-11.09h2.4v4.75l4-4.75h2.7l-4.51,5.15,4.9,5.94h-2.87l-4.24-5.26v5.26Z" transform="translate(-86 -368)"/>
      <path class="cls-12" d="M1345.54,1027.76a6,6,0,0,1,1.76-1,5.68,5.68,0,0,1,1.89-.3,3.44,3.44,0,0,1,2.44.85,2.9,2.9,0,0,1,.92,2.24,3.77,3.77,0,0,1-.46,1.73,10.49,10.49,0,0,1-1.47,2c-.68.75-1.58,1.64-2.71,2.66H1353v1.86h-7.74v-1.73c1.36-1.37,2.38-2.45,3.06-3.22a12,12,0,0,0,1.41-1.87,2.71,2.71,0,0,0,.39-1.29,1.2,1.2,0,0,0-.37-1,1.37,1.37,0,0,0-1-.35,4.42,4.42,0,0,0-1.54.32,8.71,8.71,0,0,0-1.68.91Z" transform="translate(-86 -368)"/>
    </g>
    <g>
      <path class="cls-12" d="M1345.82,1225.84v-4.72h-4.41v4.72H1339v-11.09h2.4v4.51h4.41v-4.51h2.4v11.09Z" transform="translate(-86 -368)"/>
      <path class="cls-12" d="M1350.78,1225.84v-11.09h7.3v1.86h-4.9v2.62h4v1.86h-4V1224h4.9v1.86Z" transform="translate(-86 -368)"/>
      <path class="cls-12" d="M1360,1225.84v-11.09h2.4v9.17h4.87v1.92Z" transform="translate(-86 -368)"/>
      <path class="cls-12" d="M1371.06,1221.79v4h-2.34v-11.09H1373a3.87,3.87,0,0,1,2.74,1,3.82,3.82,0,0,1,0,5.15,3.86,3.86,0,0,1-2.74.94Zm0-1.79h1.63a1.63,1.63,0,0,0,1.22-.44,1.79,1.79,0,0,0,.43-1.29,1.82,1.82,0,0,0-.43-1.29,1.63,1.63,0,0,0-1.22-.44h-1.63Z" transform="translate(-86 -368)"/>
      <path class="cls-12" d="M1382.82,1225.84v-11.09h4a5,5,0,0,1,3.82,1.43,7,7,0,0,1,0,8.21,4.86,4.86,0,0,1-3.77,1.45Zm2.4-9.23V1224h1.37c1.93,0,2.9-1.17,2.9-3.53v-.32q0-3.53-2.91-3.52Z" transform="translate(-86 -368)"/>
      <path class="cls-12" d="M1394.19,1225.84v-11.09h7.3v1.86h-4.9v2.62h4v1.86h-4V1224h4.9v1.86Z" transform="translate(-86 -368)"/>
      <path class="cls-12" d="M1405.6,1221a4.7,4.7,0,0,1-2-1.29,3,3,0,0,1-.62-1.92,2.91,2.91,0,0,1,1.11-2.4,4.6,4.6,0,0,1,3-.9,8.45,8.45,0,0,1,3.08.58v1.82a9.85,9.85,0,0,0-2.88-.48c-1.26,0-1.89.41-1.89,1.22a.92.92,0,0,0,.33.73,3.84,3.84,0,0,0,1.22.61l1.18.43a5.07,5.07,0,0,1,2.12,1.27,2.81,2.81,0,0,1,.63,1.9,3.14,3.14,0,0,1-1.18,2.6,5.07,5.07,0,0,1-3.25.95,9.11,9.11,0,0,1-1.79-.17,6.64,6.64,0,0,1-1.53-.45v-1.83a13.45,13.45,0,0,0,1.71.39,11.35,11.35,0,0,0,1.65.14,2.59,2.59,0,0,0,1.45-.34,1.12,1.12,0,0,0,.51-1,1,1,0,0,0-.31-.78,4.15,4.15,0,0,0-1.26-.64Z" transform="translate(-86 -368)"/>
      <path class="cls-12" d="M1412.8,1225.84v-11.09h2.4v4.75l4-4.75h2.71l-4.51,5.15,4.89,5.94h-2.86l-4.24-5.26v5.26Z" transform="translate(-86 -368)"/>
    </g>
    <g>
      <path class="cls-12" d="M819.49,958.8v-9.6l-3.06,6.22h-2.68l-3.06-6.22v9.6h-2.64V944.94h3.28l3.78,7.88,3.8-7.88h3.22V958.8Z" transform="translate(-86 -368)"/>
      <path class="cls-12" d="M824.93,951.86a8.69,8.69,0,0,1,.79-3.84,5.75,5.75,0,0,1,2.32-2.53,7.91,7.91,0,0,1,7.23,0,5.78,5.78,0,0,1,2.35,2.49,8.58,8.58,0,0,1,.83,3.91,8.69,8.69,0,0,1-.79,3.84,5.83,5.83,0,0,1-2.32,2.54,7.08,7.08,0,0,1-3.65.9,7.19,7.19,0,0,1-3.58-.86,5.8,5.8,0,0,1-2.35-2.5A8.62,8.62,0,0,1,824.93,951.86Zm3.08,0a5.87,5.87,0,0,0,.94,3.6,3.65,3.65,0,0,0,5.48,0,7.34,7.34,0,0,0,0-7.19,3.67,3.67,0,0,0-5.48,0A5.82,5.82,0,0,0,828,951.86Z" transform="translate(-86 -368)"/>
      <path class="cls-12" d="M843.89,949.18v9.62h-2.64V944.94h3.2l5.64,9.7v-9.7h2.64V958.8h-3.2Z" transform="translate(-86 -368)"/>
      <path class="cls-12" d="M858.79,958.8V947.34h-4.22v-2.4H866v2.4h-4.22V958.8Z" transform="translate(-86 -368)"/>
      <path class="cls-12" d="M867.85,958.8V944.94H877v2.32h-6.12v3.28h5v2.32h-5v3.62H877v2.32Z" transform="translate(-86 -368)"/>
      <path class="cls-12" d="M886,956.66a12.35,12.35,0,0,0,1.48-.1v-3.38h-2.6V951h5.36V958a8.89,8.89,0,0,1-2.24.78,12.33,12.33,0,0,1-2.64.28,6.62,6.62,0,0,1-5-1.82,7.16,7.16,0,0,1-1.75-5.18,7.5,7.5,0,0,1,1.81-5.43,7,7,0,0,1,5.25-1.87,9.22,9.22,0,0,1,4.06.82v2.28a12.51,12.51,0,0,0-3.74-.66,4.27,4.27,0,0,0-3.26,1.11,5,5,0,0,0-1,3.49v.36a4.89,4.89,0,0,0,1,3.45A4.32,4.32,0,0,0,886,956.66Z" transform="translate(-86 -368)"/>
      <path class="cls-12" d="M892.79,951.86a8.69,8.69,0,0,1,.79-3.84,5.75,5.75,0,0,1,2.32-2.53,7.91,7.91,0,0,1,7.23,0,5.78,5.78,0,0,1,2.35,2.49,8.58,8.58,0,0,1,.83,3.91,8.69,8.69,0,0,1-.79,3.84,5.83,5.83,0,0,1-2.32,2.54,7.08,7.08,0,0,1-3.65.9,7.19,7.19,0,0,1-3.58-.86,5.8,5.8,0,0,1-2.35-2.5A8.62,8.62,0,0,1,892.79,951.86Zm3.08,0a5.87,5.87,0,0,0,.94,3.6,3.65,3.65,0,0,0,5.48,0,7.34,7.34,0,0,0,0-7.19,3.67,3.67,0,0,0-5.48,0A5.82,5.82,0,0,0,895.87,951.86Z" transform="translate(-86 -368)"/>
      <path class="cls-12" d="M922.67,958.8l-1-3.16H917L916,958.8h-3.14l4.88-13.86h3.3l4.88,13.86Zm-5.08-5.32h3.48l-1.76-5.8Z" transform="translate(-86 -368)"/>
    </g>
    <g>
      <path class="cls-12" d="M820.36,858.8v-9.6l-3.06,6.22h-2.68l-3.06-6.22v9.6h-2.64V844.94h3.28l3.78,7.88,3.8-7.88H823V858.8Z" transform="translate(-86 -368)"/>
      <path class="cls-12" d="M825.8,851.86a8.69,8.69,0,0,1,.79-3.84,5.75,5.75,0,0,1,2.32-2.53,7.91,7.91,0,0,1,7.23,0,5.78,5.78,0,0,1,2.35,2.49,8.58,8.58,0,0,1,.83,3.91,8.69,8.69,0,0,1-.79,3.84,5.83,5.83,0,0,1-2.32,2.54,7.08,7.08,0,0,1-3.65.9,7.19,7.19,0,0,1-3.58-.86,5.8,5.8,0,0,1-2.35-2.5A8.62,8.62,0,0,1,825.8,851.86Zm3.08,0a5.87,5.87,0,0,0,.94,3.6,3.65,3.65,0,0,0,5.48,0,7.34,7.34,0,0,0,0-7.19,3.67,3.67,0,0,0-5.48,0A5.82,5.82,0,0,0,828.88,851.86Z" transform="translate(-86 -368)"/>
      <path class="cls-12" d="M844.76,849.18v9.62h-2.64V844.94h3.2l5.64,9.7v-9.7h2.64V858.8h-3.2Z" transform="translate(-86 -368)"/>
      <path class="cls-12" d="M859.66,858.8V847.34h-4.22v-2.4h11.44v2.4h-4.22V858.8Z" transform="translate(-86 -368)"/>
      <path class="cls-12" d="M868.72,858.8V844.94h9.12v2.32h-6.12v3.28h5v2.32h-5v3.62h6.12v2.32Z" transform="translate(-86 -368)"/>
      <path class="cls-12" d="M886.86,856.66a12.35,12.35,0,0,0,1.48-.1v-3.38h-2.6V851h5.36V858a8.89,8.89,0,0,1-2.24.78,12.33,12.33,0,0,1-2.64.28,6.62,6.62,0,0,1-5-1.82,7.16,7.16,0,0,1-1.75-5.18,7.5,7.5,0,0,1,1.81-5.43,7,7,0,0,1,5.25-1.87,9.22,9.22,0,0,1,4.06.82v2.28a12.51,12.51,0,0,0-3.74-.66,4.27,4.27,0,0,0-3.26,1.11,5,5,0,0,0-1,3.49v.36a4.89,4.89,0,0,0,1,3.45A4.32,4.32,0,0,0,886.86,856.66Z" transform="translate(-86 -368)"/>
      <path class="cls-12" d="M893.66,851.86a8.69,8.69,0,0,1,.79-3.84,5.75,5.75,0,0,1,2.32-2.53,7.91,7.91,0,0,1,7.23,0,5.78,5.78,0,0,1,2.35,2.49,8.58,8.58,0,0,1,.83,3.91,8.69,8.69,0,0,1-.79,3.84,5.83,5.83,0,0,1-2.32,2.54,7.08,7.08,0,0,1-3.65.9,7.19,7.19,0,0,1-3.58-.86,5.8,5.8,0,0,1-2.35-2.5A8.62,8.62,0,0,1,893.66,851.86Zm3.08,0a5.87,5.87,0,0,0,.94,3.6,3.65,3.65,0,0,0,5.48,0,7.34,7.34,0,0,0,0-7.19,3.67,3.67,0,0,0-5.48,0A5.82,5.82,0,0,0,896.74,851.86Z" transform="translate(-86 -368)"/>
      <path class="cls-12" d="M915.22,858.8V844.94h9.12v2.32h-6.12v3.28h5v2.32h-5v3.62h6.12v2.32Z" transform="translate(-86 -368)"/>
    </g>
    <g>
      <path class="cls-12" d="M394,756.8V742.94h9.12v2.32H397v3.28h5v2.32h-5v3.62h6.12v2.32Z" transform="translate(-86 -368)"/>
      <path class="cls-12" d="M409,756.8l-4.92-13.86h3.32l3.24,10.92,3.22-10.92h3.24l-4.92,13.86Z" transform="translate(-86 -368)"/>
      <path class="cls-12" d="M418.83,756.8V742.94H428v2.32h-6.12v3.28h5v2.32h-5v3.62H428v2.32Z" transform="translate(-86 -368)"/>
      <path class="cls-12" d="M433,747.18v9.62h-2.64V742.94h3.2l5.64,9.7v-9.7h2.64V756.8h-3.2Z" transform="translate(-86 -368)"/>
      <path class="cls-12" d="M447.93,756.8V745.34h-4.22v-2.4h11.44v2.4h-4.22V756.8Z" transform="translate(-86 -368)"/>
      <path class="cls-12" d="M459.69,750.74a5.91,5.91,0,0,1-2.56-1.61,4,4,0,0,1,.61-5.41,5.76,5.76,0,0,1,3.73-1.12,10.63,10.63,0,0,1,3.84.72v2.28a12.2,12.2,0,0,0-3.6-.6c-1.57,0-2.36.51-2.36,1.52a1.19,1.19,0,0,0,.41.92,5.05,5.05,0,0,0,1.53.76l1.48.54a6.33,6.33,0,0,1,2.65,1.59,3.48,3.48,0,0,1,.79,2.37,3.94,3.94,0,0,1-1.48,3.25,6.33,6.33,0,0,1-4.06,1.19,12.13,12.13,0,0,1-2.24-.21,8.43,8.43,0,0,1-1.92-.57v-2.28a16.41,16.41,0,0,0,2.14.48,13.36,13.36,0,0,0,2.06.18,3.22,3.22,0,0,0,1.82-.43,1.39,1.39,0,0,0,.64-1.23,1.27,1.27,0,0,0-.39-1,5.08,5.08,0,0,0-1.57-.8Z" transform="translate(-86 -368)"/>
      <path class="cls-12" d="M395.11,778.44a10.14,10.14,0,0,1-3.62.62,6.77,6.77,0,0,1-5.12-1.81,8.89,8.89,0,0,1,.08-10.67,6.74,6.74,0,0,1,5.12-1.9,10,10,0,0,1,3.34.56v2.36a14.25,14.25,0,0,0-3-.4,4.08,4.08,0,0,0-3.11,1.1,4.74,4.74,0,0,0-1,3.36v.46a4.79,4.79,0,0,0,1,3.33,4,4,0,0,0,3.06,1.09,16.16,16.16,0,0,0,3.26-.46Z" transform="translate(-86 -368)"/>
      <path class="cls-12" d="M397.33,778.8V764.94h9.12v2.32h-6.12v3.28h5v2.32h-5v3.62h6.12v2.32Z" transform="translate(-86 -368)"/>
      <path class="cls-12" d="M411.53,769.18v9.62h-2.64V764.94h3.2l5.64,9.7v-9.7h2.64V778.8h-3.2Z" transform="translate(-86 -368)"/>
      <path class="cls-12" d="M426.43,778.8V767.34h-4.22v-2.4h11.44v2.4h-4.22V778.8Z" transform="translate(-86 -368)"/>
      <path class="cls-12" d="M435.49,778.8V764.94h9.12v2.32h-6.12v3.28h5v2.32h-5v3.62h6.12v2.32Z" transform="translate(-86 -368)"/>
      <path class="cls-12" d="M447.05,778.8V764.94h5.34a4.91,4.91,0,0,1,3.42,1.14,4,4,0,0,1,1.26,3.1,3.72,3.72,0,0,1-.66,2.16,4.37,4.37,0,0,1-1.86,1.5l3.44,6h-3.1l-3-5.38h-2v5.38Zm2.88-7.46H452a1.87,1.87,0,0,0,2.1-2.12,1.83,1.83,0,0,0-2.06-2.08h-2.12Z" transform="translate(-86 -368)"/>
      <path class="cls-12" d="M465,778.8V764.94h5a4.9,4.9,0,0,1,3.23,1,3.3,3.3,0,0,1,1.23,2.66,3.2,3.2,0,0,1-.47,1.75,3,3,0,0,1-1.39,1.13,3.71,3.71,0,0,1,1.95,1.25,3.37,3.37,0,0,1,.67,2.13,3.47,3.47,0,0,1-1.34,2.86,5.61,5.61,0,0,1-3.6,1.06Zm2.84-11.72v3.64h1.74c1.29,0,1.94-.6,1.94-1.8s-.59-1.84-1.78-1.84Zm0,5.68v3.9h2.36q2,0,2-1.92c0-1.32-.73-2-2.18-2Z" transform="translate(-86 -368)"/>
    </g>
    <g>
      <path class="cls-12" d="M410,448.8V434.94h9.12v2.32H413v3.28h5v2.32h-5v3.62h6.12v2.32Z" transform="translate(-86 -368)"/>
      <path class="cls-12" d="M425,448.8l-4.92-13.86h3.32l3.24,10.92,3.22-10.92h3.24l-4.92,13.86Z" transform="translate(-86 -368)"/>
      <path class="cls-12" d="M434.83,448.8V434.94H444v2.32h-6.12v3.28h5v2.32h-5v3.62H444v2.32Z" transform="translate(-86 -368)"/>
      <path class="cls-12" d="M449,439.18v9.62h-2.64V434.94h3.2l5.64,9.7v-9.7h2.64V448.8h-3.2Z" transform="translate(-86 -368)"/>
      <path class="cls-12" d="M463.93,448.8V437.34h-4.22v-2.4h11.44v2.4h-4.22V448.8Z" transform="translate(-86 -368)"/>
      <path class="cls-12" d="M475.69,442.74a5.91,5.91,0,0,1-2.56-1.61,4,4,0,0,1,.61-5.41,5.76,5.76,0,0,1,3.73-1.12,10.63,10.63,0,0,1,3.84.72v2.28a12.2,12.2,0,0,0-3.6-.6c-1.57,0-2.36.51-2.36,1.52a1.19,1.19,0,0,0,.41.92,5.05,5.05,0,0,0,1.53.76l1.48.54a6.33,6.33,0,0,1,2.65,1.59,3.48,3.48,0,0,1,.79,2.37,3.94,3.94,0,0,1-1.48,3.25,6.33,6.33,0,0,1-4.06,1.19,12.13,12.13,0,0,1-2.24-.21,8.43,8.43,0,0,1-1.92-.57v-2.28a16.41,16.41,0,0,0,2.14.48,13.36,13.36,0,0,0,2.06.18,3.22,3.22,0,0,0,1.82-.43,1.39,1.39,0,0,0,.64-1.23,1.27,1.27,0,0,0-.39-1,5.08,5.08,0,0,0-1.57-.8Z" transform="translate(-86 -368)"/>
      <path class="cls-12" d="M405.42,470.44a10.14,10.14,0,0,1-3.62.62,6.77,6.77,0,0,1-5.12-1.81,8.89,8.89,0,0,1,.08-10.67,6.74,6.74,0,0,1,5.12-1.9,10,10,0,0,1,3.34.56v2.36a14.25,14.25,0,0,0-3-.4,4.08,4.08,0,0,0-3.11,1.1,4.74,4.74,0,0,0-1,3.36v.46a4.79,4.79,0,0,0,1,3.33,4,4,0,0,0,3.06,1.09,16.16,16.16,0,0,0,3.26-.46Z" transform="translate(-86 -368)"/>
      <path class="cls-12" d="M407.64,470.8V456.94h9.12v2.32h-6.12v3.28h5v2.32h-5v3.62h6.12v2.32Z" transform="translate(-86 -368)"/>
      <path class="cls-12" d="M421.84,461.18v9.62H419.2V456.94h3.2l5.64,9.7v-9.7h2.64V470.8h-3.2Z" transform="translate(-86 -368)"/>
      <path class="cls-12" d="M436.74,470.8V459.34h-4.22v-2.4H444v2.4h-4.22V470.8Z" transform="translate(-86 -368)"/>
      <path class="cls-12" d="M445.8,470.8V456.94h9.12v2.32H448.8v3.28h5v2.32h-5v3.62h6.12v2.32Z" transform="translate(-86 -368)"/>
      <path class="cls-12" d="M457.36,470.8V456.94h5.34a4.91,4.91,0,0,1,3.42,1.14,4,4,0,0,1,1.26,3.1,3.72,3.72,0,0,1-.66,2.16,4.37,4.37,0,0,1-1.86,1.5l3.44,6h-3.1l-3-5.38h-2v5.38Zm2.88-7.46h2.08a1.87,1.87,0,0,0,2.1-2.12,1.83,1.83,0,0,0-2.06-2.08h-2.12Z" transform="translate(-86 -368)"/>
      <path class="cls-12" d="M485.42,470.44a10.14,10.14,0,0,1-3.62.62,6.77,6.77,0,0,1-5.12-1.81,8.89,8.89,0,0,1,.08-10.67,6.74,6.74,0,0,1,5.12-1.9,10,10,0,0,1,3.34.56v2.36a14.25,14.25,0,0,0-3-.4,4.08,4.08,0,0,0-3.11,1.1,4.74,4.74,0,0,0-1,3.36v.46a4.79,4.79,0,0,0,1,3.33,4,4,0,0,0,3.06,1.09,16.16,16.16,0,0,0,3.26-.46Z" transform="translate(-86 -368)"/>
      <path class="cls-12" d="M492.36,462.72a4.61,4.61,0,0,1,3,1.14,3.61,3.61,0,0,1,1.1,2.74,4.14,4.14,0,0,1-2.54,3.93,6.88,6.88,0,0,1-2.9.57,9.41,9.41,0,0,1-3.78-.82V468a11.89,11.89,0,0,0,3.68.76,3,3,0,0,0,1.95-.55,2,2,0,0,0,.67-1.61,1.61,1.61,0,0,0-.62-1.39,3.3,3.3,0,0,0-1.92-.45l-.89.05-1,.09v-1.84l3.58-3.86h-5.3v-2.28h8.44v2.2Z" transform="translate(-86 -368)"/>
    </g>
    <g>
      <path class="cls-12" d="M482.51,536.8V522.94h9.12v2.32h-6.12v3.28h5v2.32h-5v3.62h6.12v2.32Z" transform="translate(-86 -368)"/>
      <path class="cls-12" d="M497.51,536.8l-4.92-13.86h3.32l3.24,10.92,3.22-10.92h3.24l-4.92,13.86Z" transform="translate(-86 -368)"/>
      <path class="cls-12" d="M507.33,536.8V522.94h9.12v2.32h-6.12v3.28h5v2.32h-5v3.62h6.12v2.32Z" transform="translate(-86 -368)"/>
      <path class="cls-12" d="M521.53,527.18v9.62h-2.64V522.94h3.2l5.64,9.7v-9.7h2.64V536.8h-3.2Z" transform="translate(-86 -368)"/>
      <path class="cls-12" d="M536.43,536.8V525.34h-4.22v-2.4h11.44v2.4h-4.22V536.8Z" transform="translate(-86 -368)"/>
      <path class="cls-12" d="M548.19,530.74a5.91,5.91,0,0,1-2.56-1.61,4,4,0,0,1,.61-5.41A5.76,5.76,0,0,1,550,522.6a10.63,10.63,0,0,1,3.84.72v2.28a12.2,12.2,0,0,0-3.6-.6c-1.57,0-2.36.51-2.36,1.52a1.19,1.19,0,0,0,.41.92,5.05,5.05,0,0,0,1.53.76l1.48.54a6.33,6.33,0,0,1,2.65,1.59,3.48,3.48,0,0,1,.79,2.37,3.94,3.94,0,0,1-1.48,3.25,6.33,6.33,0,0,1-4.06,1.19,12.13,12.13,0,0,1-2.24-.21,8.43,8.43,0,0,1-1.92-.57v-2.28a16.41,16.41,0,0,0,2.14.48,13.36,13.36,0,0,0,2.06.18,3.22,3.22,0,0,0,1.82-.43,1.39,1.39,0,0,0,.64-1.23,1.27,1.27,0,0,0-.39-1,5.08,5.08,0,0,0-1.57-.8Z" transform="translate(-86 -368)"/>
      <path class="cls-12" d="M477.92,558.44a10.14,10.14,0,0,1-3.62.62,6.77,6.77,0,0,1-5.12-1.81,8.89,8.89,0,0,1,.08-10.67,6.74,6.74,0,0,1,5.12-1.9,10,10,0,0,1,3.34.56v2.36a14.25,14.25,0,0,0-3-.4,4.08,4.08,0,0,0-3.11,1.1,4.74,4.74,0,0,0-1,3.36v.46a4.79,4.79,0,0,0,1,3.33,4,4,0,0,0,3.06,1.09,16.16,16.16,0,0,0,3.26-.46Z" transform="translate(-86 -368)"/>
      <path class="cls-12" d="M480.14,558.8V544.94h9.12v2.32h-6.12v3.28h5v2.32h-5v3.62h6.12v2.32Z" transform="translate(-86 -368)"/>
      <path class="cls-12" d="M494.34,549.18v9.62H491.7V544.94h3.2l5.64,9.7v-9.7h2.64V558.8H500Z" transform="translate(-86 -368)"/>
      <path class="cls-12" d="M509.24,558.8V547.34H505v-2.4h11.44v2.4h-4.22V558.8Z" transform="translate(-86 -368)"/>
      <path class="cls-12" d="M518.3,558.8V544.94h9.12v2.32H521.3v3.28h5v2.32h-5v3.62h6.12v2.32Z" transform="translate(-86 -368)"/>
      <path class="cls-12" d="M529.86,558.8V544.94h5.34a4.91,4.91,0,0,1,3.42,1.14,4,4,0,0,1,1.26,3.1,3.72,3.72,0,0,1-.66,2.16,4.37,4.37,0,0,1-1.86,1.5l3.44,6h-3.1l-3-5.38h-2v5.38Zm2.88-7.46h2.08a1.87,1.87,0,0,0,2.1-2.12,1.83,1.83,0,0,0-2.06-2.08h-2.12Z" transform="translate(-86 -368)"/>
      <path class="cls-12" d="M557.92,558.44a10.14,10.14,0,0,1-3.62.62,6.77,6.77,0,0,1-5.12-1.81,8.89,8.89,0,0,1,.08-10.67,6.74,6.74,0,0,1,5.12-1.9,10,10,0,0,1,3.34.56v2.36a14.25,14.25,0,0,0-3-.4,4.08,4.08,0,0,0-3.11,1.1,4.74,4.74,0,0,0-1,3.36v.46a4.79,4.79,0,0,0,1,3.33,4,4,0,0,0,3.06,1.09,16.16,16.16,0,0,0,3.26-.46Z" transform="translate(-86 -368)"/>
      <path class="cls-12" d="M560,546.2a8.13,8.13,0,0,1,2.19-1.23,7.1,7.1,0,0,1,2.37-.37,4.31,4.31,0,0,1,3.05,1.06,3.62,3.62,0,0,1,1.15,2.8,4.8,4.8,0,0,1-.58,2.16,12.85,12.85,0,0,1-1.84,2.53,47.08,47.08,0,0,1-3.38,3.33h6.36v2.32h-9.68v-2.16c1.71-1.72,3-3.06,3.83-4a15.62,15.62,0,0,0,1.76-2.33,3.36,3.36,0,0,0,.49-1.62,1.57,1.57,0,0,0-.46-1.19A1.73,1.73,0,0,0,564,547a5.28,5.28,0,0,0-1.92.4,10.37,10.37,0,0,0-2.1,1.14Z" transform="translate(-86 -368)"/>
    </g>
    <g>
      <path class="cls-12" d="M580.51,630.8V616.94h9.12v2.32h-6.12v3.28h5v2.32h-5v3.62h6.12v2.32Z" transform="translate(-86 -368)"/>
      <path class="cls-12" d="M595.51,630.8l-4.92-13.86h3.32l3.24,10.92,3.22-10.92h3.24l-4.92,13.86Z" transform="translate(-86 -368)"/>
      <path class="cls-12" d="M605.33,630.8V616.94h9.12v2.32h-6.12v3.28h5v2.32h-5v3.62h6.12v2.32Z" transform="translate(-86 -368)"/>
      <path class="cls-12" d="M619.53,621.18v9.62h-2.64V616.94h3.2l5.64,9.7v-9.7h2.64V630.8h-3.2Z" transform="translate(-86 -368)"/>
      <path class="cls-12" d="M634.43,630.8V619.34h-4.22v-2.4h11.44v2.4h-4.22V630.8Z" transform="translate(-86 -368)"/>
      <path class="cls-12" d="M646.19,624.74a5.91,5.91,0,0,1-2.56-1.61,4,4,0,0,1,.61-5.41A5.76,5.76,0,0,1,648,616.6a10.63,10.63,0,0,1,3.84.72v2.28a12.2,12.2,0,0,0-3.6-.6c-1.57,0-2.36.51-2.36,1.52a1.19,1.19,0,0,0,.41.92,5.05,5.05,0,0,0,1.53.76l1.48.54a6.33,6.33,0,0,1,2.65,1.59,3.48,3.48,0,0,1,.79,2.37,3.94,3.94,0,0,1-1.48,3.25,6.33,6.33,0,0,1-4.06,1.19,12.13,12.13,0,0,1-2.24-.21,8.43,8.43,0,0,1-1.92-.57v-2.28a16.41,16.41,0,0,0,2.14.48,13.36,13.36,0,0,0,2.06.18,3.22,3.22,0,0,0,1.82-.43,1.39,1.39,0,0,0,.64-1.23,1.27,1.27,0,0,0-.39-1,5.08,5.08,0,0,0-1.57-.8Z" transform="translate(-86 -368)"/>
      <path class="cls-12" d="M575.92,652.44a10.14,10.14,0,0,1-3.62.62,6.77,6.77,0,0,1-5.12-1.81,8.89,8.89,0,0,1,.08-10.67,6.74,6.74,0,0,1,5.12-1.9,10,10,0,0,1,3.34.56v2.36a14.25,14.25,0,0,0-3-.4,4.08,4.08,0,0,0-3.11,1.1,4.74,4.74,0,0,0-1,3.36v.46a4.79,4.79,0,0,0,1,3.33,4,4,0,0,0,3.06,1.09,16.16,16.16,0,0,0,3.26-.46Z" transform="translate(-86 -368)"/>
      <path class="cls-12" d="M578.14,652.8V638.94h9.12v2.32h-6.12v3.28h5v2.32h-5v3.62h6.12v2.32Z" transform="translate(-86 -368)"/>
      <path class="cls-12" d="M592.34,643.18v9.62H589.7V638.94h3.2l5.64,9.7v-9.7h2.64V652.8H598Z" transform="translate(-86 -368)"/>
      <path class="cls-12" d="M607.24,652.8V641.34H603v-2.4h11.44v2.4h-4.22V652.8Z" transform="translate(-86 -368)"/>
      <path class="cls-12" d="M616.3,652.8V638.94h9.12v2.32H619.3v3.28h5v2.32h-5v3.62h6.12v2.32Z" transform="translate(-86 -368)"/>
      <path class="cls-12" d="M627.86,652.8V638.94h5.34a4.91,4.91,0,0,1,3.42,1.14,4,4,0,0,1,1.26,3.1,3.72,3.72,0,0,1-.66,2.16,4.37,4.37,0,0,1-1.86,1.5l3.44,6h-3.1l-3-5.38h-2v5.38Zm2.88-7.46h2.08a1.87,1.87,0,0,0,2.1-2.12,1.83,1.83,0,0,0-2.06-2.08h-2.12Z" transform="translate(-86 -368)"/>
      <path class="cls-12" d="M655.92,652.44a10.14,10.14,0,0,1-3.62.62,6.77,6.77,0,0,1-5.12-1.81,8.89,8.89,0,0,1,.08-10.67,6.74,6.74,0,0,1,5.12-1.9,10,10,0,0,1,3.34.56v2.36a14.25,14.25,0,0,0-3-.4,4.08,4.08,0,0,0-3.11,1.1,4.74,4.74,0,0,0-1,3.36v.46a4.79,4.79,0,0,0,1,3.33,4,4,0,0,0,3.06,1.09,16.16,16.16,0,0,0,3.26-.46Z" transform="translate(-86 -368)"/>
      <path class="cls-12" d="M662,652.8V641.86L658.4,643V640.7l3.9-1.76h2.62V652.8Z" transform="translate(-86 -368)"/>
    </g>
    <g>
      <path class="cls-12" d="M295.7,1112.44a10.14,10.14,0,0,1-3.62.62,6.77,6.77,0,0,1-5.12-1.81,8.89,8.89,0,0,1,.08-10.67,6.74,6.74,0,0,1,5.12-1.9,10,10,0,0,1,3.34.56v2.36a14.25,14.25,0,0,0-3-.4,4.08,4.08,0,0,0-3.11,1.1,4.74,4.74,0,0,0-1,3.36v.46a4.79,4.79,0,0,0,1,3.33,4,4,0,0,0,3.06,1.09,16.16,16.16,0,0,0,3.26-.46Z" transform="translate(-86 -368)"/>
      <path class="cls-12" d="M296.92,1105.86a8.69,8.69,0,0,1,.79-3.84,5.75,5.75,0,0,1,2.32-2.53,7.91,7.91,0,0,1,7.23,0,5.78,5.78,0,0,1,2.35,2.49,8.58,8.58,0,0,1,.83,3.91,8.69,8.69,0,0,1-.79,3.84,5.83,5.83,0,0,1-2.32,2.54,7.08,7.08,0,0,1-3.65.9,7.19,7.19,0,0,1-3.58-.86,5.8,5.8,0,0,1-2.35-2.5A8.62,8.62,0,0,1,296.92,1105.86Zm3.08,0a5.87,5.87,0,0,0,.94,3.6,3.65,3.65,0,0,0,5.48,0,7.34,7.34,0,0,0,0-7.19,3.67,3.67,0,0,0-5.48,0A5.82,5.82,0,0,0,300,1105.86Z" transform="translate(-86 -368)"/>
      <path class="cls-12" d="M315.88,1103.18v9.62h-2.64v-13.86h3.2l5.64,9.7v-9.7h2.64v13.86h-3.2Z" transform="translate(-86 -368)"/>
      <path class="cls-12" d="M330.78,1112.8v-11.46h-4.22v-2.4H338v2.4h-4.22v11.46Z" transform="translate(-86 -368)"/>
      <path class="cls-12" d="M339.84,1112.8v-13.86H349v2.32h-6.12v3.28h5v2.32h-5v3.62H349v2.32Z" transform="translate(-86 -368)"/>
      <path class="cls-12" d="M354,1103.18v9.62H351.4v-13.86h3.2l5.64,9.7v-9.7h2.64v13.86h-3.2Z" transform="translate(-86 -368)"/>
      <path class="cls-12" d="M368.94,1112.8v-11.46h-4.22v-2.4h11.44v2.4h-4.22v11.46Z" transform="translate(-86 -368)"/>
      <path class="cls-12" d="M391.76,1112.8v-5.9h-5.52v5.9h-3v-13.86h3v5.64h5.52v-5.64h3v13.86Z" transform="translate(-86 -368)"/>
      <path class="cls-12" d="M406.32,1098.94h3v8.78a5.28,5.28,0,0,1-1.49,4,7,7,0,0,1-8.46,0,5.29,5.29,0,0,1-1.49-4v-8.76h3v8.9a3,3,0,0,0,.7,2.13,3.16,3.16,0,0,0,4,0,3,3,0,0,0,.7-2.13Z" transform="translate(-86 -368)"/>
      <path class="cls-12" d="M412.44,1112.8v-13.86h5a4.9,4.9,0,0,1,3.23,1,3.3,3.3,0,0,1,1.23,2.66,3.2,3.2,0,0,1-.47,1.75,3,3,0,0,1-1.39,1.13,3.71,3.71,0,0,1,2,1.25,3.37,3.37,0,0,1,.67,2.13,3.47,3.47,0,0,1-1.34,2.86,5.61,5.61,0,0,1-3.6,1.06Zm2.84-11.72v3.64H417c1.29,0,1.94-.6,1.94-1.8s-.59-1.84-1.78-1.84Zm0,5.68v3.9h2.36q2,0,2-1.92c0-1.32-.73-2-2.18-2Z" transform="translate(-86 -368)"/>
    </g>
    <g>
      <path class="cls-12" d="M228.72,964.72V951.28L224.43,960h-3.75l-4.28-8.71v13.44h-3.7v-19.4h4.59l5.29,11,5.32-11h4.51v19.4Z" transform="translate(-86 -368)"/>
      <path class="cls-12" d="M236.89,964.72v-19.4h12.77v3.24h-8.57v4.6h7v3.24h-7v5.07h8.57v3.25Z" transform="translate(-86 -368)"/>
      <path class="cls-12" d="M264.72,964.72l-1.37-4.42h-6.63l-1.32,4.42H251l6.84-19.4h4.62l6.83,19.4Zm-7.11-7.45h4.87L260,949.15Z" transform="translate(-86 -368)"/>
      <path class="cls-12" d="M271.7,964.72v-19.4h4.2v16h8.51v3.36Z" transform="translate(-86 -368)"/>
      <path class="cls-12" d="M290.68,956.24A8.22,8.22,0,0,1,287.1,954a5.59,5.59,0,0,1,.85-7.57,8.06,8.06,0,0,1,5.22-1.57,15,15,0,0,1,5.38,1V949a17.13,17.13,0,0,0-5-.84c-2.21,0-3.31.71-3.31,2.13a1.67,1.67,0,0,0,.58,1.29,7,7,0,0,0,2.14,1.06l2.07.76a8.86,8.86,0,0,1,3.71,2.22,4.88,4.88,0,0,1,1.11,3.32,5.53,5.53,0,0,1-2.07,4.55,8.86,8.86,0,0,1-5.69,1.67,16.59,16.59,0,0,1-3.13-.3,11.3,11.3,0,0,1-2.69-.8v-3.19a21.52,21.52,0,0,0,3,.67,18.61,18.61,0,0,0,2.89.26,4.49,4.49,0,0,0,2.55-.61,2,2,0,0,0,.89-1.72,1.79,1.79,0,0,0-.54-1.37,7.29,7.29,0,0,0-2.2-1.12Z" transform="translate(-86 -368)"/>
    </g>
    <g>
      <path class="cls-12" d="M987.16,864a4.7,4.7,0,0,1-2-1.29,3.22,3.22,0,0,1,.49-4.33,4.64,4.64,0,0,1,3-.89,8.56,8.56,0,0,1,3.07.57v1.83a9.74,9.74,0,0,0-2.88-.48c-1.25,0-1.88.4-1.88,1.21a1,1,0,0,0,.32.74,4.29,4.29,0,0,0,1.23.61l1.18.43a5.13,5.13,0,0,1,2.12,1.27,2.81,2.81,0,0,1,.63,1.9,3.16,3.16,0,0,1-1.18,2.6,5.07,5.07,0,0,1-3.25.95,10,10,0,0,1-1.79-.17,6.89,6.89,0,0,1-1.54-.45V866.7a14,14,0,0,0,1.72.39,11.23,11.23,0,0,0,1.64.14,2.69,2.69,0,0,0,1.46-.34,1.12,1.12,0,0,0,.51-1,1,1,0,0,0-.31-.78,4.15,4.15,0,0,0-1.26-.64Z" transform="translate(-86 -368)"/>
      <path class="cls-12" d="M996.65,868.88v-9.17h-3.38v-1.92h9.15v1.92h-3.37v9.17Z" transform="translate(-86 -368)"/>
      <path class="cls-12" d="M1003.45,869.09a1.44,1.44,0,1,1,0-2.88,1.44,1.44,0,0,1,1,.39,1.45,1.45,0,0,1-1,2.49Z" transform="translate(-86 -368)"/>
      <path class="cls-12" d="M1013.48,868.88v-9.17h-3.38v-1.92h9.15v1.92h-3.37v9.17Z" transform="translate(-86 -368)"/>
      <path class="cls-12" d="M1027.54,868.88v-4.72h-4.41v4.72h-2.4V857.79h2.4v4.51h4.41v-4.51h2.4v11.09Z" transform="translate(-86 -368)"/>
      <path class="cls-12" d="M1032.18,863.33a7.06,7.06,0,0,1,.63-3.08,4.55,4.55,0,0,1,1.86-2,5.77,5.77,0,0,1,2.92-.71,5.69,5.69,0,0,1,2.86.69,4.59,4.59,0,0,1,1.88,2,6.73,6.73,0,0,1,.67,3.13,7,7,0,0,1-.63,3.07,4.69,4.69,0,0,1-1.86,2,6.28,6.28,0,0,1-5.78,0,4.61,4.61,0,0,1-1.88-2A6.76,6.76,0,0,1,1032.18,863.33Zm2.47,0a4.75,4.75,0,0,0,.75,2.88,2.92,2.92,0,0,0,4.38,0,5.9,5.9,0,0,0,0-5.76,2.94,2.94,0,0,0-4.38,0A4.71,4.71,0,0,0,1034.65,863.33Z" transform="translate(-86 -368)"/>
      <path class="cls-12" d="M1054.39,868.88V861.2l-2.45,5h-2.14l-2.45-5v7.68h-2.11V857.79h2.62l3,6.3,3-6.3h2.57v11.09Z" transform="translate(-86 -368)"/>
      <path class="cls-12" d="M1065.72,868.88l-.79-2.53h-3.79l-.75,2.53h-2.51l3.9-11.09h2.64l3.91,11.09Zm-4.07-4.26h2.79L1063,860Z" transform="translate(-86 -368)"/>
      <path class="cls-12" d="M1071.86,864a4.7,4.7,0,0,1-2-1.29,3,3,0,0,1-.62-1.93,2.93,2.93,0,0,1,1.11-2.4,4.67,4.67,0,0,1,3-.89,8.64,8.64,0,0,1,3.07.57v1.83a9.85,9.85,0,0,0-2.88-.48c-1.26,0-1.89.4-1.89,1.21a.94.94,0,0,0,.33.74,4.2,4.2,0,0,0,1.22.61l1.19.43a5.2,5.2,0,0,1,2.12,1.27,2.81,2.81,0,0,1,.63,1.9,3.16,3.16,0,0,1-1.19,2.6,5.06,5.06,0,0,1-3.24.95,10,10,0,0,1-1.8-.17,6.79,6.79,0,0,1-1.53-.45V866.7a13.45,13.45,0,0,0,1.71.39,11.47,11.47,0,0,0,1.65.14,2.65,2.65,0,0,0,1.45-.34,1.13,1.13,0,0,0,.52-1,1,1,0,0,0-.32-.78,3.94,3.94,0,0,0-1.25-.64Z" transform="translate(-86 -368)"/>
      <path class="cls-12" d="M1027,887.88V876.79h4a3.93,3.93,0,0,1,2.58.81,2.65,2.65,0,0,1,1,2.13,2.53,2.53,0,0,1-.38,1.4,2.47,2.47,0,0,1-1.11.91,2.93,2.93,0,0,1,1.56,1,2.67,2.67,0,0,1,.53,1.7,2.76,2.76,0,0,1-1.07,2.29,4.47,4.47,0,0,1-2.88.85Zm2.28-9.38v2.91h1.39c1,0,1.55-.48,1.55-1.44s-.47-1.47-1.42-1.47Zm0,4.55v3.12h1.88c1.09,0,1.64-.52,1.64-1.54s-.58-1.58-1.75-1.58Z" transform="translate(-86 -368)"/>
    </g>
    <g>
      <path class="cls-12" d="M1113.37,1231a4.7,4.7,0,0,1-2-1.29,3,3,0,0,1-.62-1.92,2.91,2.91,0,0,1,1.11-2.4,4.6,4.6,0,0,1,3-.9,8.45,8.45,0,0,1,3.08.58v1.82a9.85,9.85,0,0,0-2.88-.48c-1.26,0-1.89.41-1.89,1.22a.92.92,0,0,0,.33.73,4,4,0,0,0,1.22.61l1.18.43a5.07,5.07,0,0,1,2.12,1.27,2.77,2.77,0,0,1,.64,1.9,3.15,3.15,0,0,1-1.19,2.6,5.07,5.07,0,0,1-3.25.95,9.11,9.11,0,0,1-1.79-.17,6.79,6.79,0,0,1-1.53-.45v-1.83a13.45,13.45,0,0,0,1.71.39,11.47,11.47,0,0,0,1.65.14,2.57,2.57,0,0,0,1.45-.34,1.12,1.12,0,0,0,.51-1,1,1,0,0,0-.31-.78,4.07,4.07,0,0,0-1.25-.64Z" transform="translate(-86 -368)"/>
      <path class="cls-12" d="M1122.86,1235.84v-9.17h-3.38v-1.92h9.15v1.92h-3.37v9.17Z" transform="translate(-86 -368)"/>
      <path class="cls-12" d="M1129.66,1236.05a1.37,1.37,0,0,1-1.44-1.44,1.37,1.37,0,0,1,1.44-1.44,1.37,1.37,0,0,1,1.44,1.44,1.37,1.37,0,0,1-1.44,1.44Z" transform="translate(-86 -368)"/>
      <path class="cls-12" d="M1145.47,1235.55a8.09,8.09,0,0,1-2.9.5,5.42,5.42,0,0,1-4.1-1.45,7.11,7.11,0,0,1,.07-8.54,5.4,5.4,0,0,1,4.09-1.52,8,8,0,0,1,2.68.45v1.89a11.85,11.85,0,0,0-2.39-.32,3.24,3.24,0,0,0-2.49.88,3.82,3.82,0,0,0-.82,2.69v.37a3.84,3.84,0,0,0,.8,2.66,3.17,3.17,0,0,0,2.45.87,12.8,12.8,0,0,0,2.61-.37Z" transform="translate(-86 -368)"/>
      <path class="cls-12" d="M1147.24,1235.84v-11.09h4.27a4,4,0,0,1,2.74.91,3.2,3.2,0,0,1,1,2.48,3,3,0,0,1-.53,1.73,3.52,3.52,0,0,1-1.49,1.2l2.75,4.77h-2.48l-2.4-4.3h-1.56v4.3Zm2.31-6h1.66a1.49,1.49,0,0,0,1.68-1.69,1.47,1.47,0,0,0-1.65-1.67h-1.69Z" transform="translate(-86 -368)"/>
      <path class="cls-12" d="M1156.79,1230.29a6.84,6.84,0,0,1,.64-3.07,4.61,4.61,0,0,1,1.85-2,6.34,6.34,0,0,1,5.79,0,4.7,4.7,0,0,1,1.88,2,6.86,6.86,0,0,1,.66,3.13,7,7,0,0,1-.63,3.07,4.63,4.63,0,0,1-1.86,2,6.28,6.28,0,0,1-5.78,0,4.56,4.56,0,0,1-1.88-2A6.88,6.88,0,0,1,1156.79,1230.29Zm2.47,0a4.71,4.71,0,0,0,.75,2.88,2.92,2.92,0,0,0,4.38,0,4.64,4.64,0,0,0,.76-2.88,4.59,4.59,0,0,0-.76-2.87,2.92,2.92,0,0,0-4.38,0A4.66,4.66,0,0,0,1159.26,1230.29Z" transform="translate(-86 -368)"/>
      <path class="cls-12" d="M1169.91,1235.84v-11.09h2.4v11.09Z" transform="translate(-86 -368)"/>
      <path class="cls-12" d="M1181,1235.84l-2.32-4.1-2.29,4.1h-2.64l3.6-5.76-3.33-5.33h2.71l2,3.6,2-3.6h2.64l-3.37,5.3,3.64,5.79Z" transform="translate(-86 -368)"/>
      <path class="cls-12" d="M1195.87,1235.84l-.79-2.53h-3.79l-.75,2.53H1188l3.9-11.09h2.64l3.9,11.09Zm-4.07-4.26h2.78l-1.4-4.64Z" transform="translate(-86 -368)"/>
    </g>
    <g>
      <path class="cls-12" d="M1346.62,1591.84v-11.09h4a3.86,3.86,0,0,1,2.58.82,2.62,2.62,0,0,1,1,2.13,2.55,2.55,0,0,1-.38,1.4,2.39,2.39,0,0,1-1.11.9,3,3,0,0,1,1.56,1,2.68,2.68,0,0,1,.54,1.7,2.75,2.75,0,0,1-1.08,2.29,4.47,4.47,0,0,1-2.88.85Zm2.27-9.38v2.92h1.39c1,0,1.55-.48,1.55-1.44s-.47-1.48-1.42-1.48Zm0,4.55v3.12h1.89c1.08,0,1.63-.51,1.63-1.54s-.58-1.58-1.75-1.58Z" transform="translate(-86 -368)"/>
      <path class="cls-12" d="M1356.73,1591.84v-11.09H1364v1.86h-4.89v2.62h4v1.86h-4V1590H1364v1.86Z" transform="translate(-86 -368)"/>
      <path class="cls-12" d="M1366,1591.84v-11.09h4.27a4,4,0,0,1,2.73.91,3.16,3.16,0,0,1,1,2.48,2.93,2.93,0,0,1-.53,1.73,3.49,3.49,0,0,1-1.48,1.2l2.75,4.77h-2.48l-2.4-4.3h-1.57v4.3Zm2.3-6h1.66a1.49,1.49,0,0,0,1.68-1.69,1.47,1.47,0,0,0-1.64-1.67h-1.7Z" transform="translate(-86 -368)"/>
      <path class="cls-12" d="M1385.32,1591.84v-7.68l-2.45,5h-2.14l-2.45-5v7.68h-2.11v-11.09h2.62l3,6.31,3-6.31h2.57v11.09Z" transform="translate(-86 -368)"/>
      <path class="cls-12" d="M1396.68,1580.75h2.4v7a4.24,4.24,0,0,1-1.19,3.2,4.75,4.75,0,0,1-3.39,1.13,4.68,4.68,0,0,1-3.38-1.13,4.23,4.23,0,0,1-1.19-3.22v-7h2.4v7.12a2.35,2.35,0,0,0,.56,1.71,2.54,2.54,0,0,0,3.23,0,2.4,2.4,0,0,0,.56-1.71Z" transform="translate(-86 -368)"/>
      <path class="cls-12" d="M1401.58,1591.84v-11.09h4a5,5,0,0,1,3.82,1.43,7,7,0,0,1,0,8.21,4.86,4.86,0,0,1-3.77,1.45Zm2.4-9.23V1590h1.37c1.93,0,2.9-1.17,2.9-3.53v-.32q0-3.53-2.91-3.52Z" transform="translate(-86 -368)"/>
      <path class="cls-12" d="M1419.13,1591.84l-.79-2.53h-3.79l-.75,2.53h-2.51l3.9-11.09h2.64l3.91,11.09Zm-4.07-4.26h2.79l-1.41-4.64Z" transform="translate(-86 -368)"/>
      <path class="cls-12" d="M1434,1591.84l-.78-2.53h-3.8l-.75,2.53h-2.51l3.9-11.09h2.64l3.91,11.09Zm-4.06-4.26h2.78l-1.41-4.64Z" transform="translate(-86 -368)"/>
    </g>
    <g>
      <path class="cls-12" d="M1101.47,829.84l-.78-2.53h-3.79l-.76,2.53h-2.51l3.91-11.09h2.64l3.9,11.09Zm-4.06-4.26h2.78l-1.41-4.64Z" transform="translate(-86 -368)"/>
      <path class="cls-12" d="M1107.57,822.14v7.7h-2.11V818.75H1108l4.51,7.76v-7.76h2.11v11.09h-2.56Z" transform="translate(-86 -368)"/>
      <path class="cls-12" d="M1119.49,829.84v-9.17h-3.38v-1.92h9.15v1.92h-3.37v9.17Z" transform="translate(-86 -368)"/>
      <path class="cls-12" d="M1126.8,829.84V818.75h2.4v11.09Z" transform="translate(-86 -368)"/>
      <path class="cls-12" d="M1137.41,828.13a11.27,11.27,0,0,0,1.18-.08v-2.71h-2.08v-1.72h4.29v5.55a7.21,7.21,0,0,1-1.79.62,10,10,0,0,1-2.11.23,5.31,5.31,0,0,1-4-1.46,5.75,5.75,0,0,1-1.4-4.14,6,6,0,0,1,1.45-4.35,5.58,5.58,0,0,1,4.2-1.49,7.39,7.39,0,0,1,3.25.65v1.83a9.79,9.79,0,0,0-3-.53,3.38,3.38,0,0,0-2.61.89,4,4,0,0,0-.83,2.79v.29a3.94,3.94,0,0,0,.82,2.76A3.46,3.46,0,0,0,1137.41,828.13Z" transform="translate(-86 -368)"/>
      <path class="cls-12" d="M1149.86,818.75h2.4v7a4.21,4.21,0,0,1-1.2,3.2,5.62,5.62,0,0,1-6.76,0,4.19,4.19,0,0,1-1.2-3.22v-7h2.4v7.12a2.4,2.4,0,0,0,.56,1.71,2.55,2.55,0,0,0,3.24,0,2.4,2.4,0,0,0,.56-1.71Z" transform="translate(-86 -368)"/>
      <path class="cls-12" d="M1160.93,829.84l-.79-2.53h-3.79l-.75,2.53h-2.51l3.9-11.09h2.64l3.91,11.09Zm-4.07-4.26h2.79l-1.41-4.64Z" transform="translate(-86 -368)"/>
      <path class="cls-12" d="M1175.76,829.84l-.78-2.53h-3.8l-.75,2.53h-2.51l3.9-11.09h2.64l3.91,11.09Zm-4.06-4.26h2.78l-1.41-4.64Z" transform="translate(-86 -368)"/>
    </g>
    <g>
      <path class="cls-12" d="M1155,858.78l-.79-2.53h-3.79l-.75,2.53h-2.51l3.9-11.08h2.64l3.9,11.08Zm-4.07-4.25h2.79l-1.41-4.64Z" transform="translate(-86 -368)"/>
      <path class="cls-12" d="M1161.08,851.09v7.69H1159V847.7h2.56l4.51,7.76V847.7h2.11v11.08h-2.56Z" transform="translate(-86 -368)"/>
      <path class="cls-12" d="M1173,858.78v-9.16h-3.37V847.7h9.15v1.92h-3.38v9.16Z" transform="translate(-86 -368)"/>
      <path class="cls-12" d="M1180.31,858.78V847.7h2.4v11.08Z" transform="translate(-86 -368)"/>
      <path class="cls-12" d="M1190.92,857.07a11.45,11.45,0,0,0,1.19-.08v-2.7H1190v-1.73h4.28v5.55a6.69,6.69,0,0,1-1.79.63,10.56,10.56,0,0,1-2.11.22,5.27,5.27,0,0,1-4-1.46,5.7,5.7,0,0,1-1.4-4.14,6,6,0,0,1,1.45-4.34,5.56,5.56,0,0,1,4.2-1.5,7.46,7.46,0,0,1,3.24.65V850a10,10,0,0,0-3-.53,3.45,3.45,0,0,0-2.61.89,4,4,0,0,0-.83,2.79v.29a3.91,3.91,0,0,0,.83,2.76A3.45,3.45,0,0,0,1190.92,857.07Z" transform="translate(-86 -368)"/>
      <path class="cls-12" d="M1203.37,847.7h2.4v7a4.24,4.24,0,0,1-1.19,3.2,5.62,5.62,0,0,1-6.77,0,4.26,4.26,0,0,1-1.19-3.23v-7h2.4v7.12a2.39,2.39,0,0,0,.56,1.7,2.54,2.54,0,0,0,3.23,0,2.39,2.39,0,0,0,.56-1.7Z" transform="translate(-86 -368)"/>
      <path class="cls-12" d="M1214.44,858.78l-.78-2.53h-3.79l-.76,2.53h-2.51l3.91-11.08h2.64l3.9,11.08Zm-4.06-4.25h2.78l-1.41-4.64Z" transform="translate(-86 -368)"/>
      <path class="cls-12" d="M1222.62,858.78V847.7h4a4,4,0,0,1,2.59.81,2.65,2.65,0,0,1,1,2.13,2.55,2.55,0,0,1-.38,1.4,2.39,2.39,0,0,1-1.11.9,3.05,3.05,0,0,1,1.56,1,2.73,2.73,0,0,1,.54,1.71,2.79,2.79,0,0,1-1.07,2.29,4.57,4.57,0,0,1-2.88.84Zm2.27-9.37v2.91h1.39c1,0,1.55-.48,1.55-1.44s-.47-1.47-1.42-1.47Zm0,4.54v3.12h1.89c1.09,0,1.63-.51,1.63-1.53s-.58-1.59-1.74-1.59Z" transform="translate(-86 -368)"/>
    </g>
    <g>
      <path class="cls-12" d="M1432.53,800.66a12.35,12.35,0,0,0,1.48-.1v-3.38h-2.6V795h5.36V802a8.89,8.89,0,0,1-2.24.78,12.33,12.33,0,0,1-2.64.28,6.62,6.62,0,0,1-5-1.82,7.16,7.16,0,0,1-1.75-5.18,7.5,7.5,0,0,1,1.81-5.43,7,7,0,0,1,5.25-1.87,9.22,9.22,0,0,1,4.06.82v2.28a12.51,12.51,0,0,0-3.74-.66,4.27,4.27,0,0,0-3.26,1.11,5,5,0,0,0-1,3.49v.36a4.89,4.89,0,0,0,1,3.45A4.32,4.32,0,0,0,1432.53,800.66Z" transform="translate(-86 -368)"/>
      <path class="cls-12" d="M1439.73,802.8V788.94h5.34a4.91,4.91,0,0,1,3.42,1.14,4,4,0,0,1,1.26,3.1,3.72,3.72,0,0,1-.66,2.16,4.37,4.37,0,0,1-1.86,1.5l3.44,6h-3.1l-3-5.38h-2v5.38Zm2.88-7.46h2.08a1.87,1.87,0,0,0,2.1-2.12,1.83,1.83,0,0,0-2.06-2.08h-2.12Z" transform="translate(-86 -368)"/>
      <path class="cls-12" d="M1461.39,802.8l-1-3.16h-4.74l-.94,3.16h-3.14l4.88-13.86h3.3l4.88,13.86Zm-5.08-5.32h3.48l-1.76-5.8Z" transform="translate(-86 -368)"/>
      <path class="cls-12" d="M1469,793.18v9.62h-2.64V788.94h3.2l5.64,9.7v-9.7h2.64V802.8h-3.2Z" transform="translate(-86 -368)"/>
      <path class="cls-12" d="M1481.05,802.8V788.94h5a6.24,6.24,0,0,1,4.77,1.79,8.71,8.71,0,0,1,0,10.26,6.1,6.1,0,0,1-4.71,1.81Zm3-11.54v9.22h1.72q3.62,0,3.62-4.42v-.4c0-2.93-1.22-4.4-3.64-4.4Z" transform="translate(-86 -368)"/>
      <path class="cls-12" d="M1396.91,824.8V810.94h5a4.9,4.9,0,0,1,3.23,1,3.3,3.3,0,0,1,1.23,2.66,3.2,3.2,0,0,1-.47,1.75,3,3,0,0,1-1.39,1.13,3.71,3.71,0,0,1,2,1.25,3.37,3.37,0,0,1,.67,2.13,3.47,3.47,0,0,1-1.34,2.86,5.61,5.61,0,0,1-3.6,1.06Zm2.84-11.72v3.64h1.74c1.29,0,1.94-.6,1.94-1.8s-.59-1.84-1.78-1.84Zm0,5.68v3.9h2.36q2,0,2-1.92c0-1.32-.73-2-2.18-2Z" transform="translate(-86 -368)"/>
      <path class="cls-12" d="M1417.87,824.8l-1-3.16h-4.74l-.94,3.16h-3.14l4.88-13.86h3.3l4.88,13.86Zm-5.08-5.32h3.48l-1.76-5.8Z" transform="translate(-86 -368)"/>
      <path class="cls-12" d="M1422.85,824.8V810.94h3V822.4h6.08v2.4Z" transform="translate(-86 -368)"/>
      <path class="cls-12" d="M1433.71,824.8V810.94h3V822.4h6.08v2.4Z" transform="translate(-86 -368)"/>
      <path class="cls-12" d="M1444.57,824.8V810.94h5.34a4.91,4.91,0,0,1,3.42,1.14,4,4,0,0,1,1.26,3.1,3.72,3.72,0,0,1-.66,2.16,4.37,4.37,0,0,1-1.86,1.5l3.44,6h-3.1l-3-5.38h-2v5.38Zm2.88-7.46h2.08a1.87,1.87,0,0,0,2.1-2.12,1.83,1.83,0,0,0-2.06-2.08h-2.12Z" transform="translate(-86 -368)"/>
      <path class="cls-12" d="M1456.51,817.86a8.69,8.69,0,0,1,.79-3.84,5.69,5.69,0,0,1,2.32-2.53,7.91,7.91,0,0,1,7.23,0,5.84,5.84,0,0,1,2.35,2.49,8.58,8.58,0,0,1,.83,3.91,8.83,8.83,0,0,1-.79,3.84,5.83,5.83,0,0,1-2.32,2.54,7.08,7.08,0,0,1-3.65.9,7.16,7.16,0,0,1-3.58-.86,5.75,5.75,0,0,1-2.35-2.5A8.5,8.5,0,0,1,1456.51,817.86Zm3.08,0a5.87,5.87,0,0,0,.94,3.6,3.65,3.65,0,0,0,5.48,0,7.34,7.34,0,0,0,0-7.19,3.67,3.67,0,0,0-5.48,0A5.82,5.82,0,0,0,1459.59,817.86Z" transform="translate(-86 -368)"/>
      <path class="cls-12" d="M1472.43,817.86a8.69,8.69,0,0,1,.79-3.84,5.69,5.69,0,0,1,2.32-2.53,7.91,7.91,0,0,1,7.23,0,5.84,5.84,0,0,1,2.35,2.49,8.58,8.58,0,0,1,.83,3.91,8.83,8.83,0,0,1-.79,3.84,5.83,5.83,0,0,1-2.32,2.54,7.08,7.08,0,0,1-3.65.9,7.16,7.16,0,0,1-3.58-.86,5.75,5.75,0,0,1-2.35-2.5A8.5,8.5,0,0,1,1472.43,817.86Zm3.08,0a5.87,5.87,0,0,0,.94,3.6,3.65,3.65,0,0,0,5.48,0,7.34,7.34,0,0,0,0-7.19,3.67,3.67,0,0,0-5.48,0A5.82,5.82,0,0,0,1475.51,817.86Z" transform="translate(-86 -368)"/>
      <path class="cls-12" d="M1500.19,824.8v-9.6l-3.06,6.22h-2.68l-3.06-6.22v9.6h-2.64V810.94H1492l3.78,7.88,3.8-7.88h3.22V824.8Z" transform="translate(-86 -368)"/>
      <path class="cls-12" d="M1511.27,824.8V810.94h5a4.9,4.9,0,0,1,3.23,1,3.3,3.3,0,0,1,1.23,2.66,3.2,3.2,0,0,1-.47,1.75,3.09,3.09,0,0,1-1.39,1.13,3.71,3.71,0,0,1,2,1.25,3.43,3.43,0,0,1,.67,2.13,3.47,3.47,0,0,1-1.34,2.86,5.65,5.65,0,0,1-3.6,1.06Zm2.84-11.72v3.64h1.74c1.29,0,1.94-.6,1.94-1.8a1.6,1.6,0,0,0-1.78-1.84Zm0,5.68v3.9h2.36q2,0,2-1.92c0-1.32-.73-2-2.18-2Z" transform="translate(-86 -368)"/>
    </g>
    <g>
      <path class="cls-12" d="M1515.72,879.66a12.35,12.35,0,0,0,1.48-.1v-3.38h-2.6V874H1520V881a8.89,8.89,0,0,1-2.24.78,12.33,12.33,0,0,1-2.64.28,6.62,6.62,0,0,1-5-1.82,7.16,7.16,0,0,1-1.75-5.18,7.5,7.5,0,0,1,1.81-5.43,7,7,0,0,1,5.25-1.87,9.22,9.22,0,0,1,4.06.82v2.28a12.51,12.51,0,0,0-3.74-.66,4.27,4.27,0,0,0-3.26,1.11,5,5,0,0,0-1,3.49v.36a4.89,4.89,0,0,0,1,3.45A4.32,4.32,0,0,0,1515.72,879.66Z" transform="translate(-86 -368)"/>
      <path class="cls-12" d="M1522.92,881.8V867.94h5.34a4.91,4.91,0,0,1,3.42,1.14,4,4,0,0,1,1.26,3.1,3.72,3.72,0,0,1-.66,2.16,4.37,4.37,0,0,1-1.86,1.5l3.44,6h-3.1l-3-5.38h-2v5.38Zm2.88-7.46h2.08a1.87,1.87,0,0,0,2.1-2.12,1.83,1.83,0,0,0-2.06-2.08h-2.12Z" transform="translate(-86 -368)"/>
      <path class="cls-12" d="M1544.58,881.8l-1-3.16h-4.74l-.94,3.16h-3.14l4.88-13.86h3.3l4.88,13.86Zm-5.08-5.32H1543l-1.76-5.8Z" transform="translate(-86 -368)"/>
      <path class="cls-12" d="M1552.2,872.18v9.62h-2.64V867.94h3.2l5.64,9.7v-9.7H1561V881.8h-3.2Z" transform="translate(-86 -368)"/>
      <path class="cls-12" d="M1564.24,881.8V867.94h5a6.21,6.21,0,0,1,4.77,1.79,8.71,8.71,0,0,1,0,10.26,6.07,6.07,0,0,1-4.71,1.81Zm3-11.54v9.22H1569q3.61,0,3.62-4.42v-.4q0-4.39-3.64-4.4Z" transform="translate(-86 -368)"/>
      <path class="cls-12" d="M1481,903.8V889.94h5a4.9,4.9,0,0,1,3.23,1,3.3,3.3,0,0,1,1.23,2.66,3.2,3.2,0,0,1-.47,1.75,3,3,0,0,1-1.39,1.13,3.71,3.71,0,0,1,2,1.25,3.37,3.37,0,0,1,.67,2.13,3.47,3.47,0,0,1-1.34,2.86,5.61,5.61,0,0,1-3.6,1.06Zm2.84-11.72v3.64h1.74c1.29,0,1.94-.6,1.94-1.8s-.59-1.84-1.78-1.84Zm0,5.68v3.9h2.36q2,0,2-1.92c0-1.32-.73-2-2.18-2Z" transform="translate(-86 -368)"/>
      <path class="cls-12" d="M1502,903.8l-1-3.16h-4.74l-.94,3.16h-3.14l4.88-13.86h3.3l4.88,13.86Zm-5.08-5.32h3.48l-1.76-5.8Z" transform="translate(-86 -368)"/>
      <path class="cls-12" d="M1507,903.8V889.94h3V901.4H1516v2.4Z" transform="translate(-86 -368)"/>
      <path class="cls-12" d="M1517.82,903.8V889.94h3V901.4h6.08v2.4Z" transform="translate(-86 -368)"/>
      <path class="cls-12" d="M1528.68,903.8V889.94H1534a4.91,4.91,0,0,1,3.42,1.14,4,4,0,0,1,1.26,3.1,3.72,3.72,0,0,1-.66,2.16,4.37,4.37,0,0,1-1.86,1.5l3.44,6h-3.1l-3-5.38h-2v5.38Zm2.88-7.46h2.08a1.87,1.87,0,0,0,2.1-2.12,1.83,1.83,0,0,0-2.06-2.08h-2.12Z" transform="translate(-86 -368)"/>
      <path class="cls-12" d="M1540.62,896.86a8.69,8.69,0,0,1,.79-3.84,5.75,5.75,0,0,1,2.32-2.53,7.91,7.91,0,0,1,7.23,0,5.78,5.78,0,0,1,2.35,2.49,8.58,8.58,0,0,1,.83,3.91,8.69,8.69,0,0,1-.79,3.84,5.83,5.83,0,0,1-2.32,2.54,7.08,7.08,0,0,1-3.65.9,7.19,7.19,0,0,1-3.58-.86,5.8,5.8,0,0,1-2.35-2.5A8.62,8.62,0,0,1,1540.62,896.86Zm3.08,0a5.87,5.87,0,0,0,.94,3.6,3.65,3.65,0,0,0,5.48,0,7.34,7.34,0,0,0,0-7.19,3.67,3.67,0,0,0-5.48,0A5.82,5.82,0,0,0,1543.7,896.86Z" transform="translate(-86 -368)"/>
      <path class="cls-12" d="M1556.54,896.86a8.69,8.69,0,0,1,.79-3.84,5.75,5.75,0,0,1,2.32-2.53,7.91,7.91,0,0,1,7.23,0,5.78,5.78,0,0,1,2.35,2.49,8.58,8.58,0,0,1,.83,3.91,8.69,8.69,0,0,1-.79,3.84,5.83,5.83,0,0,1-2.32,2.54,7.08,7.08,0,0,1-3.65.9,7.19,7.19,0,0,1-3.58-.86,5.8,5.8,0,0,1-2.35-2.5A8.62,8.62,0,0,1,1556.54,896.86Zm3.08,0a5.87,5.87,0,0,0,.94,3.6,3.65,3.65,0,0,0,5.48,0,7.34,7.34,0,0,0,0-7.19,3.67,3.67,0,0,0-5.48,0A5.82,5.82,0,0,0,1559.62,896.86Z" transform="translate(-86 -368)"/>
      <path class="cls-12" d="M1584.3,903.8v-9.6l-3.06,6.22h-2.68l-3.06-6.22v9.6h-2.64V889.94h3.28l3.78,7.88,3.8-7.88h3.22V903.8Z" transform="translate(-86 -368)"/>
      <path class="cls-12" d="M1595.38,903.8V889.94h8.72v2.32h-5.72v3.48h4.56v2.32h-4.56v5.74Z" transform="translate(-86 -368)"/>
    </g>
    <g>
      <path class="cls-12" d="M1630.53,960.66a12.35,12.35,0,0,0,1.48-.1v-3.38h-2.6V955h5.36V962a8.89,8.89,0,0,1-2.24.78,12.33,12.33,0,0,1-2.64.28,6.62,6.62,0,0,1-5-1.82,7.16,7.16,0,0,1-1.75-5.18,7.5,7.5,0,0,1,1.81-5.43,7,7,0,0,1,5.25-1.87,9.22,9.22,0,0,1,4.06.82v2.28a12.51,12.51,0,0,0-3.74-.66,4.27,4.27,0,0,0-3.26,1.11,5,5,0,0,0-1,3.49v.36a4.89,4.89,0,0,0,1,3.45A4.32,4.32,0,0,0,1630.53,960.66Z" transform="translate(-86 -368)"/>
      <path class="cls-12" d="M1637.73,962.8V948.94h5.34a4.91,4.91,0,0,1,3.42,1.14,4,4,0,0,1,1.26,3.1,3.72,3.72,0,0,1-.66,2.16,4.37,4.37,0,0,1-1.86,1.5l3.44,6h-3.1l-3-5.38h-2v5.38Zm2.88-7.46h2.08a1.87,1.87,0,0,0,2.1-2.12,1.83,1.83,0,0,0-2.06-2.08h-2.12Z" transform="translate(-86 -368)"/>
      <path class="cls-12" d="M1659.39,962.8l-1-3.16h-4.74l-.94,3.16h-3.14l4.88-13.86h3.3l4.88,13.86Zm-5.08-5.32h3.48l-1.76-5.8Z" transform="translate(-86 -368)"/>
      <path class="cls-12" d="M1667,953.18v9.62h-2.64V948.94h3.2l5.64,9.7v-9.7h2.64V962.8h-3.2Z" transform="translate(-86 -368)"/>
      <path class="cls-12" d="M1679.05,962.8V948.94h5a6.24,6.24,0,0,1,4.77,1.79,8.71,8.71,0,0,1,0,10.26,6.1,6.1,0,0,1-4.71,1.81Zm3-11.54v9.22h1.72q3.62,0,3.62-4.42v-.4c0-2.93-1.22-4.4-3.64-4.4Z" transform="translate(-86 -368)"/>
      <path class="cls-12" d="M1594.14,984.8V970.94h5a4.9,4.9,0,0,1,3.23,1,3.3,3.3,0,0,1,1.23,2.66,3.2,3.2,0,0,1-.47,1.75,3,3,0,0,1-1.39,1.13,3.71,3.71,0,0,1,2,1.25,3.37,3.37,0,0,1,.67,2.13,3.47,3.47,0,0,1-1.34,2.86,5.61,5.61,0,0,1-3.6,1.06Zm2.84-11.72v3.64h1.74c1.29,0,1.94-.6,1.94-1.8s-.59-1.84-1.78-1.84Zm0,5.68v3.9h2.36q2,0,2-1.92c0-1.32-.73-2-2.18-2Z" transform="translate(-86 -368)"/>
      <path class="cls-12" d="M1615.1,984.8l-1-3.16h-4.74l-.94,3.16h-3.14l4.88-13.86h3.3l4.88,13.86Zm-5.08-5.32h3.48l-1.76-5.8Z" transform="translate(-86 -368)"/>
      <path class="cls-12" d="M1620.08,984.8V970.94h3V982.4h6.08v2.4Z" transform="translate(-86 -368)"/>
      <path class="cls-12" d="M1630.94,984.8V970.94h3V982.4H1640v2.4Z" transform="translate(-86 -368)"/>
      <path class="cls-12" d="M1641.8,984.8V970.94h5.34a4.91,4.91,0,0,1,3.42,1.14,4,4,0,0,1,1.26,3.1,3.72,3.72,0,0,1-.66,2.16,4.37,4.37,0,0,1-1.86,1.5l3.44,6h-3.1l-3-5.38h-2v5.38Zm2.88-7.46h2.08a1.87,1.87,0,0,0,2.1-2.12,1.83,1.83,0,0,0-2.06-2.08h-2.12Z" transform="translate(-86 -368)"/>
      <path class="cls-12" d="M1653.74,977.86a8.69,8.69,0,0,1,.79-3.84,5.69,5.69,0,0,1,2.32-2.53,7.91,7.91,0,0,1,7.23,0,5.84,5.84,0,0,1,2.35,2.49,8.58,8.58,0,0,1,.83,3.91,8.83,8.83,0,0,1-.79,3.84,5.83,5.83,0,0,1-2.32,2.54,7.08,7.08,0,0,1-3.65.9,7.16,7.16,0,0,1-3.58-.86,5.75,5.75,0,0,1-2.35-2.5A8.5,8.5,0,0,1,1653.74,977.86Zm3.08,0a5.87,5.87,0,0,0,.94,3.6,3.65,3.65,0,0,0,5.48,0,7.34,7.34,0,0,0,0-7.19,3.67,3.67,0,0,0-5.48,0A5.82,5.82,0,0,0,1656.82,977.86Z" transform="translate(-86 -368)"/>
      <path class="cls-12" d="M1669.66,977.86a8.69,8.69,0,0,1,.79-3.84,5.69,5.69,0,0,1,2.32-2.53,7.91,7.91,0,0,1,7.23,0,5.84,5.84,0,0,1,2.35,2.49,8.58,8.58,0,0,1,.83,3.91,8.83,8.83,0,0,1-.79,3.84,5.83,5.83,0,0,1-2.32,2.54,7.08,7.08,0,0,1-3.65.9,7.16,7.16,0,0,1-3.58-.86,5.75,5.75,0,0,1-2.35-2.5A8.5,8.5,0,0,1,1669.66,977.86Zm3.08,0a5.87,5.87,0,0,0,.94,3.6,3.65,3.65,0,0,0,5.48,0,7.34,7.34,0,0,0,0-7.19,3.67,3.67,0,0,0-5.48,0A5.82,5.82,0,0,0,1672.74,977.86Z" transform="translate(-86 -368)"/>
      <path class="cls-12" d="M1697.42,984.8v-9.6l-3.06,6.22h-2.68l-3.06-6.22v9.6H1686V970.94h3.28l3.78,7.88,3.8-7.88h3.22V984.8Z" transform="translate(-86 -368)"/>
      <path class="cls-12" d="M1715.48,982.66a12.48,12.48,0,0,0,1.48-.1v-3.38h-2.6V977h5.36V984a9,9,0,0,1-2.24.78,12.33,12.33,0,0,1-2.64.28,6.6,6.6,0,0,1-5-1.82,7.16,7.16,0,0,1-1.75-5.18,7.5,7.5,0,0,1,1.81-5.43,6.94,6.94,0,0,1,5.25-1.87,9.25,9.25,0,0,1,4.06.82v2.28a12.56,12.56,0,0,0-3.74-.66,4.27,4.27,0,0,0-3.26,1.11,4.94,4.94,0,0,0-1,3.49v.36a4.89,4.89,0,0,0,1,3.45A4.29,4.29,0,0,0,1715.48,982.66Z" transform="translate(-86 -368)"/>
    </g>
    <g>
      <path class="cls-12" d="M1434.53,1024.66a12.35,12.35,0,0,0,1.48-.1v-3.38h-2.6V1019h5.36V1026a8.89,8.89,0,0,1-2.24.78,12.33,12.33,0,0,1-2.64.28,6.62,6.62,0,0,1-5-1.82,7.16,7.16,0,0,1-1.75-5.18,7.5,7.5,0,0,1,1.81-5.43,7,7,0,0,1,5.25-1.87,9.22,9.22,0,0,1,4.06.82v2.28a12.51,12.51,0,0,0-3.74-.66,4.27,4.27,0,0,0-3.26,1.11,5,5,0,0,0-1,3.49v.36a4.89,4.89,0,0,0,1,3.45A4.32,4.32,0,0,0,1434.53,1024.66Z" transform="translate(-86 -368)"/>
      <path class="cls-12" d="M1441.73,1026.8v-13.86h5.34a4.91,4.91,0,0,1,3.42,1.14,4,4,0,0,1,1.26,3.1,3.72,3.72,0,0,1-.66,2.16,4.37,4.37,0,0,1-1.86,1.5l3.44,6h-3.1l-3-5.38h-2v5.38Zm2.88-7.46h2.08a1.87,1.87,0,0,0,2.1-2.12,1.83,1.83,0,0,0-2.06-2.08h-2.12Z" transform="translate(-86 -368)"/>
      <path class="cls-12" d="M1463.39,1026.8l-1-3.16h-4.74l-.94,3.16h-3.14l4.88-13.86h3.3l4.88,13.86Zm-5.08-5.32h3.48l-1.76-5.8Z" transform="translate(-86 -368)"/>
      <path class="cls-12" d="M1471,1017.18v9.62h-2.64v-13.86h3.2l5.64,9.7v-9.7h2.64v13.86h-3.2Z" transform="translate(-86 -368)"/>
      <path class="cls-12" d="M1483.05,1026.8v-13.86h5a6.24,6.24,0,0,1,4.77,1.79,8.71,8.71,0,0,1,0,10.26,6.1,6.1,0,0,1-4.71,1.81Zm3-11.54v9.22h1.72q3.62,0,3.62-4.42v-.4c0-2.93-1.22-4.4-3.64-4.4Z" transform="translate(-86 -368)"/>
      <path class="cls-12" d="M1398.12,1048.8v-13.86h5a4.9,4.9,0,0,1,3.23,1,3.3,3.3,0,0,1,1.23,2.66,3.2,3.2,0,0,1-.47,1.75,3,3,0,0,1-1.39,1.13,3.71,3.71,0,0,1,2,1.25,3.37,3.37,0,0,1,.67,2.13,3.47,3.47,0,0,1-1.34,2.86,5.61,5.61,0,0,1-3.6,1.06Zm2.84-11.72v3.64h1.74c1.29,0,1.94-.6,1.94-1.8s-.59-1.84-1.78-1.84Zm0,5.68v3.9h2.36q2,0,2-1.92c0-1.32-.73-2-2.18-2Z" transform="translate(-86 -368)"/>
      <path class="cls-12" d="M1419.08,1048.8l-1-3.16h-4.74l-.94,3.16h-3.14l4.88-13.86h3.3l4.88,13.86Zm-5.08-5.32h3.48l-1.76-5.8Z" transform="translate(-86 -368)"/>
      <path class="cls-12" d="M1424.06,1048.8v-13.86h3v11.46h6.08v2.4Z" transform="translate(-86 -368)"/>
      <path class="cls-12" d="M1434.92,1048.8v-13.86h3v11.46H1444v2.4Z" transform="translate(-86 -368)"/>
      <path class="cls-12" d="M1445.78,1048.8v-13.86h5.34a4.91,4.91,0,0,1,3.42,1.14,4,4,0,0,1,1.26,3.1,3.72,3.72,0,0,1-.66,2.16,4.37,4.37,0,0,1-1.86,1.5l3.44,6h-3.1l-3-5.38h-2v5.38Zm2.88-7.46h2.08a1.87,1.87,0,0,0,2.1-2.12,1.83,1.83,0,0,0-2.06-2.08h-2.12Z" transform="translate(-86 -368)"/>
      <path class="cls-12" d="M1457.72,1041.86a8.69,8.69,0,0,1,.79-3.84,5.69,5.69,0,0,1,2.32-2.53,7.91,7.91,0,0,1,7.23,0,5.84,5.84,0,0,1,2.35,2.49,8.58,8.58,0,0,1,.83,3.91,8.83,8.83,0,0,1-.79,3.84,5.83,5.83,0,0,1-2.32,2.54,7.08,7.08,0,0,1-3.65.9,7.16,7.16,0,0,1-3.58-.86,5.75,5.75,0,0,1-2.35-2.5A8.5,8.5,0,0,1,1457.72,1041.86Zm3.08,0a5.87,5.87,0,0,0,.94,3.6,3.65,3.65,0,0,0,5.48,0,7.34,7.34,0,0,0,0-7.19,3.67,3.67,0,0,0-5.48,0A5.82,5.82,0,0,0,1460.8,1041.86Z" transform="translate(-86 -368)"/>
      <path class="cls-12" d="M1473.64,1041.86a8.69,8.69,0,0,1,.79-3.84,5.69,5.69,0,0,1,2.32-2.53,7.91,7.91,0,0,1,7.23,0,5.84,5.84,0,0,1,2.35,2.49,8.58,8.58,0,0,1,.83,3.91,8.83,8.83,0,0,1-.79,3.84,5.83,5.83,0,0,1-2.32,2.54,7.08,7.08,0,0,1-3.65.9,7.16,7.16,0,0,1-3.58-.86,5.75,5.75,0,0,1-2.35-2.5A8.5,8.5,0,0,1,1473.64,1041.86Zm3.08,0a5.87,5.87,0,0,0,.94,3.6,3.65,3.65,0,0,0,5.48,0,7.34,7.34,0,0,0,0-7.19,3.67,3.67,0,0,0-5.48,0A5.82,5.82,0,0,0,1476.72,1041.86Z" transform="translate(-86 -368)"/>
      <path class="cls-12" d="M1501.4,1048.8v-9.6l-3.06,6.22h-2.68l-3.06-6.22v9.6H1490v-13.86h3.28l3.78,7.88,3.8-7.88H1504v13.86Z" transform="translate(-86 -368)"/>
      <path class="cls-12" d="M1512.48,1048.8v-13.86h5a6.24,6.24,0,0,1,4.77,1.79,8.71,8.71,0,0,1,0,10.26,6.1,6.1,0,0,1-4.71,1.81Zm3-11.54v9.22h1.72q3.61,0,3.62-4.42v-.4c0-2.93-1.22-4.4-3.64-4.4Z" transform="translate(-86 -368)"/>
    </g>
  </g>
</svg>
